%!PS-Adobe-3.0
%%Creator: graphviz version 2.26.3 (20100126.1600)
%%Title: G
%%Pages: (atend)
%%BoundingBox: (atend)
%%EndComments
save
%%BeginProlog
/DotDict 200 dict def
DotDict begin

/setupLatin1 {
mark
/EncodingVector 256 array def
 EncodingVector 0

ISOLatin1Encoding 0 255 getinterval putinterval
EncodingVector 45 /hyphen put

% Set up ISO Latin 1 character encoding
/starnetISO {
        dup dup findfont dup length dict begin
        { 1 index /FID ne { def }{ pop pop } ifelse
        } forall
        /Encoding EncodingVector def
        currentdict end definefont
} def
/Times-Roman starnetISO def
/Times-Italic starnetISO def
/Times-Bold starnetISO def
/Times-BoldItalic starnetISO def
/Helvetica starnetISO def
/Helvetica-Oblique starnetISO def
/Helvetica-Bold starnetISO def
/Helvetica-BoldOblique starnetISO def
/Courier starnetISO def
/Courier-Oblique starnetISO def
/Courier-Bold starnetISO def
/Courier-BoldOblique starnetISO def
cleartomark
} bind def

%%BeginResource: procset graphviz 0 0
/coord-font-family /Times-Roman def
/default-font-family /Times-Roman def
/coordfont coord-font-family findfont 8 scalefont def

/InvScaleFactor 1.0 def
/set_scale {
       dup 1 exch div /InvScaleFactor exch def
       scale
} bind def

% styles
/solid { [] 0 setdash } bind def
/dashed { [9 InvScaleFactor mul dup ] 0 setdash } bind def
/dotted { [1 InvScaleFactor mul 6 InvScaleFactor mul] 0 setdash } bind def
/invis {/fill {newpath} def /stroke {newpath} def /show {pop newpath} def} bind def
/bold { 2 setlinewidth } bind def
/filled { } bind def
/unfilled { } bind def
/rounded { } bind def
/diagonals { } bind def

% hooks for setting color 
/nodecolor { sethsbcolor } bind def
/edgecolor { sethsbcolor } bind def
/graphcolor { sethsbcolor } bind def
/nopcolor {pop pop pop} bind def

/beginpage {	% i j npages
	/npages exch def
	/j exch def
	/i exch def
	/str 10 string def
	npages 1 gt {
		gsave
			coordfont setfont
			0 0 moveto
			(\() show i str cvs show (,) show j str cvs show (\)) show
		grestore
	} if
} bind def

/set_font {
	findfont exch
	scalefont setfont
} def

% draw text fitted to its expected width
/alignedtext {			% width text
	/text exch def
	/width exch def
	gsave
		width 0 gt {
			[] 0 setdash
			text stringwidth pop width exch sub text length div 0 text ashow
		} if
	grestore
} def

/boxprim {				% xcorner ycorner xsize ysize
		4 2 roll
		moveto
		2 copy
		exch 0 rlineto
		0 exch rlineto
		pop neg 0 rlineto
		closepath
} bind def

/ellipse_path {
	/ry exch def
	/rx exch def
	/y exch def
	/x exch def
	matrix currentmatrix
	newpath
	x y translate
	rx ry scale
	0 0 1 0 360 arc
	setmatrix
} bind def

/endpage { showpage } bind def
/showpage { } def

/layercolorseq
	[	% layer color sequence - darkest to lightest
		[0 0 0]
		[.2 .8 .8]
		[.4 .8 .8]
		[.6 .8 .8]
		[.8 .8 .8]
	]
def

/layerlen layercolorseq length def

/setlayer {/maxlayer exch def /curlayer exch def
	layercolorseq curlayer 1 sub layerlen mod get
	aload pop sethsbcolor
	/nodecolor {nopcolor} def
	/edgecolor {nopcolor} def
	/graphcolor {nopcolor} def
} bind def

/onlayer { curlayer ne {invis} if } def

/onlayers {
	/myupper exch def
	/mylower exch def
	curlayer mylower lt
	curlayer myupper gt
	or
	{invis} if
} def

/curlayer 0 def

%%EndResource
%%EndProlog
%%BeginSetup
14 default-font-family set_font
1 setmiterlimit
% /arrowlength 10 def
% /arrowwidth 5 def

% make sure pdfmark is harmless for PS-interpreters other than Distiller
/pdfmark where {pop} {userdict /pdfmark /cleartomark load put} ifelse
% make '<<' and '>>' safe on PS Level 1 devices
/languagelevel where {pop languagelevel}{1} ifelse
2 lt {
    userdict (<<) cvn ([) cvn load put
    userdict (>>) cvn ([) cvn load put
} if

%%EndSetup
setupLatin1
%%Page: 1 1
%%PageBoundingBox: 36 36 798 182
%%PageOrientation: Portrait
0 0 1 beginpage
gsave
36 36 762 146 boxprim clip newpath
1 1 set_scale 0 rotate 40 41 translate
% Node1
gsave
0 0 0.74902 nodecolor
newpath 339 116.5 moveto
339 137.5 lineto
465 137.5 lineto
465 116.5 lineto
closepath fill
1 setlinewidth
filled
0 0 0 nodecolor
newpath 339 116.5 moveto
339 137.5 lineto
465 137.5 lineto
465 116.5 lineto
closepath stroke
0 0 0 nodecolor
10 /Helvetica set_font
347 124.5 moveto 110 (action_server_interface.h) alignedtext
grestore
% Node2
gsave
[ /Rect [ 227 58 355 80 ]
  /Border [ 0 0 0 ]
  /Action << /Subtype /URI /URI ($queueing__action__server_8h.html) >>
  /Subtype /Link
/ANN pdfmark
0 0 1 nodecolor
newpath 227 58.5 moveto
227 79.5 lineto
355 79.5 lineto
355 58.5 lineto
closepath fill
1 setlinewidth
filled
0 0 0 nodecolor
newpath 227 58.5 moveto
227 79.5 lineto
355 79.5 lineto
355 58.5 lineto
closepath stroke
0 0 0 nodecolor
10 /Helvetica set_font
235 66.5 moveto 112 (queueing_action_server.h) alignedtext
grestore
% Node1->Node2
gsave
1 setlinewidth
solid
0.66667 0.77647 0.43922 edgecolor
newpath 372.9 111.79 moveto
353.53 101.67 328.58 88.63 311.33 79.62 curveto
stroke
0.66667 0.77647 0.43922 edgecolor
newpath 371.41 114.97 moveto
381.9 116.5 lineto
374.66 108.76 lineto
closepath fill
1 setlinewidth
solid
0.66667 0.77647 0.43922 edgecolor
newpath 371.41 114.97 moveto
381.9 116.5 lineto
374.66 108.76 lineto
closepath stroke
grestore
% Node3
gsave
[ /Rect [ 0 0 204 22 ]
  /Border [ 0 0 0 ]
  /Action << /Subtype /URI /URI ($queueing__action__server__deadlock__test_8cpp.html) >>
  /Subtype /Link
/ANN pdfmark
0 0 1 nodecolor
newpath 0 .5 moveto
0 21.5 lineto
204 21.5 lineto
204 .5 lineto
closepath fill
1 setlinewidth
filled
0 0 0 nodecolor
newpath 0 .5 moveto
0 21.5 lineto
204 21.5 lineto
204 .5 lineto
closepath stroke
0 0 0 nodecolor
10 /Helvetica set_font
8 8.5 moveto 188 (queueing_action_server_deadlock_test.cpp) alignedtext
grestore
% Node1->Node3
gsave
1 setlinewidth
solid
0.66667 0.77647 0.43922 edgecolor
newpath 332.85 114.25 moveto
297.68 106.55 254.72 95.24 218 80 curveto
179.26 63.92 137.98 36.59 116.66 21.61 curveto
stroke
0.66667 0.77647 0.43922 edgecolor
newpath 332.51 117.76 moveto
343.02 116.43 lineto
333.97 110.92 lineto
closepath fill
1 setlinewidth
solid
0.66667 0.77647 0.43922 edgecolor
newpath 332.51 117.76 moveto
343.02 116.43 lineto
333.97 110.92 lineto
closepath stroke
grestore
% Node4
gsave
[ /Rect [ 222 0 382 22 ]
  /Border [ 0 0 0 ]
  /Action << /Subtype /URI /URI ($queueing__action__server__test_8cpp.html) >>
  /Subtype /Link
/ANN pdfmark
0 0 1 nodecolor
newpath 222 .5 moveto
222 21.5 lineto
382 21.5 lineto
382 .5 lineto
closepath fill
1 setlinewidth
filled
0 0 0 nodecolor
newpath 222 .5 moveto
222 21.5 lineto
382 21.5 lineto
382 .5 lineto
closepath stroke
0 0 0 nodecolor
10 /Helvetica set_font
230 8.5 moveto 144 (queueing_action_server_test.cpp) alignedtext
grestore
% Node1->Node4
gsave
1 setlinewidth
solid
0.66667 0.77647 0.43922 edgecolor
newpath 393.61 106.76 moveto
386.95 92.21 376.67 72.65 364 58 curveto
351.28 43.28 333.25 30.25 319.91 21.67 curveto
stroke
0.66667 0.77647 0.43922 edgecolor
newpath 390.58 108.58 moveto
397.8 116.33 lineto
396.99 105.77 lineto
closepath fill
1 setlinewidth
solid
0.66667 0.77647 0.43922 edgecolor
newpath 390.58 108.58 moveto
397.8 116.33 lineto
396.99 105.77 lineto
closepath stroke
grestore
% Node5
gsave
[ /Rect [ 449 58 563 80 ]
  /Border [ 0 0 0 ]
  /Action << /Subtype /URI /URI ($single__action__server_8h.html) >>
  /Subtype /Link
/ANN pdfmark
0 0 1 nodecolor
newpath 449 58.5 moveto
449 79.5 lineto
563 79.5 lineto
563 58.5 lineto
closepath fill
1 setlinewidth
filled
0 0 0 nodecolor
newpath 449 58.5 moveto
449 79.5 lineto
563 79.5 lineto
563 58.5 lineto
closepath stroke
0 0 0 nodecolor
10 /Helvetica set_font
457 66.5 moveto 98 (single_action_server.h) alignedtext
grestore
% Node1->Node5
gsave
1 setlinewidth
solid
0.66667 0.77647 0.43922 edgecolor
newpath 430.01 111.38 moveto
448.08 101.3 471.1 88.46 487.05 79.57 curveto
stroke
0.66667 0.77647 0.43922 edgecolor
newpath 428.1 108.43 moveto
421.08 116.36 lineto
431.51 114.55 lineto
closepath fill
1 setlinewidth
solid
0.66667 0.77647 0.43922 edgecolor
newpath 428.1 108.43 moveto
421.08 116.36 lineto
431.51 114.55 lineto
closepath stroke
grestore
% Node6
gsave
[ /Rect [ 400 0 590 22 ]
  /Border [ 0 0 0 ]
  /Action << /Subtype /URI /URI ($single__action__server__deadlock__test_8cpp.html) >>
  /Subtype /Link
/ANN pdfmark
0 0 1 nodecolor
newpath 399.5 .5 moveto
399.5 21.5 lineto
590.5 21.5 lineto
590.5 .5 lineto
closepath fill
1 setlinewidth
filled
0 0 0 nodecolor
newpath 399.5 .5 moveto
399.5 21.5 lineto
590.5 21.5 lineto
590.5 .5 lineto
closepath stroke
0 0 0 nodecolor
10 /Helvetica set_font
407.5 8.5 moveto 175 (single_action_server_deadlock_test.cpp) alignedtext
grestore
% Node1->Node6
gsave
1 setlinewidth
solid
0.66667 0.77647 0.43922 edgecolor
newpath 410.65 106.98 moveto
417.44 92.54 427.77 73.02 440 58 curveto
451.58 43.78 467.84 30.49 479.68 21.7 curveto
stroke
0.66667 0.77647 0.43922 edgecolor
newpath 407.3 105.91 moveto
406.36 116.46 lineto
413.67 108.8 lineto
closepath fill
1 setlinewidth
solid
0.66667 0.77647 0.43922 edgecolor
newpath 407.3 105.91 moveto
406.36 116.46 lineto
413.67 108.8 lineto
closepath stroke
grestore
% Node7
gsave
[ /Rect [ 608 0 754 22 ]
  /Border [ 0 0 0 ]
  /Action << /Subtype /URI /URI ($single__action__server__test_8cpp.html) >>
  /Subtype /Link
/ANN pdfmark
0 0 1 nodecolor
newpath 608 .5 moveto
608 21.5 lineto
754 21.5 lineto
754 .5 lineto
closepath fill
1 setlinewidth
filled
0 0 0 nodecolor
newpath 608 .5 moveto
608 21.5 lineto
754 21.5 lineto
754 .5 lineto
closepath stroke
0 0 0 nodecolor
10 /Helvetica set_font
616 8.5 moveto 130 (single_action_server_test.cpp) alignedtext
grestore
% Node1->Node7
gsave
1 setlinewidth
solid
0.66667 0.77647 0.43922 edgecolor
newpath 465.35 114.18 moveto
498 106.41 538 95.06 572 80 curveto
608.65 63.76 647.34 36.5 667.3 21.56 curveto
stroke
0.66667 0.77647 0.43922 edgecolor
newpath 464.42 110.8 moveto
455.47 116.48 lineto
466 117.62 lineto
closepath fill
1 setlinewidth
solid
0.66667 0.77647 0.43922 edgecolor
newpath 464.42 110.8 moveto
455.47 116.48 lineto
466 117.62 lineto
closepath stroke
grestore
% Node2->Node3
gsave
1 setlinewidth
solid
0.66667 0.77647 0.43922 edgecolor
newpath 247.16 55.55 moveto
213.4 45.19 167.39 31.07 136.29 21.52 curveto
stroke
0.66667 0.77647 0.43922 edgecolor
newpath 246.19 58.91 moveto
256.77 58.5 lineto
248.24 52.22 lineto
closepath fill
1 setlinewidth
solid
0.66667 0.77647 0.43922 edgecolor
newpath 246.19 58.91 moveto
256.77 58.5 lineto
248.24 52.22 lineto
closepath stroke
grestore
% Node2->Node4
gsave
1 setlinewidth
solid
0.66667 0.77647 0.43922 edgecolor
newpath 294.89 48.49 moveto
296.62 39.39 298.57 29.08 300 21.57 curveto
stroke
0.66667 0.77647 0.43922 edgecolor
newpath 291.44 47.88 moveto
293.02 58.36 lineto
298.32 49.19 lineto
closepath fill
1 setlinewidth
solid
0.66667 0.77647 0.43922 edgecolor
newpath 291.44 47.88 moveto
293.02 58.36 lineto
298.32 49.19 lineto
closepath stroke
grestore
% Node5->Node6
gsave
1 setlinewidth
solid
0.66667 0.77647 0.43922 edgecolor
newpath 502.11 48.49 moveto
500.38 39.39 498.43 29.08 497 21.57 curveto
stroke
0.66667 0.77647 0.43922 edgecolor
newpath 498.68 49.19 moveto
503.98 58.36 lineto
505.56 47.88 lineto
closepath fill
1 setlinewidth
solid
0.66667 0.77647 0.43922 edgecolor
newpath 498.68 49.19 moveto
503.98 58.36 lineto
505.56 47.88 lineto
closepath stroke
grestore
% Node5->Node7
gsave
1 setlinewidth
solid
0.66667 0.77647 0.43922 edgecolor
newpath 547.4 55.28 moveto
578.58 44.94 620.7 30.98 649.25 21.52 curveto
stroke
0.66667 0.77647 0.43922 edgecolor
newpath 546.08 52.03 moveto
537.69 58.5 lineto
548.28 58.67 lineto
closepath fill
1 setlinewidth
solid
0.66667 0.77647 0.43922 edgecolor
newpath 546.08 52.03 moveto
537.69 58.5 lineto
548.28 58.67 lineto
closepath stroke
grestore
endpage
showpage
grestore
%%PageTrailer
%%EndPage: 1
%%Trailer
%%Pages: 1
%%BoundingBox: 36 36 798 182
end
restore
%%EOF
