%!PS-Adobe-3.0
%%Creator: graphviz version 2.26.3 (20100126.1600)
%%Title: G
%%Pages: (atend)
%%BoundingBox: (atend)
%%EndComments
save
%%BeginProlog
/DotDict 200 dict def
DotDict begin

/setupLatin1 {
mark
/EncodingVector 256 array def
 EncodingVector 0

ISOLatin1Encoding 0 255 getinterval putinterval
EncodingVector 45 /hyphen put

% Set up ISO Latin 1 character encoding
/starnetISO {
        dup dup findfont dup length dict begin
        { 1 index /FID ne { def }{ pop pop } ifelse
        } forall
        /Encoding EncodingVector def
        currentdict end definefont
} def
/Times-Roman starnetISO def
/Times-Italic starnetISO def
/Times-Bold starnetISO def
/Times-BoldItalic starnetISO def
/Helvetica starnetISO def
/Helvetica-Oblique starnetISO def
/Helvetica-Bold starnetISO def
/Helvetica-BoldOblique starnetISO def
/Courier starnetISO def
/Courier-Oblique starnetISO def
/Courier-Bold starnetISO def
/Courier-BoldOblique starnetISO def
cleartomark
} bind def

%%BeginResource: procset graphviz 0 0
/coord-font-family /Times-Roman def
/default-font-family /Times-Roman def
/coordfont coord-font-family findfont 8 scalefont def

/InvScaleFactor 1.0 def
/set_scale {
       dup 1 exch div /InvScaleFactor exch def
       scale
} bind def

% styles
/solid { [] 0 setdash } bind def
/dashed { [9 InvScaleFactor mul dup ] 0 setdash } bind def
/dotted { [1 InvScaleFactor mul 6 InvScaleFactor mul] 0 setdash } bind def
/invis {/fill {newpath} def /stroke {newpath} def /show {pop newpath} def} bind def
/bold { 2 setlinewidth } bind def
/filled { } bind def
/unfilled { } bind def
/rounded { } bind def
/diagonals { } bind def

% hooks for setting color 
/nodecolor { sethsbcolor } bind def
/edgecolor { sethsbcolor } bind def
/graphcolor { sethsbcolor } bind def
/nopcolor {pop pop pop} bind def

/beginpage {	% i j npages
	/npages exch def
	/j exch def
	/i exch def
	/str 10 string def
	npages 1 gt {
		gsave
			coordfont setfont
			0 0 moveto
			(\() show i str cvs show (,) show j str cvs show (\)) show
		grestore
	} if
} bind def

/set_font {
	findfont exch
	scalefont setfont
} def

% draw text fitted to its expected width
/alignedtext {			% width text
	/text exch def
	/width exch def
	gsave
		width 0 gt {
			[] 0 setdash
			text stringwidth pop width exch sub text length div 0 text ashow
		} if
	grestore
} def

/boxprim {				% xcorner ycorner xsize ysize
		4 2 roll
		moveto
		2 copy
		exch 0 rlineto
		0 exch rlineto
		pop neg 0 rlineto
		closepath
} bind def

/ellipse_path {
	/ry exch def
	/rx exch def
	/y exch def
	/x exch def
	matrix currentmatrix
	newpath
	x y translate
	rx ry scale
	0 0 1 0 360 arc
	setmatrix
} bind def

/endpage { showpage } bind def
/showpage { } def

/layercolorseq
	[	% layer color sequence - darkest to lightest
		[0 0 0]
		[.2 .8 .8]
		[.4 .8 .8]
		[.6 .8 .8]
		[.8 .8 .8]
	]
def

/layerlen layercolorseq length def

/setlayer {/maxlayer exch def /curlayer exch def
	layercolorseq curlayer 1 sub layerlen mod get
	aload pop sethsbcolor
	/nodecolor {nopcolor} def
	/edgecolor {nopcolor} def
	/graphcolor {nopcolor} def
} bind def

/onlayer { curlayer ne {invis} if } def

/onlayers {
	/myupper exch def
	/mylower exch def
	curlayer mylower lt
	curlayer myupper gt
	or
	{invis} if
} def

/curlayer 0 def

%%EndResource
%%EndProlog
%%BeginSetup
14 default-font-family set_font
1 setmiterlimit
% /arrowlength 10 def
% /arrowwidth 5 def

% make sure pdfmark is harmless for PS-interpreters other than Distiller
/pdfmark where {pop} {userdict /pdfmark /cleartomark load put} ifelse
% make '<<' and '>>' safe on PS Level 1 devices
/languagelevel where {pop languagelevel}{1} ifelse
2 lt {
    userdict (<<) cvn ([) cvn load put
    userdict (>>) cvn ([) cvn load put
} if

%%EndSetup
setupLatin1
%%Page: 1 1
%%PageBoundingBox: 36 36 1342 182
%%PageOrientation: Portrait
0 0 1 beginpage
gsave
36 36 1306 146 boxprim clip newpath
1 1 set_scale 0 rotate 40 41 translate
% Node1
gsave
0 0 0.74902 nodecolor
newpath 475 116.5 moveto
475 137.5 lineto
603 137.5 lineto
603 116.5 lineto
closepath fill
1 setlinewidth
filled
0 0 0 nodecolor
newpath 475 116.5 moveto
475 137.5 lineto
603 137.5 lineto
603 116.5 lineto
closepath stroke
0 0 0 nodecolor
10 /Helvetica set_font
483 124.5 moveto 112 (queueing_action_server.h) alignedtext
grestore
% Node2
gsave
0 0 1 nodecolor
newpath -.5 58.5 moveto
-.5 79.5 lineto
54.5 79.5 lineto
54.5 58.5 lineto
closepath fill
1 setlinewidth
filled
0 0 0.74902 nodecolor
newpath -.5 58.5 moveto
-.5 79.5 lineto
54.5 79.5 lineto
54.5 58.5 lineto
closepath stroke
0 0 0 nodecolor
10 /Helvetica set_font
7.5 66.5 moveto 39 (ros/ros.h) alignedtext
grestore
% Node1->Node2
gsave
1 setlinewidth
solid
0.66667 0.77647 0.43922 edgecolor
newpath 474.93 123.92 moveto
383.87 118.78 212.09 106.34 68 80 curveto
66.91 79.8 65.81 79.59 64.7 79.36 curveto
stroke
0.66667 0.77647 0.43922 edgecolor
newpath 65.18 75.88 moveto
54.65 77.07 lineto
63.62 82.71 lineto
closepath fill
1 setlinewidth
solid
0.66667 0.77647 0.43922 edgecolor
newpath 65.18 75.88 moveto
54.65 77.07 lineto
63.62 82.71 lineto
closepath stroke
grestore
% Node3
gsave
[ /Rect [ 110 58 312 80 ]
  /Border [ 0 0 0 ]
  /Action << /Subtype /URI /URI ($action__server__interface_8h.html) >>
  /Subtype /Link
/ANN pdfmark
0 0 1 nodecolor
newpath 109.5 58.5 moveto
109.5 79.5 lineto
312.5 79.5 lineto
312.5 58.5 lineto
closepath fill
1 setlinewidth
filled
0 0 0 nodecolor
newpath 109.5 58.5 moveto
109.5 79.5 lineto
312.5 79.5 lineto
312.5 58.5 lineto
closepath stroke
0 0 0 nodecolor
10 /Helvetica set_font
117.5 66.5 moveto 187 (actionlib_servers/action_server_interface.h) alignedtext
grestore
% Node1->Node3
gsave
1 setlinewidth
solid
0.66667 0.77647 0.43922 edgecolor
newpath 479.6 116.5 moveto
423.58 106.59 339.62 91.74 280.51 81.29 curveto
stroke
0.66667 0.77647 0.43922 edgecolor
newpath 280.97 77.82 moveto
270.51 79.52 lineto
279.75 84.71 lineto
closepath fill
1 setlinewidth
solid
0.66667 0.77647 0.43922 edgecolor
newpath 280.97 77.82 moveto
270.51 79.52 lineto
279.75 84.71 lineto
closepath stroke
grestore
% Node4
gsave
0 0 1 nodecolor
newpath 27 .5 moveto
27 21.5 lineto
161 21.5 lineto
161 .5 lineto
closepath fill
1 setlinewidth
filled
0 0 0.74902 nodecolor
newpath 27 .5 moveto
27 21.5 lineto
161 21.5 lineto
161 .5 lineto
closepath stroke
0 0 0 nodecolor
10 /Helvetica set_font
35 8.5 moveto 118 (actionlib/action_definition.h) alignedtext
grestore
% Node1->Node4
gsave
1 setlinewidth
solid
0.66667 0.77647 0.43922 edgecolor
newpath 474.97 124.52 moveto
359.71 119.42 126.85 106 101 80 curveto
88.7 67.63 88.08 47.17 89.86 31.73 curveto
stroke
0.66667 0.77647 0.43922 edgecolor
newpath 93.36 31.99 moveto
91.44 21.57 lineto
86.44 30.91 lineto
closepath fill
1 setlinewidth
solid
0.66667 0.77647 0.43922 edgecolor
newpath 93.36 31.99 moveto
91.44 21.57 lineto
86.44 30.91 lineto
closepath stroke
grestore
% Node5
gsave
0 0 1 nodecolor
newpath 210.5 .5 moveto
210.5 21.5 lineto
251.5 21.5 lineto
251.5 .5 lineto
closepath fill
1 setlinewidth
filled
0 0 0.74902 nodecolor
newpath 210.5 .5 moveto
210.5 21.5 lineto
251.5 21.5 lineto
251.5 .5 lineto
closepath stroke
0 0 0 nodecolor
10 /Helvetica set_font
218.5 8.5 moveto 25 (string) alignedtext
grestore
% Node1->Node5
gsave
1 setlinewidth
solid
0.66667 0.77647 0.43922 edgecolor
newpath 494.2 116.46 moveto
460.63 108.04 413.81 95.15 374 80 curveto
333.03 64.41 287.78 41.57 259.38 26.49 curveto
stroke
0.66667 0.77647 0.43922 edgecolor
newpath 260.89 23.33 moveto
250.42 21.7 lineto
257.59 29.5 lineto
closepath fill
1 setlinewidth
solid
0.66667 0.77647 0.43922 edgecolor
newpath 260.89 23.33 moveto
250.42 21.7 lineto
257.59 29.5 lineto
closepath stroke
grestore
% Node6
gsave
0 0 1 nodecolor
newpath 308.5 .5 moveto
308.5 21.5 lineto
405.5 21.5 lineto
405.5 .5 lineto
closepath fill
1 setlinewidth
filled
0 0 0.74902 nodecolor
newpath 308.5 .5 moveto
308.5 21.5 lineto
405.5 21.5 lineto
405.5 .5 lineto
closepath stroke
0 0 0 nodecolor
10 /Helvetica set_font
316.5 8.5 moveto 81 (boost/function.hpp) alignedtext
grestore
% Node1->Node6
gsave
1 setlinewidth
solid
0.66667 0.77647 0.43922 edgecolor
newpath 475.82 116.44 moveto
449.3 109.53 419.47 98.26 397 80 curveto
381.37 67.3 370.59 46.76 364.19 31.39 curveto
stroke
0.66667 0.77647 0.43922 edgecolor
newpath 367.33 29.79 moveto
360.46 21.73 lineto
360.8 32.32 lineto
closepath fill
1 setlinewidth
solid
0.66667 0.77647 0.43922 edgecolor
newpath 367.33 29.79 moveto
360.46 21.73 lineto
360.8 32.32 lineto
closepath stroke
grestore
% Node7
gsave
0 0 1 nodecolor
newpath 406 58.5 moveto
406 79.5 lineto
558 79.5 lineto
558 58.5 lineto
closepath fill
1 setlinewidth
filled
0 0 0.74902 nodecolor
newpath 406 58.5 moveto
406 79.5 lineto
558 79.5 lineto
558 58.5 lineto
closepath stroke
0 0 0 nodecolor
10 /Helvetica set_font
414 66.5 moveto 136 (actionlib/server/action_server.h) alignedtext
grestore
% Node1->Node7
gsave
1 setlinewidth
solid
0.66667 0.77647 0.43922 edgecolor
newpath 528.55 116.36 moveto
520.43 108.1 509 96.47 499.5 86.8 curveto
stroke
0.66667 0.77647 0.43922 edgecolor
newpath 501.89 84.25 moveto
492.39 79.57 lineto
496.9 89.16 lineto
closepath fill
1 setlinewidth
solid
0.66667 0.77647 0.43922 edgecolor
newpath 501.89 84.25 moveto
492.39 79.57 lineto
496.9 89.16 lineto
closepath stroke
grestore
% Node8
gsave
0 0 1 nodecolor
newpath 575.5 58.5 moveto
575.5 79.5 lineto
618.5 79.5 lineto
618.5 58.5 lineto
closepath fill
1 setlinewidth
filled
0 0 0.74902 nodecolor
newpath 575.5 58.5 moveto
575.5 79.5 lineto
618.5 79.5 lineto
618.5 58.5 lineto
closepath stroke
0 0 0 nodecolor
10 /Helvetica set_font
583.5 66.5 moveto 27 (queue) alignedtext
grestore
% Node1->Node8
gsave
1 setlinewidth
solid
0.66667 0.77647 0.43922 edgecolor
newpath 549.64 116.36 moveto
557.9 108.1 569.53 96.47 579.2 86.8 curveto
stroke
0.66667 0.77647 0.43922 edgecolor
newpath 581.83 89.12 moveto
586.43 79.57 lineto
576.88 84.17 lineto
closepath fill
1 setlinewidth
solid
0.66667 0.77647 0.43922 edgecolor
newpath 581.83 89.12 moveto
586.43 79.57 lineto
576.88 84.17 lineto
closepath stroke
grestore
% Node9
gsave
0 0 1 nodecolor
newpath 636 58.5 moveto
636 79.5 lineto
666 79.5 lineto
666 58.5 lineto
closepath fill
1 setlinewidth
filled
0 0 0.74902 nodecolor
newpath 636 58.5 moveto
636 79.5 lineto
666 79.5 lineto
666 58.5 lineto
closepath stroke
0 0 0 nodecolor
10 /Helvetica set_font
644 66.5 moveto 14 (set) alignedtext
grestore
% Node1->Node9
gsave
1 setlinewidth
solid
0.66667 0.77647 0.43922 edgecolor
newpath 559.28 116.5 moveto
578.33 106.63 606.84 91.87 627.01 81.43 curveto
stroke
0.66667 0.77647 0.43922 edgecolor
newpath 628.62 84.53 moveto
635.89 76.82 lineto
625.4 78.32 lineto
closepath fill
1 setlinewidth
solid
0.66667 0.77647 0.43922 edgecolor
newpath 628.62 84.53 moveto
635.89 76.82 lineto
625.4 78.32 lineto
closepath stroke
grestore
% Node10
gsave
0 0 1 nodecolor
newpath 683.5 58.5 moveto
683.5 79.5 lineto
772.5 79.5 lineto
772.5 58.5 lineto
closepath fill
1 setlinewidth
filled
0 0 0.74902 nodecolor
newpath 683.5 58.5 moveto
683.5 79.5 lineto
772.5 79.5 lineto
772.5 58.5 lineto
closepath stroke
0 0 0 nodecolor
10 /Helvetica set_font
691.5 66.5 moveto 73 (boost/thread.hpp) alignedtext
grestore
% Node1->Node10
gsave
1 setlinewidth
solid
0.66667 0.77647 0.43922 edgecolor
newpath 573.23 116.5 moveto
604.31 106.96 650.31 92.84 684.09 82.48 curveto
stroke
0.66667 0.77647 0.43922 edgecolor
newpath 685.18 85.8 moveto
693.71 79.52 lineto
683.12 79.11 lineto
closepath fill
1 setlinewidth
solid
0.66667 0.77647 0.43922 edgecolor
newpath 685.18 85.8 moveto
693.71 79.52 lineto
683.12 79.11 lineto
closepath stroke
grestore
% Node11
gsave
0 0 1 nodecolor
newpath 789.5 58.5 moveto
789.5 79.5 lineto
920.5 79.5 lineto
920.5 58.5 lineto
closepath fill
1 setlinewidth
filled
0 0 0.74902 nodecolor
newpath 789.5 58.5 moveto
789.5 79.5 lineto
920.5 79.5 lineto
920.5 58.5 lineto
closepath stroke
0 0 0 nodecolor
10 /Helvetica set_font
797.5 66.5 moveto 115 (boost/thread/condition.hpp) alignedtext
grestore
% Node1->Node11
gsave
1 setlinewidth
solid
0.66667 0.77647 0.43922 edgecolor
newpath 596.23 116.5 moveto
650.08 106.61 730.75 91.8 787.68 81.36 curveto
stroke
0.66667 0.77647 0.43922 edgecolor
newpath 788.46 84.77 moveto
797.67 79.52 lineto
787.2 77.89 lineto
closepath fill
1 setlinewidth
solid
0.66667 0.77647 0.43922 edgecolor
newpath 788.46 84.77 moveto
797.67 79.52 lineto
787.2 77.89 lineto
closepath stroke
grestore
% Node12
gsave
0 0 1 nodecolor
newpath 937.5 58.5 moveto
937.5 79.5 lineto
1056.5 79.5 lineto
1056.5 58.5 lineto
closepath fill
1 setlinewidth
filled
0 0 0.74902 nodecolor
newpath 937.5 58.5 moveto
937.5 79.5 lineto
1056.5 79.5 lineto
1056.5 58.5 lineto
closepath stroke
0 0 0 nodecolor
10 /Helvetica set_font
945.5 66.5 moveto 103 (boost/thread/mutex.hpp) alignedtext
grestore
% Node1->Node12
gsave
1 setlinewidth
solid
0.66667 0.77647 0.43922 edgecolor
newpath 603.28 120.06 moveto
678.56 111.75 807.26 96.98 927.22 80.21 curveto
stroke
0.66667 0.77647 0.43922 edgecolor
newpath 927.9 83.65 moveto
937.32 78.79 lineto
926.93 76.72 lineto
closepath fill
1 setlinewidth
solid
0.66667 0.77647 0.43922 edgecolor
newpath 927.9 83.65 moveto
937.32 78.79 lineto
926.93 76.72 lineto
closepath stroke
grestore
% Node13
gsave
[ /Rect [ 1074 58 1298 80 ]
  /Border [ 0 0 0 ]
  /Action << /Subtype /URI /URI ($queueing__action__server__imp_8h.html) >>
  /Subtype /Link
/ANN pdfmark
0 0 1 nodecolor
newpath 1073.5 58.5 moveto
1073.5 79.5 lineto
1298.5 79.5 lineto
1298.5 58.5 lineto
closepath fill
1 setlinewidth
filled
0 0 0 nodecolor
newpath 1073.5 58.5 moveto
1073.5 79.5 lineto
1298.5 79.5 lineto
1298.5 58.5 lineto
closepath stroke
0 0 0 nodecolor
10 /Helvetica set_font
1081.5 66.5 moveto 209 (actionlib_servers/queueing_action_server_imp.h) alignedtext
grestore
% Node1->Node13
gsave
1 setlinewidth
solid
0.66667 0.77647 0.43922 edgecolor
newpath 603.38 121.28 moveto
700.64 112.63 891.15 95.66 1063.28 80.15 curveto
stroke
0.66667 0.77647 0.43922 edgecolor
newpath 1063.64 83.64 moveto
1073.29 79.25 lineto
1063.01 76.66 lineto
closepath fill
1 setlinewidth
solid
0.66667 0.77647 0.43922 edgecolor
newpath 1063.64 83.64 moveto
1073.29 79.25 lineto
1063.01 76.66 lineto
closepath stroke
grestore
% Node3->Node4
gsave
1 setlinewidth
solid
0.66667 0.77647 0.43922 edgecolor
newpath 189.81 58.5 moveto
171.54 49.44 144.93 36.25 124.39 26.06 curveto
stroke
0.66667 0.77647 0.43922 edgecolor
newpath 125.94 22.93 moveto
115.43 21.62 lineto
122.83 29.2 lineto
closepath fill
1 setlinewidth
solid
0.66667 0.77647 0.43922 edgecolor
newpath 125.94 22.93 moveto
115.43 21.62 lineto
122.83 29.2 lineto
closepath stroke
grestore
% Node3->Node5
gsave
1 setlinewidth
solid
0.66667 0.77647 0.43922 edgecolor
newpath 214.67 58.36 moveto
217.29 50.76 220.9 40.29 224.06 31.13 curveto
stroke
0.66667 0.77647 0.43922 edgecolor
newpath 227.4 32.17 moveto
227.35 21.57 lineto
220.79 29.88 lineto
closepath fill
1 setlinewidth
solid
0.66667 0.77647 0.43922 edgecolor
newpath 227.4 32.17 moveto
227.35 21.57 lineto
220.79 29.88 lineto
closepath stroke
grestore
% Node3->Node6
gsave
1 setlinewidth
solid
0.66667 0.77647 0.43922 edgecolor
newpath 237.44 58.5 moveto
260.76 49.23 294.95 35.65 320.8 25.38 curveto
stroke
0.66667 0.77647 0.43922 edgecolor
newpath 322.26 28.57 moveto
330.26 21.62 lineto
319.68 22.06 lineto
closepath fill
1 setlinewidth
solid
0.66667 0.77647 0.43922 edgecolor
newpath 322.26 28.57 moveto
330.26 21.62 lineto
319.68 22.06 lineto
closepath stroke
grestore
endpage
showpage
grestore
%%PageTrailer
%%EndPage: 1
%%Trailer
%%Pages: 1
%%BoundingBox: 36 36 1342 182
end
restore
%%EOF
