%!PS-Adobe-3.0
%%Creator: graphviz version 2.26.3 (20100126.1600)
%%Title: G
%%Pages: (atend)
%%BoundingBox: (atend)
%%EndComments
save
%%BeginProlog
/DotDict 200 dict def
DotDict begin

/setupLatin1 {
mark
/EncodingVector 256 array def
 EncodingVector 0

ISOLatin1Encoding 0 255 getinterval putinterval
EncodingVector 45 /hyphen put

% Set up ISO Latin 1 character encoding
/starnetISO {
        dup dup findfont dup length dict begin
        { 1 index /FID ne { def }{ pop pop } ifelse
        } forall
        /Encoding EncodingVector def
        currentdict end definefont
} def
/Times-Roman starnetISO def
/Times-Italic starnetISO def
/Times-Bold starnetISO def
/Times-BoldItalic starnetISO def
/Helvetica starnetISO def
/Helvetica-Oblique starnetISO def
/Helvetica-Bold starnetISO def
/Helvetica-BoldOblique starnetISO def
/Courier starnetISO def
/Courier-Oblique starnetISO def
/Courier-Bold starnetISO def
/Courier-BoldOblique starnetISO def
cleartomark
} bind def

%%BeginResource: procset graphviz 0 0
/coord-font-family /Times-Roman def
/default-font-family /Times-Roman def
/coordfont coord-font-family findfont 8 scalefont def

/InvScaleFactor 1.0 def
/set_scale {
       dup 1 exch div /InvScaleFactor exch def
       scale
} bind def

% styles
/solid { [] 0 setdash } bind def
/dashed { [9 InvScaleFactor mul dup ] 0 setdash } bind def
/dotted { [1 InvScaleFactor mul 6 InvScaleFactor mul] 0 setdash } bind def
/invis {/fill {newpath} def /stroke {newpath} def /show {pop newpath} def} bind def
/bold { 2 setlinewidth } bind def
/filled { } bind def
/unfilled { } bind def
/rounded { } bind def
/diagonals { } bind def

% hooks for setting color 
/nodecolor { sethsbcolor } bind def
/edgecolor { sethsbcolor } bind def
/graphcolor { sethsbcolor } bind def
/nopcolor {pop pop pop} bind def

/beginpage {	% i j npages
	/npages exch def
	/j exch def
	/i exch def
	/str 10 string def
	npages 1 gt {
		gsave
			coordfont setfont
			0 0 moveto
			(\() show i str cvs show (,) show j str cvs show (\)) show
		grestore
	} if
} bind def

/set_font {
	findfont exch
	scalefont setfont
} def

% draw text fitted to its expected width
/alignedtext {			% width text
	/text exch def
	/width exch def
	gsave
		width 0 gt {
			[] 0 setdash
			text stringwidth pop width exch sub text length div 0 text ashow
		} if
	grestore
} def

/boxprim {				% xcorner ycorner xsize ysize
		4 2 roll
		moveto
		2 copy
		exch 0 rlineto
		0 exch rlineto
		pop neg 0 rlineto
		closepath
} bind def

/ellipse_path {
	/ry exch def
	/rx exch def
	/y exch def
	/x exch def
	matrix currentmatrix
	newpath
	x y translate
	rx ry scale
	0 0 1 0 360 arc
	setmatrix
} bind def

/endpage { showpage } bind def
/showpage { } def

/layercolorseq
	[	% layer color sequence - darkest to lightest
		[0 0 0]
		[.2 .8 .8]
		[.4 .8 .8]
		[.6 .8 .8]
		[.8 .8 .8]
	]
def

/layerlen layercolorseq length def

/setlayer {/maxlayer exch def /curlayer exch def
	layercolorseq curlayer 1 sub layerlen mod get
	aload pop sethsbcolor
	/nodecolor {nopcolor} def
	/edgecolor {nopcolor} def
	/graphcolor {nopcolor} def
} bind def

/onlayer { curlayer ne {invis} if } def

/onlayers {
	/myupper exch def
	/mylower exch def
	curlayer mylower lt
	curlayer myupper gt
	or
	{invis} if
} def

/curlayer 0 def

%%EndResource
%%EndProlog
%%BeginSetup
14 default-font-family set_font
1 setmiterlimit
% /arrowlength 10 def
% /arrowwidth 5 def

% make sure pdfmark is harmless for PS-interpreters other than Distiller
/pdfmark where {pop} {userdict /pdfmark /cleartomark load put} ifelse
% make '<<' and '>>' safe on PS Level 1 devices
/languagelevel where {pop languagelevel}{1} ifelse
2 lt {
    userdict (<<) cvn ([) cvn load put
    userdict (>>) cvn ([) cvn load put
} if

%%EndSetup
setupLatin1
%%Page: 1 1
%%PageBoundingBox: 36 36 398 182
%%PageOrientation: Portrait
0 0 1 beginpage
gsave
36 36 362 146 boxprim clip newpath
1 1 set_scale 0 rotate 40 41 translate
% Node1
gsave
0 0 0.74902 nodecolor
newpath 120.5 116.5 moveto
120.5 137.5 lineto
255.5 137.5 lineto
255.5 116.5 lineto
closepath fill
1 setlinewidth
filled
0 0 0 nodecolor
newpath 120.5 116.5 moveto
120.5 137.5 lineto
255.5 137.5 lineto
255.5 116.5 lineto
closepath stroke
0 0 0 nodecolor
10 /Helvetica set_font
128.5 124.5 moveto 119 (single_action_server_imp.h) alignedtext
grestore
% Node2
gsave
[ /Rect [ 131 58 245 80 ]
  /Border [ 0 0 0 ]
  /Action << /Subtype /URI /URI ($single__action__server_8h.html) >>
  /Subtype /Link
/ANN pdfmark
0 0 1 nodecolor
newpath 131 58.5 moveto
131 79.5 lineto
245 79.5 lineto
245 58.5 lineto
closepath fill
1 setlinewidth
filled
0 0 0 nodecolor
newpath 131 58.5 moveto
131 79.5 lineto
245 79.5 lineto
245 58.5 lineto
closepath stroke
0 0 0 nodecolor
10 /Helvetica set_font
139 66.5 moveto 98 (single_action_server.h) alignedtext
grestore
% Node1->Node2
gsave
1 setlinewidth
solid
0.66667 0.77647 0.43922 edgecolor
newpath 188 106.19 moveto
188 97.17 188 86.99 188 79.57 curveto
stroke
0.66667 0.77647 0.43922 edgecolor
newpath 184.5 106.36 moveto
188 116.36 lineto
191.5 106.36 lineto
closepath fill
1 setlinewidth
solid
0.66667 0.77647 0.43922 edgecolor
newpath 184.5 106.36 moveto
188 116.36 lineto
191.5 106.36 lineto
closepath stroke
grestore
% Node3
gsave
[ /Rect [ 0 0 190 22 ]
  /Border [ 0 0 0 ]
  /Action << /Subtype /URI /URI ($single__action__server__deadlock__test_8cpp.html) >>
  /Subtype /Link
/ANN pdfmark
0 0 1 nodecolor
newpath -.5 .5 moveto
-.5 21.5 lineto
190.5 21.5 lineto
190.5 .5 lineto
closepath fill
1 setlinewidth
filled
0 0 0 nodecolor
newpath -.5 .5 moveto
-.5 21.5 lineto
190.5 21.5 lineto
190.5 .5 lineto
closepath stroke
0 0 0 nodecolor
10 /Helvetica set_font
7.5 8.5 moveto 175 (single_action_server_deadlock_test.cpp) alignedtext
grestore
% Node2->Node3
gsave
1 setlinewidth
solid
0.66667 0.77647 0.43922 edgecolor
newpath 162.06 52.82 moveto
146.04 42.83 125.95 30.3 111.95 21.57 curveto
stroke
0.66667 0.77647 0.43922 edgecolor
newpath 160.61 56.04 moveto
170.94 58.36 lineto
164.31 50.1 lineto
closepath fill
1 setlinewidth
solid
0.66667 0.77647 0.43922 edgecolor
newpath 160.61 56.04 moveto
170.94 58.36 lineto
164.31 50.1 lineto
closepath stroke
grestore
% Node4
gsave
[ /Rect [ 208 0 354 22 ]
  /Border [ 0 0 0 ]
  /Action << /Subtype /URI /URI ($single__action__server__test_8cpp.html) >>
  /Subtype /Link
/ANN pdfmark
0 0 1 nodecolor
newpath 208 .5 moveto
208 21.5 lineto
354 21.5 lineto
354 .5 lineto
closepath fill
1 setlinewidth
filled
0 0 0 nodecolor
newpath 208 .5 moveto
208 21.5 lineto
354 21.5 lineto
354 .5 lineto
closepath stroke
0 0 0 nodecolor
10 /Helvetica set_font
216 8.5 moveto 130 (single_action_server_test.cpp) alignedtext
grestore
% Node2->Node4
gsave
1 setlinewidth
solid
0.66667 0.77647 0.43922 edgecolor
newpath 213.94 52.82 moveto
229.96 42.83 250.05 30.3 264.05 21.57 curveto
stroke
0.66667 0.77647 0.43922 edgecolor
newpath 211.69 50.1 moveto
205.06 58.36 lineto
215.39 56.04 lineto
closepath fill
1 setlinewidth
solid
0.66667 0.77647 0.43922 edgecolor
newpath 211.69 50.1 moveto
205.06 58.36 lineto
215.39 56.04 lineto
closepath stroke
grestore
endpage
showpage
grestore
%%PageTrailer
%%EndPage: 1
%%Trailer
%%Pages: 1
%%BoundingBox: 36 36 398 182
end
restore
%%EOF
