%!PS-Adobe-3.0
%%Creator: graphviz version 2.26.3 (20100126.1600)
%%Title: G
%%Pages: (atend)
%%BoundingBox: (atend)
%%EndComments
save
%%BeginProlog
/DotDict 200 dict def
DotDict begin

/setupLatin1 {
mark
/EncodingVector 256 array def
 EncodingVector 0

ISOLatin1Encoding 0 255 getinterval putinterval
EncodingVector 45 /hyphen put

% Set up ISO Latin 1 character encoding
/starnetISO {
        dup dup findfont dup length dict begin
        { 1 index /FID ne { def }{ pop pop } ifelse
        } forall
        /Encoding EncodingVector def
        currentdict end definefont
} def
/Times-Roman starnetISO def
/Times-Italic starnetISO def
/Times-Bold starnetISO def
/Times-BoldItalic starnetISO def
/Helvetica starnetISO def
/Helvetica-Oblique starnetISO def
/Helvetica-Bold starnetISO def
/Helvetica-BoldOblique starnetISO def
/Courier starnetISO def
/Courier-Oblique starnetISO def
/Courier-Bold starnetISO def
/Courier-BoldOblique starnetISO def
cleartomark
} bind def

%%BeginResource: procset graphviz 0 0
/coord-font-family /Times-Roman def
/default-font-family /Times-Roman def
/coordfont coord-font-family findfont 8 scalefont def

/InvScaleFactor 1.0 def
/set_scale {
       dup 1 exch div /InvScaleFactor exch def
       scale
} bind def

% styles
/solid { [] 0 setdash } bind def
/dashed { [9 InvScaleFactor mul dup ] 0 setdash } bind def
/dotted { [1 InvScaleFactor mul 6 InvScaleFactor mul] 0 setdash } bind def
/invis {/fill {newpath} def /stroke {newpath} def /show {pop newpath} def} bind def
/bold { 2 setlinewidth } bind def
/filled { } bind def
/unfilled { } bind def
/rounded { } bind def
/diagonals { } bind def

% hooks for setting color 
/nodecolor { sethsbcolor } bind def
/edgecolor { sethsbcolor } bind def
/graphcolor { sethsbcolor } bind def
/nopcolor {pop pop pop} bind def

/beginpage {	% i j npages
	/npages exch def
	/j exch def
	/i exch def
	/str 10 string def
	npages 1 gt {
		gsave
			coordfont setfont
			0 0 moveto
			(\() show i str cvs show (,) show j str cvs show (\)) show
		grestore
	} if
} bind def

/set_font {
	findfont exch
	scalefont setfont
} def

% draw text fitted to its expected width
/alignedtext {			% width text
	/text exch def
	/width exch def
	gsave
		width 0 gt {
			[] 0 setdash
			text stringwidth pop width exch sub text length div 0 text ashow
		} if
	grestore
} def

/boxprim {				% xcorner ycorner xsize ysize
		4 2 roll
		moveto
		2 copy
		exch 0 rlineto
		0 exch rlineto
		pop neg 0 rlineto
		closepath
} bind def

/ellipse_path {
	/ry exch def
	/rx exch def
	/y exch def
	/x exch def
	matrix currentmatrix
	newpath
	x y translate
	rx ry scale
	0 0 1 0 360 arc
	setmatrix
} bind def

/endpage { showpage } bind def
/showpage { } def

/layercolorseq
	[	% layer color sequence - darkest to lightest
		[0 0 0]
		[.2 .8 .8]
		[.4 .8 .8]
		[.6 .8 .8]
		[.8 .8 .8]
	]
def

/layerlen layercolorseq length def

/setlayer {/maxlayer exch def /curlayer exch def
	layercolorseq curlayer 1 sub layerlen mod get
	aload pop sethsbcolor
	/nodecolor {nopcolor} def
	/edgecolor {nopcolor} def
	/graphcolor {nopcolor} def
} bind def

/onlayer { curlayer ne {invis} if } def

/onlayers {
	/myupper exch def
	/mylower exch def
	curlayer mylower lt
	curlayer myupper gt
	or
	{invis} if
} def

/curlayer 0 def

%%EndResource
%%EndProlog
%%BeginSetup
14 default-font-family set_font
1 setmiterlimit
% /arrowlength 10 def
% /arrowwidth 5 def

% make sure pdfmark is harmless for PS-interpreters other than Distiller
/pdfmark where {pop} {userdict /pdfmark /cleartomark load put} ifelse
% make '<<' and '>>' safe on PS Level 1 devices
/languagelevel where {pop languagelevel}{1} ifelse
2 lt {
    userdict (<<) cvn ([) cvn load put
    userdict (>>) cvn ([) cvn load put
} if

%%EndSetup
setupLatin1
%%Page: 1 1
%%PageBoundingBox: 36 36 1222 182
%%PageOrientation: Portrait
0 0 1 beginpage
gsave
36 36 1186 146 boxprim clip newpath
1 1 set_scale 0 rotate 40 41 translate
% Node1
gsave
0 0 0.74902 nodecolor
newpath 373 116.5 moveto
373 137.5 lineto
487 137.5 lineto
487 116.5 lineto
closepath fill
1 setlinewidth
filled
0 0 0 nodecolor
newpath 373 116.5 moveto
373 137.5 lineto
487 137.5 lineto
487 116.5 lineto
closepath stroke
0 0 0 nodecolor
10 /Helvetica set_font
381 124.5 moveto 98 (single_action_server.h) alignedtext
grestore
% Node2
gsave
0 0 1 nodecolor
newpath -.5 58.5 moveto
-.5 79.5 lineto
54.5 79.5 lineto
54.5 58.5 lineto
closepath fill
1 setlinewidth
filled
0 0 0.74902 nodecolor
newpath -.5 58.5 moveto
-.5 79.5 lineto
54.5 79.5 lineto
54.5 58.5 lineto
closepath stroke
0 0 0 nodecolor
10 /Helvetica set_font
7.5 66.5 moveto 39 (ros/ros.h) alignedtext
grestore
% Node1->Node2
gsave
1 setlinewidth
solid
0.66667 0.77647 0.43922 edgecolor
newpath 372.88 121.95 moveto
301.21 115.08 174.77 101.16 68 80 curveto
66.92 79.79 65.82 79.56 64.71 79.32 curveto
stroke
0.66667 0.77647 0.43922 edgecolor
newpath 65.21 75.84 moveto
54.67 76.96 lineto
63.6 82.66 lineto
closepath fill
1 setlinewidth
solid
0.66667 0.77647 0.43922 edgecolor
newpath 65.21 75.84 moveto
54.67 76.96 lineto
63.6 82.66 lineto
closepath stroke
grestore
% Node3
gsave
[ /Rect [ 110 58 312 80 ]
  /Border [ 0 0 0 ]
  /Action << /Subtype /URI /URI ($action__server__interface_8h.html) >>
  /Subtype /Link
/ANN pdfmark
0 0 1 nodecolor
newpath 109.5 58.5 moveto
109.5 79.5 lineto
312.5 79.5 lineto
312.5 58.5 lineto
closepath fill
1 setlinewidth
filled
0 0 0 nodecolor
newpath 109.5 58.5 moveto
109.5 79.5 lineto
312.5 79.5 lineto
312.5 58.5 lineto
closepath stroke
0 0 0 nodecolor
10 /Helvetica set_font
117.5 66.5 moveto 187 (actionlib_servers/action_server_interface.h) alignedtext
grestore
% Node1->Node3
gsave
1 setlinewidth
solid
0.66667 0.77647 0.43922 edgecolor
newpath 390.34 116.5 moveto
353.94 106.86 299.87 92.54 260.62 82.14 curveto
stroke
0.66667 0.77647 0.43922 edgecolor
newpath 261.3 78.7 moveto
250.73 79.52 lineto
259.5 85.47 lineto
closepath fill
1 setlinewidth
solid
0.66667 0.77647 0.43922 edgecolor
newpath 261.3 78.7 moveto
250.73 79.52 lineto
259.5 85.47 lineto
closepath stroke
grestore
% Node4
gsave
0 0 1 nodecolor
newpath 27 .5 moveto
27 21.5 lineto
161 21.5 lineto
161 .5 lineto
closepath fill
1 setlinewidth
filled
0 0 0.74902 nodecolor
newpath 27 .5 moveto
27 21.5 lineto
161 21.5 lineto
161 .5 lineto
closepath stroke
0 0 0 nodecolor
10 /Helvetica set_font
35 8.5 moveto 118 (actionlib/action_definition.h) alignedtext
grestore
% Node1->Node4
gsave
1 setlinewidth
solid
0.66667 0.77647 0.43922 edgecolor
newpath 372.74 122.63 moveto
283.51 115.27 119.51 99.28 101 80 curveto
88.99 67.49 88.28 47.21 89.95 31.87 curveto
stroke
0.66667 0.77647 0.43922 edgecolor
newpath 93.45 32.16 moveto
91.47 21.75 lineto
86.53 31.12 lineto
closepath fill
1 setlinewidth
solid
0.66667 0.77647 0.43922 edgecolor
newpath 93.45 32.16 moveto
91.47 21.75 lineto
86.53 31.12 lineto
closepath stroke
grestore
% Node5
gsave
0 0 1 nodecolor
newpath 210.5 .5 moveto
210.5 21.5 lineto
251.5 21.5 lineto
251.5 .5 lineto
closepath fill
1 setlinewidth
filled
0 0 0.74902 nodecolor
newpath 210.5 .5 moveto
210.5 21.5 lineto
251.5 21.5 lineto
251.5 .5 lineto
closepath stroke
0 0 0 nodecolor
10 /Helvetica set_font
218.5 8.5 moveto 25 (string) alignedtext
grestore
% Node1->Node5
gsave
1 setlinewidth
solid
0.66667 0.77647 0.43922 edgecolor
newpath 414.01 116.29 moveto
392.99 102.34 354.76 77.46 321 58 curveto
301.28 46.64 278.57 34.78 260.89 25.82 curveto
stroke
0.66667 0.77647 0.43922 edgecolor
newpath 262.14 22.53 moveto
251.64 21.16 lineto
258.99 28.79 lineto
closepath fill
1 setlinewidth
solid
0.66667 0.77647 0.43922 edgecolor
newpath 262.14 22.53 moveto
251.64 21.16 lineto
258.99 28.79 lineto
closepath stroke
grestore
% Node6
gsave
0 0 1 nodecolor
newpath 308.5 .5 moveto
308.5 21.5 lineto
405.5 21.5 lineto
405.5 .5 lineto
closepath fill
1 setlinewidth
filled
0 0 0.74902 nodecolor
newpath 308.5 .5 moveto
308.5 21.5 lineto
405.5 21.5 lineto
405.5 .5 lineto
closepath stroke
0 0 0 nodecolor
10 /Helvetica set_font
316.5 8.5 moveto 81 (boost/function.hpp) alignedtext
grestore
% Node1->Node6
gsave
1 setlinewidth
solid
0.66667 0.77647 0.43922 edgecolor
newpath 422.13 116.35 moveto
415.27 106.94 405.16 92.77 397 80 curveto
386.58 63.7 375.61 44.63 367.81 30.68 curveto
stroke
0.66667 0.77647 0.43922 edgecolor
newpath 370.86 28.97 moveto
362.95 21.93 lineto
364.74 32.37 lineto
closepath fill
1 setlinewidth
solid
0.66667 0.77647 0.43922 edgecolor
newpath 370.86 28.97 moveto
362.95 21.93 lineto
364.74 32.37 lineto
closepath stroke
grestore
% Node7
gsave
0 0 1 nodecolor
newpath 406 58.5 moveto
406 79.5 lineto
558 79.5 lineto
558 58.5 lineto
closepath fill
1 setlinewidth
filled
0 0 0.74902 nodecolor
newpath 406 58.5 moveto
406 79.5 lineto
558 79.5 lineto
558 58.5 lineto
closepath stroke
0 0 0 nodecolor
10 /Helvetica set_font
414 66.5 moveto 136 (actionlib/server/action_server.h) alignedtext
grestore
% Node1->Node7
gsave
1 setlinewidth
solid
0.66667 0.77647 0.43922 edgecolor
newpath 439.54 116.36 moveto
446.87 108.19 457.16 96.7 465.78 87.09 curveto
stroke
0.66667 0.77647 0.43922 edgecolor
newpath 468.45 89.35 moveto
472.52 79.57 lineto
463.24 84.68 lineto
closepath fill
1 setlinewidth
solid
0.66667 0.77647 0.43922 edgecolor
newpath 468.45 89.35 moveto
472.52 79.57 lineto
463.24 84.68 lineto
closepath stroke
grestore
% Node8
gsave
0 0 1 nodecolor
newpath 575.5 58.5 moveto
575.5 79.5 lineto
664.5 79.5 lineto
664.5 58.5 lineto
closepath fill
1 setlinewidth
filled
0 0 0.74902 nodecolor
newpath 575.5 58.5 moveto
575.5 79.5 lineto
664.5 79.5 lineto
664.5 58.5 lineto
closepath stroke
0 0 0 nodecolor
10 /Helvetica set_font
583.5 66.5 moveto 73 (boost/thread.hpp) alignedtext
grestore
% Node1->Node8
gsave
1 setlinewidth
solid
0.66667 0.77647 0.43922 edgecolor
newpath 464.41 116.5 moveto
495.65 106.96 541.9 92.84 575.86 82.48 curveto
stroke
0.66667 0.77647 0.43922 edgecolor
newpath 576.99 85.79 moveto
585.53 79.52 lineto
574.94 79.1 lineto
closepath fill
1 setlinewidth
solid
0.66667 0.77647 0.43922 edgecolor
newpath 576.99 85.79 moveto
585.53 79.52 lineto
574.94 79.1 lineto
closepath stroke
grestore
% Node9
gsave
0 0 1 nodecolor
newpath 681.5 58.5 moveto
681.5 79.5 lineto
812.5 79.5 lineto
812.5 58.5 lineto
closepath fill
1 setlinewidth
filled
0 0 0.74902 nodecolor
newpath 681.5 58.5 moveto
681.5 79.5 lineto
812.5 79.5 lineto
812.5 58.5 lineto
closepath stroke
0 0 0 nodecolor
10 /Helvetica set_font
689.5 66.5 moveto 115 (boost/thread/condition.hpp) alignedtext
grestore
% Node1->Node9
gsave
1 setlinewidth
solid
0.66667 0.77647 0.43922 edgecolor
newpath 487.04 116.56 moveto
541.02 106.69 622.08 91.86 679.31 81.39 curveto
stroke
0.66667 0.77647 0.43922 edgecolor
newpath 680.14 84.79 moveto
689.35 79.55 lineto
678.88 77.91 lineto
closepath fill
1 setlinewidth
solid
0.66667 0.77647 0.43922 edgecolor
newpath 680.14 84.79 moveto
689.35 79.55 lineto
678.88 77.91 lineto
closepath stroke
grestore
% Node10
gsave
0 0 1 nodecolor
newpath 829.5 58.5 moveto
829.5 79.5 lineto
948.5 79.5 lineto
948.5 58.5 lineto
closepath fill
1 setlinewidth
filled
0 0 0.74902 nodecolor
newpath 829.5 58.5 moveto
829.5 79.5 lineto
948.5 79.5 lineto
948.5 58.5 lineto
closepath stroke
0 0 0 nodecolor
10 /Helvetica set_font
837.5 66.5 moveto 103 (boost/thread/mutex.hpp) alignedtext
grestore
% Node1->Node10
gsave
1 setlinewidth
solid
0.66667 0.77647 0.43922 edgecolor
newpath 487.08 120.88 moveto
561.3 112.75 695.22 97.53 819.26 80.21 curveto
stroke
0.66667 0.77647 0.43922 edgecolor
newpath 819.9 83.65 moveto
829.32 78.8 lineto
818.93 76.72 lineto
closepath fill
1 setlinewidth
solid
0.66667 0.77647 0.43922 edgecolor
newpath 819.9 83.65 moveto
829.32 78.8 lineto
818.93 76.72 lineto
closepath stroke
grestore
% Node11
gsave
[ /Rect [ 966 58 1178 80 ]
  /Border [ 0 0 0 ]
  /Action << /Subtype /URI /URI ($single__action__server__imp_8h.html) >>
  /Subtype /Link
/ANN pdfmark
0 0 1 nodecolor
newpath 966 58.5 moveto
966 79.5 lineto
1178 79.5 lineto
1178 58.5 lineto
closepath fill
1 setlinewidth
filled
0 0 0 nodecolor
newpath 966 58.5 moveto
966 79.5 lineto
1178 79.5 lineto
1178 58.5 lineto
closepath stroke
0 0 0 nodecolor
10 /Helvetica set_font
974 66.5 moveto 196 (actionlib_servers/single_action_server_imp.h) alignedtext
grestore
% Node1->Node11
gsave
1 setlinewidth
solid
0.66667 0.77647 0.43922 edgecolor
newpath 487.33 122.01 moveto
582.34 113.71 778.72 96.44 955.78 80.11 curveto
stroke
0.66667 0.77647 0.43922 edgecolor
newpath 956.16 83.59 moveto
965.8 79.18 lineto
955.52 76.62 lineto
closepath fill
1 setlinewidth
solid
0.66667 0.77647 0.43922 edgecolor
newpath 956.16 83.59 moveto
965.8 79.18 lineto
955.52 76.62 lineto
closepath stroke
grestore
% Node3->Node4
gsave
1 setlinewidth
solid
0.66667 0.77647 0.43922 edgecolor
newpath 189.81 58.5 moveto
171.54 49.44 144.93 36.25 124.39 26.06 curveto
stroke
0.66667 0.77647 0.43922 edgecolor
newpath 125.94 22.93 moveto
115.43 21.62 lineto
122.83 29.2 lineto
closepath fill
1 setlinewidth
solid
0.66667 0.77647 0.43922 edgecolor
newpath 125.94 22.93 moveto
115.43 21.62 lineto
122.83 29.2 lineto
closepath stroke
grestore
% Node3->Node5
gsave
1 setlinewidth
solid
0.66667 0.77647 0.43922 edgecolor
newpath 214.67 58.36 moveto
217.29 50.76 220.9 40.29 224.06 31.13 curveto
stroke
0.66667 0.77647 0.43922 edgecolor
newpath 227.4 32.17 moveto
227.35 21.57 lineto
220.79 29.88 lineto
closepath fill
1 setlinewidth
solid
0.66667 0.77647 0.43922 edgecolor
newpath 227.4 32.17 moveto
227.35 21.57 lineto
220.79 29.88 lineto
closepath stroke
grestore
% Node3->Node6
gsave
1 setlinewidth
solid
0.66667 0.77647 0.43922 edgecolor
newpath 237.44 58.5 moveto
260.76 49.23 294.95 35.65 320.8 25.38 curveto
stroke
0.66667 0.77647 0.43922 edgecolor
newpath 322.26 28.57 moveto
330.26 21.62 lineto
319.68 22.06 lineto
closepath fill
1 setlinewidth
solid
0.66667 0.77647 0.43922 edgecolor
newpath 322.26 28.57 moveto
330.26 21.62 lineto
319.68 22.06 lineto
closepath stroke
grestore
% Node12
gsave
0 0 1 nodecolor
newpath 1032 .5 moveto
1032 21.5 lineto
1112 21.5 lineto
1112 .5 lineto
closepath fill
1 setlinewidth
filled
0 0 0.74902 nodecolor
newpath 1032 .5 moveto
1032 21.5 lineto
1112 21.5 lineto
1112 .5 lineto
closepath stroke
0 0 0 nodecolor
10 /Helvetica set_font
1040 8.5 moveto 64 (boost/bind.hpp) alignedtext
grestore
% Node11->Node12
gsave
1 setlinewidth
solid
0.66667 0.77647 0.43922 edgecolor
newpath 1072 58.36 moveto
1072 50.92 1072 40.74 1072 31.73 curveto
stroke
0.66667 0.77647 0.43922 edgecolor
newpath 1075.5 31.57 moveto
1072 21.57 lineto
1068.5 31.57 lineto
closepath fill
1 setlinewidth
solid
0.66667 0.77647 0.43922 edgecolor
newpath 1075.5 31.57 moveto
1072 21.57 lineto
1068.5 31.57 lineto
closepath stroke
grestore
endpage
showpage
grestore
%%PageTrailer
%%EndPage: 1
%%Trailer
%%Pages: 1
%%BoundingBox: 36 36 1222 182
end
restore
%%EOF
