<?xml version="1.0" encoding="UTF-8"?>
<COLLADA xmlns="http://www.collada.org/2005/11/COLLADASchema" version="1.4.1">
    <asset>
        <contributor>
            <author>VCGLab</author>
            <authoring_tool>VCGLib | MeshLab</authoring_tool>
        </contributor>
        <up_axis>Y_UP</up_axis>
        <created>Fri Mar 2 10:24:59 2012</created>
        <modified>Fri Mar 2 10:24:59 2012</modified>
    </asset>
    <library_images/>
    <library_materials/>
    <library_effects/>
    <library_geometries>
        <geometry id="shape0-lib" name="shape0">
            <mesh>
                <source id="shape0-lib-positions" name="position">
                    <float_array id="shape0-lib-positions-array" count="1527">-0.036344 0 0.2495 0.0699517 0 0.229013 0.04323 0 0.2515 -0.0319497 0.0783488 0.2885 -0.036344 0.09725 0.2495 -0.02211 0.07871 0.2885 -0.0333469 0.0934664 0.2761 -0.0323453 0.0885721 0.28499 -0.02232 0.09348 0.2761 -0.0019 0.0789 0.2842 -0.00336 0.08851 0.2811 0.01496 0.07826 0.2756 0.0723217 0.054515 0.231985 0.0720926 0.09725 0.231698 0.0136638 0.09725 0.253482 0.047149 0.09725 0.244908 0.03078 0.07635 0.2652 -0.02211 0.08835 0.285 -0.00691 0.09364 0.2731 -0.0355827 0.09725 0.256256 0.01395 0.08753 0.2725 0.0598 0 0.2302 0.0709952 0.0678965 0.230322 -0.0155816 0.09725 0.256251 0.0608572 0.09725 0.237922 0.0699517 0 0.229013 -0.036344 0 0.2495 0.04323 0 0.2515 0.0720926 -0.09725 0.231698 0.0700219 -0.0153429 0.229101 -0.0319497 -0.0783488 0.2885 -0.02211 -0.07871 0.2885 -0.036344 -0.09725 0.2495 -0.0333469 -0.0934664 0.2761 -0.0323453 -0.0885721 0.28499 -0.02232 -0.09348 0.2761 -0.0019 -0.0789 0.2842 -0.00336 -0.08851 0.2811 0.01496 -0.07826 0.2756 0.0723217 -0.054515 0.231985 0.0136638 -0.09725 0.253482 0.047149 -0.09725 0.244908 0.03078 -0.07635 0.2652 -0.02211 -0.08835 0.285 -0.00691 -0.09364 0.2731 -0.0355827 -0.09725 0.256256 0.01395 -0.08753 0.2725 0.0598 0 0.2302 0.0709952 -0.0678965 0.230322 -0.0155816 -0.09725 0.256251 0.0699517 0 0.229013 0.113208 0.09725 0.114802 0.126957 0 0.113253 0.1203 0 0.1856 0.1007 0 0.212 0.100911 0.09725 0.20625 0.123575 0.09725 0.173324 0.08286 0 0.2267 0.12342 0.0540968 0.113652 0.0720926 0.09725 0.231698 0.0721482 0.0953924 0.231768 0.1142 0 0.1966 0.1307 0.05905 0.1735 0.0723217 0.054515 0.231985 0.1306 0.06337 0.168 0.115863 0.09725 0.186885 0.1199 0.06054 0.188 0.116867 0.09725 0.129126 0.1226 0 0.1714 0.1128 0.03073 0.19815 0.0709952 0.0678965 0.230322 0.0933747 0.09725 0.213712 0.12148 0 0.18133 0.0740178 0.09725 0.2304 0.124285 0.0436377 0.113554 0.123075 0.09725 0.168797 0.126957 0 0.113253 0.123366 -0.0544159 0.113658 0.113208 -0.09725 0.114802 0.0699517 0 0.229013 0.1203 0 0.1856 0.123575 -0.09725 0.173324 0.0796524 -0.09725 0.226068 0.1007 0 0.212 0.0720926 -0.09725 0.231698 0.0723217 -0.054515 0.231985 0.08286 0 0.2267 0.100911 -0.09725 0.20625 0.1142 0 0.1966 0.1307 -0.05905 0.1735 0.1306 -0.06337 0.168 0.115863 -0.09725 0.186885 0.1199 -0.06054 0.188 0.116867 -0.09725 0.129126 0.1226 0 0.1714 0.1128 -0.03073 0.19815 0.0709952 -0.0678965 0.230322 0.12148 0 0.18133 0.07648 0 0.22825 0.0933747 -0.09725 0.213712 0.0700219 -0.0153429 0.229101 0.123075 -0.09725 0.168797 -0.135482 0.162075 0.144581 -0.123381 0.09725 0.251981 -0.213499 0.09725 0.153372 -0.124618 0.1584 0.241 -0.213184 0.09725 0.211381 -0.186577 0.156958 0.150339 -0.211768 0.12567 0.153177 -0.144313 0.09725 0.246924 -0.1543 0.1573 0.237 -0.1495 0.162 0.2268 -0.1829 0.1592 0.2142 -0.185 0.1541 0.2237 -0.1563 0.146 0.2412 -0.1317 0.1493 0.2465 -0.123999 0.1493 0.2465 -0.21664 0.09725 0.199242 -0.125756 0.162 0.2309 -0.16448 0.162 0.147849 -0.2052 0.09725 0.2182 -0.1829 0.1447 0.2287 -0.2094 0.1274 0.213 -0.2052 0.1201 0.2182 -0.2132 0.117 0.2114 -0.2145 0.1236 0.2021 -0.200314 0.142751 0.151886 -0.1237 0.1228 0.251 -0.2098 0.1313 0.2041 -0.2166 0.1123 0.1988 -0.213506 0.115963 0.153373 -0.1317 0.1584 0.241 -0.208326 0.132444 0.152789 -0.1451 0.1166 0.2466 -0.135482 -0.162075 0.144581 -0.123381 -0.09725 0.251981 -0.124618 -0.1584 0.241 -0.213499 -0.09725 0.153372 -0.207529 -0.13374 0.152699 -0.21664 -0.09725 0.199242 -0.186577 -0.156958 0.150339 -0.2052 -0.09725 0.2182 -0.1543 -0.1573 0.237 -0.1317 -0.1493 0.2465 -0.1563 -0.146 0.2412 -0.185 -0.1541 0.2237 -0.1829 -0.1592 0.2142 -0.123999 -0.1493 0.2465 -0.2132 -0.117 0.2114 -0.2052 -0.1201 0.2182 -0.144313 -0.09725 0.246924 -0.213184 -0.09725 0.211381 -0.213506 -0.115963 0.153373 -0.166652 -0.1618 0.148093 -0.125756 -0.162 0.2309 -0.1317 -0.162 0.2309 -0.2094 -0.1274 0.213 -0.2145 -0.1236 0.2021 -0.1829 -0.1447 0.2287 -0.1237 -0.1228 0.251 -0.2098 -0.1313 0.2041 -0.211768 -0.12567 0.153177 -0.1495 -0.162 0.2268 -0.2166 -0.1123 0.1988 -0.1317 -0.1584 0.241 -0.1451 -0.1166 0.2466 -0.036344 0 0.2495 -0.036344 0.09725 0.2495 -0.0319497 0.0783488 0.2885 -0.1337 0 0.2885 -0.144317 0 0.2495 -0.142997 0.0751191 0.247398 -0.142917 0.09725 0.247272 -0.1477 0 0.2761 -0.0333469 0.0934664 0.2761 -0.150635 0 0.259555 -0.1442 0.05197 0.2761 -0.1173 0.07882 0.2849 -0.1318 0.06805 0.2851 -0.0323453 0.0885721 0.28499 -0.07096 0.08941 0.28495 -0.1391 0.05129 0.2849 -0.1428 0 0.2847 -0.1243 0.06207 0.2885 -0.09184 0.07615 0.2885 -0.147602 0.0545658 0.254727 -0.07102 0.09342 0.2761 -0.0938 0.08566 0.2849 -0.0750444 0.09725 0.256123 -0.0355827 0.09725 0.256256 -0.1297 0.05 0.2885 -0.1138 0.0697 0.2885 -0.122741 0.09725 0.252119 -0.144317 0 0.2495 -0.1337 0 0.2885 -0.036344 0 0.2495 -0.036344 -0.09725 0.2495 -0.142917 -0.09725 0.247272 -0.0323453 -0.0885721 0.28499 -0.1477 0 0.2761 -0.0319497 -0.0783488 0.2885 -0.150635 0 0.259555 -0.1442 -0.05197 0.2761 -0.1391 -0.05129 0.2849 -0.1318 -0.06805 0.2851 -0.1428 0 0.2847 -0.1243 -0.06207 0.2885 -0.1173 -0.07882 0.2849 -0.0938 -0.08566 0.2849 -0.0333469 -0.0934664 0.2761 -0.07096 -0.08941 0.28495 -0.07102 -0.09342 0.2761 -0.09184 -0.07615 0.2885 -0.147602 -0.0545658 0.254727 -0.0750444 -0.09725 0.256123 -0.0355827 -0.09725 0.256256 -0.1297 -0.05 0.2885 -0.1138 -0.0697 0.2885 -0.122741 -0.09725 0.252119 -0.142997 -0.0751191 0.247398 -0.0383735 0.191412 0.231488 -0.0355827 0.09725 0.256256 -0.0492601 0.193492 0.134867 -0.135482 0.162075 0.144581 -0.0979997 0.162152 0.140358 -0.123381 0.09725 0.251981 -0.124618 0.1584 0.241 -0.123999 0.1493 0.2465 -0.07147 0.1623 0.2435 -0.036344 0.09725 0.2495 -0.0376981 0.182955 0.237482 -0.0890118 0.163414 0.139345 -0.05268 0.1914 0.2315 -0.0394312 0.1945 0.2221 -0.125756 0.162 0.2309 -0.06119 0.1926 0.2222 -0.0623523 0.191464 0.136342 -0.0750444 0.09725 0.256123 -0.05421 0.18275 0.23755 -0.05354 0.1945 0.1732 -0.05268 0.1945 0.2221 -0.0930969 0.09725 0.2495 -0.05379 0.194 0.1446 -0.0538583 0.193454 0.135385 -0.0451985 0.1945 0.170914 -0.0483306 0.193994 0.143116 -0.06361 0.1869 0.2325 -0.0492601 -0.193492 0.134867 -0.0355827 -0.09725 0.256256 -0.0383735 -0.191412 0.231488 -0.135482 -0.162075 0.144581 -0.125756 -0.162 0.2309 -0.123381 -0.09725 0.251981 -0.0890118 -0.163414 0.139345 -0.123999 -0.1493 0.2465 -0.06119 -0.1926 0.2222 -0.0376981 -0.182955 0.237482 -0.036344 -0.09725 0.2495 -0.124618 -0.1584 0.241 -0.05268 -0.1914 0.2315 -0.0394312 -0.1945 0.2221 -0.0623523 -0.191464 0.136342 -0.0750444 -0.09725 0.256123 -0.123491 -0.122706 0.251007 -0.05421 -0.18275 0.23755 -0.05354 -0.1945 0.1732 -0.05268 -0.1945 0.2221 -0.0979997 -0.162152 0.140358 -0.07147 -0.1623 0.2435 -0.0930969 -0.09725 0.2495 -0.05379 -0.194 0.1446 -0.0445728 -0.1945 0.176467 -0.0528954 -0.193462 0.135276 -0.0483306 -0.193994 0.143116 -0.06361 -0.1869 0.2325 -0.142917 -0.09725 0.247272 -0.213184 -0.09725 0.211381 -0.213499 -0.09725 0.153372 -0.213499 0.09725 0.153372 -0.142917 0.09725 0.247272 -0.150635 0 0.259555 -0.21664 0.09725 0.199242 -0.2052 0.09725 0.2182 -0.221344 0 0.154256 -0.223 -0.035 0.1793 -0.223 0.035 0.1793 -0.21664 -0.09725 0.199242 -0.213184 0.09725 0.211381 -0.221275 0.035 0.154248 -0.2052 -0.09725 0.2182 -0.147602 0.0545658 0.254727 -0.147602 -0.0545658 0.254727 -0.2169 0 0.2021 -0.144313 -0.09725 0.246924 -0.144313 0.09725 0.246924 0.100911 0.09725 0.20625 0.047149 0.09725 0.244908 0.113208 0.09725 0.114802 -0.0155816 0.09725 0.256251 0.0603695 0.187663 0.120756 -0.0494557 0.193387 0.13313 -0.0355827 0.09725 0.256256 -0.0394312 0.1945 0.2221 0.123575 0.09725 0.173324 0.1139 0.1357 0.1732 0.0878639 0.165395 0.117658 -0.0376981 0.182955 0.237482 0.09647 0.1689 0.1732 0.02107 0.1475 0.2468 0.05084 0.1945 0.1446 0.0432619 0.193994 0.122683 0.04279 0.1945 0.2083 0.00625 0.19145 0.23145 0.0391 0.18675 0.22775 0.07612 0.10771 0.2289 0.07426 0.1424 0.2235 0.06213 0.1852 0.2094 0.06769 0.1893 0.1927 -0.036344 0.09725 0.2495 0.04602 0.14675 0.2396 0.0727472 0.09725 0.231335 0.104687 0.130629 0.115763 0.08519 0.1768 0.1446 -0.0383735 0.191412 0.231488 0.09538 0.1424 0.1999 0.00625 0.1835 0.2373 0.05774 0.1919 0.2055 0.113208 -0.09725 0.114802 -0.0155816 -0.09725 0.256251 0.100911 -0.09725 0.20625 0.0603695 -0.187663 0.120756 -0.0494557 -0.193387 0.13313 -0.036344 -0.09725 0.2495 -0.0383735 -0.191412 0.231488 0.123575 -0.09725 0.173324 0.1139 -0.1357 0.1732 0.047149 -0.09725 0.244908 0.0878639 -0.165395 0.117658 0.09647 -0.1689 0.1732 0.07426 -0.1424 0.2235 0.04602 -0.14675 0.2396 0.0391 -0.18675 0.22775 0.06213 -0.1852 0.2094 -0.0355827 -0.09725 0.256256 0.06769 -0.1893 0.1927 0.0432619 -0.193994 0.122683 0.05084 -0.1945 0.1446 0.02107 -0.1475 0.2468 0.00625 -0.1835 0.2373 0.07612 -0.10771 0.2289 0.0727472 -0.09725 0.231335 0.104687 -0.130629 0.115763 -0.0376981 -0.182955 0.237482 0.00625 -0.19145 0.23145 0.04279 -0.1945 0.2083 0.08519 -0.1768 0.1446 0.09538 -0.1424 0.1999 -0.0394312 -0.1945 0.2221 0.05774 -0.1919 0.2055 -0.186577 -0.156958 0.150339 -0.0492601 -0.193492 0.134867 -0.213498 -0.0967462 0.153372 -0.0607453 -0.182581 0.0329327 -0.06657 -0.117862 -0.0187635 -0.0665697 -0.0967462 -0.0187603 -0.195772 -0.0967462 0.000713814 -0.1537 -0.1807 0.1035 -0.211768 -0.12567 0.153177 -0.062325 -0.174871 0.0189118 -0.0890118 -0.163414 0.139345 -0.187102 -0.0967462 -0.00453163 -0.1881 -0.126 -0.00439 -0.1991 -0.1342 0.00781 -0.1943 -0.1451 0.00769 -0.197 -0.1468 0.01727 -0.1678 -0.1751 0.1035 -0.1465 -0.1785 0.02193 -0.139 -0.1825 0.03271 -0.1759 -0.1699 0.0266 -0.1688 -0.1716 0.0193 -0.1522 -0.181 0.0311 -0.209711 -0.0967462 0.0962418 -0.05894 -0.1889 0.06843 -0.2092 -0.1212 0.0881 -0.199156 -0.0967462 0.00856075 -0.1672 -0.1638 0.01235 -0.1961 -0.1294 0.00111 -0.200314 -0.142751 0.151886 -0.1802 -0.1661 0.1057 -0.0567457 -0.1889 0.06843 -0.165 -0.1766 0.02915 -0.213498 0.0967462 0.153372 -0.0492601 0.193492 0.134867 -0.212189 0.123571 0.153224 -0.062325 0.174871 0.0189118 -0.0665697 0.0967462 -0.0187603 -0.195772 0.0967462 0.000713814 -0.186577 0.156958 0.150339 -0.06657 0.117862 -0.0187635 -0.1537 0.1807 0.1035 -0.1522 0.181 0.0311 -0.1672 0.1638 0.01235 -0.0567457 0.1889 0.06843 -0.0890118 0.163414 0.139345 -0.1881 0.126 -0.00439 -0.1961 0.1294 0.00111 -0.1943 0.1451 0.00769 -0.197 0.1468 0.01727 -0.185 0.1611 0.02346 -0.1688 0.1716 0.0193 -0.187102 0.0967462 -0.00453163 -0.2092 0.1212 0.0881 -0.0607453 0.182581 0.0329327 -0.1678 0.1751 0.1035 -0.1465 0.1785 0.02193 -0.2092 0.0967462 0.0881 -0.207529 0.13374 0.152699 -0.1991 0.1342 0.00781 -0.165 0.1766 0.02915 -0.199156 0.0967462 0.00856075 -0.1802 0.1661 0.1057 -0.1759 0.1699 0.0266 -0.2083 0.1284 0.0874 -0.0665697 -0.0967462 -0.0187603 -0.213498 0.0967462 0.153372 -0.213498 -0.0967462 0.153372 -0.0665697 0.0967462 -0.0187603 -0.195772 0.0967462 0.000713814 -0.195772 -0.0967462 0.000713814 -0.221344 0 0.154256 -0.2177 -0.035 0.09945 -0.2177 0.035 0.09945 -0.187102 0.0967462 -0.00453163 -0.187102 -0.0967462 -0.00453163 -0.2092 0.0967462 0.0881 -0.2092 -0.0967462 0.0881 -0.2205 0.035 0.143 -0.2205 -0.035 0.143 -0.199156 0.0967462 0.00856075 -0.199156 -0.0967462 0.00856075 -0.191482 0.0967462 -0.0029189 -0.191482 -0.0967462 -0.0029189 -0.1982 0 0.00479 -0.198849 0.0967462 0.00696715 -0.198849 -0.0967462 0.00696715 -0.0665693 0 -0.0187568 -0.062325 -0.174871 0.0189118 -0.0494557 -0.193387 0.13313 0.126957 0 0.113253 0.0825876 -0.171678 0.118253 0.09827 0 0.03108 -0.06657 -0.117862 -0.0187635 -0.00565 -0.1115 -0.03018 0.0432619 -0.193994 0.122683 0.104687 -0.130629 0.115763 0.02168 -0.1139 -0.02173 0.1038 -0.1003 0.03594 0.01002 -0.08 -0.02881 -0.05 0 -0.02186 0.02427 -0.1663 0.0222 0.1204 0 0.07513 -0.0568306 -0.188779 0.0676758 0.00162 -0.1825 0.03079 0.123366 -0.0544159 0.113658 0.05731 -0.187 0.1098 -0.00036 -0.1722 0.01669 0.08522 -0.1557 0.08766 -0.0607453 -0.182581 0.0329327 0.10451 0 0.03588 0.0113 -0.112 -0.02854 0.01853 -0.1767 0.02947 0.0603695 -0.187663 0.120756 0.1195 -0.04245 0.07478 -0.00331 -0.07992 -0.03052 0.01536 -0.1675 0.01647 0.09357 -0.1421 0.08315 0.1069 -0.09853 0.04403 -0.0665693 0 -0.0187568 0.126957 0 0.113253 -0.0494557 0.193387 0.13313 -0.0625754 0.1722 0.01669 0.09827 0 0.03108 -0.06657 0.117862 -0.0187635 0.0432619 0.193994 0.122683 0.104687 0.130629 0.115763 -0.0607453 0.182581 0.0329327 -0.05 0 -0.02186 0.1204 0 0.07513 0.12342 0.0540968 0.113652 0.01002 0.08 -0.02881 -0.00331 0.07992 -0.03052 0.0113 0.112 -0.02854 0.05731 0.187 0.1098 0.01853 0.1767 0.02947 0.00718 0.1851 0.04479 -0.00565 0.1115 -0.03018 -0.00036 0.1722 0.01669 0.10451 0 0.03588 0.1038 0.1003 0.03594 0.00162 0.1825 0.03079 0.08522 0.1557 0.08766 0.08237 0.17125 0.11605 0.0603695 0.187663 0.120756 0.1195 0.04245 0.07478 0.01536 0.1675 0.01647 -0.0567457 0.1889 0.06843 0.0875456 0.165809 0.117694 0.02168 0.1139 -0.02173 0.1069 0.09853 0.04403</float_array>
                    <technique_common>
                        <accessor count="509" source="#shape0-lib-positions-array" stride="3">
                            <param name="X" type="float"/>
                            <param name="Y" type="float"/>
                            <param name="Z" type="float"/>
                        </accessor>
                    </technique_common>
                </source>
                <vertices id="shape0-lib-vertices">
                    <input semantic="POSITION" source="#shape0-lib-positions"/>
                </vertices>
                <triangles count="946">
                    <input offset="0" semantic="VERTEX" source="#shape0-lib-vertices"/>
                    <p>0 1 2 3 4 0 3 2 5 3 0 2 6 4 3 7 6 3 7 3 5 7 8 6 9 10 5 9 5 2 9 2 11 12 2 1 12 1 13 14 13 4 15 13 14 16 13 11 16 12 13 16 11 2 16 2 12 17 8 7 17 5 10 17 7 5 18 8 17 18 17 10 18 10 15 18 14 8 18 15 14 19 6 8 19 4 6 19 14 4 20 10 9 20 9 11 20 11 13 21 1 0 21 0 4 22 13 1 22 1 21 22 4 13 22 21 4 23 8 14 23 14 19 23 19 8 24 10 20 24 20 13 24 13 15 24 15 10 25 26 27 25 28 29 30 31 27 30 27 26 30 26 32 33 30 32 34 30 33 34 31 30 34 33 35 36 31 37 36 38 27 36 27 31 39 28 25 39 25 27 40 32 28 41 40 28 41 28 37 42 27 38 42 39 27 42 38 28 42 28 39 43 34 35 43 37 31 43 31 34 44 37 43 44 43 35 44 41 37 44 35 40 44 40 41 45 33 32 45 32 40 45 35 33 46 38 36 46 36 37 46 28 38 46 37 28 47 32 26 47 26 25 47 25 29 48 28 32 48 32 47 48 29 28 48 47 29 49 40 35 49 35 45 49 45 40 50 51 52 53 50 52 54 50 53 55 56 51 57 50 54 58 52 51 59 55 51 59 50 60 61 53 62 61 54 53 63 60 50 63 50 57 63 57 60 64 62 52 64 56 62 65 62 56 65 56 55 66 62 65 66 65 55 67 64 58 67 51 56 67 58 51 68 52 62 68 53 52 69 61 62 69 62 66 69 54 61 69 55 54 69 66 55 70 51 50 70 50 59 70 59 51 71 55 59 71 54 55 72 62 53 72 53 68 72 68 62 73 54 71 73 59 60 73 71 59 73 60 57 73 57 54 74 52 58 74 58 64 74 64 52 75 56 64 75 64 67 75 67 56 76 77 78 76 78 79 76 79 80 81 82 78 83 80 79 84 85 79 84 78 82 86 85 84 86 82 83 86 84 82 86 83 79 87 82 81 88 89 80 88 80 83 90 89 81 90 77 76 90 76 89 91 81 89 91 87 81 92 87 91 92 91 89 93 77 90 93 78 77 93 81 78 94 89 76 94 76 80 95 88 83 95 83 87 95 87 92 95 89 88 95 92 89 96 78 84 96 84 79 97 80 89 97 89 94 97 94 80 98 79 85 98 85 86 98 86 79 99 83 82 99 82 87 99 87 83 100 79 78 100 78 96 100 96 79 101 90 81 101 81 93 101 93 90 102 103 104 105 103 102 106 104 103 107 102 104 108 107 104 109 106 103 110 111 112 110 112 113 110 114 115 110 113 114 116 103 105 116 105 115 117 104 106 118 105 102 118 102 111 119 111 102 119 112 111 119 102 107 119 107 112 120 106 109 121 113 122 121 122 123 121 114 113 124 106 120 124 120 123 124 123 122 124 117 106 124 122 125 126 112 107 126 107 108 127 103 116 127 116 115 127 115 114 128 112 126 128 122 113 128 113 112 128 125 122 129 117 124 129 124 125 129 125 108 130 104 117 130 117 129 130 108 104 130 129 108 131 105 118 131 118 111 131 111 110 131 115 105 131 110 115 132 126 108 132 128 126 132 108 125 132 125 128 133 109 103 133 103 127 133 127 114 133 121 123 133 114 121 133 123 120 133 120 109 134 135 136 137 134 138 137 139 135 137 135 134 140 138 134 141 135 139 142 143 144 142 144 145 142 145 146 147 136 135 147 143 136 148 149 141 150 135 141 151 141 139 151 139 148 151 148 141 152 137 138 152 139 137 153 146 140 153 140 134 154 134 136 154 136 155 154 155 134 156 149 148 156 148 157 158 149 156 158 156 145 158 145 144 159 143 147 159 147 135 159 144 143 160 146 145 160 145 156 160 156 157 160 157 138 160 138 140 160 140 146 161 138 157 161 152 138 162 146 153 162 134 155 162 153 134 162 142 146 163 152 161 163 161 157 163 139 152 163 157 148 163 148 139 164 142 162 164 162 155 164 155 136 164 136 143 164 143 142 165 144 159 165 135 150 165 159 135 165 149 158 165 158 144 165 141 149 165 150 141 166 167 168 169 166 168 170 171 166 170 166 169 172 171 170 172 166 171 172 167 166 173 170 169 174 168 167 175 173 176 175 172 170 175 170 173 177 172 178 179 180 168 179 168 174 179 174 180 181 178 172 181 172 176 182 176 173 182 181 176 182 173 169 182 169 181 183 169 168 184 168 180 184 183 168 185 176 172 185 172 175 185 175 176 186 172 180 186 180 174 187 177 184 187 184 180 187 180 172 187 172 177 188 186 174 188 167 172 189 174 167 189 167 188 189 188 174 190 181 169 190 169 183 190 178 181 190 183 178 191 183 184 191 184 177 191 177 178 191 178 183 192 172 186 192 186 188 192 188 172 193 194 195 196 197 195 196 195 198 199 194 193 200 198 195 200 195 194 201 202 199 201 193 197 201 199 193 203 197 204 203 202 197 205 199 202 205 202 203 205 194 199 205 203 194 206 200 194 207 204 197 207 197 208 209 196 198 210 211 209 210 209 198 210 208 197 210 197 211 210 198 200 212 208 210 212 210 200 212 207 208 212 200 206 213 197 202 213 202 201 213 201 197 214 209 211 214 197 196 215 196 209 215 209 214 215 214 196 216 203 204 216 204 206 216 194 203 216 206 194 217 207 212 217 212 206 217 206 204 217 204 207 218 211 197 218 197 214 218 214 211 219 195 197 219 197 193 219 193 195 220 221 222 223 224 225 223 225 226 223 222 224 227 221 228 227 226 225 229 221 225 229 222 221 230 221 220 230 228 221 231 224 222 231 222 229 231 229 224 232 230 220 233 220 222 234 223 226 234 226 235 234 235 223 236 222 223 236 223 235 237 225 221 237 221 227 237 227 225 238 230 232 238 226 227 238 232 226 238 227 228 238 228 230 239 236 235 240 233 239 240 239 235 240 232 220 240 220 233 240 235 232 241 225 224 241 224 229 241 229 225 242 236 239 243 222 236 243 236 242 243 242 222 244 239 233 244 242 239 244 233 222 245 222 242 245 242 244 245 244 222 246 235 226 246 226 232 246 232 235 247 248 249 250 251 252 253 247 250 254 252 251 255 251 250 256 249 248 257 252 248 257 248 247 257 247 253 258 254 251 258 251 255 259 249 256 260 247 249 261 250 247 261 255 250 262 248 252 262 254 248 263 252 254 263 254 262 263 262 252 264 254 258 264 258 259 264 259 256 265 255 261 266 255 265 266 265 260 266 259 255 266 249 259 266 260 249 267 257 253 267 250 252 267 253 250 268 254 264 268 264 256 268 248 254 268 256 248 269 252 257 269 257 267 269 267 252 270 265 261 271 260 265 271 247 260 272 261 247 272 247 270 272 270 261 273 270 247 273 247 271 273 265 270 273 271 265 274 258 255 274 255 259 274 259 258 275 276 277 278 275 277 279 280 275 279 275 278 279 278 281 282 279 281 283 278 277 283 277 284 285 283 284 285 281 278 286 277 276 286 284 277 287 276 282 287 282 281 288 278 283 288 283 285 288 285 278 289 280 282 289 282 276 289 276 275 290 280 279 290 282 280 291 275 280 291 280 289 292 276 287 292 281 285 292 287 281 292 284 286 292 286 276 292 285 284 293 289 275 293 275 291 293 291 289 294 279 282 294 282 290 294 290 279 295 296 297 298 297 296 299 297 300 301 302 300 301 297 298 303 295 297 303 297 304 305 297 299 306 302 301 307 304 305 308 301 298 308 306 301 308 298 296 309 300 302 310 299 300 310 300 309 310 309 299 311 309 302 312 313 311 312 311 302 314 295 315 316 307 317 316 313 315 318 300 297 318 297 301 318 301 300 319 296 314 319 314 315 319 315 313 319 313 308 319 308 296 320 296 295 320 295 314 320 314 296 321 304 297 321 297 305 321 305 304 322 299 309 322 309 317 322 305 299 322 307 305 322 317 307 323 302 306 323 312 302 324 316 315 324 304 307 324 307 316 324 315 295 324 295 303 324 303 304 325 312 323 325 323 306 325 308 313 325 313 312 325 306 308 326 311 313 326 313 316 326 316 317 326 317 309 326 309 311 327 328 329 330 331 327 332 331 333 332 328 327 332 327 331 334 327 329 334 335 327 336 329 328 337 330 327 338 337 335 339 340 341 339 341 342 343 328 332 343 332 333 344 338 342 345 346 331 345 331 330 345 330 346 347 341 340 347 348 341 347 328 343 347 340 336 347 336 328 349 336 340 349 340 339 349 339 329 350 329 336 350 336 349 350 349 329 351 327 335 351 335 337 351 337 327 352 348 347 352 347 343 352 343 333 352 333 348 353 354 341 353 341 348 353 348 333 355 338 344 355 346 330 355 344 346 355 330 337 355 337 338 356 329 339 356 339 342 356 342 338 356 338 335 356 335 334 356 334 329 357 354 353 357 353 333 357 333 331 357 331 346 357 346 354 358 354 346 358 346 344 358 344 342 358 342 341 358 341 354 359 360 361 362 363 360 364 365 361 364 360 363 366 360 359 367 359 361 368 363 362 369 361 360 369 360 364 369 364 361 370 364 363 370 363 371 370 365 364 370 371 365 372 373 374 375 366 359 376 362 377 376 368 362 378 374 373 378 373 379 380 379 376 380 376 377 380 360 366 380 377 360 381 361 365 382 360 377 382 377 362 383 367 361 383 361 381 383 374 367 383 372 374 384 372 383 384 383 381 384 365 372 384 381 365 385 363 368 385 368 376 385 376 379 385 379 373 385 373 371 385 371 363 386 371 373 386 373 372 386 365 371 386 372 365 387 359 367 387 367 374 388 359 387 388 374 378 388 387 374 388 375 359 388 378 375 389 362 360 389 360 382 389 382 362 390 375 378 390 366 375 390 380 366 390 378 379 390 379 380 391 392 393 394 392 395 396 395 391 397 393 392 398 394 395 399 392 400 399 397 392 401 394 398 402 392 394 402 400 392 403 391 395 403 395 392 403 392 391 404 401 398 404 396 405 406 401 404 406 404 405 406 407 408 409 401 406 409 406 408 410 398 395 410 404 398 410 395 396 410 396 404 411 391 393 412 400 402 412 402 394 413 397 399 414 400 412 414 412 394 414 394 401 414 401 409 414 409 400 415 396 391 415 391 411 416 408 407 416 393 397 417 415 411 417 405 396 417 407 406 417 406 405 418 400 409 418 399 400 418 413 399 419 396 415 419 415 417 419 417 396 420 408 416 420 416 397 420 397 413 421 408 420 421 413 418 421 420 413 421 409 408 421 418 409 422 407 417 422 417 411 422 393 416 422 416 407 422 411 393 423 424 425 426 427 424 426 424 423 428 423 425 429 425 424 430 429 431 432 427 426 432 426 423 433 423 428 433 432 423 434 424 427 434 431 424 435 428 425 435 425 430 436 424 431 436 431 429 436 429 424 437 425 429 437 429 430 437 430 425 438 431 434 438 434 427 439 428 435 439 435 430 440 432 433 440 428 427 440 427 432 441 433 428 441 428 440 441 440 433 442 427 428 443 438 427 443 427 442 443 430 431 443 431 438 444 439 430 444 430 443 444 443 442 444 428 439 444 442 428 445 446 447 445 447 448 449 448 447 450 445 448 451 452 446 451 446 445 451 445 452 453 449 447 454 448 449 455 450 456 455 457 450 458 445 450 458 450 457 458 452 445 459 455 456 460 450 448 461 462 453 461 453 447 461 447 446 463 448 454 464 453 462 465 446 452 465 462 446 466 449 464 466 459 456 467 446 462 467 462 461 467 461 446 468 456 450 468 450 460 468 460 456 469 465 452 469 457 455 470 459 466 470 466 464 470 462 465 470 464 462 471 449 453 471 453 464 471 464 449 472 460 448 472 448 463 473 457 469 473 469 452 473 452 458 473 458 457 474 459 470 474 470 465 474 465 469 474 455 459 474 469 455 475 454 449 475 449 466 475 466 456 476 454 475 476 475 456 476 472 463 476 456 460 476 460 472 476 463 454 477 478 479 480 477 479 481 478 477 482 477 480 483 479 478 484 483 478 485 480 479 486 481 477 487 478 481 488 484 478 489 481 486 489 486 490 489 490 491 492 493 494 492 494 483 495 480 496 495 496 491 495 490 486 495 477 482 495 486 477 495 482 480 495 491 490 497 481 498 497 498 487 497 487 481 499 485 494 499 493 496 499 494 493 499 480 485 499 496 480 500 493 492 500 492 501 500 498 493 502 501 492 502 492 483 502 483 484 503 478 487 503 488 478 504 491 496 504 496 493 504 493 498 505 485 479 505 494 485 505 479 483 505 483 494 506 501 502 506 502 484 506 498 500 506 500 501 507 491 504 507 504 498 507 481 489 507 489 491 507 498 481 508 498 506 508 506 484 508 488 503 508 487 498 508 503 487 508 484 488</p>
                </triangles>
            </mesh>
        </geometry>
    </library_geometries>
    <library_visual_scenes>
        <visual_scene id="VisualSceneNode" name="VisualScene">
            <node id="node" name="node">
                <instance_geometry url="#shape0-lib">
                    <bind_material>
                        <technique_common/>
                    </bind_material>
                </instance_geometry>
            </node>
        </visual_scene>
    </library_visual_scenes>
    <scene>
        <instance_visual_scene url="#VisualSceneNode"/>
    </scene>
</COLLADA>
