<?xml version="1.0" encoding="UTF-8"?>
<COLLADA xmlns="http://www.collada.org/2005/11/COLLADASchema" version="1.4.1">
    <asset>
        <contributor>
            <author>VCGLab</author>
            <authoring_tool>VCGLib | MeshLab</authoring_tool>
        </contributor>
        <up_axis>Y_UP</up_axis>
        <created>Fri Mar 2 10:25:17 2012</created>
        <modified>Fri Mar 2 10:25:17 2012</modified>
    </asset>
    <library_images/>
    <library_materials/>
    <library_effects/>
    <library_geometries>
        <geometry id="shape0-lib" name="shape0">
            <mesh>
                <source id="shape0-lib-positions" name="position">
                    <float_array id="shape0-lib-positions-array" count="1566">-0.0964522 0.0893808 0.188812 -0.101822 0.082673 0.158326 -0.10447 0.0852522 0.142323 -0.17265 0.09041 0.21027 -0.097865 0.0934031 0.179837 -0.14281 0.0882 0.20958 -0.14265 0.09298 0.20938 -0.0972598 0.0854992 0.184701 -0.101501 0.0908809 0.158859 -0.15942 0.09282 0.20948 -0.10784 0.08982 0.19532 -0.0966417 0.0914289 0.187359 -0.16004 0.08842 0.20994 -0.12114 0.09363 0.19566 -0.0964928 0.0905951 0.188373 -0.0967462 0.0877228 0.187356 -0.0967705 0.0917857 0.186543 -0.0964522 -0.0893808 0.188812 -0.097865 -0.0934031 0.179837 -0.10447 -0.0852522 0.142323 -0.14281 -0.0882 0.20958 -0.17265 -0.09041 0.21027 -0.14265 -0.09298 0.20938 -0.101823 -0.0826728 0.158324 -0.0972598 -0.0854992 0.184701 -0.101501 -0.0908809 0.158859 -0.15942 -0.09282 0.20948 -0.10784 -0.08982 0.19532 -0.0966417 -0.0914289 0.187359 -0.16005 -0.08842 0.20994 -0.12114 -0.09363 0.19566 -0.0964928 -0.0905951 0.188373 -0.0967462 -0.0877228 0.187356 -0.0967705 -0.0917857 0.186543 -0.102127 -0.0828468 0.156504 0.0565326 0 0.17808 0.059357 -0.0277419 0.171616 0.057195 -0.0610806 0.144833 -0.0196417 0 0.188093 -0.023676 -0.056466 0.159517 -0.0205901 -0.0281026 0.181376 0.01219 0 0.18911 0.01255 -0.03291 0.18273 0.0591658 -0.0525369 0.156545 0.01255 -0.06124 0.16317 0.0109127 -0.0637103 0.157548 -0.0230592 -0.0544272 0.163886 0.0531 0 0.17987 0.0576024 -0.00890895 0.176562 0.025684 -0.0633047 0.153845 0.0565326 0 0.17808 -0.0196417 0 0.188093 0.057195 0.0610806 0.144833 0.01219 0 0.18911 -0.023676 0.0564661 0.159517 0.059357 0.0277419 0.171616 0.01255 0.03291 0.18273 -0.0205901 0.0281026 0.181376 0.0591658 0.0525369 0.156545 0.01255 0.06124 0.16317 0.0108554 0.0636985 0.157552 -0.0230592 0.0544272 0.163886 0.0531 0 0.17987 0.0576024 0.00890895 0.176562 0.025684 0.0633047 0.153845 -0.0198489 0.00752313 0.186626 -0.0222112 0.045865 0.169893 0.042983 -0.0642851 0.0943363 -0.023676 -0.056466 0.159517 0.057195 -0.0610806 0.144833 -0.0313956 -0.0709753 0.104837 -0.0296422 -0.0907588 0.117256 -0.00545223 -0.0889515 0.101174 -0.0313956 -0.0902351 0.104837 -0.0268644 -0.0858602 0.136933 0.0109127 -0.0637103 0.157548 0.0498141 -0.0681202 0.115483 -0.0278004 -0.089757 0.130303 0.0539491 -0.0654248 0.1312 0.0489515 -0.0681631 0.112506 0.025684 -0.0633047 0.153845 -0.0306454 -0.0909124 0.11015 -0.018735 -0.0900539 0.103049 -0.01158 -0.08953 0.10938 -0.023676 0.0564661 0.159517 0.042983 0.0642851 0.0943363 0.057195 0.0610806 0.144833 -0.0313956 0.0709753 0.104837 -0.0296422 0.0907588 0.117256 -0.00545223 0.0889515 0.101174 -0.0313956 0.0902351 0.104837 -0.0268644 0.0858602 0.136933 0.0108554 0.0636985 0.157552 0.0498141 0.0681202 0.115483 -0.0278004 0.089757 0.130303 0.0539491 0.0654248 0.1312 0.025684 0.0633047 0.153845 0.0489515 0.0681631 0.112506 -0.0306454 0.0909124 0.11015 -0.018735 0.0900539 0.103049 -0.01158 0.08953 0.10938 0.052271 0.0668469 0.124631 -0.0889929 0.0507504 0.0583416 -0.0851219 0 0.109882 -0.0802101 0.0236265 0.109761 -0.0655232 0.0492704 0.108301 -0.0439122 0.0296717 0.0161775 -0.05567 0 0.01634 -0.08406 0 0.08952 -0.0526461 0.0499352 0.082556 -0.0411142 0.0510113 0.0359967 -0.0784614 0.0499051 0.0872831 -0.0419594 0.0471359 0.0300095 -0.06986 0 0.04992 -0.0736165 0.0367385 0.109144 -0.0412597 0.0512127 0.0349657 -0.08888 0.0489 0.05865 -0.0433026 0.0356262 0.0204954 -0.0438187 0.0308448 0.0168397 -0.0688318 -0.0441473 0.108646 -0.0196417 0 0.188093 -0.0224097 -0.0478695 0.168486 -0.0851219 0 0.109882 -0.06852 0 0.16945 -0.06613 -0.0452062 0.142193 -0.08168 -0.02675 0.13017 -0.06613 -0.02278 0.16752 -0.08168 0 0.15028 -0.0489447 -0.046558 0.163413 -0.0386 -0.02549 0.18064 -0.05537 0 0.17979 -0.0205901 -0.0281026 0.181376 -0.0802101 -0.0236265 0.109761 -0.08618 0 0.13017 -0.070408 -0.0447779 0.133635 -0.02945 0 0.18778 -0.0378377 -0.0471481 0.167002 -0.0736165 -0.0367385 0.109144 -0.0198489 -0.00752313 0.186626 -0.0478375 -0.0466222 0.163964 -0.0671822 0.0467015 0.108474 -0.0196417 0 0.188093 -0.0851219 0 0.109882 -0.0222941 0.0467015 0.169306 -0.06852 0 0.16945 -0.06613 0.0467015 0.140505 -0.08168 0.02675 0.13017 -0.06613 0.02278 0.16752 -0.08168 0 0.15028 -0.0488332 0.0467015 0.163388 -0.0386 0.02549 0.18064 -0.05537 0 0.17979 -0.0205901 0.0281026 0.181376 -0.0802101 0.0236265 0.109761 -0.08618 0 0.13017 -0.0692053 0.0467015 0.134005 -0.02945 0 0.18778 -0.0378535 0.0467015 0.167283 -0.0736165 0.0367385 0.109144 -0.0198489 0.00752313 0.186626 -0.05567 0 0.01634 -0.0851219 0 0.109882 -0.0476874 -0.05105 0.0824879 -0.0439122 -0.0296717 0.0161775 -0.0890112 -0.05105 0.0582917 -0.0636002 -0.05105 0.108071 -0.0412556 -0.05105 0.0349953 -0.08406 0 0.08952 -0.0802101 -0.0236265 0.109761 -0.0783917 -0.05105 0.0874744 -0.0419594 -0.0471359 0.0300095 -0.06986 0 0.04992 -0.065194 -0.0497801 0.108267 -0.08888 -0.0489 0.05865 -0.0433026 -0.0356262 0.0204954 -0.0411142 -0.0510113 0.0359967 -0.0438187 -0.0308448 0.0168397 0.0317221 -0.0514045 0.0106892 0.0836406 -0.0542051 0.0089521 0.0738041 -0.0514212 0.0899851 0.099992 -0.0538201 0.053786 0.04562 -0.05006 0.0714 0.11058 0 0.0847932 0.0860001 0 0.0661298 0.07739 0 0.00308 0.101587 -0.0288 0.0860628 0.1063 0 0.06256 0.108359 -0.01488 0.0851068 0.08931 0 0.0237 0.0909453 -0.03981 0.0875652 0.0448428 -0.0521337 0.00948255 0.09659 0 0.03881 0.0788395 -0.04863 0.0892742 0.04562 -0.0504446 0.0714538 0.04562 0.05006 0.0714 0.11058 0 0.0847932 0.0738041 0.0514212 0.0899851 0.0317221 0.0514045 0.0106892 0.0836406 0.0542051 0.0089521 0.099992 0.0538201 0.053786 0.0860001 0 0.0661298 0.07739 0 0.00308 0.101587 0.0288 0.0860628 0.1063 0 0.06256 0.108359 0.01488 0.0851068 0.08931 0 0.0237 0.0909453 0.03981 0.0875652 0.0448428 0.0521337 0.00948255 0.09659 0 0.03881 0.0788395 0.04863 0.0892742 0.04562 0.0504446 0.0714538 -0.0315136 -0.070861 0.104001 -0.0401096 -0.1021 0.0431127 -0.0414604 -0.0644423 0.0335441 -0.0636002 -0.05105 0.108071 -0.0899862 -0.0828436 0.112591 -0.0314485 -0.0901873 0.104462 -0.0412556 -0.05105 0.0349953 -0.0890112 -0.05105 0.0582917 -0.0345761 -0.0539976 0.0823079 -0.0574427 -0.0914951 0.108183 -0.07684 -0.0981 0.08587 -0.03655 -0.10165 0.08055 -0.08991 -0.06593 0.05582 -0.0413539 -0.0796867 0.0342986 -0.0783917 -0.05105 0.0874744 -0.0348425 -0.101696 0.0804211 -0.05043 -0.09977 0.04434 -0.08837 -0.09749 0.06012 -0.0404506 -0.100356 0.0406974 -0.0476874 -0.05105 0.0824879 -0.08792 -0.09854 0.06134 -0.07352 -0.07823 0.04879 -0.08926 -0.08416 0.05761 -0.07892 -0.09803 0.08465 -0.05018 -0.1011 0.04521 -0.0414624 -0.0590965 0.0335304 -0.0403285 -0.101668 0.0415617 -0.04966 -0.1016 0.04662 -0.0222941 0.0467015 0.169306 -0.0671822 0.0467015 0.108474 -0.0315136 0.070861 0.104001 -0.0899862 0.0828436 0.112591 -0.0278004 0.089757 0.130303 -0.0314485 0.0901873 0.104462 -0.10447 0.0852522 0.142323 -0.06613 0.0467015 0.140505 -0.0488332 0.0467015 0.163388 -0.097865 0.0934031 0.179837 -0.0964522 0.0893808 0.188812 -0.101822 0.082673 0.158326 -0.0574427 0.0914951 0.108183 -0.0564 0.09245 0.11128 -0.0972598 0.0854992 0.184701 -0.0692053 0.0467015 0.134005 -0.02751 0.08591 0.13761 -0.04738 0.08657 0.15504 -0.101501 0.0908809 0.158859 -0.08837 0.09115 0.1834 -0.05889 0.09121 0.15958 -0.0966417 0.0914289 0.187359 -0.0378535 0.0467015 0.167283 -0.0306454 0.0909124 0.11015 -0.03445 0.08985 0.13888 -0.08319 0.09326 0.16986 -0.0268644 0.0858602 0.136933 -0.0964928 0.0905951 0.188373 -0.04819 0.09158 0.13991 -0.0967462 0.0877228 0.187356 -0.0967705 0.0917857 0.186543 -0.0655232 0.0492704 0.108301 -0.0314485 0.0901873 0.104462 -0.0899862 0.0828436 0.112591 -0.0403285 0.101668 0.0415617 -0.0414624 0.0590965 0.0335304 -0.0345761 0.0539976 0.0823079 -0.0315136 0.070861 0.104001 -0.0412597 0.0512127 0.0349657 -0.0889929 0.0507504 0.0583416 -0.0574427 0.0914951 0.108183 -0.03655 0.10165 0.08055 -0.07684 0.0981 0.08587 -0.08991 0.06593 0.05582 -0.0413539 0.0796867 0.0342986 -0.0784614 0.0499051 0.0872831 -0.0348425 0.101696 0.0804211 -0.08792 0.09854 0.06134 -0.08837 0.09749 0.06012 -0.07352 0.07823 0.04879 -0.0526461 0.0499352 0.082556 -0.08926 0.08416 0.05761 -0.07892 0.09803 0.08465 -0.05043 0.09977 0.04434 -0.04966 0.1016 0.04662 -0.0401096 0.1021 0.0431127 -0.0404506 0.100356 0.0406974 -0.05018 0.1011 0.04521 -0.0414604 0.0644423 0.0335441 -0.0224097 -0.0478695 0.168486 -0.0278004 -0.089757 0.130303 -0.0315136 -0.070861 0.104001 -0.0688318 -0.0441473 0.108646 -0.0899862 -0.0828436 0.112591 -0.0314485 -0.0901873 0.104462 -0.10447 -0.0852522 0.142323 -0.06613 -0.0452062 0.142193 -0.0489447 -0.046558 0.163413 -0.097865 -0.0934031 0.179837 -0.0964522 -0.0893808 0.188812 -0.101823 -0.0826728 0.158324 -0.070408 -0.0447779 0.133635 -0.0574427 -0.0914951 0.108183 -0.0972598 -0.0854992 0.184701 -0.02751 -0.08591 0.13761 -0.04738 -0.08657 0.15504 -0.101501 -0.0908809 0.158859 -0.0564 -0.09245 0.11128 -0.08837 -0.09115 0.1834 -0.05889 -0.09121 0.15958 -0.0966417 -0.0914289 0.187359 -0.0378377 -0.0471481 0.167002 -0.0306454 -0.0909124 0.11015 -0.03445 -0.08985 0.13888 -0.08319 -0.09326 0.16986 -0.0268644 -0.0858602 0.136933 -0.0535235 -0.0918029 0.107634 -0.0964928 -0.0905951 0.188373 -0.04819 -0.09158 0.13991 -0.0967462 -0.0877228 0.187356 -0.0967705 -0.0917857 0.186543 0.042983 -0.0642851 0.0943363 0.0539491 -0.0654248 0.1312 0.0565326 0 0.17808 0.11058 0 0.0847932 0.108359 -0.01488 0.0851068 0.12832 0 0.13017 0.0909453 -0.03981 0.0875652 0.0591658 -0.0525369 0.156545 0.06671 -0.02693 0.16987 0.06638 -0.05119 0.15552 0.11578 -0.02323 0.14057 0.059357 -0.0277419 0.171616 0.1204 0 0.13944 0.0489515 -0.0681631 0.112506 0.05399 -0.06711 0.11233 0.0636662 -0.0568146 0.0914164 0.0571777 -0.0611596 0.144728 0.06671 -0.06334 0.13017 0.101587 -0.0288 0.0860628 0.1242 -0.01718 0.12666 0.08935 -0.04715 0.14238 0.1134 -0.0358 0.13017 0.12494 -0.01743 0.13017 0.07888 0 0.16643 0.09122 -0.05202 0.13017 0.09094 -0.05172 0.12664 0.0788395 -0.04863 0.0892742 0.06832 -0.06275 0.12667 0.11298 -0.03536 0.12665 0.12747 0 0.12667 0.052271 -0.0668469 0.124631 0.05935 -0.06084 0.14442 0.12747 0 0.12667 0.12832 0 0.13017 0.0565326 0 0.17808 0.11058 0 0.0847932 0.042983 0.0642851 0.0943363 0.0909453 0.03981 0.0875652 0.0489515 0.0681631 0.112506 0.0591658 0.0525369 0.156545 0.06671 0.02693 0.16987 0.11578 0.02323 0.14057 0.06638 0.05119 0.15552 0.101587 0.0288 0.0860628 0.0571777 0.0611596 0.144728 0.059357 0.0277419 0.171616 0.1242 0.01718 0.12666 0.1204 0 0.13944 0.08935 0.04715 0.14238 0.1134 0.0358 0.13017 0.0591936 0.0587164 0.0920478 0.108359 0.01488 0.0851068 0.12494 0.01743 0.13017 0.07888 0 0.16643 0.09122 0.05202 0.13017 0.09094 0.05172 0.12664 0.0788395 0.04863 0.0892742 0.0539491 0.0654248 0.1312 0.06671 0.06334 0.13017 0.05399 0.06711 0.11233 0.0576024 0.00890895 0.176562 0.06832 0.06275 0.12667 0.11298 0.03536 0.12665 0.05935 0.06084 0.14442 0.0288768 -0.0527252 0.0109255 0.0298709 -0.104086 0.0197485 0.0383486 -0.0654861 0.0949906 0.035432 -0.10368 0.0691052 0.099992 -0.0538201 0.053786 0.0836406 -0.0542051 0.0089521 0.0738041 -0.0514212 0.0899851 0.1004 -0.06334 0.05501 0.04562 -0.0504446 0.0714538 0.028822 -0.0780048 0.0104398 0.08312 -0.07751 0.00753 0.06702 -0.07102 0.00714 0.0291883 -0.0920168 0.0136902 0.10046 -0.07855 0.05516 0.0317221 -0.0514045 0.0106892 0.05162 -0.10249 0.01515 0.052 -0.10428 0.0175 0.0360433 -0.0604723 0.0745305 0.08317 -0.06207 0.00765 0.08512 -0.10174 0.05569 0.08463 -0.10236 0.05392 0.09968 -0.0943 0.05301 0.09893 -0.10086 0.05095 0.0448428 -0.0521337 0.00948255 0.0591936 -0.0587164 0.0920478 0.06949 -0.10266 0.01394 0.09829 -0.1015 0.04921 0.08545 -0.10148 0.01388 0.08497 -0.1009 0.01263 0.06918 -0.1013 0.01309 0.0343034 -0.10428 0.0590882 0.09929 -0.09923 0.05195 0.0288768 0.0527252 0.0109255 0.0383486 0.0654861 0.0949906 0.0300005 0.10444 0.020899 0.035432 0.10368 0.0691052 0.09893 0.10086 0.05095 0.099992 0.0538201 0.053786 0.08545 0.10148 0.01388 0.0738041 0.0514212 0.0899851 0.0836406 0.0542051 0.0089521 0.04562 0.0504446 0.0714538 0.028822 0.0780048 0.0104398 0.08312 0.07751 0.00753 0.06702 0.07102 0.00714 0.0291883 0.0920168 0.0136902 0.08471 0.09957 0.01188 0.05162 0.10249 0.01515 0.0317221 0.0514045 0.0106892 0.0360433 0.0604723 0.0745305 0.052 0.10428 0.0175 0.029755 0.102898 0.0187204 0.06949 0.10266 0.01394 0.08463 0.10236 0.05392 0.08317 0.06207 0.00765 0.08512 0.10174 0.05569 0.09968 0.0943 0.05301 0.10046 0.07855 0.05516 0.0448428 0.0521337 0.00948255 0.0591936 0.0587164 0.0920478 0.09829 0.1015 0.04921 0.1004 0.06334 0.05501 0.03298 0.10406 0.01901 0.09929 0.09923 0.05195 0.0383486 -0.0654861 0.0949906 0.035217 -0.104106 0.0671962 0.028822 -0.0780048 0.0104398 -0.0403285 -0.101668 0.0415617 -0.0313956 -0.0709753 0.104837 -0.0439122 -0.0296717 0.0161775 0.0288768 -0.0527252 0.0109255 0.0298709 -0.104086 0.0197485 -0.0313956 -0.0902351 0.104837 -0.0348425 -0.101696 0.0804211 -0.0345761 -0.0539976 0.0823079 0.00752 -0.0819 0.01228 -0.00545223 -0.0889515 0.101174 0.0360433 -0.0604723 0.0745305 0.0291883 -0.0920168 0.0136902 0.035432 -0.10368 0.0691052 -0.01045 -0.10236 0.07858 -0.0135 -0.10194 0.03086 0.01469 -0.10294 0.02177 0.01513 -0.10421 0.02325 -0.00395 -0.10344 0.02866 -0.01279 -0.10353 0.03308 -0.0401096 -0.1021 0.0431127 0.029755 -0.102898 0.0187204 0.03029 -0.10428 0.06852 -0.018735 -0.0900539 0.103049 -0.0404506 -0.100356 0.0406974 0.03134 -0.10384 0.07021 0.0300005 -0.10444 0.020899 -0.02261 -0.10269 0.035 0.00669 -0.0829656 0.0994601 -0.04337 -0.03104 0.01617 0.0300005 0.10444 0.020899 0.0383486 0.0654861 0.0949906 0.0288768 0.0527252 0.0109255 -0.0403285 0.101668 0.0415617 -0.0439122 0.0296717 0.0161775 -0.0313956 0.0902351 0.104837 0.035432 0.10368 0.0691052 -0.0345761 0.0539976 0.0823079 -0.0313956 0.0709753 0.104837 -0.0348425 0.101696 0.0804211 0.028822 0.0780048 0.0104398 0.00752 0.0819 0.01228 -0.00545223 0.0889515 0.101174 0.0291883 0.0920168 0.0136902 0.0360433 0.0604723 0.0745305 0.029755 0.102898 0.0187204 0.01469 0.10294 0.02177 -0.01045 0.10236 0.07858 0.03029 0.10428 0.06852 0.01513 0.10421 0.02325 -0.00395 0.10344 0.02866 -0.01279 0.10353 0.03308 -0.0135 0.10194 0.03086 -0.0401096 0.1021 0.0431127 0.035217 0.104106 0.0671962 0.0298709 0.104086 0.0197485 -0.018735 0.0900539 0.103049 -0.0404506 0.100356 0.0406974 0.03134 0.10384 0.07021 -0.02261 0.10269 0.035 0.00669 0.0829656 0.0994601 -0.04337 0.03104 0.01617</float_array>
                    <technique_common>
                        <accessor count="522" source="#shape0-lib-positions-array" stride="3">
                            <param name="X" type="float"/>
                            <param name="Y" type="float"/>
                            <param name="Z" type="float"/>
                        </accessor>
                    </technique_common>
                </source>
                <vertices id="shape0-lib-vertices">
                    <input semantic="POSITION" source="#shape0-lib-positions"/>
                </vertices>
                <triangles count="956">
                    <input offset="0" semantic="VERTEX" source="#shape0-lib-vertices"/>
                    <p>0 1 2 3 2 1 4 0 2 5 6 3 7 1 0 7 5 1 8 2 3 8 4 2 9 4 8 9 3 6 9 8 3 10 5 7 10 6 5 11 6 10 11 0 4 12 3 1 12 1 5 12 5 3 13 6 11 13 4 9 13 9 6 14 10 0 14 0 11 14 11 10 15 7 0 15 0 10 15 10 7 16 11 4 16 4 13 16 13 11 17 18 19 20 21 22 23 17 19 24 17 23 24 23 20 25 19 18 25 21 19 26 22 21 26 21 25 26 25 18 27 24 20 27 20 22 28 27 22 28 18 17 29 21 20 29 20 23 29 23 21 30 28 22 30 22 26 30 26 18 31 17 27 31 27 28 31 28 17 32 17 24 32 24 27 32 27 17 33 18 28 33 28 30 33 30 18 34 19 21 34 21 23 34 23 19 35 36 37 38 39 40 38 41 35 38 37 39 38 35 37 42 41 38 42 38 40 43 36 42 43 42 44 43 44 37 43 37 36 45 39 37 45 44 39 46 44 42 46 42 40 46 39 44 46 40 39 47 35 41 47 41 42 47 42 36 48 36 35 48 35 47 48 47 36 49 37 44 49 44 45 49 45 37 50 51 52 51 50 53 54 52 51 55 50 52 56 51 53 57 54 51 58 59 56 58 56 55 58 52 59 58 55 52 60 52 54 60 54 59 61 56 59 61 59 54 61 54 57 62 55 56 62 53 50 62 56 53 63 50 55 63 55 62 63 62 50 64 59 52 64 52 60 64 60 59 65 51 56 65 56 57 65 57 51 66 57 56 66 56 61 66 61 57 67 68 69 70 71 68 70 68 67 72 70 67 73 71 70 73 70 72 74 68 71 75 69 68 75 68 74 76 67 69 77 69 74 77 74 71 78 69 77 78 72 76 78 76 69 79 72 67 79 67 76 79 76 72 80 74 69 80 69 75 80 75 74 81 71 73 82 73 72 82 81 73 83 71 81 83 81 82 83 82 72 83 72 78 83 78 77 83 77 71 84 85 86 87 84 88 87 85 84 89 85 87 90 87 88 90 89 87 91 88 84 92 84 86 92 91 84 93 86 85 94 88 91 94 91 86 95 94 86 95 86 93 96 86 91 96 91 92 96 92 86 97 85 89 97 89 93 97 93 85 98 90 88 99 89 90 99 90 98 100 98 88 100 99 98 100 89 99 100 94 95 100 95 89 100 88 94 101 93 89 101 89 95 101 95 93 102 103 104 105 104 103 106 107 102 108 107 103 109 107 106 109 106 110 109 105 103 109 102 105 109 103 107 111 102 104 111 105 102 112 110 106 113 107 108 114 104 105 114 105 111 114 111 104 115 110 112 115 112 102 115 102 109 115 109 110 116 113 108 116 102 107 116 107 113 116 103 102 116 108 103 117 102 112 117 112 106 118 106 102 118 102 117 118 117 106 119 120 121 122 120 119 123 120 122 124 119 121 125 124 126 127 123 122 127 126 123 127 125 126 128 126 124 128 124 121 129 126 128 130 123 126 130 126 129 130 120 123 131 121 120 132 122 119 132 125 122 133 122 125 133 125 127 133 127 122 134 119 124 134 124 125 134 125 119 135 129 131 135 120 130 135 130 129 136 121 131 136 131 129 136 128 121 137 119 125 137 125 132 137 132 119 138 131 120 138 120 135 138 135 131 139 129 128 139 128 136 139 136 129 140 141 142 143 141 140 144 142 141 145 143 140 146 147 145 148 144 147 148 147 146 148 142 144 149 143 145 149 145 147 150 149 147 151 144 141 151 147 144 151 150 147 152 141 143 153 140 142 153 142 146 154 146 142 154 142 148 154 148 146 155 145 140 155 140 146 155 146 145 156 152 150 156 150 151 156 151 141 157 150 152 157 152 143 157 143 149 157 149 150 158 146 140 158 140 153 158 153 146 159 141 152 159 152 156 159 156 141 160 161 162 160 162 163 160 163 164 165 162 161 165 164 162 166 162 164 167 161 160 168 161 164 168 165 161 169 164 165 169 168 164 170 163 166 170 166 164 171 167 160 172 165 168 172 168 169 172 169 165 173 167 171 173 160 164 173 171 160 173 164 161 173 161 167 174 163 170 174 170 164 175 163 162 175 162 166 175 166 163 176 164 163 176 163 174 176 174 164 177 178 179 180 179 178 181 179 182 183 182 184 183 181 182 183 184 177 183 177 181 185 182 179 186 182 180 186 180 178 186 184 182 187 180 182 187 182 185 187 185 180 188 178 184 188 184 186 189 180 185 189 185 179 190 177 184 190 184 178 190 178 177 191 186 178 191 178 188 191 188 186 192 179 180 192 180 189 192 189 179 193 177 179 193 179 181 193 181 177 194 195 196 197 196 198 199 198 196 200 194 197 200 197 201 200 201 195 200 195 194 202 196 195 203 198 199 203 199 195 203 195 201 204 195 199 204 199 202 204 202 195 205 201 198 205 203 201 206 196 202 206 202 199 207 198 201 207 201 197 207 197 198 208 198 203 208 203 205 208 205 198 209 199 196 209 196 206 209 206 199 210 194 196 210 196 197 210 197 194 211 212 213 214 215 211 216 211 215 216 212 211 217 218 214 217 211 213 219 214 211 219 211 217 220 221 222 220 216 215 220 215 221 223 218 217 223 215 218 224 213 212 225 218 215 225 215 214 225 214 218 226 216 220 226 220 222 226 212 216 226 222 212 227 228 224 229 224 212 229 227 224 230 217 214 230 214 219 230 219 217 231 215 228 232 223 213 232 213 224 232 224 228 233 223 232 233 232 228 233 228 215 233 215 223 234 221 215 234 215 231 234 222 221 234 231 222 235 228 227 235 231 228 236 217 213 236 213 223 236 223 217 237 229 212 237 227 229 237 235 227 238 235 237 238 237 212 238 231 235 238 212 222 238 222 231 239 240 241 242 241 240 243 239 241 244 241 242 244 243 241 245 242 240 246 240 239 247 246 239 248 245 249 250 249 245 251 244 242 251 252 244 253 249 250 253 246 247 254 246 253 254 253 250 254 240 246 254 245 240 254 250 245 255 256 239 257 252 251 257 242 245 257 251 242 257 245 248 257 248 252 258 256 259 258 239 256 260 248 249 261 239 249 261 247 239 262 243 244 262 244 252 263 259 256 263 256 255 263 243 259 264 252 248 264 248 258 264 258 259 265 243 263 265 263 255 265 239 243 265 255 239 266 258 260 266 260 249 266 249 239 266 239 258 267 262 252 267 252 264 267 243 262 267 259 243 267 264 259 268 253 247 268 247 261 268 249 253 268 261 249 269 258 248 269 248 260 269 260 258 270 271 272 273 271 274 275 274 271 276 271 270 276 270 275 276 275 271 277 274 275 277 270 278 279 280 281 279 272 271 279 281 272 282 274 277 282 277 278 282 278 272 283 273 274 284 270 272 284 272 278 284 278 270 285 280 279 285 279 271 285 271 273 286 287 272 288 287 283 289 275 270 289 270 277 289 277 275 290 287 288 290 288 282 290 272 287 290 282 272 291 272 281 291 286 272 291 281 280 291 280 286 292 283 287 293 286 280 294 285 273 294 273 293 294 280 285 294 293 280 295 273 283 295 283 292 295 292 273 296 286 293 296 293 273 296 273 292 296 292 287 296 287 286 297 283 274 297 288 283 297 274 282 297 282 288 298 299 300 301 298 300 302 301 300 303 300 299 303 302 300 304 301 302 305 298 301 306 298 305 307 308 304 309 304 308 310 305 301 310 301 304 310 304 309 311 302 303 312 309 308 312 310 309 312 305 310 312 306 305 313 298 314 315 311 316 315 304 302 315 302 311 315 316 307 315 307 304 317 318 314 317 314 298 319 308 307 320 308 298 320 298 306 321 303 299 321 316 303 322 318 299 322 314 318 322 313 314 323 307 316 323 318 317 323 317 307 324 313 322 324 322 299 324 299 298 324 298 313 325 303 316 325 316 311 325 311 303 326 308 319 326 319 317 326 298 308 326 317 298 327 316 321 327 323 316 327 321 299 327 299 318 327 318 323 328 308 320 328 320 306 328 306 312 328 312 308 329 307 317 329 317 319 329 319 307 330 331 332 333 334 330 333 330 332 333 332 335 336 330 334 337 332 331 338 339 340 341 337 339 341 339 338 341 332 337 341 338 332 342 335 332 342 340 335 343 331 330 343 330 344 345 330 336 345 344 330 346 337 331 346 331 347 348 334 349 348 336 334 350 351 340 350 340 339 352 340 351 352 335 340 352 349 335 353 340 342 353 342 332 353 332 338 353 338 340 354 355 351 354 351 350 356 355 344 356 344 345 356 336 355 356 345 336 357 347 344 357 354 347 357 344 355 357 355 354 358 349 352 358 352 351 358 336 348 358 348 349 358 351 355 358 355 336 359 335 349 359 349 334 359 334 333 359 333 335 360 343 344 360 344 347 360 331 343 360 347 331 361 354 350 361 346 347 361 347 354 361 350 339 361 339 337 361 337 346 362 363 364 364 365 362 366 367 365 366 365 364 366 364 368 369 368 364 370 371 372 373 365 367 374 368 369 375 369 364 375 372 369 375 370 372 376 363 362 377 364 363 377 363 371 378 372 371 378 371 379 380 367 366 381 365 373 381 373 376 381 362 365 381 376 362 382 371 363 382 363 376 382 379 371 383 364 377 383 377 371 383 371 370 383 370 364 384 379 385 384 378 379 386 385 367 386 367 380 387 388 368 387 368 374 387 374 388 389 385 386 389 386 380 389 366 368 389 380 366 389 368 388 390 364 370 390 370 375 390 375 364 391 384 385 391 385 389 391 388 384 391 389 388 392 379 382 392 382 376 392 367 385 392 385 379 392 376 373 392 373 367 393 378 384 393 388 374 393 384 388 393 372 378 393 369 372 393 374 369 394 395 396 397 396 395 398 399 400 398 400 401 402 400 399 402 396 400 403 395 394 404 403 405 406 395 403 407 398 401 407 401 400 408 403 394 408 394 402 408 402 399 409 395 406 409 410 395 411 394 396 411 396 402 411 402 394 412 404 405 412 399 398 413 397 414 413 396 397 415 407 400 415 416 398 415 398 407 417 408 399 417 399 412 417 412 405 417 405 403 417 403 408 418 400 396 418 396 413 419 410 409 420 414 410 420 416 413 420 413 414 421 410 419 421 420 410 421 419 422 421 416 420 421 404 412 421 412 398 421 422 404 421 398 416 423 409 406 423 419 409 423 422 419 423 406 403 423 403 404 423 404 422 424 397 395 424 395 410 424 414 397 424 410 414 425 413 416 425 418 413 425 400 418 425 416 415 425 415 400 426 427 428 429 428 427 430 431 432 433 434 431 435 433 427 435 434 433 436 426 428 437 438 436 439 436 428 440 439 441 440 437 436 440 436 439 440 432 437 442 426 436 442 434 435 442 435 426 443 427 426 443 426 435 443 435 427 444 428 429 445 441 439 445 439 428 446 441 444 446 444 432 446 432 440 446 440 441 447 444 429 448 438 437 448 437 432 448 432 431 448 431 434 449 447 429 449 429 427 450 433 451 450 451 431 450 431 430 452 438 448 452 434 442 452 448 434 452 436 438 452 442 436 453 427 433 453 449 427 454 447 449 454 449 430 454 432 444 454 444 447 454 430 432 455 431 451 455 451 433 455 433 431 456 444 441 456 441 445 456 428 444 456 445 428 457 430 449 457 449 453 457 453 433 457 433 450 457 450 430 458 459 460 461 462 463 464 458 460 464 460 463 465 460 459 466 462 461 466 458 462 467 466 461 468 462 458 468 458 463 468 463 462 469 463 460 470 458 466 471 463 458 471 458 464 471 464 463 472 460 465 472 469 460 473 459 458 474 466 467 475 469 476 477 476 465 478 475 476 478 476 477 478 477 479 480 467 461 480 479 467 481 476 469 481 469 472 481 465 476 481 472 465 482 479 477 482 474 467 482 467 479 483 470 466 484 469 475 484 461 463 485 473 470 485 470 483 485 483 466 485 474 482 485 459 473 485 482 459 485 466 474 486 477 465 486 482 477 486 465 459 486 459 482 487 461 484 487 484 475 487 479 480 487 480 461 487 475 478 487 478 479 488 458 470 488 470 473 488 473 458 489 463 469 489 469 484 489 484 463 490 491 492 493 494 495 496 491 490 497 495 494 497 494 491 498 491 495 498 495 497 498 497 491 499 493 495 500 490 492 500 492 494 500 494 501 502 495 491 503 490 500 503 500 501 504 494 492 504 492 491 504 491 494 505 490 503 505 501 506 505 503 501 507 499 495 508 499 507 509 508 490 509 506 510 511 508 509 511 509 510 511 499 508 512 506 501 512 510 506 513 493 499 513 499 511 514 496 490 514 490 508 515 505 506 515 506 509 515 490 505 515 509 490 516 495 502 517 512 501 517 494 493 518 502 496 518 516 502 518 495 516 518 496 514 518 514 508 518 508 507 518 507 495 519 512 517 519 517 493 519 493 513 519 513 511 519 510 512 519 511 510 520 491 496 520 496 502 520 502 491 521 501 494 521 494 517 521 517 501</p>
                </triangles>
            </mesh>
        </geometry>
    </library_geometries>
    <library_visual_scenes>
        <visual_scene id="VisualSceneNode" name="VisualScene">
            <node id="node" name="node">
                <instance_geometry url="#shape0-lib">
                    <bind_material>
                        <technique_common/>
                    </bind_material>
                </instance_geometry>
            </node>
        </visual_scene>
    </library_visual_scenes>
    <scene>
        <instance_visual_scene url="#VisualSceneNode"/>
    </scene>
</COLLADA>
