<?xml version="1.0" encoding="UTF-8"?>
<COLLADA xmlns="http://www.collada.org/2005/11/COLLADASchema" version="1.4.1">
    <asset>
        <contributor>
            <author>VCGLab</author>
            <authoring_tool>VCGLib | MeshLab</authoring_tool>
        </contributor>
        <up_axis>Y_UP</up_axis>
        <created>Fri Mar 2 10:25:06 2012</created>
        <modified>Fri Mar 2 10:25:06 2012</modified>
    </asset>
    <library_images/>
    <library_materials/>
    <library_effects/>
    <library_geometries>
        <geometry id="shape0-lib" name="shape0">
            <mesh>
                <source id="shape0-lib-positions" name="position">
                    <float_array id="shape0-lib-positions-array" count="768">0.0381909 0.0239798 -0.042 0.000531557 0.000316874 -0.0390619 -0.0313918 0.0334019 -0.042 0 0.04599 -0.042 -0.0279328 0.0326959 -0.0305 0.0361106 0.0226727 -0.0305 0.01662 0.0402 -0.0305 0.017365 0.042598 -0.042 0 0.04599 -0.033 -0.017365 0.042598 -0.042 -0.01741 0.04258 -0.033 0.032147 0.032906 -0.042 0.03215 0.0329 -0.033 -0.0300398 0.0342858 -0.033 0.01741 0.04258 -0.033 0.0381765 0.0239708 -0.033 0.027503 0.0172641 -0.0306563 0 0.04349 -0.0305 -0.01662 0.0402 -0.0305 0.03058 0.03094 -0.0305 -0.0247028 0.0292718 -0.0305 0.02849 0.0178843 -0.0305 0 0.046 -0.07725 0.046 0 -0.07725 0 0.0443 -0.063 0.0379064 0.0423534 -0.07725 0 0.04599 -0.042 0.046 0 -0.042 0.017365 0.042598 -0.042 0.042486 0.017616 -0.042 0.0454855 0.0281546 -0.07725 0.032147 0.032906 -0.042 0.0281546 0.0454855 -0.07725 0.0423534 0.0379064 -0.07725 0.0443 0 -0.063 0.0343434 0.0440074 -0.07725 0.0440074 0.0343434 -0.07725 0.046 0.021384 -0.07725 0.021384 0.046 -0.07725 0.000531557 0.000316874 -0.0390619 -0.027983 -0.0176 0.00243376 -0.0381434 -0.0239842 -0.042 -0.0263915 -0.0166 0.00522448 -0.046 0 -0.033 -0.0313918 0.0334019 -0.042 -0.0300398 0.0342858 -0.033 -0.042486 0.017616 -0.042 -0.046 0 -0.042 -0.04251 0.01755 -0.033 -0.0426 -0.01734 -0.033 -0.0247028 0.0292718 -0.0305 -0.0381434 -0.0239842 -0.033 -0.0426 -0.01734 -0.042 -0.0279328 0.0326959 -0.0305 -0.03215 0.0329 -0.033 -0.032147 0.032906 -0.042 -0.03058 0.03094 -0.0305 -0.02604 -0.0176 0.01158 -0.0191 -0.0341 0.02115 -0.0191 -0.0176 0.02116 0.0276691 -0.0341 -0.00814328 0.0222254 -0.0351 -0.00814328 0.0266691 -0.0166 -0.00814328 -0.02604 -0.0341 0.01157 0.02604 -0.0341 0.01157 0.02604 -0.0176 0.01158 0.0191 -0.0176 0.02116 0.0285 -0.0341 0 0.00887 -0.0341 0.02709 0 -0.0341 0.0285 0.01843 -0.0351 0.02042 0 -0.0176 0.0285 -0.0285 -0.0179249 0 -0.0263915 -0.0166 -0.00675 0.0285 -0.0176 0 -0.00887 -0.0341 0.02709 0.00885 -0.0176 0.02709 -0.00885 -0.0176 0.02709 -0.0285 -0.0341 0 -0.0278112 -0.0341 -0.00675 -0.0278112 -0.0176 -0.00675 -0.0268112 -0.0351 -0.00675 0.00854 -0.0166 0.02614 -0.01843 -0.0351 0.02042 -0.01843 -0.0166 0.02042 0.0191 -0.0341 0.02115 0.0276691 -0.0176 -0.00814328 0.02513 -0.0166 0.01117 0.0275 -0.0351 0 0.010601 -0.0166 -0.00814328 0.0266691 -0.0166 -0.00814328 0.0361106 0.0226727 -0.0305 0.0266691 -0.0351 -0.00814328 0.000132517 6.0548e-05 -0.0390905 0.0241559 -0.0381724 -0.042 0.0426 -0.01734 -0.042 0.042486 0.017616 -0.042 0.0381909 0.0239798 -0.042 0.0222254 -0.0351 -0.00820628 0.046 0 -0.042 0.046 0 -0.033 0.04251 0.01755 -0.033 0.03217 -0.03289 -0.033 0.03217 -0.03289 -0.042 0.0426 -0.01734 -0.033 0.0381765 0.0239708 -0.033 0.0264589 0.0166081 -0.030797 0.0276691 -0.0341 -0.00814328 0.0276691 -0.0176 -0.00814328 0.04024 0.0165 -0.0305 0.02849 0.0178843 -0.0305 0.0222254 -0.0351 -0.00675 0.0241559 -0.0381724 -0.042 0.010601 -0.0166 -0.00675 0.000132517 6.0548e-05 -0.0390905 -0.0278112 -0.0176 -0.00675 -0.0381434 -0.0239842 -0.042 -0.01756 -0.04252 -0.042 -0.0268112 -0.0351 -0.00675 0 -0.04599 -0.033 0 -0.04599 -0.042 0.01756 -0.04252 -0.033 -0.03217 -0.03289 -0.042 -0.0381434 -0.0239842 -0.033 0.01756 -0.04252 -0.042 -0.01756 -0.04252 -0.033 0.0241559 -0.0381724 -0.033 -0.0278112 -0.0341 -0.00675 -0.0263915 -0.0166 -0.00675 -0.03217 -0.03289 -0.033 0.046 0 -0.07725 0 0.0075 -0.078 0 1e-05 -0.1125 0 0.046 -0.105 0 0.046 -0.07725 0.0379064 0.0423534 -0.07725 0.034 0.00402 -0.1125 0.03394 0.04571 -0.105 0.034 0 -0.1125 0.046 0 -0.105 0.0454855 0.0281546 -0.07725 0.0281546 0.0454855 -0.07725 0.0423534 0.0379064 -0.07725 0.03933 0.04347 -0.08403 0.04347 0.03933 -0.08403 0.04161 0.04161 -0.105 0.04 0.02 -0.1095 0.04571 0.03394 -0.105 0.04078 0.04083 -0.07831 0 0.00401 -0.1125 0.04486 0.03674 -0.105 0.03674 0.04486 -0.105 0.04486 0.03674 -0.08403 0.03674 0.04486 -0.08403 0.04401 0.0353 -0.07793 0.04549 0.03324 -0.08085 0.0353 0.04401 -0.07793 0.03324 0.04549 -0.08085 0.046 0.031 -0.08403 0.031 0.046 -0.08403 0.021384 0.046 -0.07725 0.0440074 0.0343434 -0.07725 0 0 -0.1125 0 -0.04599 -0.042 0 -0.046 -0.105 -0.03217 -0.03289 -0.042 -0.046 0 -0.042 0 -0.0075 -0.078 -0.034 0 -0.1125 -0.034 -0.004 -0.1125 -0.046 -0.0025 -0.105 -0.0426 -0.01734 -0.042 -0.01756 -0.04252 -0.042 -0.046 0 -0.105 -0.03867 -0.02667 -0.065 -0.04269 -0.01915 -0.065 -0.04269 -0.01915 -0.105 -0.02667 -0.03867 -0.065 -0.01915 -0.04269 -0.065 -0.01915 -0.04269 -0.105 -0.01099 -0.04516 -0.065 -0.01099 -0.04516 -0.105 -0.04516 -0.01099 -0.065 -0.02667 -0.03867 -0.105 -0.03326 -0.03326 -0.105 -0.03867 -0.02667 -0.105 -0.04516 -0.01099 -0.105 -0.03326 -0.03326 -0.065 0 -0.004 -0.1125 -0.0025 -0.046 -0.065 -0.0025 -0.046 -0.105 -0.046 -0.0025 -0.065 0 1e-05 -0.1125 0 0.046 -0.105 0 0.04599 -0.042 -0.046 0 -0.042 -0.034 0 -0.1125 -0.032147 0.032906 -0.042 -0.046 0 -0.105 0 0.0075 -0.078 -0.042486 0.017616 -0.042 -0.017365 0.042598 -0.042 -0.031 0.046 -0.08403 -0.03394 0.04571 -0.105 -0.046 0.031 -0.08403 -0.04571 0.03394 -0.105 -0.034 0.004 -0.1125 0 0.00401 -0.1125 -0.04486 0.03674 -0.105 -0.03674 0.04486 -0.105 -0.03682 0.04483 -0.08403 -0.03831 0.04274 -0.07822 -0.04083 0.04078 -0.07831 -0.04274 0.03831 -0.07822 -0.04166 0.04155 -0.08403 -0.04483 0.03681 -0.08403 -0.04549 0.03324 -0.08085 -0.03324 0.04549 -0.08085 -0.04571 0.03392 -0.08403 -0.03392 0.04571 -0.08403 -0.04348 0.03932 -0.105 -0.04161 0.04161 -0.105 -0.03932 0.04348 -0.105 -0.03933 0.04347 -0.08403 0 -0.046 -0.105 0 -0.004 -0.1125 0.031 -0.046 -0.105 0 -0.04599 -0.042 0.03217 -0.03289 -0.042 0.046 0 -0.042 0 -0.0075 -0.078 0.034 -0.004 -0.1125 0 0 -0.1125 0.046 0 -0.105 0.0426 -0.01734 -0.042 0.01756 -0.04252 -0.042 0.034 0 -0.1125 0.046 -0.031 -0.08403 0.04166 -0.04156 -0.08403 0.03682 -0.04483 -0.08403 0.03932 -0.04348 -0.105 0.04486 -0.03674 -0.105 0.04483 -0.03681 -0.08403 0.046 -0.031 -0.105 0.031 -0.046 -0.08403 0.04161 -0.04161 -0.105 0.03394 -0.04571 -0.105 0.03831 -0.04274 -0.07822 0.04083 -0.04078 -0.07831 0.04274 -0.03831 -0.07822 0.03324 -0.04549 -0.08085 0.04549 -0.03324 -0.08085 0.04571 -0.03392 -0.08403 0.03392 -0.04571 -0.08403 0.04571 -0.03394 -0.105 0.03674 -0.04486 -0.105</float_array>
                    <technique_common>
                        <accessor count="256" source="#shape0-lib-positions-array" stride="3">
                            <param name="X" type="float"/>
                            <param name="Y" type="float"/>
                            <param name="Z" type="float"/>
                        </accessor>
                    </technique_common>
                </source>
                <vertices id="shape0-lib-vertices">
                    <input semantic="POSITION" source="#shape0-lib-positions"/>
                </vertices>
                <triangles count="472">
                    <input offset="0" semantic="VERTEX" source="#shape0-lib-vertices"/>
                    <p>0 1 2 3 0 2 4 2 1 5 6 4 5 1 0 7 0 3 8 7 3 9 8 3 9 10 8 9 3 2 9 2 10 11 0 7 11 12 0 13 2 4 13 10 2 14 12 11 14 11 7 14 6 12 14 7 8 15 5 0 15 0 12 16 1 5 17 6 14 17 14 8 17 8 10 17 4 6 18 4 17 18 17 10 18 10 13 18 13 4 19 5 15 19 15 12 19 6 5 19 12 6 20 5 4 20 4 1 20 1 16 21 16 5 21 5 20 21 20 16 22 23 24 22 25 23 26 22 24 26 27 28 29 28 27 30 29 27 30 23 25 31 25 28 31 28 29 32 25 22 32 26 28 33 25 31 33 31 29 33 30 25 34 27 26 34 26 24 34 24 23 34 23 27 35 28 25 35 25 32 35 32 28 36 29 30 36 30 33 36 33 29 37 27 23 37 23 30 37 30 27 38 22 26 38 26 32 38 32 22 39 40 41 40 39 42 43 40 42 44 45 39 44 39 41 44 41 46 47 46 41 48 46 47 48 47 43 48 43 42 49 43 47 49 40 43 50 42 39 50 39 45 51 41 40 51 40 49 51 49 41 52 47 41 52 41 49 52 49 47 53 42 50 53 50 45 54 53 45 54 48 42 54 46 48 54 45 44 55 44 46 55 46 54 55 54 44 56 42 53 56 53 54 56 54 42 57 58 59 60 61 62 63 58 57 64 65 66 64 67 65 68 69 70 68 71 69 72 57 73 74 67 60 74 65 67 75 59 58 75 69 71 76 71 68 76 68 66 77 59 75 77 75 71 78 63 57 78 57 72 78 72 79 80 79 72 80 72 73 80 73 62 80 62 61 80 61 79 81 63 78 81 78 79 81 61 70 81 79 61 82 77 71 82 76 66 82 71 76 82 62 73 83 58 63 83 63 81 83 81 70 83 70 69 83 69 75 83 75 58 84 59 77 84 77 82 84 82 73 84 73 57 84 57 59 85 66 68 85 68 70 85 70 64 85 64 66 86 60 62 86 62 74 86 74 60 87 66 65 87 82 66 87 62 82 87 65 74 87 74 62 88 67 64 88 64 70 88 61 60 88 60 67 88 70 61 89 90 91 89 92 90 89 93 94 95 94 96 97 94 93 97 96 94 98 94 92 98 92 89 98 89 94 99 95 96 99 100 95 101 100 99 101 99 96 101 96 97 102 92 94 103 94 95 103 95 102 103 102 94 104 102 95 104 95 100 105 97 91 105 91 101 105 101 97 106 91 97 106 97 93 106 93 89 107 104 100 107 92 102 107 102 104 107 90 92 108 90 107 108 107 100 108 100 101 108 91 90 109 101 91 109 91 108 109 108 101 110 89 91 110 91 106 110 106 89 111 112 113 114 113 112 115 111 113 116 112 117 116 114 112 118 111 115 119 111 118 120 117 112 120 119 117 121 119 120 121 111 119 122 116 117 123 116 122 124 120 112 124 112 121 124 121 120 125 122 117 125 117 119 125 119 118 126 112 111 126 111 121 126 121 112 127 118 115 127 115 123 128 114 116 128 116 123 128 123 115 128 113 114 128 115 113 129 123 122 129 127 123 129 118 127 129 122 125 129 125 118 130 131 132 133 132 131 134 133 131 134 130 135 134 131 130 136 133 137 138 132 136 138 130 132 138 139 130 140 135 130 141 134 135 142 135 140 143 144 145 146 136 137 146 139 138 146 138 136 146 147 139 148 144 143 148 143 135 148 135 142 148 142 144 149 132 133 149 133 136 149 136 132 150 147 146 150 146 145 150 145 144 151 145 146 151 146 137 151 143 145 152 150 144 152 147 150 153 143 151 153 151 137 154 155 152 154 144 142 154 152 144 154 140 155 156 135 143 156 143 153 156 153 157 156 157 141 156 141 135 158 147 152 158 152 155 158 155 140 158 140 130 158 130 139 158 139 147 159 157 153 159 153 137 159 133 134 159 137 133 160 141 157 160 157 159 160 134 141 160 159 134 161 142 140 161 140 154 161 154 142 162 163 164 165 163 166 167 166 163 167 163 162 167 162 166 168 162 169 168 169 170 168 166 162 171 165 166 172 163 165 173 170 166 173 166 168 173 168 170 174 175 176 174 165 171 174 171 175 177 178 172 177 172 165 177 179 178 180 163 172 180 172 178 180 178 179 181 180 179 181 179 169 182 176 175 182 175 171 182 171 166 183 179 177 183 177 184 183 184 169 183 169 179 185 184 174 185 174 176 185 169 184 185 176 169 186 176 182 186 182 170 186 170 169 186 169 176 187 184 177 187 177 165 187 165 174 187 174 184 188 164 169 188 169 162 188 162 164 189 180 181 189 164 163 189 163 180 190 164 189 190 189 181 190 169 164 190 181 169 191 166 170 191 170 182 191 182 166 192 193 194 192 195 196 197 195 194 198 196 195 199 194 195 199 195 192 199 192 194 200 195 197 201 197 194 202 194 193 202 193 203 204 198 195 204 205 198 206 203 193 206 196 198 206 198 205 206 192 196 207 193 192 207 192 206 207 206 193 208 206 205 209 203 206 209 210 203 211 201 210 211 197 201 211 212 197 213 212 214 213 214 215 213 200 197 213 197 212 213 215 200 216 200 215 216 195 200 217 201 194 217 210 201 218 204 195 218 195 216 218 216 215 218 215 208 218 208 205 218 205 204 219 210 217 219 194 202 219 217 194 219 203 210 219 202 203 220 208 215 220 221 206 220 206 208 220 215 214 220 214 221 222 210 209 222 206 221 222 209 206 223 210 222 223 221 214 223 222 221 223 214 212 223 212 211 223 211 210 224 225 226 224 227 225 228 229 227 230 225 227 230 227 229 231 226 225 232 231 225 232 225 230 232 230 229 232 229 233 234 229 228 235 228 227 236 233 231 236 231 232 236 232 233 237 233 229 238 239 240 238 241 242 243 233 237 243 231 233 244 227 224 244 224 226 245 241 238 245 238 240 245 231 241 245 240 231 246 244 226 246 226 231 247 239 238 247 238 248 247 235 239 247 228 235 247 248 228 249 248 238 249 238 242 249 234 228 249 228 248 249 242 234 250 235 227 250 239 235 251 234 242 251 229 234 252 237 229 252 229 251 252 251 242 252 242 241 253 239 250 253 227 244 253 250 227 253 244 246 253 246 239 254 243 237 254 237 252 254 252 241 254 241 231 254 231 243 255 240 239 255 239 246 255 231 240 255 246 231</p>
                </triangles>
            </mesh>
        </geometry>
    </library_geometries>
    <library_visual_scenes>
        <visual_scene id="VisualSceneNode" name="VisualScene">
            <node id="node" name="node">
                <instance_geometry url="#shape0-lib">
                    <bind_material>
                        <technique_common/>
                    </bind_material>
                </instance_geometry>
            </node>
        </visual_scene>
    </library_visual_scenes>
    <scene>
        <instance_visual_scene url="#VisualSceneNode"/>
    </scene>
</COLLADA>
