<?xml version="1.0" encoding="UTF-8"?>
<COLLADA xmlns="http://www.collada.org/2005/11/COLLADASchema" version="1.4.1">
    <asset>
        <contributor>
            <author>VCGLab</author>
            <authoring_tool>VCGLib | MeshLab</authoring_tool>
        </contributor>
        <up_axis>Y_UP</up_axis>
        <created>Fri Mar 2 10:25:01 2012</created>
        <modified>Fri Mar 2 10:25:01 2012</modified>
    </asset>
    <library_images/>
    <library_materials/>
    <library_effects/>
    <library_geometries>
        <geometry id="shape0-lib" name="shape0">
            <mesh>
                <source id="shape0-lib-positions" name="position">
                    <float_array id="shape0-lib-positions-array" count="345">0.04 -0.02892 0.03825 0.04 -0.02208 0.03111 0.04 0 0.06572 0 0.001 0.05827 0 -0.0261691 0.03111 0 -0.0226333 0.044545 0.04 0.00321 0.06084 0.04 -0.02892 0.03111 0 -0.02892 0.03825 0 -0.00599 0.05791 0 -0.02892 0.03118 0.04 0.00321 0.06362 0.04 -0.00247 0.0647 0.0341 -0.00247 0.0647 0.0341 0 0.06572 0.0341 0.00139 0.06544 0.04 0.00139 0.06544 0.0341 0.0035 0.06223 0.0341 0.00321 0.06362 0.04 0.0035 0.06223 0.04 -0.00139 0.06544 0.0341 -0.00139 0.06544 0.04 0.00247 0.0647 0.0341 0.00247 0.0647 0.0341 0.00321 0.06084 0.0341 0.00247 0.05975 0.04 0.00247 0.05975 0 -0.02185 0.04532 -0.04 0.00247 0.05975 0 0.001 0.05827 -0.0151889 -0.02192 0.03111 -0.04 -0.02892 0.03111 -0.04 -0.02892 0.03825 0 -0.0261691 0.03111 0 -0.02892 0.03825 -0.04 -0.00139 0.06544 -0.04 -0.02192 0.03111 0 -0.00599 0.05791 -0.0341 0 0.06572 -0.04 0.00321 0.06362 0 -0.02892 0.03118 -0.04 0.00139 0.06544 0 -0.02185 0.04532 -0.04 0.0035 0.06223 -0.0341 0.0035 0.06223 -0.0341 -0.00139 0.06544 -0.0341 0.00321 0.06084 -0.04 0 0.06572 -0.0341 0.00139 0.06544 -0.0341 0.00247 0.0647 -0.0341 0.00321 0.06362 -0.04 0.00321 0.06084 -0.04 0.00247 0.0647 -0.04 -0.00247 0.0647 -0.0341 -0.00247 0.0647 -0.0105385 -0.02899 0.03111 0 -0.0332923 0.0268077 0 -0.00761905 0.00440238 0 -0.0261691 0.03111 -0.04 0.00247 0.00247 -0.04 0 -0.0035 -0.04 -0.02892 0.03111 -0.04 -0.02192 0.03111 -0.0111 0.00247 0.00247 -0.04 -0.02892 0.02397 -0.04 0.00321 -0.00139 0 -0.0110695 0.00458532 -0.0111 0 -0.0035 -0.0151889 -0.02192 0.03111 0 -0.02899 0.03111 -0.04 -0.00247 -0.00247 -0.0111 -0.00247 -0.00247 -0.0111 0.0035 0 -0.0111 0.00321 -0.00139 -0.04 0.0035 0 -0.0111 0.00139 -0.00321 -0.04 0.00139 -0.00321 -0.01 0.001 0.00395 -0.0111 -0.00139 -0.00321 -0.0111 0.00321 0.00139 -0.04 -0.00139 -0.00321 -0.04 0.00321 0.00139 -0.0111 0.00247 -0.00247 -0.04 0.00247 -0.00247 0 -0.0332923 0.0268077 0 -0.0261691 0.03111 0 -0.0110695 0.00458532 0.04 -0.02892 0.03111 0.04 -0.02208 0.03111 0.04 -0.02892 0.02397 0.04 0.00321 -0.00139 0.04 -0.00247 -0.00247 0 -0.00761905 0.00440238 0.0361 0 -0.0035 0.04 0.00247 0.00247 0.018 -0.03615 0.02395 0.01454 -0.03615 0.02113 0.01046 -0.03615 0.02113 0.01046 -0.02008 0.00506 0 -0.02899 0.03111 0.04 0 -0.0035 0.007 -0.03615 0.02395 0.01454 -0.02008 0.00506 0.04 0.0035 0 0.0361 0.0035 0 0.0361 0.00321 0.00139 0.04 0.00139 -0.00321 0.0361 -0.00139 -0.00321 0.0361 0.00139 -0.00321 0.0361 0.00247 -0.00247 0.04 -0.00139 -0.00321 0.04 0.00321 0.00139 0.0361 0.00321 -0.00139 0.04 0.00247 -0.00247 0.0361 0.00247 0.00247</float_array>
                    <technique_common>
                        <accessor count="115" source="#shape0-lib-positions-array" stride="3">
                            <param name="X" type="float"/>
                            <param name="Y" type="float"/>
                            <param name="Z" type="float"/>
                        </accessor>
                    </technique_common>
                </source>
                <vertices id="shape0-lib-vertices">
                    <input semantic="POSITION" source="#shape0-lib-positions"/>
                </vertices>
                <triangles count="214">
                    <input offset="0" semantic="VERTEX" source="#shape0-lib-vertices"/>
                    <p>0 1 2 3 1 4 5 3 4 6 2 1 7 4 1 7 1 0 8 7 0 8 0 5 8 5 4 9 3 5 10 4 7 10 7 8 10 8 4 11 2 6 12 5 0 12 13 5 12 0 2 14 2 15 14 3 9 14 15 3 16 2 11 16 15 2 17 18 11 17 3 18 19 11 6 19 6 17 19 17 11 20 2 14 20 13 12 20 12 2 21 13 20 21 20 14 21 9 13 21 14 9 22 15 16 22 16 11 22 11 18 23 15 22 23 22 18 23 18 3 23 3 15 24 3 17 24 17 6 25 24 6 25 1 3 25 3 24 26 6 1 26 1 25 26 25 6 27 9 5 27 5 13 27 13 9 28 29 30 28 31 32 33 29 34 33 30 29 33 31 30 35 28 32 36 30 31 36 31 28 36 28 30 37 34 29 37 29 38 39 28 35 40 33 34 41 39 35 42 34 37 42 32 34 43 28 39 43 39 44 45 38 35 45 37 38 46 43 44 46 29 28 46 44 29 47 35 38 47 38 41 47 41 35 48 49 41 48 41 38 48 38 29 48 29 49 50 49 29 50 29 44 50 39 49 50 44 39 51 28 43 51 43 46 51 46 28 52 49 39 52 39 41 52 41 49 53 45 35 53 35 32 53 32 42 54 45 53 54 53 42 54 42 37 54 37 45 55 31 33 55 33 40 55 40 34 55 32 31 55 34 32 56 57 58 59 60 61 62 63 59 62 61 58 62 59 61 64 56 61 64 61 60 65 60 59 66 56 64 66 57 56 66 67 57 68 63 62 68 62 58 69 56 58 69 58 61 69 61 56 70 64 60 70 66 64 71 66 70 72 57 73 72 73 65 74 65 59 74 72 65 75 57 67 75 67 60 76 60 65 76 75 60 77 63 68 77 68 58 77 58 57 78 71 70 78 67 66 78 66 71 78 60 67 79 63 77 79 57 72 79 77 57 79 72 74 79 59 63 80 70 60 80 60 78 80 78 70 81 74 59 81 59 79 81 79 74 82 75 76 82 65 73 82 73 57 82 57 75 83 76 65 83 65 82 83 82 76 84 85 86 87 88 85 87 89 88 90 88 89 91 90 89 92 93 86 92 86 85 94 88 90 95 96 89 95 89 87 97 96 95 97 98 96 99 84 95 99 95 87 99 85 84 99 87 85 100 90 91 101 98 97 101 95 84 101 97 95 101 84 86 101 86 98 102 96 98 102 89 96 102 91 89 103 94 90 104 105 103 104 103 90 104 92 105 106 100 93 106 90 100 107 102 98 107 93 100 107 86 93 107 98 86 108 109 106 108 106 93 108 93 92 108 92 109 110 100 91 110 107 100 110 91 102 110 102 107 111 105 94 111 94 103 111 103 105 112 109 92 112 92 104 112 90 109 112 104 90 113 109 90 113 90 106 113 106 109 114 88 94 114 94 105 114 105 92 114 92 85 114 85 88</p>
                </triangles>
            </mesh>
        </geometry>
    </library_geometries>
    <library_visual_scenes>
        <visual_scene id="VisualSceneNode" name="VisualScene">
            <node id="node" name="node">
                <instance_geometry url="#shape0-lib">
                    <bind_material>
                        <technique_common/>
                    </bind_material>
                </instance_geometry>
            </node>
        </visual_scene>
    </library_visual_scenes>
    <scene>
        <instance_visual_scene url="#VisualSceneNode"/>
    </scene>
</COLLADA>
