<?xml version="1.0" encoding="UTF-8"?>
<COLLADA xmlns="http://www.collada.org/2005/11/COLLADASchema" version="1.4.1">
    <asset>
        <contributor>
            <author>VCGLab</author>
            <authoring_tool>VCGLib | MeshLab</authoring_tool>
        </contributor>
        <up_axis>Y_UP</up_axis>
        <created>Fri Mar 2 10:25:11 2012</created>
        <modified>Fri Mar 2 10:25:11 2012</modified>
    </asset>
    <library_images/>
    <library_materials/>
    <library_effects/>
    <library_geometries>
        <geometry id="shape0-lib" name="shape0">
            <mesh>
                <source id="shape0-lib-positions" name="position">
                    <float_array id="shape0-lib-positions-array" count="192">0 0.0137267 -0.0105 0 0.00667882 -0.048 0 -0.00081381 -0.0105 0.036 0.016 -0.0105 0 0.0137286 -0.048 0.03139 0.00666 -0.0105 0 -0.000813604 -0.0387615 0.014 0.00252 -0.048 0.02 0.01084 -0.048 0.03473 0.00881 -0.0105 0.03726 0.00841 -0.018 0.02 0.00395 -0.048 0.03539 0.00762 -0.04415 0.035 0.0195 -0.04425 0.04 0.0195 -0.018 0.04 0.0195 -0.043 0.03868 0.0097 -0.04334 0.03967 0.01148 -0.04308 0.03967 0.01148 -0.018 0.036 0.0125 -0.0105 0.03132 0.01731 -0.01075 0.036 0.01922 -0.01263 0.03462 0.01922 -0.01263 0.036 0.01846 -0.01151 0.03726 0.00842 -0.0437 0.03868 0.0097 -0.018 0.036 0.01731 -0.01075 0.035 0.0195 -0.014 0.04 0.01343 -0.043 0.04 0.01345 -0.018 0.03339 0.01846 -0.01151 0.03539 0.00762 -0.018 0 -0.000813604 -0.0387615 0 0.0137286 -0.048 0 -0.00081381 -0.0105 -0.01061 -0.00334 -0.03176 0 0.0137267 -0.0105 -0.012 0 0.0035 -0.00606 0.01731 -0.01075 -0.01 0.0195 -0.048 -0.02 0.01262 -0.048 -0.0396 0.00035 -0.0257 0 0.00667882 -0.048 -0.04 0.0195 -0.018 -0.04 0.0195 -0.043 -0.03957 0.00026 -0.018 -0.034 0 0.0035 -0.04 0.0145 -0.043 -0.012 -0.0035 0 -0.034 -0.0035 -0.023 -0.034 -0.0035 0 -0.01 0.0195 -0.014 -0.036 0.01925 -0.01269 -0.02 0.0195 -0.048 -0.03635 -0.00302 -0.02273 -0.034 -0.00303 0.00175 -0.012 -0.00303 0.00175 -0.034 0.00175 0.00303 -0.012 0.00175 0.00303 -0.03826 -0.00172 -0.018 -0.00939 0.01922 -0.01263 -0.012 -0.00175 0.00303 -0.034 -0.00175 0.00303 -0.03833 -0.00165 -0.02369</float_array>
                    <technique_common>
                        <accessor count="64" source="#shape0-lib-positions-array" stride="3">
                            <param name="X" type="float"/>
                            <param name="Y" type="float"/>
                            <param name="Z" type="float"/>
                        </accessor>
                    </technique_common>
                </source>
                <vertices id="shape0-lib-vertices">
                    <input semantic="POSITION" source="#shape0-lib-positions"/>
                </vertices>
                <triangles count="120">
                    <input offset="0" semantic="VERTEX" source="#shape0-lib-vertices"/>
                    <p>0 1 2 0 2 3 4 1 0 5 3 2 6 5 2 6 2 1 7 6 1 7 5 6 7 1 4 8 7 4 9 3 5 10 9 5 11 7 8 11 12 5 11 5 7 13 8 4 13 14 15 16 17 18 19 3 9 19 9 18 19 14 3 20 0 3 21 22 23 21 23 14 24 10 12 24 16 10 24 12 11 24 11 8 24 13 15 24 15 16 24 8 13 25 10 16 25 16 18 25 18 9 25 9 10 26 23 20 26 20 3 26 3 14 26 14 23 27 22 21 27 21 14 27 0 22 27 4 0 27 13 4 27 14 13 28 17 16 28 16 15 28 18 17 28 15 14 29 18 28 29 28 14 29 14 19 29 19 18 30 0 20 30 20 23 30 22 0 30 23 22 31 5 12 31 12 10 31 10 5 32 33 34 32 34 35 36 37 34 36 33 38 36 34 33 39 38 33 39 33 40 41 32 35 42 32 41 42 40 33 42 33 32 43 39 44 43 45 46 47 41 45 47 45 43 47 43 44 47 40 42 47 42 41 47 44 40 48 35 34 49 35 48 49 48 50 49 41 35 51 39 43 51 43 52 53 40 44 53 44 39 53 39 40 54 49 50 54 41 49 55 50 48 55 45 50 56 55 48 56 48 34 57 52 43 57 43 46 57 46 37 57 38 52 58 38 57 58 57 37 58 37 36 58 36 38 59 50 45 59 54 50 60 38 39 60 39 51 60 52 38 60 51 52 61 34 37 61 56 34 61 55 56 61 37 46 62 55 61 62 61 46 62 46 45 62 45 55 63 41 54 63 54 59 63 45 41 63 59 45</p>
                </triangles>
            </mesh>
        </geometry>
    </library_geometries>
    <library_visual_scenes>
        <visual_scene id="VisualSceneNode" name="VisualScene">
            <node id="node" name="node">
                <instance_geometry url="#shape0-lib">
                    <bind_material>
                        <technique_common/>
                    </bind_material>
                </instance_geometry>
            </node>
        </visual_scene>
    </library_visual_scenes>
    <scene>
        <instance_visual_scene url="#VisualSceneNode"/>
    </scene>
</COLLADA>
