<?xml version="1.0" encoding="UTF-8"?>
<COLLADA xmlns="http://www.collada.org/2005/11/COLLADASchema" version="1.4.1">
    <asset>
        <contributor>
            <author>VCGLab</author>
            <authoring_tool>VCGLib | MeshLab</authoring_tool>
        </contributor>
        <up_axis>Y_UP</up_axis>
        <created>Fri Mar 2 10:25:28 2012</created>
        <modified>Fri Mar 2 10:25:28 2012</modified>
    </asset>
    <library_images/>
    <library_materials/>
    <library_effects/>
    <library_geometries>
        <geometry id="shape0-lib" name="shape0">
            <mesh>
                <source id="shape0-lib-positions" name="position">
                    <float_array id="shape0-lib-positions-array" count="96">-0.02 -0.0195 -0.018 -0.02 -0.0195 -0.048 0.04 -0.0195 -0.043 0.04 -0.0195 -0.018 0.04 -0.0109 -0.043 0.02 -0.0195 -0.048 0.04 -0.0025 -0.018 0.034 0 0.0035 0.034 0.0035 0 0.012 0.0035 -0.023 0.012 0.00303 0.00175 0.03624 0.00307 -0.02365 0.02 -0.0145 -0.048 -0.01992 -0.0145 -0.048 0.03952 -0.00015 -0.02805 -0.01978 -0.0139 -0.018 -0.01802 -0.01105 -0.018 -0.01802 -0.01105 -0.0432 -0.01311 -0.00935 -0.0105 0.03952 -0.00015 -0.018 0.012 0 0.0035 0.012 -0.00175 0.00303 0.034 0.00175 0.00303 0.00932 0.00287 -0.0105 -0.014 -0.016 -0.0105 -0.014 -0.01849 -0.01154 0.034 -0.00175 0.00303 0.034 -0.01923 -0.01264 -0.01068 -0.00713 -0.0105 -0.014 -0.0195 -0.014 0.03822 0.00176 -0.018 0.00932 0.00287 -0.02388</float_array>
                    <technique_common>
                        <accessor count="32" source="#shape0-lib-positions-array" stride="3">
                            <param name="X" type="float"/>
                            <param name="Y" type="float"/>
                            <param name="Z" type="float"/>
                        </accessor>
                    </technique_common>
                </source>
                <vertices id="shape0-lib-vertices">
                    <input semantic="POSITION" source="#shape0-lib-positions"/>
                </vertices>
                <triangles count="60">
                    <input offset="0" semantic="VERTEX" source="#shape0-lib-vertices"/>
                    <p>0 1 2 3 0 2 3 2 4 5 4 2 5 2 1 6 7 3 6 3 4 8 9 10 8 11 9 12 4 5 12 5 1 12 11 4 13 11 12 13 12 1 13 1 0 14 4 11 14 6 4 15 16 17 15 17 13 15 13 0 15 18 16 19 6 14 20 10 18 20 21 7 22 10 20 22 20 7 22 19 8 22 7 6 22 6 19 22 8 10 23 10 9 24 20 18 24 25 21 24 21 20 24 18 15 24 15 0 24 0 25 26 25 27 26 21 25 26 7 21 26 27 3 26 3 7 28 10 23 28 17 16 28 16 18 28 18 10 29 0 3 29 3 27 29 27 25 29 25 0 30 14 11 30 19 14 30 11 8 30 8 19 31 17 28 31 28 23 31 23 9 31 11 13 31 13 17 31 9 11</p>
                </triangles>
            </mesh>
        </geometry>
    </library_geometries>
    <library_visual_scenes>
        <visual_scene id="VisualSceneNode" name="VisualScene">
            <node id="node" name="node">
                <instance_geometry url="#shape0-lib">
                    <bind_material>
                        <technique_common/>
                    </bind_material>
                </instance_geometry>
            </node>
        </visual_scene>
    </library_visual_scenes>
    <scene>
        <instance_visual_scene url="#VisualSceneNode"/>
    </scene>
</COLLADA>
