<?xml version="1.0" encoding="UTF-8"?>
<COLLADA xmlns="http://www.collada.org/2005/11/COLLADASchema" version="1.4.1">
    <asset>
        <contributor>
            <author>VCGLab</author>
            <authoring_tool>VCGLib | MeshLab</authoring_tool>
        </contributor>
        <up_axis>Y_UP</up_axis>
        <created>Fri Mar 2 10:25:24 2012</created>
        <modified>Fri Mar 2 10:25:24 2012</modified>
    </asset>
    <library_images/>
    <library_materials/>
    <library_effects/>
    <library_geometries>
        <geometry id="shape0-lib" name="shape0">
            <mesh>
                <source id="shape0-lib-positions" name="position">
                    <float_array id="shape0-lib-positions-array" count="651">-0.0295 -0.033 0 -0.0295 0.00713 -0.03222 -0.0295 0.00713 0.03222 -0.0295 0.033 0 -0.06961 0.02098 -0.02547 -0.06961 0.033 0 -0.0295 -0.02092 0.02552 -0.0295 -0.02092 -0.02552 -0.06961 -0.03 0.01375 -0.06961 -0.03 -0.01375 -0.0295 0.02098 0.02547 -0.06961 0.02098 0.02547 -0.0295 0.02098 -0.02547 -0.07624 0.00646 0.0275 -0.08003 0.00267 -0.01206 -0.07624 -0.01796 0.0218 -0.07624 0.02568 0.01177 -0.06961 -0.00755 0.03212 -0.07624 0.00646 -0.0275 -0.06961 -0.00755 -0.03212 -0.07624 -0.01796 -0.0218 -0.07624 0.02568 -0.01177 -0.07624 -0.02825 0 -0.06961 0.00713 0.03222 -0.06961 0.00713 -0.03222 -0.06961 -0.02092 -0.02552 -0.06961 -0.02092 0.02552 -0.0295 -0.00755 -0.03212 -0.0295 -0.00755 0.03212 -0.0295 -0.03 -0.01375 -0.0295 -0.03 0.01375 -0.06961 0.02952 0.01475 0.0295 -0.03001 0.01801 0.0295 0.03497 0.00157 0.0295 -0.024858 -0.035 0.0295 0.024858 -0.035 0.0295 0 0.035 0.0295 0.01688 0.03066 0.056 0 0.035 0.0685 0.01316 0.02871 0.0685 -0.01316 0.02871 0.07387 0 0.02504 0.0295 -0.03497 0.00157 0.0584138 0 -0.035 0.056 0.03001 0.01801 0.0685 0.03074 0.00722 0.07587 0.01769 -0.00391 0.07723 -0.01066 0.0025 0.07387 0 -0.02504 0.0685 0.02438 -0.02008 0.0493418 -0.0198525 -0.035 0.0493418 0.0198525 -0.035 0.0295 -0.01688 0.03066 0.0295 0.03001 0.01801 0.056 -0.03001 0.01801 0.0685 -0.03074 0.00722 0.056 0.03119 -0.01589 0.056 -0.03119 -0.01589 0.0685 -0.02438 -0.02008 0.07387 0.01936 0.01587 0.0685 -0.01411 -0.02825 0.0685 0.01411 -0.02825 0.07387 -0.02445 -0.00541 0.07387 -0.01936 0.01587 0.015 -0.0698912 -0.0508769 0.015 -0.0100241 -0.101 0.015 -0.0786919 -0.105 0.07525 -0.0785203 -0.105 0.07525 -0.039 -0.105 0.07525 -0.0716723 -0.0637604 0.07525 -0.0100235 -0.10105 0.0552497 -0.010023 -0.035 0.0295 -0.024858 -0.035 0.07525 -0.010023 -0.0581843 0.015 -0.03109 -0.0535726 0.015 -0.07612 -0.0610781 0.07525 -0.0758484 -0.0733977 0.04475 -0.0228307 -0.035 0.07525 -0.0363592 -0.0569375 0.015 -0.039 -0.105 0.015 -0.064078 -0.0477052 0.07525 -0.0653 -0.0604977 0.0493418 -0.0198525 -0.035 0.07525 -0.075155 -0.0702167 0.06617 -0.07508 -0.06742 0.02032 -0.06996 -0.05147 0.0385 -0.0247257 -0.035 0.0550889 -0.0114652 -0.035 0.07046 -0.07168 -0.06247 0.01716 -0.0636 -0.04767 0.07275 -0.0653 -0.05982 0.06076 -0.07595 -0.06995 0.015 0.0586459 -0.105 0.0753 0.0584488 -0.105 0.015 0.019 -0.105 0.015 0.0560928 -0.0608942 0.015 -0.0100241 -0.101 0.0753 -0.0100235 -0.10105 0.0552497 -0.010023 -0.035 0.0753 0.0513887 -0.0625001 0.015 0.0301636 -0.0438211 0.0753 -0.010023 -0.0581964 0.015 0.049681 -0.0492297 0.0295 0.024858 -0.035 0.04475 0.0228307 -0.035 0.0550889 0.0114652 -0.035 0.0753 0.0561254 -0.0748292 0.0753 0.027721 -0.0568837 0.0584138 0 -0.035 0.0753 0.019 -0.105 0.0753 0.04519 -0.0592627 0.015 0.04348 -0.0460347 0.06716 0.05475 -0.06628 0.0753 0.0548558 -0.0689455 0.015 0.0578949 -0.0767767 0.0493418 0.0198525 -0.035 0.0385 0.0247257 -0.035 0.0753 0.0572777 -0.0847882 0.0520539 -0.010023 -0.0395636 0.07135 0.0514 -0.06144 0.06159 0.05592 -0.07002 0.1278 0 -0.07157 0.121 0 -0.06757 0.1278 -0.06488 -0.07681 0.135 0.04793 -0.1016 0.1356 0.019 -0.101 0.1349 -0.06684 -0.1017 0.1309 -0.07554 -0.1041 0.1308 0.05571 -0.1041 0.1318 0.04412 -0.08298 0.1202 -0.0716 -0.07587 0.07525 -0.0716723 -0.0637604 0.12065 -0.07553 -0.0842 0.12835 0.05161 -0.08223 0.1283 -0.07201 -0.08366 0.121 0.05681 -0.09086 0.1202 0.05126 -0.07455 0.12825 0.04462 -0.07644 0.0753 0.0561254 -0.0748292 0.0753 0.0513887 -0.0625001 0.07525 -0.0758484 -0.0733977 0.07556 -0.03277 -0.05658 0.0765 0 -0.0555 0.121 -0.07839 -0.105 0.07525 -0.0785203 -0.105 0.0753 0.0584488 -0.105 0.1239 0.05829 -0.105 0.0753 0.04519 -0.0592627 0.121 0.04519 -0.07165 0.121 -0.0653 -0.0729 0.07525 -0.0653 -0.0604977 0.1316 0 -0.07839 0.1316 -0.06424 -0.08356 -0.1055 -0.01 -0.101 -0.0501153 -0.01 -0.0378657 0.015 -0.0100241 -0.101 0.015 -0.064078 -0.0477052 0.015 -0.0786919 -0.105 -0.0810651 -0.01 -0.0422877 0.015 -0.03109 -0.0535726 0.015 -0.07612 -0.0610781 -0.07659 -0.06351 -0.04354 -0.09149 -0.06572 -0.05734 -0.0918153 -0.01 -0.0572649 -0.1013 -0.07579 -0.1039 -0.1004 -0.07457 -0.09078 -0.105 -0.06744 -0.1017 -0.07489 -0.06999 -0.04619 -0.08208 -0.07618 -0.05949 -0.04782 -0.06994 -0.04473 -0.08854 -0.07249 -0.05801 -0.09593 -0.039 -0.105 -0.09319 -0.079 -0.105 0.015 -0.039 -0.105 -0.0727187 -0.01 -0.0387849 -0.0348 -0.029 -0.03779 -0.03712 -0.0464 -0.03933 -0.02745 -0.06359 -0.04218 0.015 -0.0698912 -0.0508769 -0.06794 -0.06359 -0.04159 -0.1034 -0.06695 -0.09081 -0.03435 -0.0784 -0.07022 -0.00655 -0.0762 -0.0569 -0.09333 -0.07848 -0.09155 -0.0505 -0.029 -0.03755 0.015 0.0301636 -0.0438211 0.015 -0.01 -0.101 0.015 0.0586459 -0.105 -0.1055 -0.01 -0.101 -0.09592 0.019 -0.105 -0.0810651 -0.01 -0.0422877 0.015 0.0560928 -0.0608942 -0.09334 0.059 -0.105 -0.0501153 -0.01 -0.0378657 0.015 0.049681 -0.0492297 -0.0918153 -0.01 -0.0572649 -0.09214 0.04563 -0.05719 -0.07363 0.00022 -0.03825 -0.04933 0.02878 -0.03851 -0.07242 0.04345 -0.04081 -0.07145 0.04969 -0.04419 -0.0831 0.05595 -0.05926 -0.08068 0.04989 -0.04909 -0.01739 0.04967 -0.04478 -0.1011 0.05617 -0.104 -0.1048 0.05008 -0.1018 -0.1005 0.05427 -0.08948 -0.09363 0.05831 -0.09019 0.015 0.019 -0.105 -0.01712 0.02946 -0.03891 -0.08933 0.0522 -0.05783 -0.0727187 -0.01 -0.0387849 -0.1034 0.04687 -0.08959 -0.08365 0.04311 -0.04786 -0.03435 0.0584 -0.07022 -0.0058 0.05617 -0.05682 0.01409 0.04348 -0.04583</float_array>
                    <technique_common>
                        <accessor count="217" source="#shape0-lib-positions-array" stride="3">
                            <param name="X" type="float"/>
                            <param name="Y" type="float"/>
                            <param name="Z" type="float"/>
                        </accessor>
                    </technique_common>
                </source>
                <vertices id="shape0-lib-vertices">
                    <input semantic="POSITION" source="#shape0-lib-positions"/>
                </vertices>
                <triangles count="406">
                    <input offset="0" semantic="VERTEX" source="#shape0-lib-vertices"/>
                    <p>0 1 2 3 2 1 4 5 3 6 0 2 7 1 0 8 9 0 10 2 3 10 11 2 12 3 1 12 1 4 12 4 3 13 14 15 13 16 14 13 11 16 13 15 17 18 19 20 18 20 14 21 4 18 21 14 16 21 18 14 21 5 4 21 16 5 22 15 14 22 14 20 22 20 9 22 9 8 22 8 15 23 11 13 23 13 17 23 2 11 23 17 2 24 19 18 24 18 4 24 1 19 24 4 1 25 9 20 25 20 19 25 19 7 25 7 9 26 17 15 26 15 8 26 6 17 26 8 6 27 19 1 27 1 7 27 7 19 28 6 2 28 2 17 28 17 6 29 0 9 29 9 7 29 7 0 30 0 6 30 6 8 30 8 0 31 5 16 31 16 11 31 11 10 31 10 3 31 3 5 32 33 34 35 34 33 36 33 32 37 33 36 37 36 38 39 38 40 39 40 41 39 37 38 42 32 34 43 34 35 44 37 39 44 39 45 44 45 33 46 47 48 46 48 49 46 49 45 50 34 43 51 43 35 52 36 32 52 38 36 52 40 38 53 33 37 53 37 44 53 44 33 54 40 52 54 52 32 54 32 42 54 42 55 54 55 40 56 49 51 56 51 35 56 33 45 56 45 49 56 35 33 57 34 50 57 50 58 57 58 55 57 55 42 57 42 34 59 39 41 59 45 39 59 46 45 59 41 47 59 47 46 60 43 48 60 50 43 60 48 58 60 58 50 61 48 43 61 43 51 61 49 48 61 51 49 62 58 48 62 48 47 62 55 58 63 55 62 63 62 47 63 40 55 63 41 40 63 47 41 64 65 66 67 66 68 67 68 69 70 69 68 70 65 71 72 71 65 73 69 70 73 70 71 74 65 64 74 72 65 75 64 66 75 66 67 76 67 69 77 71 72 78 69 73 78 73 71 79 65 70 79 70 68 79 66 65 79 68 66 80 72 74 80 74 64 81 69 78 82 71 77 83 76 69 83 69 84 83 84 76 85 64 75 85 75 84 85 80 64 86 77 72 86 72 80 87 71 82 87 82 81 87 78 71 87 81 78 88 84 69 88 85 84 89 85 88 89 77 86 89 86 80 89 80 85 90 77 89 90 89 88 90 69 81 90 88 69 90 81 82 90 82 77 91 76 84 91 84 75 91 75 67 91 67 76 92 93 94 92 94 95 96 95 94 96 94 97 98 96 97 99 97 93 100 95 96 101 98 97 101 97 99 102 95 100 103 98 104 103 100 98 105 104 98 106 99 93 107 101 99 108 105 98 108 98 101 108 101 107 109 97 94 109 94 93 109 93 97 110 107 99 110 108 107 110 105 108 111 102 100 111 100 103 111 103 102 112 95 102 113 99 106 113 112 99 114 93 92 114 92 95 115 104 105 115 105 110 115 99 104 115 110 99 116 102 103 116 103 104 117 106 93 117 93 114 117 95 106 117 114 95 118 96 98 118 98 100 118 100 96 119 102 116 119 104 99 119 116 104 119 99 112 119 112 102 120 112 113 120 113 106 120 106 95 120 95 112 121 122 123 124 125 126 124 127 128 124 126 127 124 129 125 130 131 132 133 129 124 133 124 128 134 123 130 134 130 132 134 127 126 134 132 127 135 136 133 135 133 128 137 129 133 137 133 136 138 139 136 138 136 135 140 132 131 141 122 142 143 132 140 143 140 144 143 127 132 143 144 145 146 128 127 146 127 143 146 143 145 146 145 138 146 138 135 146 135 128 147 141 142 147 136 139 148 136 147 148 142 122 148 147 142 148 122 121 148 121 137 148 137 136 149 123 122 149 122 141 149 130 123 150 149 141 150 131 130 150 130 149 150 141 147 150 147 139 150 145 144 150 144 140 150 140 131 150 138 145 150 139 138 151 129 137 151 137 121 151 125 129 151 126 125 152 121 123 152 151 121 152 126 151 152 123 134 152 134 126 153 154 155 156 157 155 158 154 153 159 155 154 159 156 155 160 157 156 161 158 162 163 162 158 163 158 153 164 165 166 164 166 153 167 168 169 170 168 167 170 161 162 170 167 161 170 162 165 171 172 164 171 164 153 171 157 172 173 153 155 173 171 153 173 155 157 173 157 171 174 154 158 174 158 161 175 176 177 175 177 156 175 156 159 175 159 154 178 156 177 178 177 169 178 160 156 179 177 176 179 169 177 179 174 161 179 161 167 179 167 169 180 162 163 180 163 153 180 166 165 180 165 162 180 153 166 181 172 157 181 157 160 182 168 181 182 181 160 182 160 178 182 178 169 182 169 168 183 172 181 183 181 168 183 168 170 183 170 165 183 165 164 183 164 172 184 174 179 184 176 175 184 179 176 184 154 174 184 175 154 185 186 187 188 189 186 188 186 190 191 185 187 192 187 189 193 190 186 193 186 185 194 185 191 195 188 190 195 190 196 197 193 198 197 198 199 200 201 202 200 202 199 200 199 203 204 205 206 204 207 192 204 206 207 204 192 189 204 189 188 204 188 205 208 186 189 208 189 187 208 187 186 209 203 199 209 199 198 209 198 193 209 193 185 210 201 207 210 207 206 210 206 196 210 202 201 211 190 193 211 193 197 211 197 190 212 196 206 212 206 205 212 188 195 212 195 196 212 205 188 213 202 210 213 210 196 213 190 197 213 197 199 213 196 190 213 199 202 214 207 201 214 187 192 214 192 207 214 191 187 215 191 214 215 214 201 215 201 200 215 200 203 215 203 194 215 194 191 216 194 203 216 203 209 216 185 194 216 209 185</p>
                </triangles>
            </mesh>
        </geometry>
    </library_geometries>
    <library_visual_scenes>
        <visual_scene id="VisualSceneNode" name="VisualScene">
            <node id="node" name="node">
                <instance_geometry url="#shape0-lib">
                    <bind_material>
                        <technique_common/>
                    </bind_material>
                </instance_geometry>
            </node>
        </visual_scene>
    </library_visual_scenes>
    <scene>
        <instance_visual_scene url="#VisualSceneNode"/>
    </scene>
</COLLADA>
