<?xml version="1.0" encoding="utf-8"?>
<COLLADA version="1.4.0" xmlns="http://www.collada.org/2005/11/COLLADASchema">
	<asset>
		<contributor>
			<author>Illusoft Collada 1.4.0 plugin for Blender - http://colladablender.illusoft.com</author>
			<authoring_tool>Blender v:249 - Illusoft Collada Exporter v:0.3.162</authoring_tool>
			<comments></comments>
			<copyright></copyright>
			<source_data>file://</source_data>
		</contributor>
		<created>2012-02-24T15:22:50.839483</created>
		<modified>2012-02-24T15:22:50.839510</modified>
		<unit meter="1" name="meter"/>
		<up_axis>Z_UP</up_axis>
	</asset>
	<library_cameras>
		<camera id="Camera-Camera" name="Camera-Camera">
			<optics>
				<technique_common>
					<perspective>
						<yfov>49.13434</yfov>
						<znear>0.1</znear>
						<zfar>100.0</zfar>
					</perspective>
				</technique_common>
			</optics>
		</camera>
	</library_cameras>
	<library_effects>
		<effect id="Material_013-fx" name="Material_013-fx">
			<profile_COMMON>
				<technique sid="blender">
					<phong>
						<emission>
							<color>0.00000 0.00000 0.00000 1</color>
						</emission>
						<ambient>
							<color>0.00000 0.00000 0.00000 1</color>
						</ambient>
						<diffuse>
							<color>0.96500 0.89000 0.04300 1</color>
						</diffuse>
						<specular>
							<color>0.25000 0.25000 0.25000 1</color>
						</specular>
						<shininess>
							<float>28.25</float>
						</shininess>
						<reflective>
							<color>0.00000 0.00000 0.00000 1</color>
						</reflective>
						<reflectivity>
							<float>0.0</float>
						</reflectivity>
						<transparent>
							<color>1 1 1 1</color>
						</transparent>
						<transparency>
							<float>0.0</float>
						</transparency>
					</phong>
				</technique>
			</profile_COMMON>
		</effect>
		<effect id="Material_012-fx" name="Material_012-fx">
			<profile_COMMON>
				<technique sid="blender">
					<phong>
						<emission>
							<color>0.00000 0.00000 0.00000 1</color>
						</emission>
						<ambient>
							<color>0.00000 0.00000 0.00000 1</color>
						</ambient>
						<diffuse>
							<color>0.00000 0.41400 0.92000 1</color>
						</diffuse>
						<specular>
							<color>0.25000 0.25000 0.25000 1</color>
						</specular>
						<shininess>
							<float>28.25</float>
						</shininess>
						<reflective>
							<color>0.00000 0.00000 0.00000 1</color>
						</reflective>
						<reflectivity>
							<float>0.0</float>
						</reflectivity>
						<transparent>
							<color>1 1 1 1</color>
						</transparent>
						<transparency>
							<float>0.0</float>
						</transparency>
					</phong>
				</technique>
			</profile_COMMON>
		</effect>
	</library_effects>
	<library_lights>
		<light id="Spot" name="Spot">
			<technique_common>
				<point>
					<color>1.00000 1.00000 1.00000</color>
					<constant_attenuation>1.0</constant_attenuation>
					<linear_attenuation>0.0</linear_attenuation>
					<quadratic_attenuation>0.0</quadratic_attenuation>
				</point>
			</technique_common>
		</light>
	</library_lights>
	<library_materials>
		<material id="Material_013" name="Material_013">
			<instance_effect url="#Material_013-fx"/>
		</material>
		<material id="Material_012" name="Material_012">
			<instance_effect url="#Material_012-fx"/>
		</material>
	</library_materials>
	<library_geometries>
		<geometry id="ShapeIndexedFaceS_014" name="ShapeIndexedFaceS_014">
			<mesh>
				<source id="ShapeIndexedFaceS_014-Position">
					<float_array count="66" id="ShapeIndexedFaceS_014-Position-array">-0.02173 0.06000 -0.02446 0.00152 0.06000 -0.00660 -0.02355 0.06000 -0.01976 0.02562 0.06000 -0.01655 0.02316 0.06000 -0.02026 0.02988 0.06000 -0.00423 0.02918 0.06000 0.00887 0.02240 0.06000 0.02021 0.01184 0.06000 0.02811 -0.00106 0.06000 0.03016 -0.01384 0.06000 0.02718 -0.02376 0.06000 0.01860 -0.02971 0.06000 0.00690 -0.03044 0.06000 -0.00191 -0.02862 0.06000 -0.01055 0.02173 0.06000 -0.02446 0.02150 0.05231 -0.13420 0.02150 0.04450 -0.15500 -0.02150 0.04926 -0.14540 -0.02150 0.04450 -0.15500 0.02150 0.04926 -0.14540 -0.02150 0.05231 -0.13420</float_array>
					<technique_common>
						<accessor count="22" source="#ShapeIndexedFaceS_014-Position-array" stride="3">
							<param type="float" name="X"></param>
							<param type="float" name="Y"></param>
							<param type="float" name="Z"></param>
						</accessor>
					</technique_common>
				</source>
				<source id="ShapeIndexedFaceS_014-Normals">
					<float_array count="189" id="ShapeIndexedFaceS_014-Normals-array">0.00000 1.00000 0.00000 0.00000 0.99936 -0.03494 0.00000 1.00000 0.00000 0.00000 1.00000 0.00000 0.00000 1.00000 0.00000 0.00000 1.00000 0.00000 0.00000 1.00000 0.00000 0.00000 1.00000 0.00000 0.00000 1.00000 0.00000 0.00000 1.00000 0.00000 0.00000 1.00000 0.00000 0.00000 1.00000 0.00000 0.00000 1.00000 0.00000 0.00000 1.00000 0.00000 0.00000 1.00000 0.00000 0.00000 1.00000 0.00000 0.00000 1.00000 0.00000 0.00000 1.00000 0.00000 0.00000 1.00000 0.00000 0.00000 1.00000 0.00000 0.00000 1.00000 0.00000 0.00000 1.00000 0.00000 0.00000 1.00000 0.00000 0.00000 1.00000 0.00000 0.00000 1.00000 0.00000 0.00000 1.00000 0.00000 0.00000 1.00000 0.00000 0.00000 1.00000 0.00000 0.00000 1.00000 0.00000 0.00000 1.00000 0.00000 0.00000 1.00000 0.00000 0.00000 1.00000 0.00000 0.00000 1.00000 0.00000 0.00000 1.00000 0.00000 0.00000 1.00000 0.00000 0.00000 1.00000 0.00000 0.00000 1.00000 0.00000 0.00000 1.00000 0.00000 0.00000 1.00000 0.00000 0.00000 1.00000 0.00000 0.00000 1.00000 0.00000 0.00000 0.99973 -0.02329 0.00000 0.99936 -0.03494 0.00000 0.99973 -0.02329 0.00000 0.99087 -0.13474 0.00000 0.89590 -0.44420 0.00000 0.92276 -0.38533 0.00000 0.89590 -0.44420 0.00000 0.92276 -0.38533 0.00000 0.94583 -0.32459 0.00000 0.89590 -0.44420 0.00000 0.99936 -0.03494 0.00000 0.99087 -0.13474 0.00000 0.97992 -0.19932 0.00000 0.99087 -0.13474 0.00000 0.94583 -0.32459 0.00000 0.97992 -0.19932 0.00000 0.94583 -0.32459 0.00000 0.92276 -0.38533 0.00000 0.97992 -0.19932 0.00000 0.99936 -0.03494 0.00000 1.00000 0.00000 0.00000 0.99973 -0.02329</float_array>
					<technique_common>
						<accessor count="63" source="#ShapeIndexedFaceS_014-Normals-array" stride="3">
							<param type="float" name="X"></param>
							<param type="float" name="Y"></param>
							<param type="float" name="Z"></param>
						</accessor>
					</technique_common>
				</source>
				<vertices id="ShapeIndexedFaceS_014-Vertex">
					<input semantic="POSITION" source="#ShapeIndexedFaceS_014-Position"/>
				</vertices>
				<triangles count="21" material="Material_013">
					<input offset="0" semantic="VERTEX" source="#ShapeIndexedFaceS_014-Vertex"/>
					<input offset="1" semantic="NORMAL" source="#ShapeIndexedFaceS_014-Normals"/>
					<p>1 0 0 1 2 2 4 3 1 4 3 5 3 6 1 7 5 8 5 9 1 10 6 11 6 12 1 13 7 14 7 15 1 16 8 17 8 18 1 19 9 20 9 21 1 22 10 23 10 24 1 25 11 26 11 27 1 28 12 29 12 30 1 31 13 32 13 33 1 34 14 35 14 36 1 37 2 38 1 39 4 40 15 41 0 42 15 43 16 44 19 45 18 46 17 47 18 48 20 49 17 50 0 51 16 52 21 53 16 54 20 55 21 56 20 57 18 58 21 59 0 60 1 61 15 62</p>
				</triangles>
			</mesh>
		</geometry>
		<geometry id="ShapeIndexedFaceS_014-Geometry" name="ShapeIndexedFaceS_014-Geometry">
			<mesh>
				<source id="ShapeIndexedFaceS_014-Geometry-Position">
					<float_array count="519" id="ShapeIndexedFaceS_014-Geometry-Position-array">0.02940 -0.01700 -0.04250 0.02955 -0.01748 -0.05511 0.02719 -0.02637 -0.05515 0.02578 -0.02839 -0.04245 0.02650 -0.02436 -0.15490 0.01858 -0.03084 -0.15490 0.02610 -0.02409 -0.13525 0.03207 -0.01665 -0.13520 0.03192 -0.01664 -0.15500 0.03638 -0.00760 -0.13520 0.03519 -0.00754 -0.15520 0.03743 0.00278 -0.13525 0.03588 0.00270 -0.15520 0.02601 -0.02465 -0.11540 0.03169 -0.01700 -0.11530 0.03568 -0.00788 -0.11520 0.03668 0.00249 -0.11520 0.02616 -0.02575 -0.09565 0.03094 -0.01756 -0.09555 0.03364 -0.00828 -0.09543 0.03431 0.00197 -0.09537 0.03358 0.01156 -0.10220 0.02639 -0.02697 -0.07473 0.03008 -0.01812 -0.07463 0.03124 -0.00870 -0.07452 0.03152 0.00140 -0.07449 0.02976 -0.00641 -0.05508 0.02979 0.00416 -0.05507 0.02999 0.01038 -0.06167 0.01908 -0.03503 -0.06182 0.02930 0.04169 -0.14270 0.02930 0.03263 -0.11890 0.02930 0.04445 -0.13200 0.02930 -0.00580 -0.04250 0.02930 0.00539 -0.04250 0.02930 0.01684 -0.04210 0.02930 0.02500 -0.03648 0.02930 0.03263 -0.04450 0.02930 0.02143 -0.04003 -0.01858 -0.03084 -0.15490 -0.02650 -0.02437 -0.15490 -0.02610 -0.02410 -0.13525 -0.03192 -0.01665 -0.15500 -0.03207 -0.01665 -0.13520 -0.03519 -0.00754 -0.15520 -0.03639 -0.00760 -0.13520 -0.03588 0.00270 -0.15520 -0.03743 0.00277 -0.13525 -0.03169 -0.01701 -0.11530 -0.02601 -0.02465 -0.11540 -0.03568 -0.00788 -0.11520 -0.03668 0.00249 -0.11520 -0.03507 0.01217 -0.13520 -0.03458 0.01191 -0.11520 -0.03094 -0.01757 -0.09555 -0.02616 -0.02576 -0.09565 -0.03364 -0.00829 -0.09543 -0.03431 0.00197 -0.09537 -0.03358 0.01155 -0.10220 -0.03008 -0.01812 -0.07463 -0.02639 -0.02698 -0.07473 -0.03124 -0.00870 -0.07452 -0.03152 0.00140 -0.07449 -0.02955 -0.01748 -0.05511 -0.02599 -0.02818 -0.05293 -0.02976 -0.00642 -0.05508 -0.02979 0.00416 -0.05507 -0.02999 0.01037 -0.06167 -0.02930 0.03263 -0.11890 -0.02930 0.04169 -0.14270 -0.02930 0.04445 -0.13200 -0.02930 0.02810 -0.15500 -0.02930 0.03557 -0.15500 -0.02930 0.01684 -0.04210 -0.02930 0.02016 -0.04850 -0.02930 -0.00580 -0.04250 -0.02940 -0.01700 -0.04250 -0.02930 0.00539 -0.04250 -0.02930 0.02143 -0.04003 -0.02930 0.03263 -0.04450 -0.02930 0.02500 -0.03648 -0.02558 -0.02860 -0.04250 -0.01647 -0.03676 -0.04239 -0.03080 0.03850 -0.02310 -0.03841 0.02500 -0.00268 -0.03080 0.02500 -0.02310 -0.03080 0.05200 -0.02310 -0.03590 0.05200 -0.01391 -0.03836 0.05200 -0.00334 -0.03777 0.05200 0.00744 -0.03149 0.05200 0.02152 -0.03205 0.02500 0.02133 -0.01525 0.05200 0.03494 0.00000 0.05200 0.03850 -0.01303 0.02500 0.03623 0.01525 0.05200 0.03494 0.01308 0.02500 0.03621 0.03149 0.05200 0.02152 0.03159 0.02500 0.02200 0.03777 0.05200 0.00744 0.03836 0.05200 -0.00334 0.03849 0.02500 -0.00109 0.03590 0.05200 -0.01391 0.03080 0.02500 -0.02310 0.03080 0.05200 -0.02310 0.02950 0.05182 -0.02700 0.02930 0.02500 -0.02700 -0.02930 0.05182 -0.02700 -0.02950 0.02500 -0.02700 -0.02930 0.02063 -0.15500 0.02930 0.02063 -0.15500 0.02950 0.03557 -0.15500 0.02950 0.02016 -0.04850 0.03394 0.01198 -0.15520 -0.03394 0.01197 -0.15520 0.03514 0.01215 -0.12840 -0.01908 -0.03504 -0.06182 -0.01853 -0.03236 -0.10240 0.01853 -0.03236 -0.10240 0.01647 -0.03676 -0.04239 -0.00960 -0.03795 -0.07472 -0.00800 -0.03850 -0.04239 0.00960 -0.03794 -0.07472 0.00800 -0.03850 -0.04239 -0.00974 -0.03562 -0.12850 0.00010 -0.03599 -0.15510 -0.00960 -0.03470 -0.15500 0.00974 -0.03562 -0.12850 0.00960 -0.03470 -0.15500 0.00010 -0.03854 -0.09234 0.00010 -0.03850 -0.04239 -0.02730 0.04171 -0.15500 -0.02718 0.04714 -0.14440 -0.02718 0.04995 -0.13400 -0.02729 0.05766 -0.02545 -0.02892 0.05766 -0.02169 -0.03297 0.05763 -0.01489 -0.03549 0.05763 -0.00707 -0.03513 0.05763 0.00866 -0.02849 0.05763 0.02230 -0.01558 0.05763 0.03266 -0.00067 0.05763 0.03617 0.01549 0.05763 0.03270 0.02798 0.05763 0.02295 0.03499 0.05763 0.00921 0.03538 0.05763 -0.00760 0.03286 0.05763 -0.01513 0.02892 0.05766 -0.02169 0.02729 0.05766 -0.02545 0.02718 0.04714 -0.14440 0.02730 0.04171 -0.15500 0.02718 0.04995 -0.13400 -0.02150 0.04926 -0.14540 -0.02150 0.04450 -0.15500 -0.02150 0.05231 -0.13420 -0.02173 0.06000 -0.02446 -0.02355 0.06000 -0.01976 -0.02862 0.06000 -0.01055 -0.03044 0.06000 -0.00191 -0.02971 0.06000 0.00690 -0.02376 0.06000 0.01860 -0.01384 0.06000 0.02718 -0.00106 0.06000 0.03016 0.01184 0.06000 0.02811 0.02240 0.06000 0.02021 0.02918 0.06000 0.00887 0.02988 0.06000 -0.00423 0.02562 0.06000 -0.01655 0.02316 0.06000 -0.02026 0.02173 0.06000 -0.02446 0.02150 0.05231 -0.13420 0.02150 0.04926 -0.14540 0.02150 0.04450 -0.15500</float_array>
					<technique_common>
						<accessor count="173" source="#ShapeIndexedFaceS_014-Geometry-Position-array" stride="3">
							<param type="float" name="X"></param>
							<param type="float" name="Y"></param>
							<param type="float" name="Z"></param>
						</accessor>
					</technique_common>
				</source>
				<source id="ShapeIndexedFaceS_014-Geometry-Normals">
					<float_array count="2457" id="ShapeIndexedFaceS_014-Geometry-Normals-array">0.98755 -0.15622 0.01746 0.98224 -0.18503 0.03034 0.89532 -0.44533 0.00272 0.89532 -0.44533 0.00272 0.98224 -0.18503 0.03034 0.80810 -0.58870 0.01944 0.73534 -0.67766 0.00031 0.54167 -0.84045 -0.01428 0.74874 -0.66268 0.01386 0.85537 -0.51790 0.00855 0.73534 -0.67766 0.00031 0.74874 -0.66268 0.01386 0.85537 -0.51790 0.00855 0.74874 -0.66268 0.01386 0.89239 -0.45058 -0.02383 0.96759 -0.25236 -0.00488 0.85537 -0.51790 0.00855 0.89239 -0.45058 -0.02383 0.96759 -0.25236 -0.00488 0.89239 -0.45058 -0.02383 0.98331 -0.16980 -0.06500 0.99704 0.07010 -0.03088 0.96759 -0.25236 -0.00488 0.98331 -0.16980 -0.06500 0.99704 0.07010 -0.03088 0.98331 -0.16980 -0.06500 0.99460 0.06919 -0.07727 0.87222 -0.48860 0.02191 0.77468 -0.63201 -0.01956 0.73534 -0.67766 0.00031 0.87222 -0.48860 0.02191 0.73534 -0.67766 0.00031 0.85537 -0.51790 0.00855 0.96573 -0.25172 0.06317 0.87222 -0.48860 0.02191 0.85537 -0.51790 0.00855 0.96573 -0.25172 0.06317 0.85537 -0.51790 0.00855 0.96759 -0.25236 -0.00488 0.99615 0.05405 0.06894 0.96573 -0.25172 0.06317 0.96759 -0.25236 -0.00488 0.99615 0.05405 0.06894 0.96759 -0.25236 -0.00488 0.99704 0.07010 -0.03088 0.92157 -0.38710 0.02893 0.79653 -0.60363 -0.03345 0.77468 -0.63201 -0.01956 0.92157 -0.38710 0.02893 0.77468 -0.63201 -0.01956 0.87222 -0.48860 0.02191 0.97751 -0.18830 0.09491 0.92157 -0.38710 0.02893 0.87222 -0.48860 0.02191 0.97751 -0.18830 0.09491 0.87222 -0.48860 0.02191 0.96573 -0.25172 0.06317 0.99319 0.00909 0.11594 0.97751 -0.18830 0.09491 0.96573 -0.25172 0.06317 0.99319 0.00909 0.11594 0.96573 -0.25172 0.06317 0.99615 0.05405 0.06894 0.95898 0.27393 0.07257 0.99319 0.00909 0.11594 0.99615 0.05405 0.06894 0.96487 -0.26078 0.03095 0.86874 -0.49492 -0.01727 0.79653 -0.60363 -0.03345 0.96487 -0.26078 0.03095 0.79653 -0.60363 -0.03345 0.92157 -0.38710 0.02893 0.99149 -0.09763 0.08597 0.96487 -0.26078 0.03095 0.92157 -0.38710 0.02893 0.99149 -0.09763 0.08597 0.92157 -0.38710 0.02893 0.97751 -0.18830 0.09491 0.99377 -0.01746 0.10993 0.99149 -0.09763 0.08597 0.97751 -0.18830 0.09491 0.99377 -0.01746 0.10993 0.97751 -0.18830 0.09491 0.99319 0.00909 0.11594 0.98755 -0.15622 0.01746 0.89532 -0.44533 0.00272 0.86874 -0.49492 -0.01727 0.98755 -0.15622 0.01746 0.86874 -0.49492 -0.01727 0.96487 -0.26078 0.03095 0.99799 -0.03348 0.05362 0.98755 -0.15622 0.01746 0.96487 -0.26078 0.03095 0.99799 -0.03348 0.05362 0.96487 -0.26078 0.03095 0.99149 -0.09763 0.08597 0.99850 0.00333 0.05405 0.99799 -0.03348 0.05362 0.99149 -0.09763 0.08597 0.99850 0.00333 0.05405 0.99149 -0.09763 0.08597 0.99377 -0.01746 0.10993 0.99609 0.02255 0.08515 0.99850 0.00333 0.05405 0.99377 -0.01746 0.10993 0.89532 -0.44533 0.00272 0.80810 -0.58870 0.01944 0.61675 -0.78649 -0.03207 0.97757 0.20646 -0.04151 0.99997 0.00153 -0.00058 0.98428 0.16523 -0.06217 0.99850 0.00333 0.05405 0.99951 -0.00333 0.03095 0.99799 -0.03348 0.05362 0.99799 -0.03348 0.05362 0.99951 -0.00333 0.03095 0.98755 -0.15622 0.01746 0.99951 -0.00333 0.03095 0.98224 -0.18503 0.03034 0.98755 -0.15622 0.01746 0.99951 -0.00333 0.03095 0.99850 0.00333 0.05405 0.99924 -0.00067 0.03900 0.99924 -0.00067 0.03900 0.99850 0.00333 0.05405 0.99945 -0.00278 0.03262 0.99985 -0.00082 0.01584 0.99997 0.00177 0.00339 0.99997 -0.00433 -0.00174 -0.73522 -0.67779 0.00040 -0.74865 -0.66280 0.01389 -0.54137 -0.84063 -0.01428 -0.85537 -0.51790 0.00861 -0.89236 -0.45064 -0.02383 -0.74865 -0.66280 0.01389 -0.85537 -0.51790 0.00861 -0.74865 -0.66280 0.01389 -0.73522 -0.67779 0.00040 -0.96762 -0.25230 -0.00485 -0.98334 -0.16959 -0.06516 -0.89236 -0.45064 -0.02383 -0.96762 -0.25230 -0.00485 -0.89236 -0.45064 -0.02383 -0.85537 -0.51790 0.00861 -0.99536 0.09299 -0.02438 -0.99460 0.06925 -0.07727 -0.98334 -0.16959 -0.06516 -0.99536 0.09299 -0.02438 -0.98334 -0.16959 -0.06516 -0.96762 -0.25230 -0.00485 -0.87219 -0.48863 0.02191 -0.85537 -0.51790 0.00861 -0.73522 -0.67779 0.00040 -0.87219 -0.48863 0.02191 -0.73522 -0.67779 0.00040 -0.77450 -0.63222 -0.01950 -0.96573 -0.25172 0.06323 -0.96762 -0.25230 -0.00485 -0.85537 -0.51790 0.00861 -0.96573 -0.25172 0.06323 -0.85537 -0.51790 0.00861 -0.87219 -0.48863 0.02191 -0.99606 0.05142 0.07193 -0.99536 0.09299 -0.02438 -0.96762 -0.25230 -0.00485 -0.99606 0.05142 0.07193 -0.96762 -0.25230 -0.00485 -0.96573 -0.25172 0.06323 -0.90710 0.41777 0.05100 -0.91751 0.39738 -0.01453 -0.99536 0.09299 -0.02438 -0.90710 0.41777 0.05100 -0.99536 0.09299 -0.02438 -0.99606 0.05142 0.07193 -0.92151 -0.38722 0.02896 -0.87219 -0.48863 0.02191 -0.77450 -0.63222 -0.01950 -0.92151 -0.38722 0.02896 -0.77450 -0.63222 -0.01950 -0.79644 -0.60375 -0.03354 -0.97751 -0.18821 0.09491 -0.96573 -0.25172 0.06323 -0.87219 -0.48863 0.02191 -0.97751 -0.18821 0.09491 -0.87219 -0.48863 0.02191 -0.92151 -0.38722 0.02896 -0.99319 0.00913 0.11594 -0.99606 0.05142 0.07193 -0.96573 -0.25172 0.06323 -0.99319 0.00913 0.11594 -0.96573 -0.25172 0.06323 -0.97751 -0.18821 0.09491 -0.95523 0.28513 0.07880 -0.90710 0.41777 0.05100 -0.99606 0.05142 0.07193 -0.95523 0.28513 0.07880 -0.99606 0.05142 0.07193 -0.99319 0.00913 0.11594 -0.96490 -0.26072 0.03098 -0.92151 -0.38722 0.02896 -0.79644 -0.60375 -0.03354 -0.96490 -0.26072 0.03098 -0.79644 -0.60375 -0.03354 -0.86081 -0.50868 -0.01410 -0.99149 -0.09763 0.08597 -0.97751 -0.18821 0.09491 -0.92151 -0.38722 0.02896 -0.99149 -0.09763 0.08597 -0.92151 -0.38722 0.02896 -0.96490 -0.26072 0.03098 -0.99377 -0.01743 0.10993 -0.99319 0.00913 0.11594 -0.97751 -0.18821 0.09491 -0.99377 -0.01743 0.10993 -0.97751 -0.18821 0.09491 -0.99149 -0.09763 0.08597 -0.98413 -0.17579 0.02316 -0.96490 -0.26072 0.03098 -0.86081 -0.50868 -0.01410 -0.98413 -0.17579 0.02316 -0.86081 -0.50868 -0.01410 -0.84585 -0.53334 0.00812 -0.99799 -0.03351 0.05362 -0.99149 -0.09763 0.08597 -0.96490 -0.26072 0.03098 -0.99799 -0.03351 0.05362 -0.96490 -0.26072 0.03098 -0.98413 -0.17579 0.02316 -0.99857 0.00708 0.05255 -0.99377 -0.01743 0.10993 -0.99149 -0.09763 0.08597 -0.99857 0.00708 0.05255 -0.99149 -0.09763 0.08597 -0.99799 -0.03351 0.05362 -0.99579 0.02832 0.08695 -0.99377 -0.01743 0.10993 -0.99857 0.00708 0.05255 -0.97821 0.20569 -0.02728 -0.98859 0.14255 -0.04831 -1.00000 0.00000 0.00000 -0.98859 0.14255 -0.04831 -0.97229 0.21009 -0.10245 -1.00000 0.00000 0.00000 -0.99786 0.06183 0.02087 -0.99857 0.00708 0.05255 -0.99982 0.00793 0.01737 -0.99857 0.00708 0.05255 -0.99799 -0.03351 0.05362 -0.99951 -0.00333 0.03095 -0.99799 -0.03351 0.05362 -0.98413 -0.17579 0.02316 -0.99951 -0.00333 0.03095 -0.98413 -0.17579 0.02316 -0.97806 -0.20731 0.01999 -0.99951 -0.00333 0.03095 -0.99951 -0.00333 0.03095 -0.99924 -0.00067 0.03900 -0.99857 0.00708 0.05255 -0.99924 -0.00067 0.03900 -0.99982 0.00793 0.01737 -0.99857 0.00708 0.05255 -0.99982 0.00793 0.01737 -1.00000 0.00000 0.00000 -0.99786 0.06183 0.02087 -1.00000 0.00000 0.00000 -0.99988 -0.01108 -0.01053 -0.99997 -0.00208 -0.00415 -0.99997 -0.00208 -0.00415 -0.99786 0.06183 0.02087 -1.00000 0.00000 0.00000 -0.84585 -0.53334 0.00812 -0.83682 -0.54732 0.01132 -0.97806 -0.20731 0.01999 -0.84585 -0.53334 0.00812 -0.97806 -0.20731 0.01999 -0.98413 -0.17579 0.02316 -0.48766 -0.87298 -0.00507 -0.83682 -0.54732 0.01132 -0.84585 -0.53334 0.00812 -0.93985 0.00235 -0.34150 -0.99017 -0.03137 -0.13617 -0.91159 -0.02618 -0.41026 -0.91159 -0.02618 -0.41026 -0.92038 0.17066 -0.35182 -0.87338 0.22462 -0.43211 -0.92038 0.17066 -0.35182 -0.99017 -0.03137 -0.13617 -0.96634 0.24876 -0.06516 -0.96634 0.24876 -0.06516 -0.99017 -0.03137 -0.13617 -0.94543 0.18418 0.26872 -0.94543 0.18418 0.26872 -0.81552 -0.01617 0.57848 -0.74990 0.18766 0.63433 -0.74990 0.18766 0.63433 -0.81552 -0.01617 0.57848 -0.43687 0.17222 0.88284 -0.43687 0.17222 0.88284 -0.29243 -0.02396 0.95596 0.03357 0.18564 0.98202 0.03357 0.18564 0.98202 0.28990 -0.02353 0.95676 0.49925 0.14765 0.85376 0.49925 0.14765 0.85376 0.80969 -0.01291 0.58669 0.80013 0.19376 0.56764 0.80013 0.19376 0.56764 0.80969 -0.01291 0.58669 0.95566 0.20746 0.20896 0.95566 0.20746 0.20896 0.99783 -0.03491 -0.05548 0.96094 0.24326 -0.13181 0.96094 0.24326 -0.13181 0.99783 -0.03491 -0.05548 0.90899 0.18268 -0.37458 0.99783 -0.03491 -0.05548 0.95566 0.20746 0.20896 0.80969 -0.01291 0.58669 0.80969 -0.01291 0.58669 0.49925 0.14765 0.85376 0.28990 -0.02353 0.95676 0.28990 -0.02353 0.95676 0.03357 0.18564 0.98202 -0.29243 -0.02396 0.95596 -0.29243 -0.02396 0.95596 -0.43687 0.17222 0.88284 -0.81552 -0.01617 0.57848 -0.81552 -0.01617 0.57848 -0.94543 0.18418 0.26872 -0.99017 -0.03137 -0.13617 -0.99017 -0.03137 -0.13617 -0.92038 0.17066 -0.35182 -0.91159 -0.02618 -0.41026 0.97781 0.15079 -0.14536 0.89688 0.19138 -0.39866 0.92743 -0.01825 -0.37352 0.97781 0.15079 -0.14536 0.92743 -0.01825 -0.37352 0.98315 -0.00732 -0.18253 -0.87338 0.22462 -0.43211 -0.97256 0.14283 -0.18351 -0.93985 0.00235 -0.34150 -0.97256 0.14283 -0.18351 -0.99319 -0.00256 -0.11637 -0.93985 0.00235 -0.34150 -0.99997 -0.00208 -0.00415 -0.99988 -0.01108 -0.01053 -0.99319 -0.00256 -0.11637 -0.97256 0.14283 -0.18351 -0.99997 -0.00208 -0.00415 -0.99319 -0.00256 -0.11637 -0.99997 -0.00208 -0.00415 -0.97256 0.14283 -0.18351 -1.00000 0.00000 0.00000 -0.97256 0.14283 -0.18351 -0.97821 0.20569 -0.02728 -1.00000 0.00000 0.00000 -1.00000 0.00000 0.00000 -0.98859 0.14255 -0.04831 -0.95499 0.29655 0.00616 -0.98859 0.14255 -0.04831 -1.00000 0.00000 0.00000 -0.95499 0.29655 0.00616 -0.99786 0.06183 0.02087 -0.99997 -0.00208 -0.00415 -0.95499 0.29655 0.00616 -0.99997 -0.00208 -0.00415 -1.00000 0.00000 0.00000 -0.95499 0.29655 0.00616 0.98428 0.16523 -0.06217 0.99997 0.00153 -0.00058 0.96133 0.27519 0.00653 0.98428 0.16523 -0.06217 0.96133 0.27519 0.00653 0.98441 0.16321 -0.06519 0.99997 0.00153 -0.00058 0.97757 0.20646 -0.04151 0.97781 0.15079 -0.14536 0.98315 -0.00732 -0.18253 0.99997 -0.00433 -0.00174 0.97781 0.15079 -0.14536 0.99997 -0.00433 -0.00174 0.99997 0.00177 0.00339 0.97781 0.15079 -0.14536 0.99997 0.00177 0.00339 0.99997 0.00153 -0.00058 0.97781 0.15079 -0.14536 0.99945 -0.00278 0.03262 0.99850 0.00333 0.05405 0.99844 0.04917 0.02524 0.99985 -0.00082 0.01584 0.99945 -0.00278 0.03262 0.99844 0.04917 0.02524 0.99997 0.00177 0.00339 0.99985 -0.00082 0.01584 0.99844 0.04917 0.02524 0.99997 0.00153 -0.00058 0.99997 0.00177 0.00339 0.99844 0.04917 0.02524 0.96133 0.27519 0.00653 0.99997 0.00153 -0.00058 0.99844 0.04917 0.02524 0.89688 0.19138 -0.39866 0.90899 0.18268 -0.37458 0.92743 -0.01825 -0.37352 0.90899 0.18268 -0.37458 0.99783 -0.03491 -0.05548 0.92743 -0.01825 -0.37352 0.99704 0.07010 -0.03088 0.99460 0.06919 -0.07727 0.94671 0.31727 -0.05493 -0.99536 0.09299 -0.02438 -0.91751 0.39738 -0.01453 -0.94891 0.30909 -0.06314 -0.99460 0.06925 -0.07727 -0.99536 0.09299 -0.02438 -0.94891 0.30909 -0.06314 -0.99579 0.02832 0.08695 -0.99857 0.00708 0.05255 -0.99786 0.06183 0.02087 -0.95523 0.28513 0.07880 -0.99319 0.00913 0.11594 -0.99579 0.02832 0.08695 -0.99319 0.00913 0.11594 -0.99377 -0.01743 0.10993 -0.99579 0.02832 0.08695 -0.99786 0.06183 0.02087 -0.95523 0.28513 0.07880 -0.99579 0.02832 0.08695 0.99850 0.00333 0.05405 0.99609 0.02255 0.08515 0.99844 0.04917 0.02524 0.99319 0.00909 0.11594 0.95898 0.27393 0.07257 0.99609 0.02255 0.08515 0.99377 -0.01746 0.10993 0.99319 0.00909 0.11594 0.99609 0.02255 0.08515 0.95898 0.27393 0.07257 0.99844 0.04917 0.02524 0.99609 0.02255 0.08515 -0.94891 0.30909 -0.06314 -0.91751 0.39738 -0.01453 -0.95499 0.29655 0.00616 -0.91751 0.39738 -0.01453 -0.90710 0.41777 0.05100 -0.95499 0.29655 0.00616 -0.90710 0.41777 0.05100 -0.95523 0.28513 0.07880 -0.95499 0.29655 0.00616 -0.95523 0.28513 0.07880 -0.99786 0.06183 0.02087 -0.95499 0.29655 0.00616 0.99844 0.04917 0.02524 0.95898 0.27393 0.07257 0.96133 0.27519 0.00653 0.99615 0.05405 0.06894 0.99704 0.07010 -0.03088 0.92340 0.38350 0.01511 0.95898 0.27393 0.07257 0.99615 0.05405 0.06894 0.92340 0.38350 0.01511 0.96133 0.27519 0.00653 0.95898 0.27393 0.07257 0.92340 0.38350 0.01511 0.92340 0.38350 0.01511 0.99704 0.07010 -0.03088 0.94671 0.31727 -0.05493 0.96133 0.27519 0.00653 0.92340 0.38350 0.01511 0.94671 0.31727 -0.05493 -0.79644 -0.60375 -0.03354 -0.57833 -0.81484 -0.03916 -0.59474 -0.80313 -0.03525 -0.86081 -0.50868 -0.01410 -0.79644 -0.60375 -0.03354 -0.59474 -0.80313 -0.03525 -0.84585 -0.53334 0.00812 -0.86081 -0.50868 -0.01410 -0.59474 -0.80313 -0.03525 0.57833 -0.81484 -0.03909 0.79653 -0.60363 -0.03345 0.61675 -0.78649 -0.03207 0.79653 -0.60363 -0.03345 0.86874 -0.49492 -0.01727 0.61675 -0.78649 -0.03207 0.86874 -0.49492 -0.01727 0.89532 -0.44533 0.00272 0.61675 -0.78649 -0.03207 -0.77450 -0.63222 -0.01950 -0.73522 -0.67779 0.00040 -0.57833 -0.81484 -0.03916 -0.79644 -0.60375 -0.03354 -0.77450 -0.63222 -0.01950 -0.57833 -0.81484 -0.03916 -0.57833 -0.81484 -0.03916 -0.73522 -0.67779 0.00040 -0.54137 -0.84063 -0.01428 0.73534 -0.67766 0.00031 0.77468 -0.63201 -0.01956 0.57833 -0.81484 -0.03909 0.77468 -0.63201 -0.01956 0.79653 -0.60363 -0.03345 0.57833 -0.81484 -0.03909 0.73534 -0.67766 0.00031 0.57833 -0.81484 -0.03909 0.54167 -0.84045 -0.01428 -0.84585 -0.53334 0.00812 -0.59474 -0.80313 -0.03525 -0.48766 -0.87298 -0.00507 0.61675 -0.78649 -0.03207 0.80810 -0.58870 0.01944 0.41377 -0.91034 -0.00726 -0.59474 -0.80313 -0.03525 -0.57833 -0.81484 -0.03916 -0.26588 -0.96338 -0.03421 -0.09534 -0.99542 -0.00623 -0.48766 -0.87298 -0.00507 -0.26588 -0.96338 -0.03421 -0.48766 -0.87298 -0.00507 -0.59474 -0.80313 -0.03525 -0.26588 -0.96338 -0.03421 0.41377 -0.91034 -0.00726 0.09635 -0.99530 -0.00638 0.26688 -0.96310 -0.03424 0.61675 -0.78649 -0.03207 0.41377 -0.91034 -0.00726 0.26688 -0.96310 -0.03424 0.57833 -0.81484 -0.03909 0.61675 -0.78649 -0.03207 0.26688 -0.96310 -0.03424 -0.26603 -0.96332 -0.03485 0.00143 -0.99927 -0.03800 -0.28114 -0.95895 -0.03626 -0.54137 -0.84063 -0.01428 -0.26603 -0.96332 -0.03485 -0.28114 -0.95895 -0.03626 -0.57833 -0.81484 -0.03916 -0.54137 -0.84063 -0.01428 -0.28114 -0.95895 -0.03626 -0.26588 -0.96338 -0.03421 -0.57833 -0.81484 -0.03916 -0.28114 -0.95895 -0.03626 0.00143 -0.99927 -0.03800 0.26734 -0.96295 -0.03485 0.28254 -0.95856 -0.03619 0.26734 -0.96295 -0.03485 0.54167 -0.84045 -0.01428 0.28254 -0.95856 -0.03619 0.54167 -0.84045 -0.01428 0.57833 -0.81484 -0.03909 0.28254 -0.95856 -0.03619 0.57833 -0.81484 -0.03909 0.26688 -0.96310 -0.03424 0.28254 -0.95856 -0.03619 0.09635 -0.99530 -0.00638 0.00000 -0.99997 0.00079 0.00119 -0.99969 -0.02380 0.00000 -0.99997 0.00079 -0.09534 -0.99542 -0.00623 0.00119 -0.99969 -0.02380 -0.09534 -0.99542 -0.00623 -0.26588 -0.96338 -0.03421 0.00119 -0.99969 -0.02380 0.26688 -0.96310 -0.03424 0.09635 -0.99530 -0.00638 0.00119 -0.99969 -0.02380 -0.26588 -0.96338 -0.03421 -0.28114 -0.95895 -0.03626 0.00119 -0.99969 -0.02380 0.28254 -0.95856 -0.03619 0.26688 -0.96310 -0.03424 0.00119 -0.99969 -0.02380 -0.28114 -0.95895 -0.03626 0.00143 -0.99927 -0.03800 0.00119 -0.99969 -0.02380 0.00143 -0.99927 -0.03800 0.28254 -0.95856 -0.03619 0.00119 -0.99969 -0.02380 -0.72097 0.65126 -0.23661 -0.61849 0.70345 -0.35008 -0.97229 0.21009 -0.10245 -0.97229 0.21009 -0.10245 -0.98859 0.14255 -0.04831 -0.72097 0.65126 -0.23661 -0.72103 0.68490 -0.10480 -0.72097 0.65126 -0.23661 -0.98859 0.14255 -0.04831 -0.98859 0.14255 -0.04831 -0.97821 0.20569 -0.02728 -0.72103 0.68490 -0.10480 -0.69750 0.70248 -0.14142 -0.72103 0.68490 -0.10480 -0.97821 0.20569 -0.02728 -0.97821 0.20569 -0.02728 -0.97256 0.14283 -0.18351 -0.69750 0.70248 -0.14142 -0.63396 0.70888 -0.30906 -0.69750 0.70248 -0.14142 -0.97256 0.14283 -0.18351 -0.97256 0.14283 -0.18351 -0.87338 0.22462 -0.43211 -0.63396 0.70888 -0.30906 -0.64342 0.70928 -0.28794 -0.63396 0.70888 -0.30906 -0.87338 0.22462 -0.43211 -0.87338 0.22462 -0.43211 -0.92038 0.17066 -0.35182 -0.64342 0.70928 -0.28794 -0.69665 0.71090 -0.09638 -0.64342 0.70928 -0.28794 -0.92038 0.17066 -0.35182 -0.92038 0.17066 -0.35182 -0.96634 0.24876 -0.06516 -0.69665 0.71090 -0.09638 -0.67794 0.71926 0.15177 -0.69665 0.71090 -0.09638 -0.96634 0.24876 -0.06516 -0.96634 0.24876 -0.06516 -0.94543 0.18418 0.26872 -0.67794 0.71926 0.15177 -0.58415 0.68804 0.43049 -0.67794 0.71926 0.15177 -0.94543 0.18418 0.26872 -0.94543 0.18418 0.26872 -0.74990 0.18766 0.63433 -0.58415 0.68804 0.43049 -0.34931 0.67473 0.65014 -0.58415 0.68804 0.43049 -0.74990 0.18766 0.63433 -0.74990 0.18766 0.63433 -0.43687 0.17222 0.88284 -0.34931 0.67473 0.65014 -0.03241 0.70785 0.70559 -0.34931 0.67473 0.65014 -0.43687 0.17222 0.88284 -0.43687 0.17222 0.88284 0.03357 0.18564 0.98202 -0.03241 0.70785 0.70559 0.28507 0.69637 0.65859 -0.03241 0.70785 0.70559 0.03357 0.18564 0.98202 0.03357 0.18564 0.98202 0.49925 0.14765 0.85376 0.28507 0.69637 0.65859 0.54857 0.68020 0.48616 0.28507 0.69637 0.65859 0.49925 0.14765 0.85376 0.49925 0.14765 0.85376 0.80013 0.19376 0.56764 0.54857 0.68020 0.48616 0.67769 0.71059 0.18903 0.54857 0.68020 0.48616 0.80013 0.19376 0.56764 0.80013 0.19376 0.56764 0.95566 0.20746 0.20896 0.67769 0.71059 0.18903 0.95566 0.20746 0.20896 0.96094 0.24326 -0.13181 0.68343 0.72524 -0.08295 0.68343 0.72524 -0.08295 0.67769 0.71059 0.18903 0.95566 0.20746 0.20896 0.96094 0.24326 -0.13181 0.90899 0.18268 -0.37458 0.66164 0.69549 -0.28010 0.66164 0.69549 -0.28010 0.68343 0.72524 -0.08295 0.96094 0.24326 -0.13181 0.90899 0.18268 -0.37458 0.89688 0.19138 -0.39866 0.67718 0.66192 -0.32136 0.67718 0.66192 -0.32136 0.66164 0.69549 -0.28010 0.90899 0.18268 -0.37458 0.97781 0.15079 -0.14536 0.62587 0.76601 -0.14640 0.67718 0.66192 -0.32136 0.67718 0.66192 -0.32136 0.89688 0.19138 -0.39866 0.97781 0.15079 -0.14536 0.81017 0.52669 -0.25721 0.72268 0.64266 -0.25434 0.98428 0.16523 -0.06217 0.98428 0.16523 -0.06217 0.98441 0.16321 -0.06519 0.81017 0.52669 -0.25721 0.72268 0.64266 -0.25434 0.71944 0.68294 -0.12616 0.97757 0.20646 -0.04151 0.97757 0.20646 -0.04151 0.98428 0.16523 -0.06217 0.72268 0.64266 -0.25434 0.71944 0.68294 -0.12616 0.62587 0.76601 -0.14640 0.97781 0.15079 -0.14536 0.97781 0.15079 -0.14536 0.97757 0.20646 -0.04151 0.71944 0.68294 -0.12616 -0.61849 0.70345 -0.35008 -0.72097 0.65126 -0.23661 -0.38597 0.85025 -0.35783 -0.38597 0.85025 -0.35783 -0.39576 0.82275 -0.40794 -0.61849 0.70345 -0.35008 -0.72097 0.65126 -0.23661 -0.72103 0.68490 -0.10480 -0.38166 0.90579 -0.18400 -0.38166 0.90579 -0.18400 -0.38597 0.85025 -0.35783 -0.72097 0.65126 -0.23661 -0.72103 0.68490 -0.10480 -0.69750 0.70248 -0.14142 -0.37510 0.92251 -0.09064 -0.37510 0.92251 -0.09064 -0.38166 0.90579 -0.18400 -0.72103 0.68490 -0.10480 -0.69750 0.70248 -0.14142 -0.63396 0.70888 -0.30906 -0.34919 0.92346 -0.15888 -0.34919 0.92346 -0.15888 -0.37510 0.92251 -0.09064 -0.69750 0.70248 -0.14142 -0.63396 0.70888 -0.30906 -0.64342 0.70928 -0.28794 -0.35566 0.92203 -0.15281 -0.35566 0.92203 -0.15281 -0.34919 0.92346 -0.15888 -0.63396 0.70888 -0.30906 -0.40007 0.91501 -0.05182 -0.35566 0.92203 -0.15281 -0.64342 0.70928 -0.28794 -0.64342 0.70928 -0.28794 -0.69665 0.71090 -0.09638 -0.40007 0.91501 -0.05182 -0.40147 0.91281 0.07447 -0.40007 0.91501 -0.05182 -0.69665 0.71090 -0.09638 -0.69665 0.71090 -0.09638 -0.67794 0.71926 0.15177 -0.40147 0.91281 0.07447 -0.30964 0.92782 0.20786 -0.40147 0.91281 0.07447 -0.67794 0.71926 0.15177 -0.67794 0.71926 0.15177 -0.58415 0.68804 0.43049 -0.30964 0.92782 0.20786 -0.58415 0.68804 0.43049 -0.34931 0.67473 0.65014 -0.19538 0.92550 0.32441 -0.19538 0.92550 0.32441 -0.30964 0.92782 0.20786 -0.58415 0.68804 0.43049 -0.03882 0.92840 0.36949 -0.19538 0.92550 0.32441 -0.34931 0.67473 0.65014 -0.34931 0.67473 0.65014 -0.03241 0.70785 0.70559 -0.03882 0.92840 0.36949 0.12336 0.92615 0.35640 -0.03882 0.92840 0.36949 -0.03241 0.70785 0.70559 -0.03241 0.70785 0.70559 0.28507 0.69637 0.65859 0.12336 0.92615 0.35640 0.25764 0.92938 0.26426 0.12336 0.92615 0.35640 0.28507 0.69637 0.65859 0.28507 0.69637 0.65859 0.54857 0.68020 0.48616 0.25764 0.92938 0.26426 0.34962 0.92782 0.12989 0.25764 0.92938 0.26426 0.54857 0.68020 0.48616 0.54857 0.68020 0.48616 0.67769 0.71059 0.18903 0.34962 0.92782 0.12989 0.37098 0.92819 -0.02863 0.34962 0.92782 0.12989 0.67769 0.71059 0.18903 0.67769 0.71059 0.18903 0.68343 0.72524 -0.08295 0.37098 0.92819 -0.02863 0.33537 0.92987 -0.15113 0.37098 0.92819 -0.02863 0.68343 0.72524 -0.08295 0.68343 0.72524 -0.08295 0.66164 0.69549 -0.28010 0.33537 0.92987 -0.15113 0.34007 0.92303 -0.17975 0.33537 0.92987 -0.15113 0.66164 0.69549 -0.28010 0.66164 0.69549 -0.28010 0.67718 0.66192 -0.32136 0.34007 0.92303 -0.17975 0.36189 0.92526 -0.11338 0.34007 0.92303 -0.17975 0.67718 0.66192 -0.32136 0.67718 0.66192 -0.32136 0.62587 0.76601 -0.14640 0.36189 0.92526 -0.11338 0.38185 0.91568 -0.12525 0.36189 0.92526 -0.11338 0.62587 0.76601 -0.14640 0.62587 0.76601 -0.14640 0.71944 0.68294 -0.12616 0.38185 0.91568 -0.12525 0.38044 0.87494 -0.29954 0.38185 0.91568 -0.12525 0.71944 0.68294 -0.12616 0.71944 0.68294 -0.12616 0.72268 0.64266 -0.25434 0.38044 0.87494 -0.29954 0.38786 0.82397 -0.41304 0.38044 0.87494 -0.29954 0.72268 0.64266 -0.25434 0.72268 0.64266 -0.25434 0.81017 0.52669 -0.25721 0.38786 0.82397 -0.41304</float_array>
					<technique_common>
						<accessor count="819" source="#ShapeIndexedFaceS_014-Geometry-Normals-array" stride="3">
							<param type="float" name="X"></param>
							<param type="float" name="Y"></param>
							<param type="float" name="Z"></param>
						</accessor>
					</technique_common>
				</source>
				<vertices id="ShapeIndexedFaceS_014-Geometry-Vertex">
					<input semantic="POSITION" source="#ShapeIndexedFaceS_014-Geometry-Position"/>
				</vertices>
				<triangles count="273" material="Material_012">
					<input offset="0" semantic="VERTEX" source="#ShapeIndexedFaceS_014-Geometry-Vertex"/>
					<input offset="1" semantic="NORMAL" source="#ShapeIndexedFaceS_014-Geometry-Normals"/>
					<p>1 0 0 1 2 2 2 3 0 4 3 5 6 6 5 7 4 8 7 9 6 10 4 11 7 12 4 13 8 14 9 15 7 16 8 17 9 18 8 19 10 20 11 21 9 22 10 23 11 24 10 25 12 26 14 27 13 28 6 29 14 30 6 31 7 32 15 33 14 34 7 35 15 36 7 37 9 38 16 39 15 40 9 41 16 42 9 43 11 44 18 45 17 46 13 47 18 48 13 49 14 50 19 51 18 52 14 53 19 54 14 55 15 56 20 57 19 58 15 59 20 60 15 61 16 62 21 63 20 64 16 65 23 66 22 67 17 68 23 69 17 70 18 71 24 72 23 73 18 74 24 75 18 76 19 77 25 78 24 79 19 80 25 81 19 82 20 83 1 84 2 85 22 86 1 87 22 88 23 89 26 90 1 91 23 92 26 93 23 94 24 95 27 96 26 97 24 98 27 99 24 100 25 101 28 102 27 103 25 104 2 105 3 106 29 107 32 108 31 109 30 110 27 111 33 112 26 113 26 114 33 115 1 116 33 117 0 118 1 119 33 120 27 121 34 122 34 123 27 124 35 125 38 126 37 127 36 128 41 129 40 130 39 131 43 132 42 133 40 134 43 135 40 136 41 137 45 138 44 139 42 140 45 141 42 142 43 143 47 144 46 145 44 146 47 147 44 148 45 149 48 150 43 151 41 152 48 153 41 154 49 155 50 156 45 157 43 158 50 159 43 160 48 161 51 162 47 163 45 164 51 165 45 166 50 167 53 168 52 169 47 170 53 171 47 172 51 173 54 174 48 175 49 176 54 177 49 178 55 179 56 180 50 181 48 182 56 183 48 184 54 185 57 186 51 187 50 188 57 189 50 190 56 191 58 192 53 193 51 194 58 195 51 196 57 197 59 198 54 199 55 200 59 201 55 202 60 203 61 204 56 205 54 206 61 207 54 208 59 209 62 210 57 211 56 212 62 213 56 214 61 215 63 216 59 217 60 218 63 219 60 220 64 221 65 222 61 223 59 224 65 225 59 226 63 227 66 228 62 229 61 230 66 231 61 232 65 233 67 234 62 235 66 236 70 237 69 238 68 239 69 240 72 241 71 242 74 243 66 244 73 245 66 246 65 247 75 248 65 249 63 250 75 251 63 252 76 253 75 254 75 255 77 256 66 257 77 258 73 259 66 260 73 261 78 262 74 263 78 264 80 265 79 266 79 267 74 268 78 269 64 270 81 271 76 272 64 273 76 274 63 275 82 276 81 277 64 278 85 279 84 280 83 281 83 282 87 283 86 284 87 285 84 286 88 287 88 288 84 289 89 290 89 291 91 292 90 293 90 294 91 295 92 296 92 297 94 298 93 299 93 300 96 301 95 302 95 303 98 304 97 305 97 306 98 307 99 308 99 309 101 310 100 311 100 312 101 313 102 314 101 315 99 316 98 317 98 318 95 319 96 320 96 321 93 322 94 323 94 324 92 325 91 326 91 327 89 328 84 329 84 330 87 331 83 332 105 333 104 334 103 335 105 336 103 337 106 338 86 339 107 340 85 341 107 342 108 343 85 344 79 345 80 346 108 347 107 348 79 349 108 350 79 351 107 352 68 353 107 354 70 355 68 356 68 357 69 358 109 359 69 360 71 361 109 362 74 363 79 364 109 365 79 366 68 367 109 368 30 369 31 370 110 371 30 372 110 373 111 374 31 375 32 376 105 377 106 378 36 379 105 380 36 381 37 382 105 383 37 384 31 385 105 386 35 387 27 388 112 389 38 390 35 391 112 392 37 393 38 394 112 395 31 396 37 397 112 398 110 399 31 400 112 401 104 402 102 403 103 404 102 405 101 406 103 407 11 408 12 409 113 410 47 411 52 412 114 413 46 414 47 415 114 416 67 417 66 418 74 419 58 420 57 421 67 422 57 423 62 424 67 425 74 426 58 427 67 428 27 429 28 430 112 431 20 432 21 433 28 434 25 435 20 436 28 437 21 438 112 439 28 440 114 441 52 442 109 443 52 444 53 445 109 446 53 447 58 448 109 449 58 450 74 451 109 452 112 453 21 454 110 455 16 456 11 457 115 458 21 459 16 460 115 461 110 462 21 463 115 464 115 465 11 466 113 467 110 468 115 469 113 470 55 471 117 472 116 473 60 474 55 475 116 476 64 477 60 478 116 479 118 480 17 481 29 482 17 483 22 484 29 485 22 486 2 487 29 488 49 489 41 490 117 491 55 492 49 493 117 494 117 495 41 496 39 497 6 498 13 499 118 500 13 501 17 502 118 503 6 504 118 505 5 506 64 507 116 508 82 509 29 510 3 511 119 512 116 513 117 514 120 515 121 516 82 517 120 518 82 519 116 520 120 521 119 522 123 523 122 524 29 525 119 526 122 527 118 528 29 529 122 530 126 531 125 532 124 533 39 534 126 535 124 536 117 537 39 538 124 539 120 540 117 541 124 542 125 543 128 544 127 545 128 546 5 547 127 548 5 549 118 550 127 551 118 552 122 553 127 554 123 555 130 556 129 557 130 558 121 559 129 560 121 561 120 562 129 563 122 564 123 565 129 566 120 567 124 568 129 569 127 570 122 571 129 572 124 573 125 574 129 575 125 576 127 577 129 578 132 579 131 580 72 581 72 582 69 583 132 584 133 585 132 586 69 587 69 588 70 589 133 590 134 591 133 592 70 593 70 594 107 595 134 596 135 597 134 598 107 599 107 600 86 601 135 602 136 603 135 604 86 605 86 606 87 607 136 608 137 609 136 610 87 611 87 612 88 613 137 614 138 615 137 616 88 617 88 618 89 619 138 620 139 621 138 622 89 623 89 624 90 625 139 626 140 627 139 628 90 629 90 630 92 631 140 632 141 633 140 634 92 635 92 636 93 637 141 638 142 639 141 640 93 641 93 642 95 643 142 644 143 645 142 646 95 647 95 648 97 649 143 650 144 651 143 652 97 653 97 654 99 655 144 656 99 657 100 658 145 659 145 660 144 661 99 662 100 663 102 664 146 665 146 666 145 667 100 668 102 669 104 670 147 671 147 672 146 673 102 674 105 675 148 676 147 677 147 678 104 679 105 680 150 681 149 682 30 683 30 684 111 685 150 686 149 687 151 688 32 689 32 690 30 691 149 692 151 693 148 694 105 695 105 696 32 697 151 698 131 699 132 700 152 701 152 702 153 703 131 704 132 705 133 706 154 707 154 708 152 709 132 710 133 711 134 712 155 713 155 714 154 715 133 716 134 717 135 718 156 719 156 720 155 721 134 722 135 723 136 724 157 725 157 726 156 727 135 728 158 729 157 730 136 731 136 732 137 733 158 734 159 735 158 736 137 737 137 738 138 739 159 740 160 741 159 742 138 743 138 744 139 745 160 746 139 747 140 748 161 749 161 750 160 751 139 752 162 753 161 754 140 755 140 756 141 757 162 758 163 759 162 760 141 761 141 762 142 763 163 764 164 765 163 766 142 767 142 768 143 769 164 770 165 771 164 772 143 773 143 774 144 775 165 776 166 777 165 778 144 779 144 780 145 781 166 782 167 783 166 784 145 785 145 786 146 787 167 788 168 789 167 790 146 791 146 792 147 793 168 794 169 795 168 796 147 797 147 798 148 799 169 800 170 801 169 802 148 803 148 804 151 805 170 806 171 807 170 808 151 809 151 810 149 811 171 812 172 813 171 814 149 815 149 816 150 817 172 818</p>
				</triangles>
			</mesh>
		</geometry>
	</library_geometries>
	<library_visual_scenes>
		<visual_scene id="Scene" name="Scene">
			<node layer="L1" id="ShapeIndexedFaceS_003" name="ShapeIndexedFaceS_003">
				<translate sid="translate">0.00000 0.00000 0.00000</translate>
				<rotate sid="rotateZ">0 0 1 0.00000</rotate>
				<rotate sid="rotateY">0 1 0 -0.00000</rotate>
				<rotate sid="rotateX">1 0 0 0.00000</rotate>
				<scale sid="scale">1.00000 1.00000 1.00000</scale>
				<instance_geometry url="#ShapeIndexedFaceS_014">
					<bind_material>
						<technique_common>
							<instance_material symbol="Material_013" target="#Material_013">
								<bind_vertex_input input_semantic="TEXCOORD" input_set="1" semantic="CHANNEL1"/>
							</instance_material>
						</technique_common>
					</bind_material>
				</instance_geometry>
			</node>
			<node layer="L1" id="ShapeIndexedFaceS" name="ShapeIndexedFaceS">
				<translate sid="translate">0.00000 0.00000 0.00000</translate>
				<rotate sid="rotateZ">0 0 1 0.00000</rotate>
				<rotate sid="rotateY">0 1 0 -0.00000</rotate>
				<rotate sid="rotateX">1 0 0 0.00000</rotate>
				<scale sid="scale">1.00000 1.00000 1.00000</scale>
				<instance_geometry url="#ShapeIndexedFaceS_014-Geometry">
					<bind_material>
						<technique_common>
							<instance_material symbol="Material_012" target="#Material_012">
								<bind_vertex_input input_semantic="TEXCOORD" input_set="1" semantic="CHANNEL1"/>
							</instance_material>
						</technique_common>
					</bind_material>
				</instance_geometry>
			</node>
			<node layer="L1" id="Lamp" name="Lamp">
				<translate sid="translate">4.07625 1.00545 5.90386</translate>
				<rotate sid="rotateZ">0 0 1 106.93632</rotate>
				<rotate sid="rotateY">0 1 0 3.16371</rotate>
				<rotate sid="rotateX">1 0 0 37.26105</rotate>
				<scale sid="scale">1.00000 1.00000 1.00000</scale>
				<instance_light url="#Spot"/>
			</node>
			<node layer="L1" id="Camera" name="Camera">
				<translate sid="translate">7.48113 -6.50764 5.34367</translate>
				<rotate sid="rotateZ">0 0 1 46.69194</rotate>
				<rotate sid="rotateY">0 1 0 0.61977</rotate>
				<rotate sid="rotateX">1 0 0 63.55930</rotate>
				<scale sid="scale">1.00000 1.00000 1.00000</scale>
				<instance_camera url="#Camera-Camera"/>
			</node>
		</visual_scene>
	</library_visual_scenes>
	<library_physics_materials>
		<physics_material id="ShapeIndexedFaceS_003-PhysicsMaterial" name="ShapeIndexedFaceS_003-PhysicsMaterial">
			<technique_common>
				<dynamic_friction>0.5</dynamic_friction>
				<restitution>0.0</restitution>
				<static_friction>0.5</static_friction>
			</technique_common>
		</physics_material>
		<physics_material id="ShapeIndexedFaceS-PhysicsMaterial" name="ShapeIndexedFaceS-PhysicsMaterial">
			<technique_common>
				<dynamic_friction>0.5</dynamic_friction>
				<restitution>0.0</restitution>
				<static_friction>0.5</static_friction>
			</technique_common>
		</physics_material>
	</library_physics_materials>
	<library_physics_models>
		<physics_model id="Scene-PhysicsModel" name="Scene-PhysicsModel">
			<rigid_body name="ShapeIndexedFaceS_003-RigidBody" sid="ShapeIndexedFaceS_003-RigidBody">
				<technique_common>
					<dynamic>false</dynamic>
					<mass>0</mass>
					<instance_physics_material url="#ShapeIndexedFaceS_003-PhysicsMaterial"/>
					<shape>
						<instance_geometry url="#ShapeIndexedFaceS_014"/>
					</shape>
				</technique_common>
			</rigid_body>
			<rigid_body name="ShapeIndexedFaceS-RigidBody" sid="ShapeIndexedFaceS-RigidBody">
				<technique_common>
					<dynamic>false</dynamic>
					<mass>0</mass>
					<instance_physics_material url="#ShapeIndexedFaceS-PhysicsMaterial"/>
					<shape>
						<instance_geometry url="#ShapeIndexedFaceS_014-Geometry"/>
					</shape>
				</technique_common>
			</rigid_body>
		</physics_model>
	</library_physics_models>
	<library_physics_scenes>
		<physics_scene id="Scene-Physics" name="Scene-Physics">
			<instance_physics_model url="#Scene-PhysicsModel">
				<instance_rigid_body body="ShapeIndexedFaceS_003-RigidBody" target="#ShapeIndexedFaceS_003"/>
				<instance_rigid_body body="ShapeIndexedFaceS-RigidBody" target="#ShapeIndexedFaceS"/>
			</instance_physics_model>
		</physics_scene>
	</library_physics_scenes>
	<scene>
		<instance_physics_scene url="#Scene-Physics"/>
		<instance_visual_scene url="#Scene"/>
	</scene>
</COLLADA>