<?xml version="1.0" encoding="utf-8"?>
<COLLADA version="1.4.0" xmlns="http://www.collada.org/2005/11/COLLADASchema">
	<asset>
		<contributor>
			<author>Illusoft Collada 1.4.0 plugin for Blender - http://colladablender.illusoft.com</author>
			<authoring_tool>Blender v:249 - Illusoft Collada Exporter v:0.3.162</authoring_tool>
			<comments></comments>
			<copyright></copyright>
			<source_data>file://</source_data>
		</contributor>
		<created>2012-02-24T15:39:45.428963</created>
		<modified>2012-02-24T15:39:45.428983</modified>
		<unit meter="1" name="meter"/>
		<up_axis>Z_UP</up_axis>
	</asset>
	<library_cameras>
		<camera id="Camera-Camera" name="Camera-Camera">
			<optics>
				<technique_common>
					<perspective>
						<yfov>49.13434</yfov>
						<znear>0.1</znear>
						<zfar>100.0</zfar>
					</perspective>
				</technique_common>
			</optics>
		</camera>
	</library_cameras>
	<library_effects>
		<effect id="Material_015-fx" name="Material_015-fx">
			<profile_COMMON>
				<technique sid="blender">
					<phong>
						<emission>
							<color>0.00000 0.00000 0.00000 1</color>
						</emission>
						<ambient>
							<color>0.00000 0.00000 0.00000 1</color>
						</ambient>
						<diffuse>
							<color>0.90000 0.90000 0.90000 1</color>
						</diffuse>
						<specular>
							<color>0.00000 0.00000 0.00000 1</color>
						</specular>
						<shininess>
							<float>7.25</float>
						</shininess>
						<reflective>
							<color>0.00000 0.00000 0.00000 1</color>
						</reflective>
						<reflectivity>
							<float>0.0</float>
						</reflectivity>
						<transparent>
							<color>1 1 1 1</color>
						</transparent>
						<transparency>
							<float>0.0</float>
						</transparency>
					</phong>
				</technique>
			</profile_COMMON>
		</effect>
		<effect id="Material_014-fx" name="Material_014-fx">
			<profile_COMMON>
				<technique sid="blender">
					<phong>
						<emission>
							<color>0.00000 0.00000 0.00000 1</color>
						</emission>
						<ambient>
							<color>0.00000 0.00000 0.00000 1</color>
						</ambient>
						<diffuse>
							<color>0.40000 0.40000 0.40000 1</color>
						</diffuse>
						<specular>
							<color>0.00000 0.00000 0.00000 1</color>
						</specular>
						<shininess>
							<float>7.25</float>
						</shininess>
						<reflective>
							<color>0.00000 0.00000 0.00000 1</color>
						</reflective>
						<reflectivity>
							<float>0.0</float>
						</reflectivity>
						<transparent>
							<color>1 1 1 1</color>
						</transparent>
						<transparency>
							<float>0.0</float>
						</transparency>
					</phong>
				</technique>
			</profile_COMMON>
		</effect>
		<effect id="Material_013-fx" name="Material_013-fx">
			<profile_COMMON>
				<technique sid="blender">
					<phong>
						<emission>
							<color>0.00000 0.00000 0.00000 1</color>
						</emission>
						<ambient>
							<color>0.00000 0.00000 0.00000 1</color>
						</ambient>
						<diffuse>
							<color>0.90000 0.90000 0.90000 1</color>
						</diffuse>
						<specular>
							<color>0.00000 0.00000 0.00000 1</color>
						</specular>
						<shininess>
							<float>7.25</float>
						</shininess>
						<reflective>
							<color>0.00000 0.00000 0.00000 1</color>
						</reflective>
						<reflectivity>
							<float>0.0</float>
						</reflectivity>
						<transparent>
							<color>1 1 1 1</color>
						</transparent>
						<transparency>
							<float>0.0</float>
						</transparency>
					</phong>
				</technique>
			</profile_COMMON>
		</effect>
		<effect id="Material_012-fx" name="Material_012-fx">
			<profile_COMMON>
				<technique sid="blender">
					<phong>
						<emission>
							<color>0.00000 0.00000 0.00000 1</color>
						</emission>
						<ambient>
							<color>0.00000 0.00000 0.00000 1</color>
						</ambient>
						<diffuse>
							<color>0.90000 0.90000 0.90000 1</color>
						</diffuse>
						<specular>
							<color>0.00000 0.00000 0.00000 1</color>
						</specular>
						<shininess>
							<float>7.25</float>
						</shininess>
						<reflective>
							<color>0.00000 0.00000 0.00000 1</color>
						</reflective>
						<reflectivity>
							<float>0.0</float>
						</reflectivity>
						<transparent>
							<color>1 1 1 1</color>
						</transparent>
						<transparency>
							<float>0.0</float>
						</transparency>
					</phong>
				</technique>
			</profile_COMMON>
		</effect>
		<effect id="Material_011-fx" name="Material_011-fx">
			<profile_COMMON>
				<technique sid="blender">
					<phong>
						<emission>
							<color>0.00000 0.00000 0.00000 1</color>
						</emission>
						<ambient>
							<color>0.00000 0.00000 0.00000 1</color>
						</ambient>
						<diffuse>
							<color>0.90000 0.90000 0.90000 1</color>
						</diffuse>
						<specular>
							<color>0.00000 0.00000 0.00000 1</color>
						</specular>
						<shininess>
							<float>7.25</float>
						</shininess>
						<reflective>
							<color>0.00000 0.00000 0.00000 1</color>
						</reflective>
						<reflectivity>
							<float>0.0</float>
						</reflectivity>
						<transparent>
							<color>1 1 1 1</color>
						</transparent>
						<transparency>
							<float>0.0</float>
						</transparency>
					</phong>
				</technique>
			</profile_COMMON>
		</effect>
	</library_effects>
	<library_lights>
		<light id="Spot" name="Spot">
			<technique_common>
				<point>
					<color>1.00000 1.00000 1.00000</color>
					<constant_attenuation>1.0</constant_attenuation>
					<linear_attenuation>0.0</linear_attenuation>
					<quadratic_attenuation>0.0</quadratic_attenuation>
				</point>
			</technique_common>
		</light>
	</library_lights>
	<library_materials>
		<material id="Material_015" name="Material_015">
			<instance_effect url="#Material_015-fx"/>
		</material>
		<material id="Material_014" name="Material_014">
			<instance_effect url="#Material_014-fx"/>
		</material>
		<material id="Material_013" name="Material_013">
			<instance_effect url="#Material_013-fx"/>
		</material>
		<material id="Material_012" name="Material_012">
			<instance_effect url="#Material_012-fx"/>
		</material>
		<material id="Material_011" name="Material_011">
			<instance_effect url="#Material_011-fx"/>
		</material>
	</library_materials>
	<library_geometries>
		<geometry id="ShapeIndexedFaceS_023-Geometry" name="ShapeIndexedFaceS_023-Geometry">
			<mesh>
				<source id="ShapeIndexedFaceS_023-Geometry-Position">
					<float_array count="54" id="ShapeIndexedFaceS_023-Geometry-Position-array">-0.02214 0.05508 -0.05203 -0.00971 0.05802 -0.05437 -0.01172 0.04283 -0.05700 -0.02565 0.04529 -0.05078 0.00672 0.04179 -0.05697 0.01701 0.04614 -0.05331 0.01796 0.03109 -0.05244 0.02792 0.03109 -0.04600 0.02593 0.04794 -0.04728 0.00733 0.05510 -0.05542 0.01716 0.06360 -0.04767 -0.00982 0.06957 -0.04811 -0.02745 0.06359 -0.04218 -0.03712 0.04640 -0.03933 -0.02524 0.03029 -0.04855 -0.03480 0.02900 -0.03779 -0.01230 0.03109 -0.05608 0.00701 0.03109 -0.05663</float_array>
					<technique_common>
						<accessor count="18" source="#ShapeIndexedFaceS_023-Geometry-Position-array" stride="3">
							<param type="float" name="X"></param>
							<param type="float" name="Y"></param>
							<param type="float" name="Z"></param>
						</accessor>
					</technique_common>
				</source>
				<source id="ShapeIndexedFaceS_023-Geometry-Normals">
					<float_array count="207" id="ShapeIndexedFaceS_023-Geometry-Normals-array">0.16099 -0.35200 0.92203 0.48842 -0.27784 0.82717 0.21223 -0.05393 0.97571 0.21223 -0.05393 0.97571 0.48842 -0.27784 0.82717 0.58605 0.04798 0.80883 -0.45524 0.01627 0.89019 -0.43620 -0.11896 0.89193 -0.13700 -0.03214 0.99002 -0.54073 -0.08377 0.83697 -0.45524 0.01627 0.89019 -0.54274 -0.00037 0.83987 -0.43620 -0.11896 0.89193 -0.45524 0.01627 0.89019 -0.54073 -0.08377 0.83697 -0.36976 -0.37822 0.84863 -0.17902 -0.31904 0.93066 -0.43620 -0.11896 0.89193 -0.43620 -0.11896 0.89193 -0.54073 -0.08377 0.83697 -0.36976 -0.37822 0.84863 0.08530 -0.50957 0.85617 0.16099 -0.35200 0.92203 -0.17902 -0.31904 0.93066 -0.17902 -0.31904 0.93066 -0.36976 -0.37822 0.84863 0.08530 -0.50957 0.85617 0.48497 -0.46962 0.73769 0.48842 -0.27784 0.82717 0.16099 -0.35200 0.92203 0.16099 -0.35200 0.92203 0.08530 -0.50957 0.85617 0.48497 -0.46962 0.73769 0.58605 0.04798 0.80883 0.48842 -0.27784 0.82717 0.71557 -0.10065 0.69121 0.48842 -0.27784 0.82717 0.48497 -0.46962 0.73769 0.71557 -0.10065 0.69121 0.72054 0.13727 0.67965 0.62072 0.13187 0.77282 0.58605 0.04798 0.80883 0.58605 0.04798 0.80883 0.71557 -0.10065 0.69121 0.72054 0.13727 0.67965 0.16099 -0.35200 0.92203 0.21223 -0.05393 0.97571 -0.13700 -0.03214 0.99002 -0.43620 -0.11896 0.89193 -0.17902 -0.31904 0.93066 -0.13700 -0.03214 0.99002 0.16099 -0.35200 0.92203 -0.13700 -0.03214 0.99002 -0.17902 -0.31904 0.93066 -0.13700 -0.03214 0.99002 0.21223 -0.05393 0.97571 0.24085 0.07770 0.96744 0.24085 0.07770 0.96744 -0.16782 0.02667 0.98544 -0.13700 -0.03214 0.99002 -0.13700 -0.03214 0.99002 -0.16782 0.02667 0.98544 -0.45524 0.01627 0.89019 0.62072 0.13187 0.77282 0.24085 0.07770 0.96744 0.58605 0.04798 0.80883 0.24085 0.07770 0.96744 0.21223 -0.05393 0.97571 0.58605 0.04798 0.80883</float_array>
					<technique_common>
						<accessor count="69" source="#ShapeIndexedFaceS_023-Geometry-Normals-array" stride="3">
							<param type="float" name="X"></param>
							<param type="float" name="Y"></param>
							<param type="float" name="Z"></param>
						</accessor>
					</technique_common>
				</source>
				<vertices id="ShapeIndexedFaceS_023-Geometry-Vertex">
					<input semantic="POSITION" source="#ShapeIndexedFaceS_023-Geometry-Position"/>
				</vertices>
				<triangles count="23" material="Material_015">
					<input offset="0" semantic="VERTEX" source="#ShapeIndexedFaceS_023-Geometry-Vertex"/>
					<input offset="1" semantic="NORMAL" source="#ShapeIndexedFaceS_023-Geometry-Normals"/>
					<p>1 0 0 1 2 2 2 3 0 4 3 5 6 6 5 7 4 8 8 9 6 10 7 11 5 12 6 13 8 14 10 15 9 16 5 17 5 18 8 19 10 20 11 21 1 22 9 23 9 24 10 25 11 26 12 27 0 28 1 29 1 30 11 31 12 32 3 33 0 34 13 35 0 36 12 37 13 38 15 39 14 40 3 41 3 42 13 43 15 44 1 45 2 46 4 47 5 48 9 49 4 50 1 51 4 52 9 53 4 54 2 55 16 56 16 57 17 58 4 59 4 60 17 61 6 62 14 63 16 64 3 65 16 66 2 67 3 68</p>
				</triangles>
			</mesh>
		</geometry>
		<geometry id="ShapeIndexedFaceS_022-Geometry" name="ShapeIndexedFaceS_022-Geometry">
			<mesh>
				<source id="ShapeIndexedFaceS_022-Geometry-Position">
					<float_array count="207" id="ShapeIndexedFaceS_022-Geometry-Position-array">0.12100 0.00000 -0.06757 0.07578 -0.02270 -0.05633 0.07650 0.00000 -0.05550 -0.10540 0.03900 -0.10100 -0.10560 -0.01900 -0.10100 0.13560 -0.01900 -0.10100 0.13540 0.03900 -0.10120 0.12590 0.03900 -0.10500 -0.09593 0.03900 -0.10500 0.13370 -0.00014 -0.08986 0.13370 0.06573 -0.09286 0.07556 0.03277 -0.05658 0.12100 0.06530 -0.07290 0.13160 0.06424 -0.08356 0.12390 -0.05829 -0.10500 -0.09592 -0.01900 -0.10500 -0.09334 -0.05900 -0.10500 0.12590 -0.01900 -0.10500 0.12100 -0.04519 -0.07165 0.07363 -0.04519 -0.05881 0.12100 -0.05545 -0.08391 0.12100 -0.05681 -0.09086 0.06159 -0.05592 -0.07002 -0.09319 0.07900 -0.10500 0.12100 0.07839 -0.10500 0.07275 0.06530 -0.05982 0.13490 0.06684 -0.10170 -0.10130 0.07579 -0.10390 -0.10500 0.06744 -0.10170 0.13090 0.07554 -0.10410 0.13080 -0.05571 -0.10410 -0.10110 -0.05617 -0.10400 -0.10340 0.06695 -0.09081 -0.10340 -0.04687 -0.08959 -0.10480 -0.05008 -0.10180 0.12100 0.07735 -0.09546 -0.09333 0.07848 -0.09155 0.13500 -0.04793 -0.10160 -0.10040 0.07457 -0.09078 0.13030 0.07362 -0.09346 -0.09363 -0.05831 -0.09019 -0.10050 -0.05427 -0.08948 0.13030 -0.05332 -0.09214 0.13370 -0.04557 -0.09280 -0.03435 -0.05840 -0.07022 -0.08310 -0.05595 -0.05926 -0.08933 -0.05220 -0.05783 -0.09214 -0.04563 -0.05719 -0.08208 0.07618 -0.05949 -0.08854 0.07249 -0.05801 -0.09149 0.06572 -0.05734 -0.03435 0.07840 -0.07022 0.12830 0.07201 -0.08366 0.12065 0.07553 -0.08420 0.12780 0.06488 -0.07681 0.12020 0.07160 -0.07587 0.07046 0.07168 -0.06247 0.06617 0.07508 -0.06742 0.06076 0.07595 -0.06995 -0.00655 0.07620 -0.05690 0.12780 0.00000 -0.07157 0.12825 -0.04462 -0.07644 0.13160 0.00000 -0.07839 0.13180 -0.04412 -0.08298 0.12835 -0.05161 -0.08223 0.12020 -0.05126 -0.07455 0.07135 -0.05140 -0.06144 0.06716 -0.05475 -0.06628 -0.00580 -0.05617 -0.05682</float_array>
					<technique_common>
						<accessor count="69" source="#ShapeIndexedFaceS_022-Geometry-Position-array" stride="3">
							<param type="float" name="X"></param>
							<param type="float" name="Y"></param>
							<param type="float" name="Z"></param>
						</accessor>
					</technique_common>
				</source>
				<source id="ShapeIndexedFaceS_022-Geometry-Normals">
					<float_array count="1035" id="ShapeIndexedFaceS_022-Geometry-Normals-array">0.26743 -0.08676 0.95962 0.35377 -0.00336 0.93530 0.26176 -0.00211 0.96512 0.74502 0.19416 -0.63811 -0.78277 0.41093 -0.46730 -0.61901 -0.22306 -0.75298 0.74502 0.19416 -0.63811 -0.61901 -0.22306 -0.75298 0.78121 -0.40843 -0.47203 -0.14710 -0.56383 -0.81265 0.11399 -0.24909 -0.96173 0.78121 -0.40843 -0.47203 0.78121 -0.40843 -0.47203 0.96521 0.17096 0.19770 0.97430 0.00208 0.22510 0.26176 -0.00211 0.96512 0.35377 -0.00336 0.93530 0.26966 0.07840 0.95975 0.26966 0.07840 0.95975 0.35377 -0.00336 0.93530 0.46849 0.18543 0.86377 0.97430 0.00208 0.22510 0.96521 0.17096 0.19770 0.91177 0.23151 0.33912 -0.13172 -0.84521 -0.51787 -0.12568 0.25007 -0.96002 0.13697 -0.57332 -0.80779 -0.12568 0.25007 -0.96002 0.14307 0.56392 -0.81332 0.13697 -0.57332 -0.80779 0.26743 -0.08676 0.95962 0.24998 -0.29463 0.92230 0.38017 -0.24903 0.89074 0.35377 -0.00336 0.93530 0.26743 -0.08676 0.95962 0.38017 -0.24903 0.89074 0.04056 -0.98642 0.15903 0.14710 -0.98132 0.12372 0.23020 -0.93240 0.27851 0.11399 -0.24909 -0.96173 -0.14710 -0.56383 -0.81265 -0.12052 0.71670 -0.68688 0.11399 -0.24909 -0.96173 -0.12052 0.71670 -0.68688 0.13556 0.73342 -0.66607 0.26966 0.07840 0.95975 0.46849 0.18543 0.86377 0.24604 0.33760 0.90854 -0.14710 -0.56383 -0.81265 0.78121 -0.40843 -0.47203 -0.61901 -0.22306 -0.75298 0.78121 -0.40843 -0.47203 0.97430 0.00208 0.22510 0.74502 0.19416 -0.63811 0.14307 0.56392 -0.81332 -0.12568 0.25007 -0.96002 -0.78277 0.41093 -0.46730 0.74502 0.19416 -0.63811 0.14307 0.56392 -0.81332 -0.78277 0.41093 -0.46730 0.95996 0.25108 -0.12403 0.96521 0.17096 0.19770 0.78121 -0.40843 -0.47203 -0.63353 0.50630 -0.58501 -0.14710 -0.56383 -0.81265 -0.61901 -0.22306 -0.75298 -0.61901 -0.22306 -0.75298 -0.96304 0.23078 -0.13877 -0.63353 0.50630 -0.58501 0.11399 -0.24909 -0.96173 0.59627 0.55986 -0.57530 0.78121 -0.40843 -0.47203 0.61885 -0.55922 -0.55159 0.14307 0.56392 -0.81332 0.74502 0.19416 -0.63811 -0.12568 0.25007 -0.96002 -0.61699 -0.53404 -0.57799 -0.78277 0.41093 -0.46730 -0.96597 0.12436 0.22669 -0.96304 0.23078 -0.13877 -0.61901 -0.22306 -0.75298 -0.95389 -0.27052 -0.12998 -0.95959 -0.12104 0.25394 -0.78277 0.41093 -0.46730 0.13556 0.73342 -0.66607 -0.12052 0.71670 -0.68688 0.19480 0.97061 0.14118 0.19480 0.97061 0.14118 -0.12052 0.71670 -0.68688 -0.22340 0.96887 0.10639 0.13697 -0.57332 -0.80779 0.14710 -0.98132 0.12372 -0.13172 -0.84521 -0.51787 0.74502 0.19416 -0.63811 0.95892 -0.26469 -0.10172 0.61885 -0.55922 -0.55159 0.14307 0.56392 -0.81332 0.61885 -0.55922 -0.55159 0.13697 -0.57332 -0.80779 0.59627 0.55986 -0.57530 0.11399 -0.24909 -0.96173 0.13556 0.73342 -0.66607 0.13556 0.73342 -0.66607 0.19480 0.97061 0.14118 0.59627 0.55986 -0.57530 0.59627 0.55986 -0.57530 0.95996 0.25108 -0.12403 0.78121 -0.40843 -0.47203 -0.12568 0.25007 -0.96002 -0.13172 -0.84521 -0.51787 -0.61699 -0.53404 -0.57799 -0.78277 0.41093 -0.46730 -0.61699 -0.53404 -0.57799 -0.95389 -0.27052 -0.12998 -0.63353 0.50630 -0.58501 -0.12052 0.71670 -0.68688 -0.14710 -0.56383 -0.81265 -0.22340 0.96887 0.10639 -0.12052 0.71670 -0.68688 -0.63353 0.50630 -0.58501 -0.63353 0.50630 -0.58501 -0.96304 0.23078 -0.13877 -0.78747 0.57607 0.21903 -0.78747 0.57607 0.21903 -0.96304 0.23078 -0.13877 -0.96597 0.12436 0.22669 -0.22340 0.96887 0.10639 -0.63353 0.50630 -0.58501 -0.78747 0.57607 0.21903 0.59627 0.55986 -0.57530 0.19480 0.97061 0.14118 0.75329 0.62084 0.21696 0.95996 0.25108 -0.12403 0.59627 0.55986 -0.57530 0.75329 0.62084 0.21696 0.95996 0.25108 -0.12403 0.75329 0.62084 0.21696 0.96521 0.17096 0.19770 -0.13172 -0.84521 -0.51787 0.14710 -0.98132 0.12372 -0.26365 -0.95865 0.10697 -0.61699 -0.53404 -0.57799 -0.13172 -0.84521 -0.51787 -0.26365 -0.95865 0.10697 -0.26365 -0.95865 0.10697 -0.77813 -0.58498 0.22861 -0.61699 -0.53404 -0.57799 -0.95389 -0.27052 -0.12998 -0.61699 -0.53404 -0.57799 -0.77813 -0.58498 0.22861 -0.77813 -0.58498 0.22861 -0.95959 -0.12104 0.25394 -0.95389 -0.27052 -0.12998 0.13697 -0.57332 -0.80779 0.61885 -0.55922 -0.55159 0.14710 -0.98132 0.12372 0.14710 -0.98132 0.12372 0.61885 -0.55922 -0.55159 0.67531 -0.70489 0.21693 0.95892 -0.26469 -0.10172 0.95694 -0.20069 0.20969 0.67531 -0.70489 0.21693 0.61885 -0.55922 -0.55159 0.95892 -0.26469 -0.10172 0.67531 -0.70489 0.21693 0.00678 -0.99738 0.07196 -0.26365 -0.95865 0.10697 0.14710 -0.98132 0.12372 -0.25486 -0.95370 0.15952 -0.26365 -0.95865 0.10697 0.00678 -0.99738 0.07196 -0.62529 -0.73226 0.26978 -0.26365 -0.95865 0.10697 -0.25486 -0.95370 0.15952 -0.77813 -0.58498 0.22861 -0.26365 -0.95865 0.10697 -0.62529 -0.73226 0.26978 -0.91018 -0.24879 0.33106 -0.77813 -0.58498 0.22861 -0.62529 -0.73226 0.26978 -0.91018 -0.24879 0.33106 -0.95959 -0.12104 0.25394 -0.77813 -0.58498 0.22861 -0.22340 0.96887 0.10639 -0.61061 0.74477 0.26905 -0.24335 0.95761 0.15409 -0.22340 0.96887 0.10639 -0.78747 0.57607 0.21903 -0.61061 0.74477 0.26905 -0.78747 0.57607 0.21903 -0.92145 0.19324 0.33692 -0.61061 0.74477 0.26905 -0.78747 0.57607 0.21903 -0.96597 0.12436 0.22669 -0.92145 0.19324 0.33692 -0.22340 0.96887 0.10639 -0.24335 0.95761 0.15409 0.00943 0.99826 0.05817 0.19480 0.97061 0.14118 0.14441 0.95920 0.24302 0.60201 0.70632 0.37239 0.60201 0.70632 0.37239 0.75329 0.62084 0.21696 0.19480 0.97061 0.14118 0.74502 0.19416 -0.63811 0.97430 0.00208 0.22510 0.95694 -0.20069 0.20969 0.95892 -0.26469 -0.10172 0.74502 0.19416 -0.63811 0.95694 -0.20069 0.20969 0.91177 0.23151 0.33912 0.96521 0.17096 0.19770 0.75329 0.62084 0.21696 0.75329 0.62084 0.21696 0.60201 0.70632 0.37239 0.91177 0.23151 0.33912 0.75774 0.24723 0.60384 0.91177 0.23151 0.33912 0.60201 0.70632 0.37239 0.46849 0.18543 0.86377 0.34672 0.62966 0.69518 0.24604 0.33760 0.90854 0.34672 0.62966 0.69518 0.17069 0.76867 0.61641 0.24604 0.33760 0.90854 0.34672 0.62966 0.69518 0.14441 0.95920 0.24302 0.17069 0.76867 0.61641 0.14441 0.95920 0.24302 0.09946 0.93219 0.34800 0.17069 0.76867 0.61641 0.14441 0.95920 0.24302 0.03610 0.99030 0.13410 0.09946 0.93219 0.34800 0.00943 0.99826 0.05817 0.02527 0.99344 0.11130 0.03610 0.99030 0.13410 0.14441 0.95920 0.24302 0.19480 0.97061 0.14118 -0.22340 0.96887 0.10639 -0.22340 0.96887 0.10639 0.00943 0.99826 0.05817 0.14441 0.95920 0.24302 0.00943 0.99826 0.05817 0.03610 0.99030 0.13410 0.14441 0.95920 0.24302 0.46849 0.18543 0.86377 0.35377 -0.00336 0.93530 0.68496 -0.00748 0.72851 0.68496 -0.00748 0.72851 0.35377 -0.00336 0.93530 0.38017 -0.24903 0.89074 0.73824 -0.25336 0.62511 0.68496 -0.00748 0.72851 0.38017 -0.24903 0.89074 0.88531 0.01001 0.46486 0.68496 -0.00748 0.72851 0.73824 -0.25336 0.62511 0.93704 -0.16419 0.30808 0.88531 0.01001 0.46486 0.73824 -0.25336 0.62511 0.88531 0.01001 0.46486 0.75774 0.24723 0.60384 0.46849 0.18543 0.86377 0.68496 -0.00748 0.72851 0.88531 0.01001 0.46486 0.46849 0.18543 0.86377 0.97430 0.00208 0.22510 0.91177 0.23151 0.33912 0.75774 0.24723 0.60384 0.88531 0.01001 0.46486 0.97430 0.00208 0.22510 0.75774 0.24723 0.60384 0.97430 0.00208 0.22510 0.88531 0.01001 0.46486 0.93704 -0.16419 0.30808 0.95694 -0.20069 0.20969 0.97430 0.00208 0.22510 0.93704 -0.16419 0.30808 0.70406 -0.59560 0.38667 0.67531 -0.70489 0.21693 0.95694 -0.20069 0.20969 0.95694 -0.20069 0.20969 0.93704 -0.16419 0.30808 0.70406 -0.59560 0.38667 0.73824 -0.25336 0.62511 0.38017 -0.24903 0.89074 0.34053 -0.70312 0.62420 0.67531 -0.70489 0.21693 0.70406 -0.59560 0.38667 0.23020 -0.93240 0.27851 0.23020 -0.93240 0.27851 0.14710 -0.98132 0.12372 0.67531 -0.70489 0.21693 0.70406 -0.59560 0.38667 0.34053 -0.70312 0.62420 0.23020 -0.93240 0.27851 0.34053 -0.70312 0.62420 0.70406 -0.59560 0.38667 0.73824 -0.25336 0.62511 0.70406 -0.59560 0.38667 0.93704 -0.16419 0.30808 0.73824 -0.25336 0.62511 0.34672 0.62966 0.69518 0.60201 0.70632 0.37239 0.14441 0.95920 0.24302 0.34672 0.62966 0.69518 0.46849 0.18543 0.86377 0.75774 0.24723 0.60384 0.75774 0.24723 0.60384 0.60201 0.70632 0.37239 0.34672 0.62966 0.69518 0.24998 -0.29463 0.92230 0.20750 -0.60921 0.76537 0.38017 -0.24903 0.89074 0.20750 -0.60921 0.76537 0.34053 -0.70312 0.62420 0.38017 -0.24903 0.89074 0.20750 -0.60921 0.76537 0.10578 -0.92099 0.37492 0.34053 -0.70312 0.62420 0.10578 -0.92099 0.37492 0.04056 -0.98642 0.15903 0.23020 -0.93240 0.27851 0.23020 -0.93240 0.27851 0.34053 -0.70312 0.62420 0.10578 -0.92099 0.37492 0.02542 -0.99347 0.11112 0.00678 -0.99738 0.07196 0.04056 -0.98642 0.15903 0.14710 -0.98132 0.12372 0.04056 -0.98642 0.15903 0.00678 -0.99738 0.07196 -0.96597 0.12436 0.22669 -0.61901 -0.22306 -0.75298 -0.78277 0.41093 -0.46730 -0.78277 0.41093 -0.46730 -0.95959 -0.12104 0.25394 -0.96597 0.12436 0.22669 -0.92145 0.19324 0.33692 -0.96597 0.12436 0.22669 -0.95959 -0.12104 0.25394 -0.95959 -0.12104 0.25394 -0.91018 -0.24879 0.33106 -0.92145 0.19324 0.33692</float_array>
					<technique_common>
						<accessor count="345" source="#ShapeIndexedFaceS_022-Geometry-Normals-array" stride="3">
							<param type="float" name="X"></param>
							<param type="float" name="Y"></param>
							<param type="float" name="Z"></param>
						</accessor>
					</technique_common>
				</source>
				<vertices id="ShapeIndexedFaceS_022-Geometry-Vertex">
					<input semantic="POSITION" source="#ShapeIndexedFaceS_022-Geometry-Position"/>
				</vertices>
				<triangles count="115" material="Material_014">
					<input offset="0" semantic="VERTEX" source="#ShapeIndexedFaceS_022-Geometry-Vertex"/>
					<input offset="1" semantic="NORMAL" source="#ShapeIndexedFaceS_022-Geometry-Normals"/>
					<p>1 0 0 1 2 2 5 3 4 4 3 5 5 6 3 7 6 8 8 9 7 10 6 11 6 12 10 13 9 14 2 15 0 16 11 17 11 18 0 19 12 20 9 21 10 22 13 23 16 24 15 25 14 26 15 27 17 28 14 29 1 30 19 31 18 32 0 33 1 34 18 35 22 36 21 37 20 38 7 39 8 40 23 41 7 42 23 43 24 44 11 45 12 46 25 47 8 48 6 49 3 50 6 51 9 52 5 53 17 54 15 55 4 56 5 57 17 58 4 59 26 60 10 61 6 62 27 63 8 64 3 65 3 66 28 67 27 68 7 69 29 70 6 71 30 72 17 73 5 74 15 75 31 76 4 77 32 78 28 79 3 80 34 81 33 82 4 83 24 84 23 85 35 86 35 87 23 88 36 89 14 90 21 91 16 92 5 93 37 94 30 95 17 96 30 97 14 98 29 99 7 100 24 101 24 102 35 103 29 104 29 105 26 106 6 107 15 108 16 109 31 110 4 111 31 112 34 113 27 114 23 115 8 116 36 117 23 118 27 119 27 120 28 121 38 122 38 123 28 124 32 125 36 126 27 127 38 128 29 129 35 130 39 131 26 132 29 133 39 134 26 135 39 136 10 137 16 138 21 139 40 140 31 141 16 142 40 143 40 144 41 145 31 146 34 147 31 148 41 149 41 150 33 151 34 152 14 153 30 154 21 155 21 156 30 157 42 158 37 159 43 160 42 161 30 162 37 163 42 164 44 165 40 166 21 167 45 168 40 169 44 170 46 171 40 172 45 173 41 174 40 175 46 176 47 177 41 178 46 179 47 180 33 181 41 182 36 183 49 184 48 185 36 186 38 187 49 188 38 189 50 190 49 191 38 192 32 193 50 194 36 195 48 196 51 197 35 198 53 199 52 200 52 201 39 202 35 203 5 204 9 205 43 206 37 207 5 208 43 209 13 210 10 211 39 212 39 213 52 214 13 215 54 216 13 217 52 218 12 219 55 220 25 221 55 222 56 223 25 224 55 225 53 226 56 227 53 228 57 229 56 230 53 231 58 232 57 233 51 234 59 235 58 236 53 237 35 238 36 239 36 240 51 241 53 242 51 243 58 244 53 245 12 246 0 247 60 248 60 249 0 250 18 251 61 252 60 253 18 254 62 255 60 256 61 257 63 258 62 259 61 260 62 261 54 262 12 263 60 264 62 265 12 266 9 267 13 268 54 269 62 270 9 271 54 272 9 273 62 274 63 275 43 276 9 277 63 278 64 279 42 280 43 281 43 282 63 283 64 284 61 285 18 286 65 287 42 288 64 289 20 290 20 291 21 292 42 293 64 294 65 295 20 296 65 297 64 298 61 299 64 300 63 301 61 302 55 303 52 304 53 305 55 306 12 307 54 308 54 309 52 310 55 311 19 312 66 313 18 314 66 315 65 316 18 317 66 318 67 319 65 320 67 321 22 322 20 323 20 324 65 325 67 326 68 327 44 328 22 329 21 330 22 331 44 332 32 333 3 334 4 335 4 336 33 337 32 338 50 339 32 340 33 341 33 342 47 343 50 344</p>
				</triangles>
			</mesh>
		</geometry>
		<geometry id="ShapeIndexedFaceS_021-Geometry" name="ShapeIndexedFaceS_021-Geometry">
			<mesh>
				<source id="ShapeIndexedFaceS_021-Geometry-Position">
					<float_array count="177" id="ShapeIndexedFaceS_021-Geometry-Position-array">-0.06961 0.03300 0.00000 -0.02950 0.03300 0.00000 -0.02950 0.03000 0.01375 -0.06961 0.03000 0.01375 -0.02950 0.02092 0.02552 -0.06961 0.02092 0.02552 -0.02950 0.00755 0.03212 -0.06961 0.00755 0.03212 -0.02950 -0.00713 0.03222 -0.06961 -0.00713 0.03222 -0.02950 -0.02098 0.02547 -0.06961 -0.02098 0.02547 -0.02950 -0.02952 0.01475 -0.06961 -0.02952 0.01475 -0.07849 0.01296 0.01581 -0.07849 0.00467 0.01990 -0.08003 0.00783 0.00955 -0.07849 -0.00441 0.01996 -0.08003 -0.00267 0.01206 -0.07849 -0.01299 0.01578 -0.07849 -0.01829 0.00913 -0.08003 0.01235 0.00000 -0.08089 -0.00158 0.00000 -0.07624 -0.02825 0.00000 -0.07936 -0.01637 0.00000 -0.07624 0.02527 0.01262 -0.07624 0.02825 0.00000 -0.07624 0.01796 0.02180 -0.07624 0.00610 0.02758 -0.07624 -0.02568 0.01177 -0.07624 -0.01791 0.02184 -0.07624 -0.00646 0.02750 -0.02950 -0.03300 0.00000 -0.06961 -0.03300 0.00000 -0.02950 0.03000 -0.01375 -0.06961 0.03000 -0.01375 -0.02950 0.02092 -0.02552 -0.06961 0.02092 -0.02552 -0.02950 0.00755 -0.03212 -0.06961 0.00755 -0.03212 -0.02950 -0.00713 -0.03222 -0.06961 -0.00713 -0.03222 -0.02950 -0.02098 -0.02547 -0.06961 -0.02098 -0.02547 -0.02950 -0.02952 -0.01475 -0.06961 -0.02952 -0.01475 -0.08003 0.00783 -0.00955 -0.07849 0.00467 -0.01990 -0.07849 0.01296 -0.01581 -0.08003 -0.00267 -0.01206 -0.07849 -0.00441 -0.01996 -0.07849 -0.01299 -0.01578 -0.07849 -0.01829 -0.00913 -0.07624 0.02527 -0.01262 -0.07624 0.01796 -0.02180 -0.07624 0.00610 -0.02758 -0.07624 -0.02568 -0.01177 -0.07624 -0.01791 -0.02184 -0.07624 -0.00646 -0.02750</float_array>
					<technique_common>
						<accessor count="59" source="#ShapeIndexedFaceS_021-Geometry-Position-array" stride="3">
							<param type="float" name="X"></param>
							<param type="float" name="Y"></param>
							<param type="float" name="Z"></param>
						</accessor>
					</technique_common>
				</source>
				<source id="ShapeIndexedFaceS_021-Geometry-Normals">
					<float_array count="918" id="ShapeIndexedFaceS_021-Geometry-Normals-array">0.00000 1.00000 0.00000 -0.20380 0.97900 0.00000 0.00000 0.93548 0.35334 0.00000 0.93548 0.35334 -0.20380 0.97900 0.00000 -0.30738 0.85809 0.41127 0.00000 0.69118 0.72265 0.00000 0.93548 0.35334 -0.30738 0.85809 0.41127 0.00000 0.69118 0.72265 -0.30738 0.85809 0.41127 -0.30421 0.59651 0.74270 0.00000 0.30418 0.95260 0.00000 0.69118 0.72265 -0.30421 0.59651 0.74270 0.00000 0.30418 0.95260 -0.30421 0.59651 0.74270 -0.30744 0.21125 0.92779 0.00000 -0.14484 0.98944 0.00000 0.30418 0.95260 -0.30744 0.21125 0.92779 0.00000 -0.14484 0.98944 -0.30744 0.21125 0.92779 -0.30595 -0.22004 0.92624 0.00000 -0.56508 0.82501 0.00000 -0.14484 0.98944 -0.30595 -0.22004 0.92624 0.00000 -0.56508 0.82501 -0.30595 -0.22004 0.92624 -0.30561 -0.60143 0.73812 0.00000 -0.86441 0.50273 0.00000 -0.56508 0.82501 -0.30561 -0.60143 0.73812 0.00000 -0.86441 0.50273 -0.30561 -0.60143 0.73812 -0.30747 -0.86035 0.40648 -0.98987 0.09973 0.10077 -0.97583 0.05066 0.21247 -0.97027 0.15177 0.18836 -0.99176 -0.05103 0.11740 -0.97055 -0.04132 0.23728 -0.97583 0.05066 0.21247 -0.99176 -0.05103 0.11740 -0.97583 0.05066 0.21247 -0.98987 0.09973 0.10077 -0.99176 -0.05103 0.11740 -0.97055 -0.15036 0.18815 -0.97055 -0.04132 0.23728 -0.97653 -0.19626 0.08860 -0.97055 -0.15036 0.18815 -0.99176 -0.05103 0.11740 -0.99994 -0.00793 0.00000 -0.98987 0.09973 0.10077 -0.98648 0.16376 0.00000 -0.99994 -0.00793 0.00000 -0.99176 -0.05103 0.11740 -0.98987 0.09973 0.10077 -0.97653 -0.19626 0.08860 -0.98767 -0.15650 0.00000 -0.88351 -0.46834 0.00000 -0.76177 0.64782 0.00000 -0.98648 0.16376 0.00000 -0.85888 0.44923 0.24589 -0.98987 0.09973 0.10077 -0.97027 0.15177 0.18836 -0.85888 0.44923 0.24589 -0.98648 0.16376 0.00000 -0.98987 0.09973 0.10077 -0.85888 0.44923 0.24589 -0.85888 0.44923 0.24589 -0.97027 0.15177 0.18836 -0.77697 0.36381 0.51372 -0.97027 0.15177 0.18836 -0.97583 0.05066 0.21247 -0.84600 0.09268 0.52504 -0.97583 0.05066 0.21247 -0.97055 -0.04132 0.23728 -0.84600 0.09268 0.52504 -0.77697 0.36381 0.51372 -0.97027 0.15177 0.18836 -0.84600 0.09268 0.52504 -0.97653 -0.19626 0.08860 -0.88351 -0.46834 0.00000 -0.81793 -0.52886 0.22639 -0.97055 -0.15036 0.18815 -0.97653 -0.19626 0.08860 -0.81793 -0.52886 0.22639 -0.97055 -0.15036 0.18815 -0.81793 -0.52886 0.22639 -0.77895 -0.42454 0.46147 -0.97055 -0.04132 0.23728 -0.97055 -0.15036 0.18815 -0.81741 -0.17460 0.54894 -0.84600 0.09268 0.52504 -0.97055 -0.04132 0.23728 -0.81741 -0.17460 0.54894 -0.97055 -0.15036 0.18815 -0.77895 -0.42454 0.46147 -0.81741 -0.17460 0.54894 -0.30747 -0.86035 0.40648 -0.40022 -0.91641 0.00000 0.00000 -1.00000 0.00000 0.00000 -0.86441 0.50273 -0.30747 -0.86035 0.40648 0.00000 -1.00000 0.00000 -0.20380 0.97900 0.00000 -0.76177 0.64782 0.00000 -0.30738 0.85809 0.41127 -0.30738 0.85809 0.41127 -0.76177 0.64782 0.00000 -0.85888 0.44923 0.24589 -0.30421 0.59651 0.74270 -0.30738 0.85809 0.41127 -0.85888 0.44923 0.24589 -0.30421 0.59651 0.74270 -0.85888 0.44923 0.24589 -0.77697 0.36381 0.51372 -0.30744 0.21125 0.92779 -0.30421 0.59651 0.74270 -0.77697 0.36381 0.51372 -0.30744 0.21125 0.92779 -0.77697 0.36381 0.51372 -0.84600 0.09268 0.52504 -0.30595 -0.22004 0.92624 -0.30744 0.21125 0.92779 -0.84600 0.09268 0.52504 -0.30595 -0.22004 0.92624 -0.84600 0.09268 0.52504 -0.81741 -0.17460 0.54894 -0.30595 -0.22004 0.92624 -0.81741 -0.17460 0.54894 -0.30561 -0.60143 0.73812 -0.81741 -0.17460 0.54894 -0.77895 -0.42454 0.46147 -0.30561 -0.60143 0.73812 -0.30561 -0.60143 0.73812 -0.77895 -0.42454 0.46147 -0.30747 -0.86035 0.40648 -0.77895 -0.42454 0.46147 -0.81793 -0.52886 0.22639 -0.30747 -0.86035 0.40648 -0.30747 -0.86035 0.40648 -0.81793 -0.52886 0.22639 -0.40022 -0.91641 0.00000 -0.81793 -0.52886 0.22639 -0.88351 -0.46834 0.00000 -0.40022 -0.91641 0.00000 -0.99176 -0.05103 0.11740 -0.99994 -0.00793 0.00000 -0.98767 -0.15650 0.00000 -0.98767 -0.15650 0.00000 -0.97653 -0.19626 0.08860 -0.99176 -0.05103 0.11740 -0.20380 0.97900 0.00000 0.00000 1.00000 0.00000 0.00000 0.93548 -0.35334 -0.30738 0.85809 -0.41127 -0.20380 0.97900 0.00000 0.00000 0.93548 -0.35334 -0.30738 0.85809 -0.41127 0.00000 0.93548 -0.35334 0.00000 0.69118 -0.72265 -0.30421 0.59651 -0.74270 -0.30738 0.85809 -0.41127 0.00000 0.69118 -0.72265 -0.30421 0.59651 -0.74270 0.00000 0.69118 -0.72265 0.00000 0.30418 -0.95260 -0.30744 0.21125 -0.92779 -0.30421 0.59651 -0.74270 0.00000 0.30418 -0.95260 -0.30744 0.21125 -0.92779 0.00000 0.30418 -0.95260 0.00000 -0.14484 -0.98944 -0.30595 -0.22004 -0.92624 -0.30744 0.21125 -0.92779 0.00000 -0.14484 -0.98944 -0.30595 -0.22004 -0.92624 0.00000 -0.14484 -0.98944 0.00000 -0.56508 -0.82501 -0.30561 -0.60143 -0.73812 -0.30595 -0.22004 -0.92624 0.00000 -0.56508 -0.82501 -0.30561 -0.60143 -0.73812 0.00000 -0.56508 -0.82501 0.00000 -0.86441 -0.50273 -0.30747 -0.86035 -0.40648 -0.30561 -0.60143 -0.73812 0.00000 -0.86441 -0.50273 -0.97027 0.15177 -0.18836 -0.97583 0.05066 -0.21247 -0.98987 0.09973 -0.10077 -0.97583 0.05066 -0.21247 -0.97055 -0.04132 -0.23728 -0.99176 -0.05103 -0.11740 -0.98987 0.09973 -0.10077 -0.97583 0.05066 -0.21247 -0.99176 -0.05103 -0.11740 -0.97055 -0.04132 -0.23728 -0.97055 -0.15036 -0.18815 -0.99176 -0.05103 -0.11740 -0.99176 -0.05103 -0.11740 -0.97055 -0.15036 -0.18815 -0.97653 -0.19626 -0.08860 -0.98648 0.16376 0.00000 -0.98987 0.09973 -0.10077 -0.99994 -0.00793 0.00000 -0.98987 0.09973 -0.10077 -0.99176 -0.05103 -0.11740 -0.99994 -0.00793 0.00000 -0.88351 -0.46834 0.00000 -0.98767 -0.15650 0.00000 -0.97653 -0.19626 -0.08860 -0.85888 0.44923 -0.24589 -0.98648 0.16376 0.00000 -0.76177 0.64782 0.00000 -0.85888 0.44923 -0.24589 -0.97027 0.15177 -0.18836 -0.98987 0.09973 -0.10077 -0.85888 0.44923 -0.24589 -0.98987 0.09973 -0.10077 -0.98648 0.16376 0.00000 -0.77697 0.36381 -0.51372 -0.97027 0.15177 -0.18836 -0.85888 0.44923 -0.24589 -0.84600 0.09268 -0.52504 -0.97583 0.05066 -0.21247 -0.97027 0.15177 -0.18836 -0.84600 0.09268 -0.52504 -0.97055 -0.04132 -0.23728 -0.97583 0.05066 -0.21247 -0.84600 0.09268 -0.52504 -0.97027 0.15177 -0.18836 -0.77697 0.36381 -0.51372 -0.81793 -0.52886 -0.22639 -0.88351 -0.46834 0.00000 -0.97653 -0.19626 -0.08860 -0.81793 -0.52886 -0.22639 -0.97653 -0.19626 -0.08860 -0.97055 -0.15036 -0.18815 -0.77895 -0.42454 -0.46147 -0.81793 -0.52886 -0.22639 -0.97055 -0.15036 -0.18815 -0.81741 -0.17460 -0.54894 -0.97055 -0.15036 -0.18815 -0.97055 -0.04132 -0.23728 -0.81741 -0.17460 -0.54894 -0.97055 -0.04132 -0.23728 -0.84600 0.09268 -0.52504 -0.81741 -0.17460 -0.54894 -0.77895 -0.42454 -0.46147 -0.97055 -0.15036 -0.18815 0.00000 -1.00000 0.00000 -0.40022 -0.91641 0.00000 -0.30747 -0.86035 -0.40648 0.00000 -1.00000 0.00000 -0.30747 -0.86035 -0.40648 0.00000 -0.86441 -0.50273 -0.76177 0.64782 0.00000 -0.20380 0.97900 0.00000 -0.30738 0.85809 -0.41127 -0.85888 0.44923 -0.24589 -0.76177 0.64782 0.00000 -0.30738 0.85809 -0.41127 -0.85888 0.44923 -0.24589 -0.30738 0.85809 -0.41127 -0.30421 0.59651 -0.74270 -0.77697 0.36381 -0.51372 -0.85888 0.44923 -0.24589 -0.30421 0.59651 -0.74270 -0.77697 0.36381 -0.51372 -0.30421 0.59651 -0.74270 -0.30744 0.21125 -0.92779 -0.84600 0.09268 -0.52504 -0.77697 0.36381 -0.51372 -0.30744 0.21125 -0.92779 -0.84600 0.09268 -0.52504 -0.30744 0.21125 -0.92779 -0.30595 -0.22004 -0.92624 -0.81741 -0.17460 -0.54894 -0.84600 0.09268 -0.52504 -0.30595 -0.22004 -0.92624 -0.30561 -0.60143 -0.73812 -0.81741 -0.17460 -0.54894 -0.30595 -0.22004 -0.92624 -0.30561 -0.60143 -0.73812 -0.77895 -0.42454 -0.46147 -0.81741 -0.17460 -0.54894 -0.30747 -0.86035 -0.40648 -0.77895 -0.42454 -0.46147 -0.30561 -0.60143 -0.73812 -0.30747 -0.86035 -0.40648 -0.81793 -0.52886 -0.22639 -0.77895 -0.42454 -0.46147 -0.40022 -0.91641 0.00000 -0.81793 -0.52886 -0.22639 -0.30747 -0.86035 -0.40648 -0.40022 -0.91641 0.00000 -0.88351 -0.46834 0.00000 -0.81793 -0.52886 -0.22639 -0.98767 -0.15650 0.00000 -0.99994 -0.00793 0.00000 -0.99176 -0.05103 -0.11740 -0.99176 -0.05103 -0.11740 -0.97653 -0.19626 -0.08860 -0.98767 -0.15650 0.00000</float_array>
					<technique_common>
						<accessor count="306" source="#ShapeIndexedFaceS_021-Geometry-Normals-array" stride="3">
							<param type="float" name="X"></param>
							<param type="float" name="Y"></param>
							<param type="float" name="Z"></param>
						</accessor>
					</technique_common>
				</source>
				<vertices id="ShapeIndexedFaceS_021-Geometry-Vertex">
					<input semantic="POSITION" source="#ShapeIndexedFaceS_021-Geometry-Position"/>
				</vertices>
				<triangles count="102" material="Material_013">
					<input offset="0" semantic="VERTEX" source="#ShapeIndexedFaceS_021-Geometry-Vertex"/>
					<input offset="1" semantic="NORMAL" source="#ShapeIndexedFaceS_021-Geometry-Normals"/>
					<p>1 0 0 1 2 2 2 3 0 4 3 5 4 6 2 7 3 8 4 9 3 10 5 11 6 12 4 13 5 14 6 15 5 16 7 17 8 18 6 19 7 20 8 21 7 22 9 23 10 24 8 25 9 26 10 27 9 28 11 29 12 30 10 31 11 32 12 33 11 34 13 35 16 36 15 37 14 38 18 39 17 40 15 41 18 42 15 43 16 44 18 45 19 46 17 47 20 48 19 49 18 50 22 51 16 52 21 53 22 54 18 55 16 56 20 57 24 58 23 59 26 60 21 61 25 62 16 63 14 64 25 65 21 66 16 67 25 68 25 69 14 70 27 71 14 72 15 73 28 74 15 75 17 76 28 77 27 78 14 79 28 80 20 81 23 82 29 83 19 84 20 85 29 86 19 87 29 88 30 89 17 90 19 91 31 92 28 93 17 94 31 95 19 96 30 97 31 98 13 99 33 100 32 101 12 102 13 103 32 104 0 105 26 106 3 107 3 108 26 109 25 110 5 111 3 112 25 113 5 114 25 115 27 116 7 117 5 118 27 119 7 120 27 121 28 122 9 123 7 124 28 125 9 126 28 127 31 128 9 129 31 130 11 131 31 132 30 133 11 134 11 135 30 136 13 137 30 138 29 139 13 140 13 141 29 142 33 143 29 144 23 145 33 146 18 147 22 148 24 149 24 150 20 151 18 152 0 153 1 154 34 155 35 156 0 157 34 158 35 159 34 160 36 161 37 162 35 163 36 164 37 165 36 166 38 167 39 168 37 169 38 170 39 171 38 172 40 173 41 174 39 175 40 176 41 177 40 178 42 179 43 180 41 181 42 182 43 183 42 184 44 185 45 186 43 187 44 188 48 189 47 190 46 191 47 192 50 193 49 194 46 195 47 196 49 197 50 198 51 199 49 200 49 201 51 202 52 203 21 204 46 205 22 206 46 207 49 208 22 209 23 210 24 211 52 212 53 213 21 214 26 215 53 216 48 217 46 218 53 219 46 220 21 221 54 222 48 223 53 224 55 225 47 226 48 227 55 228 50 229 47 230 55 231 48 232 54 233 56 234 23 235 52 236 56 237 52 238 51 239 57 240 56 241 51 242 58 243 51 244 50 245 58 246 50 247 55 248 58 249 57 250 51 251 32 252 33 253 45 254 32 255 45 256 44 257 26 258 0 259 35 260 53 261 26 262 35 263 53 264 35 265 37 266 54 267 53 268 37 269 54 270 37 271 39 272 55 273 54 274 39 275 55 276 39 277 41 278 58 279 55 280 41 281 43 282 58 283 41 284 43 285 57 286 58 287 45 288 57 289 43 290 45 291 56 292 57 293 33 294 56 295 45 296 33 297 23 298 56 299 24 300 22 301 49 302 49 303 52 304 24 305</p>
				</triangles>
			</mesh>
		</geometry>
		<geometry id="ShapeIndexedFaceS_020-Geometry" name="ShapeIndexedFaceS_020-Geometry">
			<mesh>
				<source id="ShapeIndexedFaceS_020-Geometry-Position">
					<float_array count="312" id="ShapeIndexedFaceS_020-Geometry-Position-array">0.02950 0.00000 0.03500 0.05600 0.00000 0.03500 0.02950 -0.01688 0.03066 0.05600 -0.01688 0.03066 0.05600 -0.03001 0.01801 0.02950 -0.03001 0.01801 0.02950 -0.03497 0.00157 0.05600 -0.03497 0.00157 0.02950 -0.03119 -0.01589 0.05600 -0.03119 -0.01589 0.06850 0.00000 0.03158 0.06850 -0.01316 0.02871 0.06850 -0.02442 0.02002 0.06850 -0.03074 0.00722 0.06850 -0.03084 -0.00682 0.06850 -0.02438 -0.02008 0.07387 -0.01936 0.01587 0.07387 -0.01043 0.02276 0.07587 -0.01401 0.01149 0.07387 -0.02437 0.00573 0.07387 -0.02445 -0.00541 0.07587 -0.01769 -0.00391 0.07387 -0.01932 -0.01592 0.07387 -0.01119 -0.02240 0.07587 -0.00810 -0.01621 0.07387 0.00000 -0.02504 0.07664 0.00000 -0.01451 0.02950 -0.02900 -0.04673 0.03850 -0.02900 -0.06550 0.02950 -0.02900 -0.06550 0.03850 -0.02900 -0.04673 0.03850 -0.02773 -0.02135 0.02950 -0.02400 -0.03233 0.02950 -0.02774 -0.02135 0.03850 -0.02400 -0.03291 0.05083 -0.01336 -0.04078 0.05573 0.00000 -0.03591 0.05050 0.00000 -0.04470 0.05573 -0.01118 -0.03413 0.05050 -0.01700 -0.04746 0.05050 0.00000 -0.06550 0.05050 -0.01700 -0.06550 0.04425 -0.02253 -0.03233 0.05600 -0.02020 -0.02858 0.04905 -0.02435 -0.02514 0.05076 -0.01842 -0.03281 0.04578 -0.02345 -0.04050 0.07723 -0.01066 0.00250 0.07799 0.00000 -0.00140 0.07723 -0.00845 -0.00696 0.07723 0.00000 0.01095 0.06850 -0.01411 -0.02825 0.06850 0.00000 -0.03158 0.07387 0.00000 0.02504 0.02950 -0.02650 -0.04011 0.03850 -0.02650 -0.04011 0.04704 -0.02543 -0.04695 0.04699 -0.02548 -0.06550 0.02950 0.01688 0.03066 0.05600 0.03001 0.01801 0.05600 0.01688 0.03066 0.02950 0.03001 0.01801 0.05600 0.03497 0.00157 0.02950 0.03497 0.00157 0.05600 0.03119 -0.01589 0.02950 0.03119 -0.01589 0.06850 0.01316 0.02871 0.06850 0.03074 0.00722 0.06850 0.02442 0.02002 0.06850 0.03084 -0.00682 0.06850 0.02438 -0.02008 0.07587 0.01401 0.01149 0.07387 0.01043 0.02276 0.07387 0.01936 0.01587 0.07387 0.02437 0.00573 0.07587 0.01769 -0.00391 0.07387 0.02445 -0.00541 0.07387 0.01932 -0.01592 0.07587 0.00810 -0.01621 0.07387 0.01119 -0.02240 0.02950 0.02900 -0.06550 0.03850 0.02900 -0.06550 0.02950 0.02900 -0.04673 0.03850 0.02900 -0.04673 0.02950 0.02774 -0.02135 0.02950 0.02400 -0.03233 0.03850 0.02773 -0.02135 0.03850 0.02400 -0.03291 0.05083 0.01336 -0.04078 0.05573 0.01118 -0.03413 0.05050 0.01700 -0.06550 0.05050 0.01700 -0.04746 0.04425 0.02253 -0.03233 0.04905 0.02435 -0.02514 0.05600 0.02020 -0.02858 0.05076 0.01842 -0.03281 0.04578 0.02345 -0.04050 0.07723 0.01066 0.00250 0.07723 0.00845 -0.00696 0.06850 0.01411 -0.02825 0.02950 0.02650 -0.04011 0.03850 0.02650 -0.04011 0.04704 0.02543 -0.04695 0.04699 0.02548 -0.06550</float_array>
					<technique_common>
						<accessor count="104" source="#ShapeIndexedFaceS_020-Geometry-Position-array" stride="3">
							<param type="float" name="X"></param>
							<param type="float" name="Y"></param>
							<param type="float" name="Z"></param>
						</accessor>
					</technique_common>
				</source>
				<source id="ShapeIndexedFaceS_020-Geometry-Normals">
					<float_array count="1620" id="ShapeIndexedFaceS_020-Geometry-Normals-array">0.08878 0.00000 0.99603 0.00000 0.00000 1.00000 0.00000 -0.48747 0.87310 0.00000 -0.48747 0.87310 0.10276 -0.85528 0.50783 0.16437 -0.45973 0.87268 0.08878 0.00000 0.99603 0.00000 -0.48747 0.87310 0.16437 -0.45973 0.87268 0.10276 -0.85528 0.50783 0.00000 -0.48747 0.87310 0.00000 -0.85330 0.52141 0.12159 -0.99252 -0.00946 0.10276 -0.85528 0.50783 0.00000 -0.99207 0.12555 0.10276 -0.85528 0.50783 0.00000 -0.85330 0.52141 0.00000 -0.99207 0.12555 0.14206 -0.89431 -0.42424 0.12159 -0.99252 -0.00946 0.00021 -0.92538 -0.37895 0.12159 -0.99252 -0.00946 0.00000 -0.99207 0.12555 0.00021 -0.92538 -0.37895 0.53594 0.00000 0.84423 0.08878 0.00000 0.99603 0.16437 -0.45973 0.87268 0.53594 0.00000 0.84423 0.16437 -0.45973 0.87268 0.54332 -0.35347 0.76147 0.49782 -0.85061 0.16916 0.54765 -0.61690 0.56520 0.10276 -0.85528 0.50783 0.12159 -0.99252 -0.00946 0.49782 -0.85061 0.16916 0.10276 -0.85528 0.50783 0.49782 -0.85061 0.16916 0.12159 -0.99252 -0.00946 0.14206 -0.89431 -0.42424 0.49782 -0.85061 0.16916 0.14206 -0.89431 -0.42424 0.57286 -0.80624 -0.14756 0.57286 -0.80624 -0.14756 0.14206 -0.89431 -0.42424 0.55126 -0.66216 -0.50752 0.97494 -0.16684 0.14695 0.87881 -0.20219 0.43217 0.86511 -0.40626 0.29414 0.97494 -0.16684 0.14695 0.86511 -0.40626 0.29414 0.90439 -0.41951 0.07788 0.97336 -0.22355 -0.05063 0.90439 -0.41951 0.07788 0.86520 -0.48134 -0.14039 0.97336 -0.22355 -0.05063 0.86520 -0.48134 -0.14039 0.90451 -0.31980 -0.28208 0.91836 0.00000 -0.39573 0.97192 -0.10443 -0.21073 0.86489 -0.19279 -0.46339 0.97192 -0.10443 -0.21073 0.90451 -0.31980 -0.28208 0.86489 -0.19279 -0.46339 0.54765 -0.61690 0.56520 0.54332 -0.35347 0.76147 0.16437 -0.45973 0.87268 0.10276 -0.85528 0.50783 0.54765 -0.61690 0.56520 0.16437 -0.45973 0.87268 0.97192 -0.10443 -0.21073 0.91836 0.00000 -0.39573 0.98569 0.00000 -0.16855 0.00000 -1.00000 0.00000 0.12986 -0.99152 0.00000 0.00000 -0.98373 0.17954 0.23572 -0.96149 0.14115 0.00000 -0.98373 0.17954 0.12986 -0.99152 0.00000 0.00098 -0.90222 -0.43126 0.00034 -0.99359 -0.11277 0.06543 -0.90139 -0.42796 0.00034 -0.99359 -0.11277 0.15406 -0.98434 0.08548 0.06543 -0.90139 -0.42796 0.98114 0.00000 -0.19318 0.70199 0.00000 -0.71215 0.91443 -0.29386 -0.27821 0.70199 0.00000 -0.71215 0.52681 -0.35176 -0.77377 0.91443 -0.29386 -0.27821 0.96600 -0.25840 -0.00049 1.00000 0.00000 0.00000 0.97748 -0.19819 0.07215 0.98114 0.00000 -0.19318 0.91443 -0.29386 -0.27821 0.97748 -0.19819 0.07215 0.97748 -0.19819 0.07215 1.00000 0.00000 0.00000 0.98114 0.00000 -0.19318 0.06543 -0.90139 -0.42796 0.15406 -0.98434 0.08548 0.34596 -0.92355 -0.16526 0.14206 -0.89431 -0.42424 0.19611 -0.81686 -0.54241 0.26160 -0.65114 -0.71242 0.06543 -0.90139 -0.42796 0.19611 -0.81686 -0.54241 0.14206 -0.89431 -0.42424 0.00021 -0.92538 -0.37895 0.06543 -0.90139 -0.42796 0.14206 -0.89431 -0.42424 0.00021 -0.92538 -0.37895 0.00098 -0.90222 -0.43126 0.06543 -0.90139 -0.42796 0.58663 -0.69839 -0.40999 0.91443 -0.29386 -0.27821 0.52681 -0.35176 -0.77377 0.26160 -0.65114 -0.71242 0.58663 -0.69839 -0.40999 0.52681 -0.35176 -0.77377 0.58663 -0.69839 -0.40999 0.26160 -0.65114 -0.71242 0.19611 -0.81686 -0.54241 0.58663 -0.69839 -0.40999 0.64776 -0.73882 0.18571 0.91443 -0.29386 -0.27821 0.34596 -0.92355 -0.16526 0.64776 -0.73882 0.18571 0.58663 -0.69839 -0.40999 0.98962 -0.13831 0.03842 0.97494 -0.16684 0.14695 0.90439 -0.41951 0.07788 0.98962 -0.13831 0.03842 0.98846 -0.11463 -0.09885 0.99979 0.00000 -0.01978 0.98846 -0.11463 -0.09885 0.97192 -0.10443 -0.21073 0.98569 0.00000 -0.16855 0.99979 0.00000 -0.01978 0.98846 -0.11463 -0.09885 0.98569 0.00000 -0.16855 0.97336 -0.22355 -0.05063 0.98846 -0.11463 -0.09885 0.98962 -0.13831 0.03842 0.90439 -0.41951 0.07788 0.97336 -0.22355 -0.05063 0.98962 -0.13831 0.03842 0.97494 -0.16684 0.14695 0.98962 -0.13831 0.03842 0.98819 0.00000 0.15308 0.98962 -0.13831 0.03842 0.99979 0.00000 -0.01978 0.98819 0.00000 0.15308 0.58156 0.00000 -0.81347 0.56844 -0.39579 -0.72121 0.52681 -0.35176 -0.77377 0.52681 -0.35176 -0.77377 0.70199 0.00000 -0.71215 0.58156 0.00000 -0.81347 0.56844 -0.39579 -0.72121 0.26160 -0.65114 -0.71242 0.52681 -0.35176 -0.77377 0.56844 -0.39579 -0.72121 0.55126 -0.66216 -0.50752 0.26160 -0.65114 -0.71242 0.14206 -0.89431 -0.42424 0.26160 -0.65114 -0.71242 0.55126 -0.66216 -0.50752 0.91836 0.00000 -0.39573 0.86489 -0.19279 -0.46339 0.58156 0.00000 -0.81347 0.86489 -0.19279 -0.46339 0.56844 -0.39579 -0.72121 0.58156 0.00000 -0.81347 0.86489 -0.19279 -0.46339 0.90451 -0.31980 -0.28208 0.56844 -0.39579 -0.72121 0.90451 -0.31980 -0.28208 0.55126 -0.66216 -0.50752 0.56844 -0.39579 -0.72121 0.86520 -0.48134 -0.14039 0.55126 -0.66216 -0.50752 0.90451 -0.31980 -0.28208 0.86520 -0.48134 -0.14039 0.57286 -0.80624 -0.14756 0.55126 -0.66216 -0.50752 0.57286 -0.80624 -0.14756 0.86520 -0.48134 -0.14039 0.90439 -0.41951 0.07788 0.49782 -0.85061 0.16916 0.57286 -0.80624 -0.14756 0.90439 -0.41951 0.07788 0.49782 -0.85061 0.16916 0.90439 -0.41951 0.07788 0.86511 -0.40626 0.29414 0.54765 -0.61690 0.56520 0.49782 -0.85061 0.16916 0.86511 -0.40626 0.29414 0.87881 -0.20219 0.43217 0.54765 -0.61690 0.56520 0.86511 -0.40626 0.29414 0.54332 -0.35347 0.76147 0.54765 -0.61690 0.56520 0.87881 -0.20219 0.43217 0.54332 -0.35347 0.76147 0.87881 -0.20219 0.43217 0.53594 0.00000 0.84423 0.87881 -0.20219 0.43217 0.89612 0.00000 0.44377 0.53594 0.00000 0.84423 0.98846 -0.11463 -0.09885 0.97336 -0.22355 -0.05063 0.90451 -0.31980 -0.28208 0.97192 -0.10443 -0.21073 0.98846 -0.11463 -0.09885 0.90451 -0.31980 -0.28208 0.89612 0.00000 0.44377 0.87881 -0.20219 0.43217 0.98819 0.00000 0.15308 0.87881 -0.20219 0.43217 0.97494 -0.16684 0.14695 0.98819 0.00000 0.15308 0.00034 -0.99359 -0.11277 0.00662 -0.94421 0.32920 0.15406 -0.98434 0.08548 0.00662 -0.94421 0.32920 0.19218 -0.92041 0.34037 0.15406 -0.98434 0.08548 0.64776 -0.73882 0.18571 0.34596 -0.92355 -0.16526 0.15406 -0.98434 0.08548 0.15406 -0.98434 0.08548 0.19218 -0.92041 0.34037 0.64776 -0.73882 0.18571 0.19218 -0.92041 0.34037 0.00662 -0.94421 0.32920 0.00000 -0.98373 0.17954 0.00000 -0.98373 0.17954 0.23572 -0.96149 0.14115 0.19218 -0.92041 0.34037 0.70678 -0.68606 0.17258 0.64776 -0.73882 0.18571 0.19218 -0.92041 0.34037 0.19218 -0.92041 0.34037 0.23572 -0.96149 0.14115 0.70678 -0.68606 0.17258 0.97748 -0.19819 0.07215 0.91443 -0.29386 -0.27821 0.64776 -0.73882 0.18571 0.64776 -0.73882 0.18571 0.70678 -0.68606 0.17258 0.97748 -0.19819 0.07215 0.70678 -0.68606 0.17258 0.23572 -0.96149 0.14115 0.60479 -0.79635 0.00000 0.23572 -0.96149 0.14115 0.12986 -0.99152 0.00000 0.60479 -0.79635 0.00000 0.97748 -0.19819 0.07215 0.70678 -0.68606 0.17258 0.96600 -0.25840 -0.00049 0.70678 -0.68606 0.17258 0.60479 -0.79635 0.00000 0.96600 -0.25840 -0.00049 0.34596 -0.92355 -0.16526 0.58663 -0.69839 -0.40999 0.19611 -0.81686 -0.54241 0.19611 -0.81686 -0.54241 0.06543 -0.90139 -0.42796 0.34596 -0.92355 -0.16526 0.00000 0.00000 1.00000 0.08878 0.00000 0.99603 0.00000 0.48747 0.87310 0.16437 0.45973 0.87268 0.10276 0.85528 0.50783 0.00000 0.48747 0.87310 0.16437 0.45973 0.87268 0.00000 0.48747 0.87310 0.08878 0.00000 0.99603 0.00000 0.85330 0.52141 0.00000 0.48747 0.87310 0.10276 0.85528 0.50783 0.00000 0.99207 0.12555 0.10276 0.85528 0.50783 0.12159 0.99252 -0.00946 0.00000 0.99207 0.12555 0.00000 0.85330 0.52141 0.10276 0.85528 0.50783 0.00021 0.92538 -0.37895 0.12159 0.99252 -0.00946 0.14206 0.89431 -0.42424 0.00021 0.92538 -0.37895 0.00000 0.99207 0.12555 0.12159 0.99252 -0.00946 0.16437 0.45973 0.87268 0.08878 0.00000 0.99603 0.53594 0.00000 0.84423 0.54332 0.35347 0.76147 0.16437 0.45973 0.87268 0.53594 0.00000 0.84423 0.10276 0.85528 0.50783 0.54765 0.61690 0.56520 0.49782 0.85061 0.16916 0.10276 0.85528 0.50783 0.49782 0.85061 0.16916 0.12159 0.99252 -0.00946 0.14206 0.89431 -0.42424 0.12159 0.99252 -0.00946 0.49782 0.85061 0.16916 0.57286 0.80624 -0.14756 0.14206 0.89431 -0.42424 0.49782 0.85061 0.16916 0.55126 0.66216 -0.50752 0.14206 0.89431 -0.42424 0.57286 0.80624 -0.14756 0.86511 0.40626 0.29414 0.87881 0.20219 0.43217 0.97494 0.16684 0.14695 0.90439 0.41951 0.07788 0.86511 0.40626 0.29414 0.97494 0.16684 0.14695 0.86520 0.48134 -0.14039 0.90439 0.41951 0.07788 0.97336 0.22355 -0.05063 0.90451 0.31980 -0.28208 0.86520 0.48134 -0.14039 0.97336 0.22355 -0.05063 0.86489 0.19279 -0.46339 0.97192 0.10443 -0.21073 0.91836 0.00000 -0.39573 0.86489 0.19279 -0.46339 0.90451 0.31980 -0.28208 0.97192 0.10443 -0.21073 0.16437 0.45973 0.87268 0.54332 0.35347 0.76147 0.54765 0.61690 0.56520 0.16437 0.45973 0.87268 0.54765 0.61690 0.56520 0.10276 0.85528 0.50783 0.98569 0.00000 -0.16855 0.91836 0.00000 -0.39573 0.97192 0.10443 -0.21073 0.00000 0.98373 0.17954 0.12986 0.99152 0.00000 0.00000 1.00000 0.00000 0.12986 0.99152 0.00000 0.00000 0.98373 0.17954 0.23572 0.96149 0.14115 0.06543 0.90139 -0.42796 0.00034 0.99359 -0.11277 0.00098 0.90222 -0.43126 0.06543 0.90139 -0.42796 0.15406 0.98434 0.08548 0.00034 0.99359 -0.11277 0.91443 0.29386 -0.27821 0.70199 0.00000 -0.71215 0.98114 0.00000 -0.19318 0.91443 0.29386 -0.27821 0.52681 0.35176 -0.77377 0.70199 0.00000 -0.71215 0.97748 0.19819 0.07215 1.00000 0.00000 0.00000 0.96600 0.25840 -0.00049 0.97748 0.19819 0.07215 0.91443 0.29386 -0.27821 0.98114 0.00000 -0.19318 0.98114 0.00000 -0.19318 1.00000 0.00000 0.00000 0.97748 0.19819 0.07215 0.34596 0.92355 -0.16526 0.15406 0.98434 0.08548 0.06543 0.90139 -0.42796 0.26160 0.65114 -0.71242 0.19611 0.81686 -0.54241 0.14206 0.89431 -0.42424 0.14206 0.89431 -0.42424 0.19611 0.81686 -0.54241 0.06543 0.90139 -0.42796 0.14206 0.89431 -0.42424 0.06543 0.90139 -0.42796 0.00021 0.92538 -0.37895 0.06543 0.90139 -0.42796 0.00098 0.90222 -0.43126 0.00021 0.92538 -0.37895 0.52681 0.35176 -0.77377 0.91443 0.29386 -0.27821 0.58663 0.69839 -0.40999 0.52681 0.35176 -0.77377 0.58663 0.69839 -0.40999 0.26160 0.65114 -0.71242 0.19611 0.81686 -0.54241 0.26160 0.65114 -0.71242 0.58663 0.69839 -0.40999 0.91443 0.29386 -0.27821 0.64776 0.73882 0.18571 0.58663 0.69839 -0.40999 0.58663 0.69839 -0.40999 0.64776 0.73882 0.18571 0.34596 0.92355 -0.16526 0.90439 0.41951 0.07788 0.97494 0.16684 0.14695 0.98962 0.13831 0.03842 0.99979 0.00000 -0.01978 0.98846 0.11463 -0.09885 0.98962 0.13831 0.03842 0.98569 0.00000 -0.16855 0.97192 0.10443 -0.21073 0.98846 0.11463 -0.09885 0.98569 0.00000 -0.16855 0.98846 0.11463 -0.09885 0.99979 0.00000 -0.01978 0.98962 0.13831 0.03842 0.98846 0.11463 -0.09885 0.97336 0.22355 -0.05063 0.98962 0.13831 0.03842 0.97336 0.22355 -0.05063 0.90439 0.41951 0.07788 0.98819 0.00000 0.15308 0.98962 0.13831 0.03842 0.97494 0.16684 0.14695 0.98819 0.00000 0.15308 0.99979 0.00000 -0.01978 0.98962 0.13831 0.03842 0.52681 0.35176 -0.77377 0.56844 0.39579 -0.72121 0.58156 0.00000 -0.81347 0.58156 0.00000 -0.81347 0.70199 0.00000 -0.71215 0.52681 0.35176 -0.77377 0.52681 0.35176 -0.77377 0.26160 0.65114 -0.71242 0.56844 0.39579 -0.72121 0.26160 0.65114 -0.71242 0.55126 0.66216 -0.50752 0.56844 0.39579 -0.72121 0.55126 0.66216 -0.50752 0.26160 0.65114 -0.71242 0.14206 0.89431 -0.42424 0.58156 0.00000 -0.81347 0.86489 0.19279 -0.46339 0.91836 0.00000 -0.39573 0.58156 0.00000 -0.81347 0.56844 0.39579 -0.72121 0.86489 0.19279 -0.46339 0.56844 0.39579 -0.72121 0.90451 0.31980 -0.28208 0.86489 0.19279 -0.46339 0.56844 0.39579 -0.72121 0.55126 0.66216 -0.50752 0.90451 0.31980 -0.28208 0.90451 0.31980 -0.28208 0.55126 0.66216 -0.50752 0.86520 0.48134 -0.14039 0.55126 0.66216 -0.50752 0.57286 0.80624 -0.14756 0.86520 0.48134 -0.14039 0.90439 0.41951 0.07788 0.86520 0.48134 -0.14039 0.57286 0.80624 -0.14756 0.90439 0.41951 0.07788 0.57286 0.80624 -0.14756 0.49782 0.85061 0.16916 0.86511 0.40626 0.29414 0.90439 0.41951 0.07788 0.49782 0.85061 0.16916 0.86511 0.40626 0.29414 0.49782 0.85061 0.16916 0.54765 0.61690 0.56520 0.86511 0.40626 0.29414 0.54765 0.61690 0.56520 0.87881 0.20219 0.43217 0.87881 0.20219 0.43217 0.54765 0.61690 0.56520 0.54332 0.35347 0.76147 0.53594 0.00000 0.84423 0.87881 0.20219 0.43217 0.54332 0.35347 0.76147 0.53594 0.00000 0.84423 0.89612 0.00000 0.44377 0.87881 0.20219 0.43217 0.90451 0.31980 -0.28208 0.97336 0.22355 -0.05063 0.98846 0.11463 -0.09885 0.90451 0.31980 -0.28208 0.98846 0.11463 -0.09885 0.97192 0.10443 -0.21073 0.98819 0.00000 0.15308 0.87881 0.20219 0.43217 0.89612 0.00000 0.44377 0.98819 0.00000 0.15308 0.97494 0.16684 0.14695 0.87881 0.20219 0.43217 0.15406 0.98434 0.08548 0.00662 0.94421 0.32920 0.00034 0.99359 -0.11277 0.15406 0.98434 0.08548 0.19218 0.92041 0.34037 0.00662 0.94421 0.32920 0.15406 0.98434 0.08548 0.34596 0.92355 -0.16526 0.64776 0.73882 0.18571 0.64776 0.73882 0.18571 0.19218 0.92041 0.34037 0.15406 0.98434 0.08548 0.00000 0.98373 0.17954 0.00662 0.94421 0.32920 0.19218 0.92041 0.34037 0.19218 0.92041 0.34037 0.23572 0.96149 0.14115 0.00000 0.98373 0.17954 0.19218 0.92041 0.34037 0.64776 0.73882 0.18571 0.70678 0.68606 0.17258 0.70678 0.68606 0.17258 0.23572 0.96149 0.14115 0.19218 0.92041 0.34037 0.64776 0.73882 0.18571 0.91443 0.29386 -0.27821 0.97748 0.19819 0.07215 0.97748 0.19819 0.07215 0.70678 0.68606 0.17258 0.64776 0.73882 0.18571 0.60479 0.79635 0.00000 0.23572 0.96149 0.14115 0.70678 0.68606 0.17258 0.60479 0.79635 0.00000 0.12986 0.99152 0.00000 0.23572 0.96149 0.14115 0.96600 0.25840 -0.00049 0.70678 0.68606 0.17258 0.97748 0.19819 0.07215 0.96600 0.25840 -0.00049 0.60479 0.79635 0.00000 0.70678 0.68606 0.17258 0.19611 0.81686 -0.54241 0.58663 0.69839 -0.40999 0.34596 0.92355 -0.16526 0.34596 0.92355 -0.16526 0.06543 0.90139 -0.42796 0.19611 0.81686 -0.54241</float_array>
					<technique_common>
						<accessor count="540" source="#ShapeIndexedFaceS_020-Geometry-Normals-array" stride="3">
							<param type="float" name="X"></param>
							<param type="float" name="Y"></param>
							<param type="float" name="Z"></param>
						</accessor>
					</technique_common>
				</source>
				<vertices id="ShapeIndexedFaceS_020-Geometry-Vertex">
					<input semantic="POSITION" source="#ShapeIndexedFaceS_020-Geometry-Position"/>
				</vertices>
				<triangles count="180" material="Material_012">
					<input offset="0" semantic="VERTEX" source="#ShapeIndexedFaceS_020-Geometry-Vertex"/>
					<input offset="1" semantic="NORMAL" source="#ShapeIndexedFaceS_020-Geometry-Normals"/>
					<p>1 0 0 1 2 2 2 3 4 4 3 5 1 6 2 7 3 8 4 9 2 10 5 11 7 12 4 13 6 14 4 15 5 16 6 17 9 18 7 19 8 20 7 21 6 22 8 23 10 24 1 25 3 26 10 27 3 28 11 29 13 30 12 31 4 32 7 33 13 34 4 35 13 36 7 37 9 38 13 39 9 40 14 41 14 42 9 43 15 44 18 45 17 46 16 47 18 48 16 49 19 50 21 51 19 52 20 53 21 54 20 55 22 56 25 57 24 58 23 59 24 60 22 61 23 62 12 63 11 64 3 65 4 66 12 67 3 68 24 69 25 70 26 71 29 72 28 73 27 74 30 75 27 76 28 77 33 78 32 79 31 80 32 81 34 82 31 83 37 84 36 85 35 86 36 87 38 88 35 89 41 90 40 91 39 92 37 93 35 94 39 95 39 96 40 97 37 98 31 99 34 100 42 101 9 102 44 103 43 104 31 105 44 106 9 107 8 108 31 109 9 110 8 111 33 112 31 113 45 114 35 115 38 116 43 117 45 118 38 119 45 120 43 121 44 122 45 123 46 124 35 125 42 126 46 127 45 128 47 129 18 130 19 131 47 132 49 133 48 134 49 135 24 136 26 137 48 138 49 139 26 140 21 141 49 142 47 143 19 144 21 145 47 146 18 147 47 148 50 149 47 150 48 151 50 152 52 153 51 154 38 155 38 156 36 157 52 158 51 159 43 160 38 161 51 162 15 163 43 164 9 165 43 166 15 167 25 168 23 169 52 170 23 171 51 172 52 173 23 174 22 175 51 176 22 177 15 178 51 179 20 180 15 181 22 182 20 183 14 184 15 185 14 186 20 187 19 188 13 189 14 190 19 191 13 192 19 193 16 194 12 195 13 196 16 197 17 198 12 199 16 200 11 201 12 202 17 203 11 204 17 205 10 206 17 207 53 208 10 209 49 210 21 211 22 212 24 213 49 214 22 215 53 216 17 217 50 218 17 219 18 220 50 221 32 222 54 223 34 224 54 225 55 226 34 227 46 228 42 229 34 230 34 231 55 232 46 233 55 234 54 235 27 236 27 237 30 238 55 239 56 240 46 241 55 242 55 243 30 244 56 245 39 246 35 247 46 248 46 249 56 250 39 251 56 252 30 253 57 254 30 255 28 256 57 257 39 258 56 259 41 260 56 261 57 262 41 263 42 264 45 265 44 266 44 267 31 268 42 269 0 270 1 271 58 272 60 273 59 274 58 275 60 276 58 277 1 278 61 279 58 280 59 281 63 282 59 283 62 284 63 285 61 286 59 287 65 288 62 289 64 290 65 291 63 292 62 293 60 294 1 295 10 296 66 297 60 298 10 299 59 300 68 301 67 302 59 303 67 304 62 305 64 306 62 307 67 308 69 309 64 310 67 311 70 312 64 313 69 314 73 315 72 316 71 317 74 318 73 319 71 320 76 321 74 322 75 323 77 324 76 325 75 326 79 327 78 328 25 329 79 330 77 331 78 332 60 333 66 334 68 335 60 336 68 337 59 338 26 339 25 340 78 341 82 342 81 343 80 344 81 345 82 346 83 347 86 348 85 349 84 350 86 351 87 352 85 353 88 354 36 355 37 356 88 357 89 358 36 359 91 360 40 361 90 362 91 363 88 364 37 365 37 366 40 367 91 368 92 369 87 370 86 371 94 372 93 373 64 374 64 375 93 376 86 377 64 378 86 379 65 380 86 381 84 382 65 383 89 384 88 385 95 386 89 387 95 388 94 389 93 390 94 391 95 392 88 393 96 394 95 395 95 396 96 397 92 398 74 399 71 400 97 401 48 402 98 403 97 404 26 405 78 406 98 407 26 408 98 409 48 410 97 411 98 412 75 413 97 414 75 415 74 416 50 417 97 418 71 419 50 420 48 421 97 422 89 423 99 424 52 425 52 426 36 427 89 428 89 429 94 430 99 431 94 432 70 433 99 434 70 435 94 436 64 437 52 438 79 439 25 440 52 441 99 442 79 443 99 444 77 445 79 446 99 447 70 448 77 449 77 450 70 451 76 452 70 453 69 454 76 455 74 456 76 457 69 458 74 459 69 460 67 461 73 462 74 463 67 464 73 465 67 466 68 467 73 468 68 469 72 470 72 471 68 472 66 473 10 474 72 475 66 476 10 477 53 478 72 479 77 480 75 481 98 482 77 483 98 484 78 485 50 486 72 487 53 488 50 489 71 490 72 491 87 492 100 493 85 494 87 495 101 496 100 497 87 498 92 499 96 500 96 501 101 502 87 503 82 504 100 505 101 506 101 507 83 508 82 509 101 510 96 511 102 512 102 513 83 514 101 515 96 516 88 517 91 518 91 519 102 520 96 521 103 522 83 523 102 524 103 525 81 526 83 527 90 528 102 529 91 530 90 531 103 532 102 533 93 534 95 535 92 536 92 537 86 538 93 539</p>
				</triangles>
			</mesh>
		</geometry>
		<geometry id="ShapeIndexedFaceS_019-Geometry" name="ShapeIndexedFaceS_019-Geometry">
			<mesh>
				<source id="ShapeIndexedFaceS_019-Geometry-Position">
					<float_array count="225" id="ShapeIndexedFaceS_019-Geometry-Position-array">-0.04782 -0.05307 -0.04940 -0.07086 -0.05319 -0.05034 -0.07145 -0.04969 -0.04419 -0.04782 -0.04967 -0.04344 -0.04782 0.06359 -0.04159 -0.06794 0.06359 -0.04159 -0.06794 0.06988 -0.04467 -0.08069 0.07018 -0.05042 -0.08365 0.06329 -0.04915 -0.09152 0.06409 -0.06115 -0.08899 0.07079 -0.06217 -0.08365 -0.05437 -0.06317 -0.08883 -0.05049 -0.06052 -0.08068 -0.04989 -0.04909 -0.09133 -0.04394 -0.05952 -0.08365 -0.04311 -0.04786 -0.01739 -0.04967 -0.04478 -0.01712 -0.04347 -0.04166 0.01409 -0.04348 -0.04583 0.01353 -0.04968 -0.04890 0.01247 -0.05310 -0.05475 0.04296 -0.04970 -0.05550 0.04379 -0.04348 -0.05251 -0.07489 0.06999 -0.04619 -0.04782 0.07576 -0.06425 -0.04782 0.07340 -0.05082 -0.06794 0.07340 -0.05082 0.08331 -0.04348 -0.06323 0.08250 -0.04970 -0.06622 0.08095 -0.05314 -0.07194 0.04379 -0.05314 -0.06187 0.04327 -0.05593 -0.07758 -0.01767 -0.05309 -0.05207 -0.07681 0.07406 -0.05604 -0.08365 0.07469 -0.06488 -0.06794 0.07689 -0.07783 -0.04782 0.07688 -0.07750 0.02094 0.07573 -0.07082 -0.01376 0.07340 -0.05271 0.01911 0.07343 -0.05743 0.04379 0.07589 -0.07750 0.04137 0.07346 -0.06265 -0.07242 -0.04345 -0.04081 -0.09176 0.00000 -0.06000 -0.04782 0.06994 -0.04473 -0.07659 0.06351 -0.04354 0.04296 0.06997 -0.05679 0.08253 0.06991 -0.06745 0.08333 0.06361 -0.06451 0.04379 0.06360 -0.05379 0.08093 0.07346 -0.07337 0.02032 0.06996 -0.05147 0.05190 -0.02104 -0.05179 0.05012 0.02482 -0.05119 0.08236 0.03171 -0.06042 0.08236 -0.01108 -0.05941 -0.04782 -0.04347 -0.04031 -0.04933 -0.02878 -0.03851 -0.01712 -0.02946 -0.03891 0.04379 -0.02996 -0.05050 0.03936 0.03097 -0.04873 -0.00102 -0.05672 -0.07750 -0.04782 -0.05688 -0.07750 -0.07363 -0.00022 -0.03825 -0.08058 0.00000 -0.04100 -0.05050 0.02900 -0.03755 -0.03712 0.04640 -0.03933 -0.03480 0.02900 -0.03779 -0.08042 0.07654 -0.07617 -0.02745 0.06359 -0.04218 -0.00982 0.06957 -0.04811 0.01716 0.06360 -0.04767 0.02593 0.04794 -0.04728 0.02792 0.03109 -0.04600 0.01409 -0.03017 -0.04361</float_array>
					<technique_common>
						<accessor count="75" source="#ShapeIndexedFaceS_019-Geometry-Position-array" stride="3">
							<param type="float" name="X"></param>
							<param type="float" name="Y"></param>
							<param type="float" name="Z"></param>
						</accessor>
					</technique_common>
				</source>
				<source id="ShapeIndexedFaceS_019-Geometry-Normals">
					<float_array count="1008" id="ShapeIndexedFaceS_019-Geometry-Normals-array">-0.12830 -0.92596 0.35511 0.00363 -0.94406 0.32969 -0.14429 -0.74508 0.65114 -0.14429 -0.74508 0.65114 0.00363 -0.94406 0.32969 0.00684 -0.61739 0.78658 -0.08441 0.60253 0.79357 -0.10825 0.22849 0.96750 0.00592 0.28855 0.95743 -0.79153 0.27015 0.54814 -0.67669 0.20820 0.70617 -0.51091 0.67907 0.52705 -0.79153 0.27015 0.54814 -0.51091 0.67907 0.52705 -0.54320 0.71737 0.43623 -0.45238 -0.68001 0.57695 -0.66698 -0.55864 0.49297 -0.18262 -0.95422 0.23679 -0.68600 -0.20298 0.69869 -0.81353 -0.19040 0.54939 -0.66698 -0.55864 0.49297 -0.68600 -0.20298 0.69869 -0.66698 -0.55864 0.49297 -0.45238 -0.68001 0.57695 0.00684 -0.61739 0.78658 0.00363 -0.94406 0.32969 0.06848 -0.70763 0.70321 0.08637 -0.31983 0.94351 0.00684 -0.61739 0.78658 0.06848 -0.70763 0.70321 0.16947 -0.30650 0.93664 0.08637 -0.31983 0.94351 0.06848 -0.70763 0.70321 0.16947 -0.30650 0.93664 0.06848 -0.70763 0.70321 0.12561 -0.69652 0.70641 0.15757 -0.75478 0.63674 0.12561 -0.69652 0.70641 0.05600 -0.94281 0.32850 0.22532 -0.34953 0.90939 0.16947 -0.30650 0.93664 0.12561 -0.69652 0.70641 0.22532 -0.34953 0.90939 0.12561 -0.69652 0.70641 0.15757 -0.75478 0.63674 -0.67669 0.20820 0.70617 -0.34568 0.64330 0.68310 -0.51091 0.67907 0.52705 -0.07031 0.93573 0.34556 0.01959 0.91662 0.39918 0.00327 0.99057 0.13688 0.20768 -0.60839 0.76595 0.26240 -0.20243 0.94348 0.22532 -0.34953 0.90939 0.08246 -0.93915 0.33341 0.10453 -0.91665 0.38572 0.15757 -0.75478 0.63674 0.10453 -0.91665 0.38572 0.20768 -0.60839 0.76595 0.15757 -0.75478 0.63674 0.20768 -0.60839 0.76595 0.22532 -0.34953 0.90939 0.15757 -0.75478 0.63674 0.15757 -0.75478 0.63674 0.05600 -0.94281 0.32850 0.08246 -0.93915 0.33341 0.03433 -0.98578 0.16449 0.08246 -0.93915 0.33341 0.05600 -0.94281 0.32850 0.06848 -0.70763 0.70321 0.00363 -0.94406 0.32969 0.02777 -0.95376 0.29926 0.12561 -0.69652 0.70641 0.06848 -0.70763 0.70321 0.02777 -0.95376 0.29926 0.05600 -0.94281 0.32850 0.12561 -0.69652 0.70641 0.02777 -0.95376 0.29926 -0.54320 0.71737 0.43623 -0.51091 0.67907 0.52705 -0.21815 0.93286 0.28663 -0.16047 0.96179 0.22169 -0.54320 0.71737 0.43623 -0.21815 0.93286 0.28663 -0.14429 -0.74508 0.65114 -0.45238 -0.68001 0.57695 -0.12830 -0.92596 0.35511 -0.45238 -0.68001 0.57695 -0.18262 -0.95422 0.23679 -0.12830 -0.92596 0.35511 -0.07031 0.93573 0.34556 0.00327 0.99057 0.13688 -0.01779 0.99237 0.12189 0.00327 0.99057 0.13688 0.00378 0.99643 0.08420 -0.01779 0.99237 0.12189 0.02319 0.98932 0.14371 0.00378 0.99643 0.08420 0.00327 0.99057 0.13688 0.00327 0.99057 0.13688 0.01959 0.91662 0.39918 0.03827 0.91772 0.39531 0.04260 0.98447 0.17029 0.02319 0.98932 0.14371 0.05243 0.94424 0.32496 0.02319 0.98932 0.14371 0.00327 0.99057 0.13688 0.05243 0.94424 0.32496 0.00327 0.99057 0.13688 0.03827 0.91772 0.39531 0.05243 0.94424 0.32496 0.04260 0.98447 0.17029 0.05243 0.94424 0.32496 0.09650 0.91858 0.38325 0.08246 -0.93915 0.33341 0.03433 -0.98578 0.16449 0.10453 -0.91665 0.38572 -0.68600 -0.20298 0.69869 -0.45238 -0.68001 0.57695 -0.23441 -0.30332 0.92358 -0.45238 -0.68001 0.57695 -0.14429 -0.74508 0.65114 -0.23441 -0.30332 0.92358 -0.68600 -0.20298 0.69869 -0.84893 0.00375 0.52846 -0.81353 -0.19040 0.54939 -0.07031 0.93573 0.34556 -0.08441 0.60253 0.79357 0.02707 0.70498 0.70870 -0.07031 0.93573 0.34556 -0.34568 0.64330 0.68310 -0.08441 0.60253 0.79357 -0.34568 0.64330 0.68310 -0.37559 0.28889 0.88058 -0.08441 0.60253 0.79357 0.25428 0.24311 0.93606 0.17231 0.75210 0.63610 0.19205 0.63634 0.74709 0.23203 0.28385 0.93036 0.25428 0.24311 0.93606 0.19205 0.63634 0.74709 0.17231 0.75210 0.63610 0.08969 0.93930 0.33110 0.09650 0.91858 0.38325 0.19205 0.63634 0.74709 0.17231 0.75210 0.63610 0.09650 0.91858 0.38325 0.08969 0.93930 0.33110 0.04260 0.98447 0.17029 0.09650 0.91858 0.38325 0.13407 0.68746 0.71371 0.19205 0.63634 0.74709 0.09650 0.91858 0.38325 0.19205 0.63634 0.74709 0.13407 0.68746 0.71371 0.23203 0.28385 0.93036 0.25422 0.04559 0.96606 0.26673 0.06964 0.96124 0.26441 -0.04804 0.96319 0.26441 -0.04804 0.96319 0.25504 -0.04096 0.96603 0.25422 0.04559 0.96606 0.01077 -0.27113 0.96246 0.00684 -0.61739 0.78658 0.08637 -0.31983 0.94351 0.01077 -0.27113 0.96246 0.06513 -0.16849 0.98352 -0.02011 -0.08054 0.99652 0.25504 -0.04096 0.96603 0.26441 -0.04804 0.96319 0.26240 -0.20243 0.94348 0.26240 -0.20243 0.94348 0.26441 -0.04804 0.96319 0.24293 -0.13846 0.96008 0.22532 -0.34953 0.90939 0.26240 -0.20243 0.94348 0.24293 -0.13846 0.96008 0.25422 0.04559 0.96606 0.25428 0.24311 0.93606 0.26673 0.06964 0.96124 0.25428 0.24311 0.93606 0.23203 0.28385 0.93036 0.25361 0.10614 0.96146 0.26673 0.06964 0.96124 0.25428 0.24311 0.93606 0.25361 0.10614 0.96146 0.03433 -0.98578 0.16449 0.05600 -0.94281 0.32850 0.01141 -0.98910 0.14661 0.02777 -0.95376 0.29926 -0.00034 -0.99051 0.13739 0.01141 -0.98910 0.14661 0.01141 -0.98910 0.14661 0.05600 -0.94281 0.32850 0.02777 -0.95376 0.29926 0.02777 -0.95376 0.29926 0.00363 -0.94406 0.32969 -0.00034 -0.99051 0.13739 -0.00034 -0.99051 0.13739 0.00363 -0.94406 0.32969 -0.18262 -0.95422 0.23679 0.00363 -0.94406 0.32969 -0.12830 -0.92596 0.35511 -0.18262 -0.95422 0.23679 -0.23441 -0.30332 0.92358 -0.14429 -0.74508 0.65114 0.00684 -0.61739 0.78658 0.00684 -0.61739 0.78658 0.01077 -0.27113 0.96246 -0.23441 -0.30332 0.92358 -0.29365 0.00089 0.95590 -0.68600 -0.20298 0.69869 -0.23441 -0.30332 0.92358 -0.68600 -0.20298 0.69869 -0.29365 0.00089 0.95590 -0.65123 -0.00385 0.75884 -0.67669 0.20820 0.70617 -0.37559 0.28889 0.88058 -0.34568 0.64330 0.68310 -0.65123 -0.00385 0.75884 -0.84893 0.00375 0.52846 -0.68600 -0.20298 0.69869 -0.67669 0.20820 0.70617 -0.84893 0.00375 0.52846 -0.65123 -0.00385 0.75884 -0.67669 0.20820 0.70617 -0.79153 0.27015 0.54814 -0.84893 0.00375 0.52846 -0.65123 -0.00385 0.75884 -0.29365 0.00089 0.95590 -0.67669 0.20820 0.70617 -0.29365 0.00089 0.95590 -0.37559 0.28889 0.88058 -0.67669 0.20820 0.70617 -0.08441 0.60253 0.79357 -0.37559 0.28889 0.88058 -0.10825 0.22849 0.96750 -0.10825 0.22849 0.96750 -0.37559 0.28889 0.88058 -0.29365 0.00089 0.95590 -0.10825 0.22849 0.96750 -0.29365 0.00089 0.95590 -0.02454 0.07385 0.99695 0.00592 0.28855 0.95743 -0.10825 0.22849 0.96750 -0.02454 0.07385 0.99695 0.00766 0.11856 0.99289 0.00592 0.28855 0.95743 -0.02454 0.07385 0.99695 0.00766 0.11856 0.99289 -0.02454 0.07385 0.99695 0.01520 0.09012 0.99579 0.02707 0.70498 0.70870 0.01959 0.91662 0.39918 -0.07031 0.93573 0.34556 -0.34568 0.64330 0.68310 -0.07031 0.93573 0.34556 -0.51091 0.67907 0.52705 -0.07031 0.93573 0.34556 -0.21815 0.93286 0.28663 -0.51091 0.67907 0.52705 -0.01779 0.99237 0.12189 -0.00641 0.98709 0.15989 -0.16047 0.96179 0.22169 -0.16047 0.96179 0.22169 -0.21815 0.93286 0.28663 -0.01779 0.99237 0.12189 -0.21815 0.93286 0.28663 -0.07031 0.93573 0.34556 -0.01779 0.99237 0.12189 0.00592 0.28855 0.95743 0.02707 0.70498 0.70870 -0.08441 0.60253 0.79357 0.04498 0.39668 0.91684 0.02707 0.70498 0.70870 0.00592 0.28855 0.95743 0.09650 0.91858 0.38325 0.05243 0.94424 0.32496 0.13407 0.68746 0.71371 0.06558 0.74520 0.66356 0.13407 0.68746 0.71371 0.05243 0.94424 0.32496 0.05243 0.94424 0.32496 0.03827 0.91772 0.39531 0.06558 0.74520 0.66356 0.23203 0.28385 0.93036 0.13407 0.68746 0.71371 0.17408 0.35493 0.91852 0.23203 0.28385 0.93036 0.17408 0.35493 0.91852 0.23432 0.12140 0.96454 0.23432 0.12140 0.96454 0.23191 0.10092 0.96747 0.25361 0.10614 0.96146 0.25361 0.10614 0.96146 0.23203 0.28385 0.93036 0.23432 0.12140 0.96454 0.04498 0.39668 0.91684 0.06558 0.74520 0.66356 0.02707 0.70498 0.70870 0.06558 0.74520 0.66356 0.01959 0.91662 0.39918 0.02707 0.70498 0.70870 0.06558 0.74520 0.66356 0.03827 0.91772 0.39531 0.01959 0.91662 0.39918 0.17408 0.35493 0.91852 0.13407 0.68746 0.71371 0.06558 0.74520 0.66356 0.01077 -0.27113 0.96246 0.08637 -0.31983 0.94351 0.06513 -0.16849 0.98352 0.08637 -0.31983 0.94351 0.16578 -0.17139 0.97113 0.06513 -0.16849 0.98352 0.08637 -0.31983 0.94351 0.16947 -0.30650 0.93664 0.16578 -0.17139 0.97113 0.16947 -0.30650 0.93664 0.22532 -0.34953 0.90939 0.24293 -0.13846 0.96008 0.16578 -0.17139 0.97113 0.16947 -0.30650 0.93664 0.24293 -0.13846 0.96008 0.00766 0.11856 0.99289 0.04498 0.39668 0.91684 0.00592 0.28855 0.95743 -0.02454 0.07385 0.99695 -0.29365 0.00089 0.95590 -0.02011 -0.08054 0.99652 -0.02011 -0.08054 0.99652 -0.29365 0.00089 0.95590 -0.23441 -0.30332 0.92358 0.01077 -0.27113 0.96246 -0.02011 -0.08054 0.99652 -0.23441 -0.30332 0.92358</float_array>
					<technique_common>
						<accessor count="336" source="#ShapeIndexedFaceS_019-Geometry-Normals-array" stride="3">
							<param type="float" name="X"></param>
							<param type="float" name="Y"></param>
							<param type="float" name="Z"></param>
						</accessor>
					</technique_common>
				</source>
				<vertices id="ShapeIndexedFaceS_019-Geometry-Vertex">
					<input semantic="POSITION" source="#ShapeIndexedFaceS_019-Geometry-Position"/>
				</vertices>
				<triangles count="112" material="Material_011">
					<input offset="0" semantic="VERTEX" source="#ShapeIndexedFaceS_019-Geometry-Vertex"/>
					<input offset="1" semantic="NORMAL" source="#ShapeIndexedFaceS_019-Geometry-Normals"/>
					<p>1 0 0 1 2 2 2 3 0 4 3 5 6 6 5 7 4 8 9 9 8 10 7 11 9 12 7 13 10 14 13 15 12 16 11 17 15 18 14 19 12 20 15 21 12 22 13 23 3 24 0 25 16 26 17 27 3 28 16 29 18 30 17 31 16 32 18 33 16 34 19 35 21 36 19 37 20 38 22 39 18 40 19 41 22 42 19 43 21 44 8 45 23 46 7 47 26 48 25 49 24 50 28 51 27 52 22 53 30 54 29 55 21 56 29 57 28 58 21 59 28 60 22 61 21 62 21 63 20 64 30 65 31 66 30 67 20 68 16 69 0 70 32 71 19 72 16 73 32 74 20 75 19 76 32 77 10 78 7 79 33 80 34 81 10 82 33 83 2 84 13 85 1 86 13 87 11 88 1 89 26 90 24 91 35 92 24 93 36 94 35 95 37 96 36 97 24 98 24 99 25 100 38 101 40 102 37 103 39 104 37 105 24 106 39 107 24 108 38 109 39 110 40 111 39 112 41 113 30 114 31 115 29 116 15 117 13 118 42 119 13 120 2 121 42 122 15 123 43 124 14 125 26 126 6 127 44 128 26 129 23 130 6 131 23 132 45 133 6 134 48 135 47 136 46 137 49 138 48 139 46 140 47 141 50 142 41 143 46 144 47 145 41 146 50 147 40 148 41 149 51 150 46 151 41 152 46 153 51 154 49 155 54 156 53 157 52 158 52 159 55 160 54 161 56 162 3 163 17 164 56 165 58 166 57 167 55 168 52 169 27 170 27 171 52 172 59 173 22 174 27 175 59 176 54 177 48 178 53 179 48 180 49 181 60 182 53 183 48 184 60 185 31 186 20 187 61 188 32 189 62 190 61 191 61 192 20 193 32 194 32 195 0 196 62 197 62 198 0 199 11 200 0 201 1 202 11 203 42 204 2 205 3 206 3 207 56 208 42 209 63 210 15 211 42 212 15 213 63 214 64 215 8 216 45 217 23 218 64 219 43 220 15 221 8 222 43 223 64 224 8 225 9 226 43 227 64 228 63 229 8 230 63 231 45 232 8 233 6 234 45 235 5 236 5 237 45 238 63 239 5 240 63 241 65 242 4 243 5 244 65 245 66 246 4 247 65 248 66 249 65 250 67 251 44 252 25 253 26 254 23 255 26 256 7 257 26 258 33 259 7 260 35 261 68 262 34 263 34 264 33 265 35 266 33 267 26 268 35 269 4 270 44 271 6 272 69 273 44 274 4 275 41 276 39 277 51 278 70 279 51 280 39 281 39 282 38 283 70 284 49 285 51 286 71 287 49 288 71 289 72 290 72 291 73 292 60 293 60 294 49 295 72 296 69 297 70 298 44 299 70 300 25 301 44 302 70 303 38 304 25 305 71 306 51 307 70 308 56 309 17 310 58 311 17 312 74 313 58 314 17 315 18 316 74 317 18 318 22 319 59 320 74 321 18 322 59 323 66 324 69 325 4 326 65 327 63 328 57 329 57 330 63 331 42 332 56 333 57 334 42 335</p>
				</triangles>
			</mesh>
		</geometry>
	</library_geometries>
	<library_visual_scenes>
		<visual_scene id="Scene" name="Scene">
			<node layer="L1" id="ShapeIndexedFaceS_023" name="ShapeIndexedFaceS_023">
				<translate sid="translate">0.00000 0.00000 0.00000</translate>
				<rotate sid="rotateZ">0 0 1 0.00000</rotate>
				<rotate sid="rotateY">0 1 0 -0.00000</rotate>
				<rotate sid="rotateX">1 0 0 0.00000</rotate>
				<scale sid="scale">1.00000 1.00000 1.00000</scale>
				<instance_geometry url="#ShapeIndexedFaceS_023-Geometry">
					<bind_material>
						<technique_common>
							<instance_material symbol="Material_015" target="#Material_015">
								<bind_vertex_input input_semantic="TEXCOORD" input_set="1" semantic="CHANNEL1"/>
							</instance_material>
						</technique_common>
					</bind_material>
				</instance_geometry>
			</node>
			<node layer="L1" id="ShapeIndexedFaceS_022" name="ShapeIndexedFaceS_022">
				<translate sid="translate">0.00000 0.00000 0.00000</translate>
				<rotate sid="rotateZ">0 0 1 0.00000</rotate>
				<rotate sid="rotateY">0 1 0 -0.00000</rotate>
				<rotate sid="rotateX">1 0 0 0.00000</rotate>
				<scale sid="scale">1.00000 1.00000 1.00000</scale>
				<instance_geometry url="#ShapeIndexedFaceS_022-Geometry">
					<bind_material>
						<technique_common>
							<instance_material symbol="Material_014" target="#Material_014">
								<bind_vertex_input input_semantic="TEXCOORD" input_set="1" semantic="CHANNEL1"/>
							</instance_material>
						</technique_common>
					</bind_material>
				</instance_geometry>
			</node>
			<node layer="L1" id="ShapeIndexedFaceS_021" name="ShapeIndexedFaceS_021">
				<translate sid="translate">0.00000 0.00000 0.00000</translate>
				<rotate sid="rotateZ">0 0 1 0.00000</rotate>
				<rotate sid="rotateY">0 1 0 -0.00000</rotate>
				<rotate sid="rotateX">1 0 0 0.00000</rotate>
				<scale sid="scale">1.00000 1.00000 1.00000</scale>
				<instance_geometry url="#ShapeIndexedFaceS_021-Geometry">
					<bind_material>
						<technique_common>
							<instance_material symbol="Material_013" target="#Material_013">
								<bind_vertex_input input_semantic="TEXCOORD" input_set="1" semantic="CHANNEL1"/>
							</instance_material>
						</technique_common>
					</bind_material>
				</instance_geometry>
			</node>
			<node layer="L1" id="ShapeIndexedFaceS_020" name="ShapeIndexedFaceS_020">
				<translate sid="translate">0.00000 0.00000 0.00000</translate>
				<rotate sid="rotateZ">0 0 1 0.00000</rotate>
				<rotate sid="rotateY">0 1 0 -0.00000</rotate>
				<rotate sid="rotateX">1 0 0 0.00000</rotate>
				<scale sid="scale">1.00000 1.00000 1.00000</scale>
				<instance_geometry url="#ShapeIndexedFaceS_020-Geometry">
					<bind_material>
						<technique_common>
							<instance_material symbol="Material_012" target="#Material_012">
								<bind_vertex_input input_semantic="TEXCOORD" input_set="1" semantic="CHANNEL1"/>
							</instance_material>
						</technique_common>
					</bind_material>
				</instance_geometry>
			</node>
			<node layer="L1" id="ShapeIndexedFaceS_019" name="ShapeIndexedFaceS_019">
				<translate sid="translate">0.00000 0.00000 0.00000</translate>
				<rotate sid="rotateZ">0 0 1 0.00000</rotate>
				<rotate sid="rotateY">0 1 0 -0.00000</rotate>
				<rotate sid="rotateX">1 0 0 0.00000</rotate>
				<scale sid="scale">1.00000 1.00000 1.00000</scale>
				<instance_geometry url="#ShapeIndexedFaceS_019-Geometry">
					<bind_material>
						<technique_common>
							<instance_material symbol="Material_011" target="#Material_011">
								<bind_vertex_input input_semantic="TEXCOORD" input_set="1" semantic="CHANNEL1"/>
							</instance_material>
						</technique_common>
					</bind_material>
				</instance_geometry>
			</node>
			<node layer="L1" id="Lamp" name="Lamp">
				<translate sid="translate">4.07625 1.00545 5.90386</translate>
				<rotate sid="rotateZ">0 0 1 106.93632</rotate>
				<rotate sid="rotateY">0 1 0 3.16371</rotate>
				<rotate sid="rotateX">1 0 0 37.26105</rotate>
				<scale sid="scale">1.00000 1.00000 1.00000</scale>
				<instance_light url="#Spot"/>
			</node>
			<node layer="L1" id="Camera" name="Camera">
				<translate sid="translate">7.48113 -6.50764 5.34367</translate>
				<rotate sid="rotateZ">0 0 1 46.69194</rotate>
				<rotate sid="rotateY">0 1 0 0.61977</rotate>
				<rotate sid="rotateX">1 0 0 63.55930</rotate>
				<scale sid="scale">1.00000 1.00000 1.00000</scale>
				<instance_camera url="#Camera-Camera"/>
			</node>
		</visual_scene>
	</library_visual_scenes>
	<library_physics_materials>
		<physics_material id="ShapeIndexedFaceS_023-PhysicsMaterial" name="ShapeIndexedFaceS_023-PhysicsMaterial">
			<technique_common>
				<dynamic_friction>0.5</dynamic_friction>
				<restitution>0.0</restitution>
				<static_friction>0.5</static_friction>
			</technique_common>
		</physics_material>
		<physics_material id="ShapeIndexedFaceS_022-PhysicsMaterial" name="ShapeIndexedFaceS_022-PhysicsMaterial">
			<technique_common>
				<dynamic_friction>0.5</dynamic_friction>
				<restitution>0.0</restitution>
				<static_friction>0.5</static_friction>
			</technique_common>
		</physics_material>
		<physics_material id="ShapeIndexedFaceS_021-PhysicsMaterial" name="ShapeIndexedFaceS_021-PhysicsMaterial">
			<technique_common>
				<dynamic_friction>0.5</dynamic_friction>
				<restitution>0.0</restitution>
				<static_friction>0.5</static_friction>
			</technique_common>
		</physics_material>
		<physics_material id="ShapeIndexedFaceS_020-PhysicsMaterial" name="ShapeIndexedFaceS_020-PhysicsMaterial">
			<technique_common>
				<dynamic_friction>0.5</dynamic_friction>
				<restitution>0.0</restitution>
				<static_friction>0.5</static_friction>
			</technique_common>
		</physics_material>
		<physics_material id="ShapeIndexedFaceS_019-PhysicsMaterial" name="ShapeIndexedFaceS_019-PhysicsMaterial">
			<technique_common>
				<dynamic_friction>0.5</dynamic_friction>
				<restitution>0.0</restitution>
				<static_friction>0.5</static_friction>
			</technique_common>
		</physics_material>
	</library_physics_materials>
	<library_physics_models>
		<physics_model id="Scene-PhysicsModel" name="Scene-PhysicsModel">
			<rigid_body name="ShapeIndexedFaceS_023-RigidBody" sid="ShapeIndexedFaceS_023-RigidBody">
				<technique_common>
					<dynamic>false</dynamic>
					<mass>0</mass>
					<instance_physics_material url="#ShapeIndexedFaceS_023-PhysicsMaterial"/>
					<shape>
						<instance_geometry url="#ShapeIndexedFaceS_023-Geometry"/>
					</shape>
				</technique_common>
			</rigid_body>
			<rigid_body name="ShapeIndexedFaceS_022-RigidBody" sid="ShapeIndexedFaceS_022-RigidBody">
				<technique_common>
					<dynamic>false</dynamic>
					<mass>0</mass>
					<instance_physics_material url="#ShapeIndexedFaceS_022-PhysicsMaterial"/>
					<shape>
						<instance_geometry url="#ShapeIndexedFaceS_022-Geometry"/>
					</shape>
				</technique_common>
			</rigid_body>
			<rigid_body name="ShapeIndexedFaceS_021-RigidBody" sid="ShapeIndexedFaceS_021-RigidBody">
				<technique_common>
					<dynamic>false</dynamic>
					<mass>0</mass>
					<instance_physics_material url="#ShapeIndexedFaceS_021-PhysicsMaterial"/>
					<shape>
						<instance_geometry url="#ShapeIndexedFaceS_021-Geometry"/>
					</shape>
				</technique_common>
			</rigid_body>
			<rigid_body name="ShapeIndexedFaceS_020-RigidBody" sid="ShapeIndexedFaceS_020-RigidBody">
				<technique_common>
					<dynamic>false</dynamic>
					<mass>0</mass>
					<instance_physics_material url="#ShapeIndexedFaceS_020-PhysicsMaterial"/>
					<shape>
						<instance_geometry url="#ShapeIndexedFaceS_020-Geometry"/>
					</shape>
				</technique_common>
			</rigid_body>
			<rigid_body name="ShapeIndexedFaceS_019-RigidBody" sid="ShapeIndexedFaceS_019-RigidBody">
				<technique_common>
					<dynamic>false</dynamic>
					<mass>0</mass>
					<instance_physics_material url="#ShapeIndexedFaceS_019-PhysicsMaterial"/>
					<shape>
						<instance_geometry url="#ShapeIndexedFaceS_019-Geometry"/>
					</shape>
				</technique_common>
			</rigid_body>
		</physics_model>
	</library_physics_models>
	<library_physics_scenes>
		<physics_scene id="Scene-Physics" name="Scene-Physics">
			<instance_physics_model url="#Scene-PhysicsModel">
				<instance_rigid_body body="ShapeIndexedFaceS_023-RigidBody" target="#ShapeIndexedFaceS_023"/>
				<instance_rigid_body body="ShapeIndexedFaceS_022-RigidBody" target="#ShapeIndexedFaceS_022"/>
				<instance_rigid_body body="ShapeIndexedFaceS_021-RigidBody" target="#ShapeIndexedFaceS_021"/>
				<instance_rigid_body body="ShapeIndexedFaceS_020-RigidBody" target="#ShapeIndexedFaceS_020"/>
				<instance_rigid_body body="ShapeIndexedFaceS_019-RigidBody" target="#ShapeIndexedFaceS_019"/>
			</instance_physics_model>
		</physics_scene>
	</library_physics_scenes>
	<scene>
		<instance_physics_scene url="#Scene-Physics"/>
		<instance_visual_scene url="#Scene"/>
	</scene>
</COLLADA>