<?xml version="1.0" encoding="utf-8"?>
<COLLADA version="1.4.0" xmlns="http://www.collada.org/2005/11/COLLADASchema">
	<asset>
		<contributor>
			<author>Illusoft Collada 1.4.0 plugin for Blender - http://colladablender.illusoft.com</author>
			<authoring_tool>Blender v:249 - Illusoft Collada Exporter v:0.3.162</authoring_tool>
			<comments></comments>
			<copyright></copyright>
			<source_data>file://</source_data>
		</contributor>
		<created>2012-02-24T16:01:29.587638</created>
		<modified>2012-02-24T16:01:29.587667</modified>
		<unit meter="1" name="meter"/>
		<up_axis>Z_UP</up_axis>
	</asset>
	<library_cameras>
		<camera id="Camera-Camera" name="Camera-Camera">
			<optics>
				<technique_common>
					<perspective>
						<yfov>49.13434</yfov>
						<znear>0.1</znear>
						<zfar>100.0</zfar>
					</perspective>
				</technique_common>
			</optics>
		</camera>
	</library_cameras>
	<library_effects>
		<effect id="Material_012-fx" name="Material_012-fx">
			<profile_COMMON>
				<technique sid="blender">
					<phong>
						<emission>
							<color>0.00000 0.00000 0.00000 1</color>
						</emission>
						<ambient>
							<color>0.00000 0.00000 0.00000 1</color>
						</ambient>
						<diffuse>
							<color>0.90000 0.90000 0.90000 1</color>
						</diffuse>
						<specular>
							<color>0.12500 0.12500 0.12500 1</color>
						</specular>
						<shininess>
							<float>25.75</float>
						</shininess>
						<reflective>
							<color>0.00000 0.00000 0.00000 1</color>
						</reflective>
						<reflectivity>
							<float>0.0</float>
						</reflectivity>
						<transparent>
							<color>1 1 1 1</color>
						</transparent>
						<transparency>
							<float>0.0</float>
						</transparency>
					</phong>
				</technique>
			</profile_COMMON>
		</effect>
	</library_effects>
	<library_lights>
		<light id="Spot" name="Spot">
			<technique_common>
				<point>
					<color>1.00000 1.00000 1.00000</color>
					<constant_attenuation>1.0</constant_attenuation>
					<linear_attenuation>0.0</linear_attenuation>
					<quadratic_attenuation>0.0</quadratic_attenuation>
				</point>
			</technique_common>
		</light>
	</library_lights>
	<library_materials>
		<material id="Material_012" name="Material_012">
			<instance_effect url="#Material_012-fx"/>
		</material>
	</library_materials>
	<library_geometries>
		<geometry id="ShapeIndexedFaceS_014" name="ShapeIndexedFaceS_014">
			<mesh>
				<source id="ShapeIndexedFaceS_014-Position">
					<float_array count="780" id="ShapeIndexedFaceS_014-Position-array">-0.01454 -0.02008 0.00506 -0.01454 -0.03615 0.02113 -0.01046 -0.03615 0.02113 -0.01046 -0.02008 0.00506 0.01110 0.00100 0.00395 0.01100 -0.00877 0.00447 0.01110 -0.00877 0.00447 0.01100 -0.00945 0.00450 0.00188 -0.00945 0.00450 0.01100 -0.02581 0.02086 0.00188 -0.02892 0.02397 0.03500 -0.02581 0.02086 0.04000 -0.02892 0.02397 0.03610 -0.00945 0.00450 0.03500 -0.00945 0.00450 0.04000 -0.00247 -0.00247 0.03610 -0.00247 -0.00247 0.01890 -0.00884 0.00389 0.01890 -0.00247 -0.00247 0.01110 -0.00884 0.00389 0.01110 -0.00247 -0.00247 0.01890 -0.00877 0.00447 -0.03610 -0.00945 0.00450 -0.03610 -0.00247 -0.00247 -0.04000 -0.00247 -0.00247 -0.04000 -0.02892 0.02397 -0.02688 -0.00945 0.00450 -0.02688 -0.02892 0.02397 -0.03571 -0.02892 0.03118 -0.04000 -0.02892 0.03825 0.01071 -0.02892 0.03118 0.04000 -0.02892 0.03825 -0.03610 0.00100 0.00395 -0.03610 0.00247 0.00247 -0.04000 0.00247 0.00247 -0.03500 0.00100 0.00395 -0.03500 -0.02192 0.02687 -0.04000 -0.02192 0.02687 -0.04000 -0.02192 0.03095 -0.04000 -0.01979 0.04739 -0.03500 -0.01979 0.04739 -0.03500 -0.02185 0.04532 0.00700 -0.02185 0.04532 0.00700 -0.02279 0.04439 0.02700 -0.02279 0.04439 0.02700 -0.02369 0.04349 0.03500 -0.02369 0.04349 0.04000 -0.02136 0.04581 0.03500 -0.02136 0.04581 0.01000 -0.02192 0.02687 0.04000 -0.02192 0.02687 0.04000 -0.02192 0.03536 0.02039 -0.02192 0.03536 0.03610 0.00100 0.00395 0.01890 0.00100 0.00395 0.01000 0.00100 0.00395 0.01890 0.00247 0.00247 0.01110 0.00247 0.00247 0.04000 0.00247 0.00247 0.03610 0.00247 0.00247 -0.04000 -0.02412 0.03315 -0.03410 0.00100 0.05827 -0.04000 0.00247 0.05975 -0.03410 0.00247 0.05975 -0.01400 -0.03474 0.02254 -0.01100 -0.03474 0.02254 0.02700 -0.01167 0.04561 0.02759 -0.01267 0.04461 0.02900 -0.01308 0.04419 0.02700 -0.00601 0.05127 0.03300 -0.01308 0.04419 0.04000 0.00247 0.05975 0.03500 -0.00601 0.05127 0.03441 -0.00501 0.05227 0.03300 -0.00460 0.05268 0.03410 0.00100 0.05827 0.03410 0.00247 0.05975 0.02759 -0.00501 0.05227 0.02900 -0.00460 0.05268 -0.03410 -0.00247 0.06470 -0.03410 -0.00573 0.06145 -0.03500 -0.00573 0.06145 -0.04000 -0.00247 0.06470 -0.03500 -0.00779 0.05939 -0.04000 -0.00779 0.05939 -0.03410 -0.00599 0.05791 0.03410 -0.00247 0.06470 0.03500 -0.00389 0.06329 0.03410 -0.00389 0.06329 0.04000 -0.00247 0.06470 0.04000 -0.00621 0.06096 0.03500 -0.00621 0.06096 -0.03500 -0.00595 0.05813 -0.03500 -0.00657 0.05571 0.03500 -0.01167 0.04561 0.03441 -0.01267 0.04461 -0.04000 -0.00139 0.06544 -0.03410 -0.00139 0.06544 -0.04000 0.00000 0.06572 -0.03410 0.00000 0.06572 -0.04000 0.00139 0.06544 -0.03410 0.00139 0.06544 -0.04000 0.00247 0.06470 -0.03410 0.00247 0.06470 -0.04000 0.00321 0.06362 -0.03410 0.00321 0.06362 -0.04000 0.00350 0.06223 -0.03410 0.00350 0.06223 -0.04000 0.00321 0.06084 -0.03410 0.00321 0.06084 0.03410 -0.00139 0.06544 0.04000 -0.00139 0.06544 0.03410 0.00000 0.06572 0.04000 0.00000 0.06572 0.03410 0.00139 0.06544 0.04000 0.00139 0.06544 0.03410 0.00247 0.06470 0.04000 0.00247 0.06470 0.03410 0.00321 0.06362 0.04000 0.00321 0.06362 0.03410 0.00350 0.06223 0.04000 0.00350 0.06223 0.03410 0.00321 0.06084 0.04000 0.00321 0.06084 0.01110 0.00321 0.00139 0.01890 0.00321 0.00139 0.01110 0.00350 -0.00000 0.01890 0.00350 -0.00000 0.01110 0.00321 -0.00139 0.01890 0.00321 -0.00139 0.01110 0.00247 -0.00247 0.01890 0.00247 -0.00247 0.01110 0.00139 -0.00321 0.01890 0.00139 -0.00321 0.01110 -0.00000 -0.00350 0.01890 -0.00000 -0.00350 0.01110 -0.00139 -0.00321 0.01890 -0.00139 -0.00321 0.03610 0.00321 0.00139 0.04000 0.00321 0.00139 0.03610 0.00350 -0.00000 0.04000 0.00350 -0.00000 0.03610 0.00321 -0.00139 0.04000 0.00321 -0.00139 0.03610 0.00247 -0.00247 0.04000 0.00247 -0.00247 0.03610 0.00139 -0.00321 0.04000 0.00139 -0.00321 0.03610 -0.00000 -0.00350 0.04000 -0.00000 -0.00350 0.03610 -0.00139 -0.00321 0.04000 -0.00139 -0.00321 -0.03610 0.00247 -0.00247 -0.03610 0.00350 0.00000 -0.03610 0.00321 0.00139 -0.03610 0.00321 -0.00139 -0.03610 0.00000 -0.00350 -0.03610 -0.00139 -0.00321 -0.03610 0.00139 -0.00321 -0.04000 0.00321 0.00139 -0.04000 0.00350 0.00000 -0.04000 0.00321 -0.00139 -0.04000 0.00247 -0.00247 -0.04000 0.00139 -0.00321 -0.04000 0.00000 -0.00350 -0.04000 -0.00139 -0.00321 -0.00700 -0.03615 0.02395 -0.01800 -0.03615 0.02395 -0.01400 -0.01710 0.00490 -0.01100 -0.01710 0.00490 0.01100 -0.01308 0.01662 0.01100 -0.01869 0.02015 0.01100 -0.02234 0.02095 0.01100 -0.01560 0.01864 0.01100 -0.00964 0.01128 0.01100 -0.00881 0.00792 0.01100 -0.01113 0.01422 0.03500 -0.01308 0.01662 0.03500 -0.01869 0.02016 0.03500 -0.02234 0.02095 0.03500 -0.01560 0.01864 0.03500 -0.00881 0.00792 0.03500 -0.00964 0.01128 0.03500 -0.01113 0.01422 0.03500 -0.00877 0.00447 -0.04000 -0.01167 0.05127 -0.04000 -0.01523 0.04871 -0.04000 -0.00911 0.05483 0.03992 -0.01812 0.04613 0.03992 -0.01503 0.04714 0.03992 -0.01223 0.04880 0.03992 -0.01058 0.05029 0.03992 -0.00883 0.05234 0.03992 -0.00727 0.05529 0.03992 -0.00643 0.05827 -0.03500 -0.00903 0.05499 -0.03500 -0.00779 0.05306 -0.03500 -0.00948 0.05068 -0.03500 -0.01218 0.05096 -0.03500 -0.01203 0.04832 -0.03500 -0.01505 0.04658 -0.03500 -0.01646 0.04823 -0.03500 -0.01838 0.04557 0.00700 -0.00599 0.05791 0.00700 -0.00496 0.05796 0.00700 -0.00577 0.05499 0.00700 -0.00674 0.05525 0.00700 -0.00712 0.05223 0.00700 -0.00795 0.05278 0.00700 -0.00895 0.04976 0.00700 -0.00958 0.05057 0.00700 -0.01122 0.04768 0.00700 -0.01158 0.04867 0.00700 -0.01382 0.04605 0.00700 -0.01389 0.04715 0.00700 -0.01669 0.04494 0.00700 -0.01641 0.04607 0.00700 -0.01971 0.04438 0.00700 -0.01909 0.04546 0.02700 -0.00496 0.05796 0.02700 -0.00394 0.05801 0.02700 -0.00484 0.05463 0.02700 -0.00577 0.05499 0.02700 -0.00634 0.05159 0.02700 -0.00712 0.05223 0.02700 -0.00895 0.04976 0.02700 -0.00884 0.04844 0.02700 -0.01122 0.04768 0.02700 -0.01200 0.04594 0.02700 -0.01382 0.04605 0.02700 -0.01471 0.04456 0.02700 -0.01669 0.04494 0.02700 -0.01763 0.04368 0.02700 -0.01971 0.04438 0.02700 -0.02065 0.04332 0.03500 -0.00372 0.06019 0.03500 -0.00398 0.05788 0.03500 -0.00643 0.05827 0.03500 -0.00727 0.05529 0.03500 -0.00475 0.05493 0.03500 -0.00634 0.05159 0.03500 -0.00883 0.05234 0.03500 -0.02065 0.04332 0.03500 -0.01763 0.04368 0.03500 -0.01812 0.04613 0.03500 -0.01471 0.04456 0.03500 -0.01503 0.04714 0.03500 -0.01200 0.04594 0.03500 -0.01223 0.04880 0.03500 -0.01058 0.05029 0.03410 -0.00394 0.05801 0.03410 -0.00372 0.06032 0.02757 -0.01326 0.04522 0.02900 -0.01383 0.04494 0.03300 -0.01383 0.04494 0.03443 -0.01326 0.04522 0.02757 -0.00562 0.05286 0.02900 -0.00535 0.05343 0.03300 -0.00535 0.05343 0.03443 -0.00562 0.05286</float_array>
					<technique_common>
						<accessor count="260" source="#ShapeIndexedFaceS_014-Position-array" stride="3">
							<param type="float" name="X"></param>
							<param type="float" name="Y"></param>
							<param type="float" name="Z"></param>
						</accessor>
					</technique_common>
				</source>
				<source id="ShapeIndexedFaceS_014-Normals">
					<float_array count="4662" id="ShapeIndexedFaceS_014-Normals-array">-0.27674 -0.83843 -0.46947 -0.10916 -0.46535 -0.87835 0.21714 -0.79019 -0.57308 0.21714 -0.79019 -0.57308 -0.10916 -0.46535 -0.87835 0.18366 -0.38374 -0.90497 -0.41841 -0.85183 -0.31507 0.23222 -0.28098 -0.93118 -0.72533 0.65838 0.20090 0.54543 -0.37587 -0.74914 0.07761 -0.34706 -0.93460 0.90613 -0.17197 -0.38639 0.07761 -0.34706 -0.93460 0.54543 -0.37587 -0.74914 0.26740 -0.74490 -0.61119 0.54543 -0.37587 -0.74914 -0.53450 -0.49904 -0.68206 0.26740 -0.74490 -0.61119 0.26740 -0.74490 -0.61119 -0.53450 -0.49904 -0.68206 0.54332 -0.74642 -0.38417 -0.53450 -0.49904 -0.68206 -0.90613 -0.17200 -0.38639 -0.17438 -0.51140 -0.84143 -0.17438 -0.51140 -0.84143 0.54332 -0.74642 -0.38417 -0.53450 -0.49904 -0.68206 -0.17438 -0.51140 -0.84143 0.85836 -0.33934 -0.38472 0.54332 -0.74642 -0.38417 -0.17438 -0.51140 -0.84143 -0.85836 -0.31452 -0.40526 0.85836 -0.33934 -0.38472 -0.59078 -0.71090 -0.38154 0.85836 -0.33934 -0.38472 0.59075 -0.79519 -0.13648 -0.59078 -0.71090 -0.38154 -0.85836 -0.31452 -0.40526 0.85836 -0.33934 -0.38472 -0.59078 -0.71090 -0.38154 0.59075 -0.79519 -0.13648 -0.41841 -0.85183 -0.31507 -0.41841 -0.85183 -0.31507 0.59075 -0.79519 -0.13648 0.23444 -0.94824 -0.21412 -0.78219 -0.39723 -0.47990 0.92901 -0.23588 -0.28498 0.17435 -0.51143 -0.84143 -0.78219 -0.39723 -0.47990 0.17435 -0.51143 -0.84143 -0.73449 -0.62694 -0.25965 -0.26984 -0.76485 -0.58492 0.17435 -0.51143 -0.84143 -0.18366 -0.38368 -0.90500 0.17435 -0.51143 -0.84143 -0.26984 -0.76485 -0.58492 -0.73449 -0.62694 -0.25965 -0.26984 -0.76485 -0.58492 -0.11493 -0.99310 0.02179 -0.73449 -0.62694 -0.25965 -0.73449 -0.62694 -0.25965 -0.11493 -0.99310 0.02179 -0.39616 -0.87439 0.28013 0.08194 -0.98791 0.13144 -0.39616 -0.87439 0.28013 -0.11493 -0.99310 0.02179 -0.39616 -0.87439 0.28013 0.08194 -0.98791 0.13144 0.29127 -0.80621 0.51491 0.08194 -0.98791 0.13144 0.54332 -0.74642 -0.38417 0.29127 -0.80621 0.51491 0.26740 -0.74490 -0.61119 0.54332 -0.74642 -0.38417 0.08194 -0.98791 0.13144 0.92901 -0.23588 -0.28498 0.80111 0.47276 0.36695 0.51543 0.71548 0.47157 0.17435 -0.51143 -0.84143 0.92901 -0.23588 -0.28498 0.51543 0.71548 0.47157 0.51543 0.71548 0.47157 0.80111 0.47276 0.36695 -0.80111 0.44881 0.39589 0.30647 0.74529 0.59206 0.23801 0.55342 -0.79815 0.51543 0.71548 0.47157 0.51543 0.71548 0.47157 -0.73128 0.58849 0.34474 0.30647 0.74529 0.59206 0.30647 0.74529 0.59206 -0.73128 0.58849 0.34474 -0.65621 0.70537 0.26792 0.51543 0.71548 0.47157 -0.80111 0.44881 0.39589 -0.73128 0.58849 0.34474 0.32636 -0.58840 0.73974 0.46043 -0.43812 0.77203 -0.45521 -0.44627 0.77044 -0.45521 -0.44627 0.77044 -0.39616 -0.87439 0.28013 0.32636 -0.58840 0.73974 0.32636 -0.58840 0.73974 -0.39616 -0.87439 0.28013 0.29127 -0.80621 0.51491 0.32636 -0.58840 0.73974 0.38749 -0.54732 0.74178 0.33406 -0.27503 0.90152 0.29127 -0.80621 0.51491 0.38749 -0.54732 0.74178 0.32636 -0.58840 0.73974 0.25816 -0.53343 0.80544 0.58174 -0.20365 0.78744 0.38749 -0.54732 0.74178 0.29127 -0.80621 0.51491 0.25816 -0.53343 0.80544 0.38749 -0.54732 0.74178 0.29127 -0.80621 0.51491 -0.21317 -0.42872 0.87790 0.25816 -0.53343 0.80544 0.29127 -0.80621 0.51491 0.47017 -0.37223 0.80023 -0.21317 -0.42872 0.87790 0.47017 -0.37223 0.80023 -0.84698 -0.22712 0.48061 -0.21317 -0.42872 0.87790 0.72964 0.56740 -0.38163 0.73128 0.58849 0.34474 -0.18128 0.80566 0.56392 -0.18128 0.80566 0.56392 -0.08414 0.86648 -0.49202 0.72964 0.56740 -0.38163 -0.18128 0.80566 0.56392 0.73128 0.58849 0.34474 -0.57472 0.78268 0.23884 -0.57472 0.78268 0.23884 0.82943 0.55754 0.03427 -0.18128 0.80566 0.56392 -0.72533 0.65838 0.20090 -0.23801 0.55342 -0.79815 -0.18128 0.80566 0.56392 0.82943 0.55754 0.03427 -0.72533 0.65838 0.20090 -0.18128 0.80566 0.56392 -0.72533 0.65838 0.20090 0.82943 0.55754 0.03427 0.70864 0.54347 0.44987 0.70864 0.54347 0.44987 -0.89520 0.34327 0.28413 -0.72533 0.65838 0.20090 0.73128 0.58849 0.34474 0.70864 0.54347 0.44987 -0.57472 0.78268 0.23884 0.70864 0.54347 0.44987 -0.89520 0.34327 0.28413 -0.57472 0.78268 0.23884 0.30647 0.74529 0.59206 -0.65621 0.70537 0.26792 -0.88388 0.46651 -0.03348 -0.88388 0.46651 -0.03348 -0.86917 0.38090 -0.31532 0.35011 0.80694 -0.47560 -0.86917 0.38090 -0.31532 0.89520 0.34324 -0.28416 0.35011 0.80694 -0.47560 -0.88388 0.46651 -0.03348 0.35011 0.80694 -0.47560 0.28321 0.94775 0.14661 0.35011 0.80694 -0.47560 -0.22983 0.93161 0.28150 0.28321 0.94775 0.14661 -0.08414 0.86648 -0.49202 -0.22983 0.93161 0.28150 0.35011 0.80694 -0.47560 0.49229 0.86911 0.04736 -0.08414 0.86648 -0.49202 0.67809 0.63182 -0.37541 0.49229 0.86911 0.04736 0.09101 0.99576 -0.01279 -0.08414 0.86648 -0.49202 0.35011 0.80694 -0.47560 0.67809 0.63182 -0.37541 -0.08414 0.86648 -0.49202 0.68673 0.40819 -0.60146 0.67809 0.63182 -0.37541 0.35011 0.80694 -0.47560 0.72964 0.56740 -0.38163 -0.08414 0.86648 -0.49202 0.09101 0.99576 -0.01279 0.09101 0.99576 -0.01279 -0.21555 0.96216 0.16663 0.72964 0.56740 -0.38163 0.72964 0.56740 -0.38163 -0.67809 0.37541 -0.63182 0.83508 0.39879 -0.37889 -0.67809 0.37541 -0.63182 -0.49232 -0.04736 -0.86911 0.83508 0.39879 -0.37889 0.83508 0.39879 -0.37889 -0.49232 -0.04736 -0.86911 -0.09101 0.01282 -0.99576 -0.72524 0.65850 -0.20093 0.83508 0.39879 -0.37889 -0.09101 0.01282 -0.99576 -0.72524 0.65850 -0.20093 -0.85836 0.40522 -0.31455 0.83508 0.39879 -0.37889 0.64901 0.06397 -0.75805 0.68673 0.40819 -0.60146 0.35011 0.80694 -0.47560 0.18256 0.02680 -0.98282 0.64901 0.06397 -0.75805 0.35011 0.80694 -0.47560 -0.72524 0.65850 -0.20093 -0.09101 0.01282 -0.99576 0.18256 0.02680 -0.98282 -0.72524 0.65850 -0.20093 0.18256 0.02680 -0.98282 0.35011 0.80694 -0.47560 0.16898 -0.83935 0.51659 0.72958 -0.62175 0.28480 0.78219 -0.39726 0.47990 0.78219 -0.39726 0.47990 -0.80111 -0.39592 0.44881 0.16898 -0.83935 0.51659 0.16898 -0.83935 0.51659 -0.56557 -0.67153 0.47868 0.71792 -0.62798 0.30027 -0.80111 -0.39592 0.44881 -0.56557 -0.67153 0.47868 0.16898 -0.83935 0.51659 0.72958 -0.62175 0.28480 0.16898 -0.83935 0.51659 0.16837 -0.85116 0.49712 -0.73571 -0.66124 0.14631 -0.20695 -0.79199 0.57433 -0.80111 -0.39592 0.44881 -0.80111 -0.39592 0.44881 -0.20695 -0.79199 0.57433 0.70864 -0.44990 0.54347 0.70864 -0.44990 0.54347 -0.20695 -0.79199 0.57433 0.57787 -0.69805 0.42274 -0.20695 -0.79199 0.57433 -0.72668 -0.65419 0.20957 0.57787 -0.69805 0.42274 0.60393 -0.74880 0.27299 0.16837 -0.85116 0.49712 0.70684 -0.69839 0.11222 0.16898 -0.83935 0.51659 0.70684 -0.69839 0.11222 0.16837 -0.85116 0.49712 0.72964 0.56740 -0.38163 -0.64898 0.75808 -0.06397 -0.82058 0.47288 -0.32090 0.72964 0.56740 -0.38163 -0.21555 0.96216 0.16663 -0.64898 0.75808 -0.06397 -0.67809 0.37541 -0.63182 0.72964 0.56740 -0.38163 -0.82058 0.47288 -0.32090 0.78219 -0.39726 0.47990 -0.32121 -0.42610 0.84573 -0.80111 -0.39592 0.44881 0.78219 -0.39726 0.47990 0.32121 -0.31004 0.89480 -0.32121 -0.42610 0.84573 0.32121 -0.31004 0.89480 -0.71355 -0.04785 0.69893 -0.32121 -0.42610 0.84573 0.32121 -0.31004 0.89480 0.71355 0.04785 0.69893 -0.71355 -0.04785 0.69893 0.71355 0.04785 0.69893 -0.32121 0.31004 0.89480 -0.71355 -0.04785 0.69893 0.71355 0.04785 0.69893 0.32121 0.42610 0.84573 -0.32121 0.31004 0.89480 0.32121 0.42610 0.84573 -0.86102 0.33613 0.38160 -0.32121 0.31004 0.89480 0.32121 0.42610 0.84573 0.86102 0.38160 0.33613 -0.86102 0.33613 0.38160 0.86102 0.38160 0.33613 -0.32121 0.84573 0.42610 -0.86102 0.33613 0.38160 0.86102 0.38160 0.33613 0.32121 0.89480 0.31001 -0.32121 0.84573 0.42610 0.32121 0.89480 0.31001 -0.71355 0.69893 0.04785 -0.32121 0.84573 0.42610 0.32121 0.89480 0.31001 0.71355 0.69893 -0.04785 -0.71355 0.69893 0.04785 0.71355 0.69893 -0.04785 -0.32121 0.89480 -0.31001 -0.71355 0.69893 0.04785 0.71355 0.69893 -0.04785 0.32121 0.84573 -0.42610 -0.32121 0.89480 -0.31001 0.32121 0.84573 -0.42610 -0.86917 0.38090 -0.31532 -0.32121 0.89480 -0.31001 0.32121 0.84573 -0.42610 0.89520 0.34324 -0.28416 -0.86917 0.38090 -0.31532 0.70864 -0.44990 0.54347 -0.32121 -0.42610 0.84573 -0.80111 -0.39592 0.44881 0.70864 -0.44990 0.54347 0.32121 -0.31004 0.89480 -0.32121 -0.42610 0.84573 0.32121 -0.31004 0.89480 -0.71355 -0.04785 0.69893 -0.32121 -0.42610 0.84573 0.32121 -0.31004 0.89480 0.71355 0.04785 0.69893 -0.71355 -0.04785 0.69893 0.71355 0.04785 0.69893 -0.32121 0.31004 0.89480 -0.71355 -0.04785 0.69893 0.71355 0.04785 0.69893 0.32121 0.42610 0.84573 -0.32121 0.31004 0.89480 0.32121 0.42610 0.84573 -0.86102 0.33613 0.38160 -0.32121 0.31004 0.89480 0.32121 0.42610 0.84573 0.86102 0.38160 0.33613 -0.86102 0.33613 0.38160 0.86102 0.38160 0.33613 -0.32121 0.84573 0.42610 -0.86102 0.33613 0.38160 0.86102 0.38160 0.33613 0.32121 0.89480 0.31001 -0.32121 0.84573 0.42610 0.32121 0.89480 0.31001 -0.71355 0.69893 0.04785 -0.32121 0.84573 0.42610 0.32121 0.89480 0.31001 0.71355 0.69893 -0.04785 -0.71355 0.69893 0.04785 0.71355 0.69893 -0.04785 -0.32121 0.89480 -0.31001 -0.71355 0.69893 0.04785 0.71355 0.69893 -0.04785 0.32121 0.84573 -0.42610 -0.32121 0.89480 -0.31001 0.32121 0.84573 -0.42610 -0.85836 0.40522 -0.31455 -0.32121 0.89480 -0.31001 0.32121 0.84573 -0.42610 0.83508 0.39879 -0.37889 -0.85836 0.40522 -0.31455 0.70864 0.54347 0.44987 -0.32118 0.84570 0.42616 -0.89520 0.34327 0.28413 0.70864 0.54347 0.44987 0.32118 0.89474 0.31022 -0.32118 0.84570 0.42616 0.32118 0.89474 0.31022 -0.71358 0.69890 0.04798 -0.32118 0.84570 0.42616 0.32118 0.89474 0.31022 0.71358 0.69890 -0.04794 -0.71358 0.69890 0.04798 0.71358 0.69890 -0.04794 -0.32118 0.89474 -0.31022 -0.71358 0.69890 0.04798 0.71358 0.69890 -0.04794 0.32121 0.84570 -0.42616 -0.32118 0.89474 -0.31022 0.32121 0.84570 -0.42616 -0.86102 0.38160 -0.33610 -0.32118 0.89474 -0.31022 0.32121 0.84570 -0.42616 0.86102 0.33610 -0.38160 -0.86102 0.38160 -0.33610 0.86102 0.33610 -0.38160 -0.32118 0.42613 -0.84570 -0.86102 0.38160 -0.33610 0.86102 0.33610 -0.38160 0.32118 0.31022 -0.89474 -0.32118 0.42613 -0.84570 0.32118 0.31022 -0.89474 -0.71358 0.04794 -0.69890 -0.32118 0.42613 -0.84570 0.32118 0.31022 -0.89474 0.71358 -0.04798 -0.69890 -0.71358 0.04794 -0.69890 0.71358 -0.04798 -0.69890 -0.32118 -0.31025 -0.89474 -0.71358 0.04794 -0.69890 0.71358 -0.04798 -0.69890 0.32118 -0.42613 -0.84570 -0.32118 -0.31025 -0.89474 0.32118 -0.42613 -0.84570 -0.85836 -0.31452 -0.40526 -0.32118 -0.31025 -0.89474 0.32118 -0.42613 -0.84570 0.85836 -0.33934 -0.38472 -0.85836 -0.31452 -0.40526 0.70864 0.54347 0.44987 -0.32118 0.84570 0.42616 -0.89520 0.34327 0.28413 0.70864 0.54347 0.44987 0.32118 0.89474 0.31022 -0.32118 0.84570 0.42616 0.32118 0.89474 0.31022 -0.71358 0.69890 0.04798 -0.32118 0.84570 0.42616 0.32118 0.89474 0.31022 0.71358 0.69890 -0.04794 -0.71358 0.69890 0.04798 0.71358 0.69890 -0.04794 -0.32118 0.89474 -0.31019 -0.71358 0.69890 0.04798 0.71358 0.69890 -0.04794 0.32121 0.84570 -0.42613 -0.32118 0.89474 -0.31019 0.32121 0.84570 -0.42613 -0.86102 0.38160 -0.33613 -0.32118 0.89474 -0.31019 0.32121 0.84570 -0.42613 0.86102 0.33610 -0.38160 -0.86102 0.38160 -0.33613 0.86102 0.33610 -0.38160 -0.32115 0.42613 -0.84570 -0.86102 0.38160 -0.33613 0.86102 0.33610 -0.38160 0.32121 0.31025 -0.89474 -0.32115 0.42613 -0.84570 0.32121 0.31025 -0.89474 -0.71358 0.04794 -0.69890 -0.32115 0.42613 -0.84570 0.32121 0.31025 -0.89474 0.71358 -0.04794 -0.69890 -0.71358 0.04794 -0.69890 0.71358 -0.04794 -0.69890 -0.32121 -0.31022 -0.89474 -0.71358 0.04794 -0.69890 0.71358 -0.04794 -0.69890 0.32118 -0.42613 -0.84570 -0.32121 -0.31022 -0.89474 0.32118 -0.42613 -0.84570 -0.85836 -0.31452 -0.40526 -0.32121 -0.31022 -0.89474 0.32118 -0.42613 -0.84570 0.85836 -0.33934 -0.38472 -0.85836 -0.31452 -0.40526 0.86102 0.33610 -0.38160 0.80111 0.47276 0.36695 0.92901 -0.23588 -0.28498 0.86102 0.33610 -0.38160 0.71358 0.69890 -0.04794 0.80111 0.47276 0.36695 0.71358 0.69890 -0.04794 0.32118 0.89474 0.31022 0.80111 0.47276 0.36695 0.86102 0.33610 -0.38160 0.32121 0.84567 -0.42616 0.71358 0.69890 -0.04794 0.92901 -0.23588 -0.28498 0.71358 -0.04794 -0.69890 0.86102 0.33610 -0.38160 0.92901 -0.23588 -0.28498 0.32121 -0.42613 -0.84570 0.71358 -0.04794 -0.69890 0.71358 -0.04794 -0.69890 0.32118 0.31025 -0.89474 0.86102 0.33610 -0.38160 0.80111 0.47276 0.36695 -0.32118 0.84570 0.42613 -0.80111 0.44881 0.39589 0.80111 0.47276 0.36695 0.32118 0.89474 0.31022 -0.32118 0.84570 0.42613 0.32118 0.89474 0.31022 -0.71355 0.69890 0.04798 -0.32118 0.84570 0.42613 0.32118 0.89474 0.31022 0.71358 0.69890 -0.04794 -0.71355 0.69890 0.04798 0.71358 0.69890 -0.04794 -0.32118 0.89474 -0.31022 -0.71355 0.69890 0.04798 0.71358 0.69890 -0.04794 0.32121 0.84567 -0.42616 -0.32118 0.89474 -0.31022 0.32121 0.84567 -0.42616 -0.86102 0.38160 -0.33613 -0.32118 0.89474 -0.31022 0.32121 0.84567 -0.42616 0.86102 0.33610 -0.38160 -0.86102 0.38160 -0.33613 0.86102 0.33610 -0.38160 -0.32118 0.42613 -0.84570 -0.86102 0.38160 -0.33613 0.86102 0.33610 -0.38160 0.32118 0.31025 -0.89474 -0.32118 0.42613 -0.84570 0.32118 0.31025 -0.89474 -0.71358 0.04798 -0.69890 -0.32118 0.42613 -0.84570 0.32118 0.31025 -0.89474 0.71358 -0.04794 -0.69890 -0.71358 0.04798 -0.69890 0.71358 -0.04794 -0.69890 -0.32118 -0.31025 -0.89474 -0.71358 0.04798 -0.69890 0.71358 -0.04794 -0.69890 0.32121 -0.42613 -0.84570 -0.32118 -0.31025 -0.89474 0.32121 -0.42613 -0.84570 -0.78219 -0.39723 -0.47990 -0.32118 -0.31025 -0.89474 0.32121 -0.42613 -0.84570 0.92901 -0.23588 -0.28498 -0.78219 -0.39723 -0.47990 0.24448 -0.96133 -0.12659 0.26740 -0.74490 -0.61119 0.08194 -0.98791 0.13144 0.21714 -0.79019 -0.57308 0.26740 -0.74490 -0.61119 0.24448 -0.96133 -0.12659 0.18366 -0.38374 -0.90497 0.26740 -0.74490 -0.61119 0.21714 -0.79019 -0.57308 0.07761 -0.34706 -0.93460 0.26740 -0.74490 -0.61119 0.18366 -0.38374 -0.90497 -0.26984 -0.76485 -0.58492 -0.27674 -0.83843 -0.46947 -0.26463 -0.96304 0.05011 -0.26984 -0.76485 -0.58492 -0.26463 -0.96304 0.05011 -0.11493 -0.99310 0.02179 -0.27674 -0.83843 -0.46947 -0.26984 -0.76485 -0.58492 -0.18366 -0.38368 -0.90500 -0.18366 -0.38368 -0.90500 -0.10916 -0.46535 -0.87835 -0.27674 -0.83843 -0.46947 0.18366 -0.38374 -0.90497 -0.10916 -0.46535 -0.87835 0.33824 0.82171 -0.45860 0.33824 0.82171 -0.45860 -0.43510 0.77218 -0.46303 0.18366 -0.38374 -0.90497 0.33824 0.82171 -0.45860 -0.18366 -0.38368 -0.90500 0.23801 0.55342 -0.79815 0.33824 0.82171 -0.45860 -0.10916 -0.46535 -0.87835 -0.18366 -0.38368 -0.90500 0.07761 -0.34706 -0.93460 0.18366 -0.38374 -0.90497 -0.43510 0.77218 -0.46303 -0.23801 0.55342 -0.79815 0.07761 -0.34706 -0.93460 -0.43510 0.77218 -0.46303 0.23222 -0.28098 -0.93118 -0.23801 0.55342 -0.79815 -0.72533 0.65838 0.20090 0.07761 -0.34706 -0.93460 -0.23801 0.55342 -0.79815 0.23222 -0.28098 -0.93118 0.07761 -0.34706 -0.93460 0.23222 -0.28098 -0.93118 0.90613 -0.17197 -0.38639 0.17435 -0.51143 -0.84143 0.51543 0.71548 0.47157 0.23801 0.55342 -0.79815 0.17435 -0.51143 -0.84143 0.23801 0.55342 -0.79815 -0.18366 -0.38368 -0.90500 0.24448 -0.96133 -0.12659 -0.26463 -0.96304 0.05011 -0.27674 -0.83843 -0.46947 -0.27674 -0.83843 -0.46947 0.21714 -0.79019 -0.57308 0.24448 -0.96133 -0.12659 0.85861 -0.37422 -0.35029 0.54543 -0.37587 -0.74914 0.90613 -0.17197 -0.38639 0.85861 -0.37422 -0.35029 0.70940 -0.25819 -0.65578 0.54543 -0.37587 -0.74914 0.54543 -0.37587 -0.74914 0.70940 -0.25819 -0.65578 0.31822 -0.12751 -0.93939 0.85861 -0.37422 -0.35029 0.31788 -0.53807 -0.78063 0.70940 -0.25819 -0.65578 0.90613 -0.17197 -0.38639 0.70910 -0.66970 -0.22059 0.85861 -0.37422 -0.35029 0.90613 -0.17197 -0.38639 0.55696 -0.82720 -0.07392 0.70910 -0.66970 -0.22059 0.70910 -0.66970 -0.22059 0.31770 -0.81341 -0.48723 0.85861 -0.37422 -0.35029 0.90613 -0.17197 -0.38639 0.23222 -0.28098 -0.93118 0.55696 -0.82720 -0.07392 -0.85858 -0.34864 -0.37580 -0.90613 -0.17200 -0.38639 -0.53450 -0.49904 -0.68206 -0.85858 -0.34864 -0.37580 -0.53450 -0.49904 -0.68206 -0.70928 -0.20490 -0.67446 -0.53450 -0.49904 -0.68206 -0.31797 -0.05081 -0.94671 -0.70928 -0.20490 -0.67446 -0.85858 -0.34864 -0.37580 -0.70928 -0.20490 -0.67446 -0.31767 -0.47841 -0.81863 -0.90613 -0.17200 -0.38639 -0.70907 -0.65117 -0.27042 -0.44960 -0.88592 -0.11386 -0.70907 -0.65117 -0.27042 -0.85858 -0.34864 -0.37580 -0.31761 -0.77660 -0.54402 -0.90613 -0.17200 -0.38639 -0.44960 -0.88592 -0.11386 -0.23240 -0.28098 -0.93112 -0.85858 -0.34864 -0.37580 -0.70907 -0.65117 -0.27042 -0.90613 -0.17200 -0.38639 -0.72533 0.65838 0.20090 -0.59078 -0.71090 -0.38154 -0.41841 -0.85183 -0.31507 -0.72533 0.65838 0.20090 -0.85836 -0.31452 -0.40526 -0.59078 -0.71090 -0.38154 -0.72533 0.65838 0.20090 -0.89520 0.34327 0.28413 -0.85836 -0.31452 -0.40526 -0.86102 0.38160 -0.33610 -0.85836 -0.31452 -0.40526 -0.89520 0.34327 0.28413 -0.86102 0.38160 -0.33610 -0.89520 0.34327 0.28413 -0.71358 0.69890 0.04798 -0.71358 0.69890 0.04798 -0.89520 0.34327 0.28413 -0.32118 0.84570 0.42616 -0.86102 0.38160 -0.33610 -0.71358 0.69890 0.04798 -0.32118 0.89474 -0.31022 -0.85836 -0.31452 -0.40526 -0.71358 0.04794 -0.69890 -0.32118 -0.31025 -0.89474 -0.71358 0.04794 -0.69890 -0.86102 0.38160 -0.33610 -0.32118 0.42613 -0.84570 -0.86102 0.38160 -0.33610 -0.71358 0.04794 -0.69890 -0.85836 -0.31452 -0.40526 -0.17438 -0.51140 -0.84143 -0.57472 0.78268 0.23884 -0.85836 -0.31452 -0.40526 -0.57472 0.78268 0.23884 -0.89520 0.34327 0.28413 -0.85836 -0.31452 -0.40526 -0.86102 0.38160 -0.33613 -0.85836 -0.31452 -0.40526 -0.89520 0.34327 0.28413 -0.86102 0.38160 -0.33613 -0.89520 0.34327 0.28413 -0.71358 0.69890 0.04798 -0.71358 0.69890 0.04798 -0.89520 0.34327 0.28413 -0.32118 0.84570 0.42616 -0.86102 0.38160 -0.33613 -0.71358 0.69890 0.04798 -0.32118 0.89474 -0.31019 -0.85836 -0.31452 -0.40526 -0.71358 0.04794 -0.69890 -0.32121 -0.31022 -0.89474 -0.71358 0.04794 -0.69890 -0.86102 0.38160 -0.33613 -0.32115 0.42613 -0.84570 -0.86102 0.38160 -0.33613 -0.71358 0.04794 -0.69890 -0.85836 -0.31452 -0.40526 0.85836 -0.33934 -0.38472 0.70864 0.54347 0.44987 0.82943 0.55754 0.03427 0.85836 -0.33934 -0.38472 0.82943 0.55754 0.03427 0.59075 -0.79519 -0.13648 0.82943 0.55754 0.03427 0.23444 -0.94824 -0.21412 0.59075 -0.79519 -0.13648 0.86102 0.33610 -0.38160 0.70864 0.54347 0.44987 0.85836 -0.33934 -0.38472 0.86102 0.33610 -0.38160 0.71358 0.69890 -0.04794 0.70864 0.54347 0.44987 0.71358 0.69890 -0.04794 0.32118 0.89474 0.31022 0.70864 0.54347 0.44987 0.86102 0.33610 -0.38160 0.32121 0.84570 -0.42616 0.71358 0.69890 -0.04794 0.85836 -0.33934 -0.38472 0.71358 -0.04798 -0.69890 0.86102 0.33610 -0.38160 0.85836 -0.33934 -0.38472 0.32118 -0.42613 -0.84570 0.71358 -0.04798 -0.69890 0.71358 -0.04798 -0.69890 0.32118 0.31022 -0.89474 0.86102 0.33610 -0.38160 -0.73449 -0.62694 -0.25965 -0.73128 0.58849 0.34474 -0.78219 -0.39723 -0.47990 -0.73128 0.58849 0.34474 -0.80111 0.44881 0.39589 -0.78219 -0.39723 -0.47990 -0.65621 0.70537 0.26792 -0.73128 0.58849 0.34474 -0.73449 -0.62694 -0.25965 -0.88388 0.46651 -0.03348 -0.65621 0.70537 0.26792 -0.73449 -0.62694 -0.25965 -0.88388 0.46651 -0.03348 -0.73449 -0.62694 -0.25965 -0.39616 -0.87439 0.28013 -0.39616 -0.87439 0.28013 -0.45521 -0.44627 0.77044 -0.88388 0.46651 -0.03348 -0.71776 -0.51219 0.47163 -0.86917 0.38090 -0.31532 -0.88388 0.46651 -0.03348 -0.56624 -0.38884 0.72674 -0.88388 0.46651 -0.03348 -0.45521 -0.44627 0.77044 -0.56624 -0.38884 0.72674 -0.71776 -0.51219 0.47163 -0.88388 0.46651 -0.03348 -0.71776 -0.51219 0.47163 -0.55965 -0.76562 0.31718 -0.86917 0.38090 -0.31532 -0.55965 -0.76562 0.31718 -0.56557 -0.67153 0.47868 -0.86917 0.38090 -0.31532 -0.56557 -0.67153 0.47868 -0.80111 -0.39592 0.44881 -0.86917 0.38090 -0.31532 -0.86102 0.33613 0.38160 -0.86917 0.38090 -0.31532 -0.80111 -0.39592 0.44881 -0.86102 0.33613 0.38160 -0.80111 -0.39592 0.44881 -0.71355 -0.04785 0.69893 -0.71355 -0.04785 0.69893 -0.80111 -0.39592 0.44881 -0.32121 -0.42610 0.84573 -0.86102 0.33613 0.38160 -0.71355 -0.04785 0.69893 -0.32121 0.31004 0.89480 -0.86917 0.38090 -0.31532 -0.71355 0.69893 0.04785 -0.32121 0.89480 -0.31001 -0.71355 0.69893 0.04785 -0.86102 0.33613 0.38160 -0.32121 0.84573 0.42610 -0.86102 0.33613 0.38160 -0.71355 0.69893 0.04785 -0.86917 0.38090 -0.31532 -0.86102 0.38160 -0.33613 -0.78219 -0.39723 -0.47990 -0.80111 0.44881 0.39589 -0.86102 0.38160 -0.33613 -0.80111 0.44881 0.39589 -0.71355 0.69890 0.04798 -0.71355 0.69890 0.04798 -0.80111 0.44881 0.39589 -0.32118 0.84570 0.42613 -0.86102 0.38160 -0.33613 -0.71355 0.69890 0.04798 -0.32118 0.89474 -0.31022 -0.78219 -0.39723 -0.47990 -0.71358 0.04798 -0.69890 -0.32118 -0.31025 -0.89474 -0.71358 0.04798 -0.69890 -0.86102 0.38160 -0.33613 -0.32118 0.42613 -0.84570 -0.86102 0.38160 -0.33613 -0.71358 0.04798 -0.69890 -0.78219 -0.39723 -0.47990 0.54332 -0.74642 -0.38417 0.72964 0.56740 -0.38163 0.29127 -0.80621 0.51491 0.54332 -0.74642 -0.38417 0.73128 0.58849 0.34474 0.72964 0.56740 -0.38163 0.73128 0.58849 0.34474 0.54332 -0.74642 -0.38417 0.85836 -0.33934 -0.38472 0.85836 -0.33934 -0.38472 0.70864 0.54347 0.44987 0.73128 0.58849 0.34474 0.70864 -0.44990 0.54347 0.57787 -0.69805 0.42274 0.83508 0.39879 -0.37889 0.47017 -0.37223 0.80023 0.29127 -0.80621 0.51491 0.72964 0.56740 -0.38163 0.55644 -0.19373 0.80795 0.47017 -0.37223 0.80023 0.72964 0.56740 -0.38163 0.72964 0.56740 -0.38163 0.55394 -0.37068 0.74545 0.55644 -0.19373 0.80795 0.55171 -0.51677 0.65462 0.55394 -0.37068 0.74545 0.72964 0.56740 -0.38163 0.69848 -0.52397 0.48738 0.55171 -0.51677 0.65462 0.72964 0.56740 -0.38163 0.83508 0.39879 -0.37889 0.69848 -0.52397 0.48738 0.72964 0.56740 -0.38163 0.83508 0.39879 -0.37889 0.55226 -0.70598 0.44331 0.69848 -0.52397 0.48738 0.83508 0.39879 -0.37889 0.55367 -0.78320 0.28285 0.55226 -0.70598 0.44331 0.83508 0.39879 -0.37889 0.55495 -0.82434 0.11173 0.55367 -0.78320 0.28285 0.57787 -0.69805 0.42274 0.55495 -0.82434 0.11173 0.83508 0.39879 -0.37889 0.86102 0.38160 0.33613 0.70864 -0.44990 0.54347 0.83508 0.39879 -0.37889 0.86102 0.38160 0.33613 0.71355 0.04785 0.69893 0.70864 -0.44990 0.54347 0.71355 0.04785 0.69893 0.32121 -0.31004 0.89480 0.70864 -0.44990 0.54347 0.86102 0.38160 0.33613 0.32121 0.42610 0.84573 0.71355 0.04785 0.69893 0.83508 0.39879 -0.37889 0.71355 0.69893 -0.04785 0.86102 0.38160 0.33613 0.83508 0.39879 -0.37889 0.32121 0.84573 -0.42610 0.71355 0.69893 -0.04785 0.71355 0.69893 -0.04785 0.32121 0.89480 0.31001 0.86102 0.38160 0.33613 0.86102 0.33610 -0.38160 0.70864 0.54347 0.44987 0.85836 -0.33934 -0.38472 0.86102 0.33610 -0.38160 0.71358 0.69890 -0.04794 0.70864 0.54347 0.44987 0.71358 0.69890 -0.04794 0.32118 0.89474 0.31022 0.70864 0.54347 0.44987 0.86102 0.33610 -0.38160 0.32121 0.84570 -0.42613 0.71358 0.69890 -0.04794 0.85836 -0.33934 -0.38472 0.71358 -0.04794 -0.69890 0.86102 0.33610 -0.38160 0.85836 -0.33934 -0.38472 0.32118 -0.42613 -0.84570 0.71358 -0.04794 -0.69890 0.71358 -0.04794 -0.69890 0.32121 0.31025 -0.89474 0.86102 0.33610 -0.38160 -0.22983 0.93161 0.28150 -0.18128 0.80566 0.56392 -0.43510 0.77218 -0.46303 -0.18128 0.80566 0.56392 -0.23801 0.55342 -0.79815 -0.43510 0.77218 -0.46303 -0.18128 0.80566 0.56392 -0.22983 0.93161 0.28150 -0.08414 0.86648 -0.49202 0.30647 0.74529 0.59206 -0.88388 0.46651 -0.03348 0.28321 0.94775 0.14661 0.33824 0.82171 -0.45860 0.30647 0.74529 0.59206 0.28321 0.94775 0.14661 0.33824 0.82171 -0.45860 0.23801 0.55342 -0.79815 0.30647 0.74529 0.59206 -0.43510 0.77218 -0.46303 0.33824 0.82171 -0.45860 -0.22983 0.93161 0.28150 0.33824 0.82171 -0.45860 0.28321 0.94775 0.14661 -0.22983 0.93161 0.28150 0.72958 -0.62175 0.28480 0.16837 -0.85116 0.49712 0.35011 0.80694 -0.47560 0.78219 -0.39726 0.47990 0.72958 -0.62175 0.28480 0.35011 0.80694 -0.47560 0.35011 0.80694 -0.47560 0.89520 0.34324 -0.28416 0.78219 -0.39726 0.47990 0.16898 -0.83935 0.51659 0.71792 -0.62798 0.30027 0.70684 -0.69839 0.11222 0.60393 -0.74880 0.27299 0.70684 -0.69839 0.11222 0.71792 -0.62798 0.30027 0.70879 -0.51537 0.48164 0.55623 -0.70357 0.44215 0.80139 -0.51885 0.29756 0.80139 -0.51885 0.29756 0.79580 -0.38972 0.46345 0.70879 -0.51537 0.48164 0.70879 -0.51537 0.48164 0.79580 -0.38972 0.46345 0.45045 -0.47676 0.75478 0.70952 -0.24030 0.66240 0.45045 -0.47676 0.75478 0.79580 -0.38972 0.46345 0.70952 -0.24030 0.66240 0.79580 -0.38972 0.46345 0.80120 -0.21384 0.55885 0.55702 -0.11405 0.82260 0.70952 -0.24030 0.66240 0.80120 -0.21384 0.55885 0.32636 -0.58840 0.73974 0.80120 -0.21384 0.55885 0.46043 -0.43812 0.77203 0.32636 -0.58840 0.73974 0.55702 -0.11405 0.82260 0.80120 -0.21384 0.55885 0.71792 -0.62798 0.30027 0.80139 -0.51885 0.29756 0.60393 -0.74880 0.27299 0.60393 -0.74880 0.27299 0.80139 -0.51885 0.29756 0.55623 -0.70357 0.44215 0.86102 0.38160 0.33613 0.78219 -0.39726 0.47990 0.89520 0.34324 -0.28416 0.86102 0.38160 0.33613 0.71355 0.04785 0.69893 0.78219 -0.39726 0.47990 0.71355 0.04785 0.69893 0.32121 -0.31004 0.89480 0.78219 -0.39726 0.47990 0.86102 0.38160 0.33613 0.32121 0.42610 0.84573 0.71355 0.04785 0.69893 0.89520 0.34324 -0.28416 0.71355 0.69893 -0.04785 0.86102 0.38160 0.33613 0.89520 0.34324 -0.28416 0.32121 0.84573 -0.42610 0.71355 0.69893 -0.04785 0.71355 0.69893 -0.04785 0.32121 0.89480 0.31001 0.86102 0.38160 0.33613 0.70846 -0.65252 0.26881 0.19605 -0.41932 0.88638 0.77581 -0.39311 0.49351 0.70846 -0.65252 0.26881 0.77581 -0.39311 0.49351 0.70849 -0.66744 0.22926 0.70846 -0.59111 0.38548 0.70846 -0.65252 0.26881 0.70849 -0.66744 0.22926 0.70849 -0.66744 0.22926 0.70867 -0.61693 0.34227 0.70846 -0.59111 0.38548 0.70846 -0.50929 0.48854 0.70846 -0.59111 0.38548 0.70867 -0.61693 0.34227 0.70846 -0.50929 0.48854 0.70867 -0.61693 0.34227 0.70852 -0.54524 0.44795 0.70846 -0.40977 0.57457 0.70846 -0.50929 0.48854 0.70852 -0.54524 0.44795 0.70846 -0.40977 0.57457 0.70852 -0.54524 0.44795 0.70833 -0.45250 0.54173 0.70846 -0.29618 0.64055 0.70846 -0.40977 0.57457 0.70833 -0.45250 0.54173 0.70846 -0.29618 0.64055 0.70833 -0.45250 0.54173 0.83367 -0.26115 0.48659 0.70846 -0.17197 0.68444 0.70846 -0.29618 0.64055 0.83367 -0.26115 0.48659 0.70846 -0.17197 0.68444 0.83367 -0.26115 0.48659 0.71056 -0.26368 0.65230 0.70846 -0.04154 0.70449 0.70846 -0.17197 0.68444 0.71056 -0.26368 0.65230 0.70846 -0.04154 0.70449 0.71056 -0.26368 0.65230 0.70949 -0.13309 0.69201 0.38749 -0.54732 0.74178 0.70846 -0.04154 0.70449 0.70949 -0.13309 0.69201 0.70949 -0.13309 0.69201 0.33406 -0.27503 0.90152 0.38749 -0.54732 0.74178 0.53484 -0.78335 0.31666 0.19675 -0.42103 0.88543 0.77691 -0.39518 0.49010 0.53484 -0.78335 0.31666 0.77691 -0.39518 0.49010 0.70846 -0.66802 0.22755 0.97949 -0.20090 -0.01352 0.53484 -0.78335 0.31666 0.70846 -0.66802 0.22755 0.70846 -0.66802 0.22755 0.55617 -0.72311 0.40956 0.97949 -0.20090 -0.01352 1.00000 0.00000 0.00000 0.97949 -0.20090 -0.01352 0.70846 -0.53871 0.45585 0.97949 -0.20090 -0.01352 0.55617 -0.72311 0.40956 0.70846 -0.53871 0.45585 0.70846 -0.44481 0.54790 1.00000 0.00000 0.00000 0.70846 -0.53871 0.45585 1.00000 0.00000 0.00000 0.70846 -0.44481 0.54790 0.97415 -0.03473 0.22309 0.97415 -0.03473 0.22309 0.70846 -0.44481 0.54790 0.70846 -0.33546 0.62090 0.46330 -0.33128 0.82192 0.97415 -0.03473 0.22309 0.70846 -0.33546 0.62090 0.46330 -0.33128 0.82192 0.70846 -0.33546 0.62090 0.70846 -0.21442 0.67235 0.70827 -0.12470 0.69478 0.46330 -0.33128 0.82192 0.70846 -0.21442 0.67235 0.70827 -0.12470 0.69478 0.70846 -0.21442 0.67235 0.70846 -0.08554 0.70049 0.70830 -0.00217 0.70589 0.70827 -0.12470 0.69478 0.70846 -0.08554 0.70049 0.70830 -0.00217 0.70589 0.70846 -0.08554 0.70049 0.58174 -0.20365 0.78744 0.25816 -0.53343 0.80544 0.70830 -0.00217 0.70589 0.58174 -0.20365 0.78744 -0.55470 -0.83203 0.00009 -0.72668 -0.65419 0.20957 -0.20695 -0.79199 0.57433 -0.55470 -0.83203 0.00009 -0.71047 -0.69552 0.10700 -0.72668 -0.65419 0.20957 -0.71047 -0.69552 0.10700 -0.70861 -0.69002 0.14725 -0.72668 -0.65419 0.20957 -0.47264 -0.83251 0.28898 -0.70885 -0.64483 0.28574 -0.70861 -0.69002 0.14725 -0.70861 -0.69002 0.14725 -0.71047 -0.69552 0.10700 -0.47264 -0.83251 0.28898 -0.47264 -0.83251 0.28898 -0.98672 -0.16086 0.02164 -0.70885 -0.64483 0.28574 -0.98672 -0.16086 0.02164 -0.55669 -0.66991 0.49116 -0.70885 -0.64483 0.28574 -0.84698 -0.22712 0.48061 -0.55599 -0.05106 0.82958 -0.21317 -0.42872 0.87790 -0.70827 -0.16486 0.68636 -0.55599 -0.05106 0.82958 -0.84698 -0.22712 0.48061 -0.70827 -0.16486 0.68636 -0.84698 -0.22712 0.48061 -0.70898 -0.11948 0.69500 -0.61727 -0.30598 0.72478 -0.70827 -0.16486 0.68636 -0.70898 -0.11948 0.69500 -0.70898 -0.11948 0.69500 -0.70894 -0.26725 0.65261 -0.61727 -0.30598 0.72478 -0.70894 -0.26725 0.65261 -0.97943 0.01221 0.20133 -0.61727 -0.30598 0.72478 -0.55641 -0.46986 0.68526 -0.97943 0.01221 0.20133 -0.70894 -0.26725 0.65261 -0.97943 0.01221 0.20133 -0.70775 -0.49617 0.50282 -0.98672 -0.16086 0.02164 -0.98672 -0.16086 0.02164 -0.70775 -0.49617 0.50282 -0.55669 -0.66991 0.49116 -0.70775 -0.49617 0.50282 -0.97943 0.01221 0.20133 -0.55641 -0.46986 0.68526 0.16837 -0.85116 0.49712 0.70849 -0.66744 0.22926 0.77581 -0.39311 0.49351 0.16837 -0.85116 0.49712 0.60393 -0.74880 0.27299 0.70849 -0.66744 0.22926 0.60393 -0.74880 0.27299 0.70867 -0.61693 0.34227 0.70849 -0.66744 0.22926 0.60393 -0.74880 0.27299 0.55623 -0.70357 0.44215 0.70867 -0.61693 0.34227 0.55623 -0.70357 0.44215 0.70852 -0.54524 0.44795 0.70867 -0.61693 0.34227 0.55623 -0.70357 0.44215 0.70879 -0.51537 0.48164 0.70852 -0.54524 0.44795 0.70879 -0.51537 0.48164 0.70833 -0.45250 0.54173 0.70852 -0.54524 0.44795 0.70879 -0.51537 0.48164 0.45045 -0.47676 0.75478 0.70833 -0.45250 0.54173 0.45045 -0.47676 0.75478 0.83367 -0.26115 0.48659 0.70833 -0.45250 0.54173 0.71056 -0.26368 0.65230 0.83367 -0.26115 0.48659 0.45045 -0.47676 0.75478 0.71056 -0.26368 0.65230 0.45045 -0.47676 0.75478 0.70952 -0.24030 0.66240 0.70949 -0.13309 0.69201 0.71056 -0.26368 0.65230 0.70952 -0.24030 0.66240 0.70949 -0.13309 0.69201 0.70952 -0.24030 0.66240 0.55702 -0.11405 0.82260 0.33406 -0.27503 0.90152 0.70949 -0.13309 0.69201 0.55702 -0.11405 0.82260 0.33406 -0.27503 0.90152 0.55702 -0.11405 0.82260 0.32636 -0.58840 0.73974 0.70846 -0.66802 0.22755 0.77691 -0.39518 0.49010 0.19605 -0.41932 0.88638 0.70846 -0.66802 0.22755 0.19605 -0.41932 0.88638 0.70846 -0.65252 0.26881 0.70846 -0.65252 0.26881 0.55617 -0.72311 0.40956 0.70846 -0.66802 0.22755 0.70846 -0.65252 0.26881 0.70846 -0.59111 0.38548 0.55617 -0.72311 0.40956 0.70846 -0.59111 0.38548 0.70846 -0.53871 0.45585 0.55617 -0.72311 0.40956 0.70846 -0.59111 0.38548 0.70846 -0.50929 0.48854 0.70846 -0.53871 0.45585 0.70846 -0.50929 0.48854 0.70846 -0.44481 0.54790 0.70846 -0.53871 0.45585 0.70846 -0.50929 0.48854 0.70846 -0.40977 0.57457 0.70846 -0.44481 0.54790 0.70846 -0.40977 0.57457 0.70846 -0.29618 0.64055 0.70846 -0.33546 0.62090 0.70846 -0.33546 0.62090 0.70846 -0.44481 0.54790 0.70846 -0.40977 0.57457 0.70846 -0.29618 0.64055 0.70846 -0.17197 0.68444 0.70846 -0.21442 0.67235 0.70846 -0.21442 0.67235 0.70846 -0.33546 0.62090 0.70846 -0.29618 0.64055 0.70846 -0.17197 0.68444 0.70846 -0.04154 0.70449 0.70846 -0.08554 0.70049 0.70846 -0.08554 0.70049 0.70846 -0.21442 0.67235 0.70846 -0.17197 0.68444 0.70846 -0.04154 0.70449 0.38749 -0.54732 0.74178 0.58174 -0.20365 0.78744 0.58174 -0.20365 0.78744 0.70846 -0.08554 0.70049 0.70846 -0.04154 0.70449 0.19675 -0.42103 0.88543 -0.29243 -0.84283 0.45177 -0.72524 0.65850 -0.20093 0.77691 -0.39518 0.49010 0.19675 -0.42103 0.88543 0.19605 -0.41932 0.88638 0.77581 -0.39311 0.49351 0.19605 -0.41932 0.88638 0.16837 -0.85116 0.49712 0.35011 0.80694 -0.47560 0.16837 -0.85116 0.49712 0.19605 -0.41932 0.88638 0.35011 0.80694 -0.47560 0.19605 -0.41932 0.88638 0.19675 -0.42103 0.88543 -0.72524 0.65850 -0.20093 0.35011 0.80694 -0.47560 0.19675 -0.42103 0.88543 -0.73571 -0.66124 0.14631 -0.80111 -0.39592 0.44881 -0.85836 0.40522 -0.31455 -0.73571 -0.66124 0.14631 -0.85836 0.40522 -0.31455 -0.72524 0.65850 -0.20093 -0.56041 -0.82720 0.04050 -0.73571 -0.66124 0.14631 -0.72524 0.65850 -0.20093 -0.29243 -0.84283 0.45177 -0.56041 -0.82720 0.04050 -0.72524 0.65850 -0.20093 -0.86102 0.33613 0.38160 -0.85836 0.40522 -0.31455 -0.80111 -0.39592 0.44881 -0.86102 0.33613 0.38160 -0.80111 -0.39592 0.44881 -0.71355 -0.04785 0.69893 -0.71355 -0.04785 0.69893 -0.80111 -0.39592 0.44881 -0.32121 -0.42610 0.84573 -0.86102 0.33613 0.38160 -0.71355 -0.04785 0.69893 -0.32121 0.31004 0.89480 -0.85836 0.40522 -0.31455 -0.71355 0.69893 0.04785 -0.32121 0.89480 -0.31001 -0.71355 0.69893 0.04785 -0.86102 0.33613 0.38160 -0.32121 0.84573 0.42610 -0.86102 0.33613 0.38160 -0.71355 0.69893 0.04785 -0.85836 0.40522 -0.31455 1.00000 0.00000 0.00000 0.68673 0.40819 -0.60146 0.97949 -0.20090 -0.01352 0.97415 -0.03473 0.22309 0.67809 0.63182 -0.37541 1.00000 0.00000 0.00000 -0.98672 -0.16086 0.02164 -0.67809 0.37541 -0.63182 -0.82058 0.47288 -0.32090 -0.98672 -0.16086 0.02164 -0.82058 0.47288 -0.32090 -0.97943 0.01221 0.20133 0.67809 0.63182 -0.37541 0.61794 0.08521 0.78158 0.49229 0.86911 0.04736 0.49229 0.86911 0.04736 0.19040 0.29402 0.93661 0.09101 0.99576 -0.01279 0.61794 0.08521 0.78158 0.67809 0.63182 -0.37541 0.97415 -0.03473 0.22309 0.19040 0.29402 0.93661 0.49229 0.86911 0.04736 0.61794 0.08521 0.78158 0.09101 0.99576 -0.01279 -0.08078 0.17490 0.98126 -0.21555 0.96216 0.16663 -0.08078 0.17490 0.98126 0.09101 0.99576 -0.01279 0.19040 0.29402 0.93661 -0.46699 0.18216 0.86526 -0.21555 0.96216 0.16663 -0.08078 0.17490 0.98126 -0.64898 0.75808 -0.06397 -0.21555 0.96216 0.16663 -0.46699 0.18216 0.86526 -0.64898 0.75808 -0.06397 -0.46699 0.18216 0.86526 -0.97943 0.01221 0.20133 -0.97943 0.01221 0.20133 -0.82058 0.47288 -0.32090 -0.64898 0.75808 -0.06397 0.64901 0.06397 -0.75805 0.97949 -0.20090 -0.01352 0.68673 0.40819 -0.60146 0.64901 0.06397 -0.75805 0.47151 -0.86206 -0.18571 0.97949 -0.20090 -0.01352 0.18256 0.02680 -0.98282 0.47151 -0.86206 -0.18571 0.64901 0.06397 -0.75805 0.47151 -0.86206 -0.18571 0.18256 0.02680 -0.98282 0.09705 -0.94635 -0.30818 0.09705 -0.94635 -0.30818 0.18256 0.02680 -0.98282 -0.09101 0.01282 -0.99576 -0.09101 0.01282 -0.99576 -0.16138 -0.97125 -0.17493 0.09705 -0.94635 -0.30818 -0.16138 -0.97125 -0.17493 -0.09101 0.01282 -0.99576 -0.49232 -0.04736 -0.86911 -0.49232 -0.04736 -0.86911 -0.62636 -0.77358 -0.09586 -0.16138 -0.97125 -0.17493 -0.62636 -0.77358 -0.09586 -0.49232 -0.04736 -0.86911 -0.67809 0.37541 -0.63182 -0.98672 -0.16086 0.02164 -0.62636 -0.77358 -0.09586 -0.67809 0.37541 -0.63182 -0.21317 -0.42872 0.87790 0.70830 -0.00217 0.70589 0.25816 -0.53343 0.80544 -0.21317 -0.42872 0.87790 -0.55599 -0.05106 0.82958 0.70830 -0.00217 0.70589 -0.55599 -0.05106 0.82958 0.70827 -0.12470 0.69478 0.70830 -0.00217 0.70589 -0.55599 -0.05106 0.82958 -0.70827 -0.16486 0.68636 0.70827 -0.12470 0.69478 -0.70827 -0.16486 0.68636 0.46330 -0.33128 0.82192 0.70827 -0.12470 0.69478 -0.70827 -0.16486 0.68636 -0.61727 -0.30598 0.72478 0.46330 -0.33128 0.82192 0.61794 0.08521 0.78158 0.97415 -0.03473 0.22309 0.46330 -0.33128 0.82192 0.19040 0.29402 0.93661 0.61794 0.08521 0.78158 0.46330 -0.33128 0.82192 -0.61727 -0.30598 0.72478 -0.97943 0.01221 0.20133 -0.46699 0.18216 0.86526 -0.61727 -0.30598 0.72478 -0.46699 0.18216 0.86526 -0.08078 0.17490 0.98126 -0.08078 0.17490 0.98126 0.19040 0.29402 0.93661 0.46330 -0.33128 0.82192 -0.08078 0.17490 0.98126 0.46330 -0.33128 0.82192 -0.61727 -0.30598 0.72478 -0.73571 -0.66124 0.14631 -0.55470 -0.83203 0.00009 -0.20695 -0.79199 0.57433 -0.73571 -0.66124 0.14631 -0.56041 -0.82720 0.04050 -0.55470 -0.83203 0.00009 -0.55470 -0.83203 0.00009 -0.56041 -0.82720 0.04050 -0.71047 -0.69552 0.10700 -0.56041 -0.82720 0.04050 -0.29243 -0.84283 0.45177 -0.71047 -0.69552 0.10700 -0.47264 -0.83251 0.28898 -0.62636 -0.77358 -0.09586 -0.98672 -0.16086 0.02164 -0.47264 -0.83251 0.28898 -0.16138 -0.97125 -0.17493 -0.62636 -0.77358 -0.09586 -0.47264 -0.83251 0.28898 -0.71047 -0.69552 0.10700 -0.29243 -0.84283 0.45177 0.53484 -0.78335 0.31666 0.09705 -0.94635 -0.30818 -0.16138 -0.97125 -0.17493 0.53484 -0.78335 0.31666 -0.16138 -0.97125 -0.17493 -0.47264 -0.83251 0.28898 0.47151 -0.86206 -0.18571 0.09705 -0.94635 -0.30818 0.53484 -0.78335 0.31666 0.97949 -0.20090 -0.01352 0.47151 -0.86206 -0.18571 0.53484 -0.78335 0.31666 0.19675 -0.42103 0.88543 -0.47264 -0.83251 0.28898 -0.29243 -0.84283 0.45177 0.19675 -0.42103 0.88543 0.53484 -0.78335 0.31666 -0.47264 -0.83251 0.28898 0.47017 -0.37223 0.80023 -0.70898 -0.11948 0.69500 -0.84698 -0.22712 0.48061 0.55644 -0.19373 0.80795 -0.70898 -0.11948 0.69500 0.47017 -0.37223 0.80023 -0.70894 -0.26725 0.65261 -0.70898 -0.11948 0.69500 0.55644 -0.19373 0.80795 0.55644 -0.19373 0.80795 0.55394 -0.37068 0.74545 -0.70894 -0.26725 0.65261 -0.55641 -0.46986 0.68526 -0.70894 -0.26725 0.65261 0.55394 -0.37068 0.74545 -0.55641 -0.46986 0.68526 0.55394 -0.37068 0.74545 0.55171 -0.51677 0.65462 -0.70775 -0.49617 0.50282 -0.55641 -0.46986 0.68526 0.55171 -0.51677 0.65462 -0.70775 -0.49617 0.50282 0.55171 -0.51677 0.65462 0.69848 -0.52397 0.48738 -0.55669 -0.66991 0.49116 -0.70775 -0.49617 0.50282 0.69848 -0.52397 0.48738 -0.55669 -0.66991 0.49116 0.69848 -0.52397 0.48738 0.55226 -0.70598 0.44331 -0.70885 -0.64483 0.28574 -0.55669 -0.66991 0.49116 0.55226 -0.70598 0.44331 -0.70885 -0.64483 0.28574 0.55226 -0.70598 0.44331 0.55367 -0.78320 0.28285 -0.70861 -0.69002 0.14725 -0.70885 -0.64483 0.28574 0.55367 -0.78320 0.28285 -0.70861 -0.69002 0.14725 0.55367 -0.78320 0.28285 0.55495 -0.82434 0.11173 -0.72668 -0.65419 0.20957 -0.70861 -0.69002 0.14725 0.55495 -0.82434 0.11173 -0.72668 -0.65419 0.20957 0.55495 -0.82434 0.11173 0.57787 -0.69805 0.42274 0.71792 -0.62798 0.30027 -0.56557 -0.67153 0.47868 -0.55965 -0.76562 0.31718 0.80139 -0.51885 0.29756 0.71792 -0.62798 0.30027 -0.55965 -0.76562 0.31718 0.80139 -0.51885 0.29756 -0.55965 -0.76562 0.31718 -0.71776 -0.51219 0.47163 0.80139 -0.51885 0.29756 -0.71776 -0.51219 0.47163 0.79580 -0.38972 0.46345 -0.71776 -0.51219 0.47163 -0.56624 -0.38884 0.72674 0.79580 -0.38972 0.46345 0.46043 -0.43812 0.77203 0.80120 -0.21384 0.55885 -0.45521 -0.44627 0.77044 -0.45521 -0.44627 0.77044 0.80120 -0.21384 0.55885 -0.56624 -0.38884 0.72674 -0.56624 -0.38884 0.72674 0.80120 -0.21384 0.55885 0.79580 -0.38972 0.46345 0.08194 -0.98791 0.13144 -0.11493 -0.99310 0.02179 -0.26463 -0.96304 0.05011 -0.26463 -0.96304 0.05011 0.24448 -0.96133 -0.12659 0.08194 -0.98791 0.13144 0.54543 -0.37587 -0.74914 -0.31797 -0.05081 -0.94671 -0.53450 -0.49904 -0.68206 0.54543 -0.37587 -0.74914 0.31822 -0.12751 -0.93939 -0.31797 -0.05081 -0.94671 0.31822 -0.12751 -0.93939 -0.70928 -0.20490 -0.67446 -0.31797 -0.05081 -0.94671 0.31822 -0.12751 -0.93939 0.70940 -0.25819 -0.65578 -0.70928 -0.20490 -0.67446 0.70940 -0.25819 -0.65578 0.31788 -0.53807 -0.78063 -0.31767 -0.47841 -0.81863 -0.31767 -0.47841 -0.81863 -0.70928 -0.20490 -0.67446 0.70940 -0.25819 -0.65578 0.31788 -0.53807 -0.78063 0.85861 -0.37422 -0.35029 -0.85858 -0.34864 -0.37580 -0.85858 -0.34864 -0.37580 -0.31767 -0.47841 -0.81863 0.31788 -0.53807 -0.78063 0.85861 -0.37422 -0.35029 0.31770 -0.81341 -0.48723 -0.31761 -0.77660 -0.54402 0.31770 -0.81341 -0.48723 0.70910 -0.66970 -0.22059 -0.70907 -0.65117 -0.27042 -0.70907 -0.65117 -0.27042 -0.31761 -0.77660 -0.54402 0.31770 -0.81341 -0.48723 0.85861 -0.37422 -0.35029 -0.31761 -0.77660 -0.54402 -0.85858 -0.34864 -0.37580 0.70910 -0.66970 -0.22059 -0.44960 -0.88592 -0.11386 -0.70907 -0.65117 -0.27042 0.70910 -0.66970 -0.22059 0.55696 -0.82720 -0.07392 -0.44960 -0.88592 -0.11386 0.23222 -0.28098 -0.93118 0.23444 -0.94824 -0.21412 0.55696 -0.82720 -0.07392 -0.44960 -0.88592 -0.11386 0.55696 -0.82720 -0.07392 0.23444 -0.94824 -0.21412 -0.44960 -0.88592 -0.11386 0.23444 -0.94824 -0.21412 -0.23240 -0.28098 -0.93112 -0.90613 -0.17200 -0.38639 -0.23240 -0.28098 -0.93112 -0.17438 -0.51140 -0.84143 -0.17438 -0.51140 -0.84143 -0.23240 -0.28098 -0.93112 -0.57472 0.78268 0.23884 -0.57472 0.78268 0.23884 -0.23240 -0.28098 -0.93112 0.82943 0.55754 0.03427 0.23444 -0.94824 -0.21412 0.82943 0.55754 0.03427 -0.23240 -0.28098 -0.93112</float_array>
					<technique_common>
						<accessor count="1554" source="#ShapeIndexedFaceS_014-Normals-array" stride="3">
							<param type="float" name="X"></param>
							<param type="float" name="Y"></param>
							<param type="float" name="Z"></param>
						</accessor>
					</technique_common>
				</source>
				<vertices id="ShapeIndexedFaceS_014-Vertex">
					<input semantic="POSITION" source="#ShapeIndexedFaceS_014-Position"/>
				</vertices>
				<triangles count="518" material="Material_012">
					<input offset="0" semantic="VERTEX" source="#ShapeIndexedFaceS_014-Vertex"/>
					<input offset="1" semantic="NORMAL" source="#ShapeIndexedFaceS_014-Normals"/>
					<p>1 0 0 1 2 2 2 3 0 4 3 5 6 6 5 7 4 8 9 9 8 10 7 11 8 12 9 13 10 14 9 15 11 16 10 17 10 18 11 19 12 20 11 21 14 22 13 23 13 24 12 25 11 26 13 27 15 28 12 29 13 30 16 31 15 32 19 33 18 34 17 35 19 36 20 37 18 38 19 39 17 40 6 41 6 42 17 43 21 44 24 45 23 46 22 47 24 48 22 49 25 50 27 51 22 52 26 53 22 54 27 55 25 56 27 57 28 58 25 59 25 60 28 61 29 62 30 63 29 64 28 65 29 66 30 67 31 68 30 69 12 70 31 71 10 72 12 73 30 74 23 75 33 76 32 77 22 78 23 79 32 80 32 81 33 82 34 83 36 84 35 85 32 86 32 87 37 88 36 89 36 90 37 91 38 92 32 93 34 94 37 95 41 96 40 97 39 98 39 99 29 100 41 101 41 102 29 103 31 104 41 105 43 106 42 107 31 108 43 109 41 110 45 111 44 112 43 113 31 114 45 115 43 116 31 117 46 118 45 119 31 120 47 121 46 122 47 123 48 124 46 125 51 126 50 127 49 128 49 129 52 130 51 131 49 132 50 133 53 134 53 135 54 136 49 137 4 138 55 139 49 140 54 141 4 142 49 143 4 144 54 145 56 146 56 147 57 148 4 149 50 150 58 151 53 152 58 153 59 154 53 155 36 156 38 157 60 158 60 159 62 160 61 161 62 162 63 163 61 164 60 165 61 166 64 167 61 168 65 169 64 170 52 171 65 172 61 173 67 174 52 175 66 176 67 177 68 178 52 179 61 180 66 181 52 182 69 183 66 184 61 185 51 186 52 187 68 188 68 189 70 190 51 191 51 192 72 193 71 194 72 195 73 196 71 197 71 198 73 199 74 200 75 201 71 202 74 203 75 204 76 205 71 206 77 207 69 208 61 209 78 210 77 211 61 212 75 213 74 214 78 215 75 216 78 217 61 218 81 219 80 220 79 221 79 222 82 223 81 224 81 225 84 226 83 227 82 228 84 229 81 230 80 231 81 232 85 233 88 234 87 235 86 236 86 237 87 238 89 239 89 240 87 241 90 242 87 243 91 244 90 245 93 246 85 247 92 248 81 249 92 250 85 251 51 252 95 253 94 254 51 255 70 256 95 257 72 258 51 259 94 260 79 261 96 262 82 263 79 264 97 265 96 266 97 267 98 268 96 269 97 270 99 271 98 272 99 273 100 274 98 275 99 276 101 277 100 278 101 279 102 280 100 281 101 282 103 283 102 284 103 285 104 286 102 287 103 288 105 289 104 290 105 291 106 292 104 293 105 294 107 295 106 296 107 297 108 298 106 299 107 300 109 301 108 302 109 303 62 304 108 305 109 306 63 307 62 308 89 309 110 310 86 311 89 312 111 313 110 314 111 315 112 316 110 317 111 318 113 319 112 320 113 321 114 322 112 323 113 324 115 325 114 326 115 327 116 328 114 329 115 330 117 331 116 332 117 333 118 334 116 335 117 336 119 337 118 338 119 339 120 340 118 341 119 342 121 343 120 344 121 345 122 346 120 347 121 348 123 349 122 350 123 351 76 352 122 353 123 354 71 355 76 356 56 357 124 358 57 359 56 360 125 361 124 362 125 363 126 364 124 365 125 366 127 367 126 368 127 369 128 370 126 371 127 372 129 373 128 374 129 375 130 376 128 377 129 378 131 379 130 380 131 381 132 382 130 383 131 384 133 385 132 386 133 387 134 388 132 389 133 390 135 391 134 392 135 393 136 394 134 395 135 396 137 397 136 398 137 399 20 400 136 401 137 402 18 403 20 404 58 405 138 406 59 407 58 408 139 409 138 410 139 411 140 412 138 413 139 414 141 415 140 416 141 417 142 418 140 419 141 420 143 421 142 422 143 423 144 424 142 425 143 426 145 427 144 428 145 429 146 430 144 431 145 432 147 433 146 434 147 435 148 436 146 437 147 438 149 439 148 440 149 441 150 442 148 443 149 444 151 445 150 446 151 447 16 448 150 449 151 450 15 451 16 452 152 453 33 454 23 455 152 456 153 457 33 458 153 459 154 460 33 461 152 462 155 463 153 464 23 465 156 466 152 467 23 468 157 469 156 470 156 471 158 472 152 473 33 474 159 475 34 476 33 477 154 478 159 479 154 480 160 481 159 482 154 483 153 484 160 485 153 486 161 487 160 488 153 489 155 490 161 491 155 492 162 493 161 494 155 495 152 496 162 497 152 498 163 499 162 500 152 501 158 502 163 503 158 504 164 505 163 506 158 507 156 508 164 509 156 510 165 511 164 512 156 513 157 514 165 515 157 516 24 517 165 518 157 519 23 520 24 521 166 522 10 523 30 524 2 525 10 526 166 527 3 528 10 529 2 530 8 531 10 532 3 533 27 534 1 535 167 536 27 537 167 538 28 539 1 540 27 541 26 542 26 543 0 544 1 545 3 546 0 547 168 548 168 549 169 550 3 551 168 552 26 553 35 554 168 555 0 556 26 557 8 558 3 559 169 560 55 561 8 562 169 563 5 564 55 565 4 566 8 567 55 568 5 569 8 570 5 571 7 572 22 573 32 574 35 575 22 576 35 577 26 578 166 579 167 580 1 581 1 582 2 583 166 584 170 585 9 586 7 587 170 588 171 589 9 590 9 591 171 592 172 593 170 594 173 595 171 596 7 597 174 598 170 599 7 600 175 601 174 602 174 603 176 604 170 605 7 606 5 607 175 608 177 609 14 610 11 611 177 612 11 613 178 614 11 615 179 616 178 617 177 618 178 619 180 620 14 621 182 622 181 623 182 624 177 625 183 626 14 627 181 628 184 629 177 630 182 631 14 632 4 633 19 634 6 635 4 636 20 637 19 638 4 639 57 640 20 641 130 642 20 643 57 644 130 645 57 646 126 647 126 648 57 649 124 650 130 651 126 652 128 653 20 654 134 655 136 656 134 657 130 658 132 659 130 660 134 661 20 662 13 663 53 664 16 665 53 666 59 667 16 668 144 669 16 670 59 671 144 672 59 673 140 674 140 675 59 676 138 677 144 678 140 679 142 680 16 681 148 682 150 683 148 684 144 685 146 686 144 687 148 688 16 689 18 690 56 691 54 692 18 693 54 694 17 695 54 696 21 697 17 698 131 699 56 700 18 701 131 702 127 703 56 704 127 705 125 706 56 707 131 708 129 709 127 710 18 711 135 712 131 713 18 714 137 715 135 716 135 717 133 718 131 719 25 720 37 721 24 722 37 723 34 724 24 725 38 726 37 727 25 728 60 729 38 730 25 731 60 732 25 733 29 734 29 735 39 736 60 737 185 738 62 739 60 740 186 741 60 742 39 743 186 744 185 745 60 746 185 747 187 748 62 749 187 750 84 751 62 752 84 753 82 754 62 755 102 756 62 757 82 758 102 759 82 760 98 761 98 762 82 763 96 764 102 765 98 766 100 767 62 768 106 769 108 770 106 771 102 772 104 773 102 774 106 775 62 776 162 777 24 778 34 779 162 780 34 781 160 782 160 783 34 784 159 785 162 786 160 787 161 788 24 789 164 790 165 791 164 792 162 793 163 794 162 795 164 796 24 797 12 798 51 799 31 800 12 801 50 802 51 803 50 804 12 805 15 806 15 807 58 808 50 809 89 810 90 811 71 812 47 813 31 814 51 815 188 816 47 817 51 818 51 819 189 820 188 821 190 822 189 823 51 824 191 825 190 826 51 827 71 828 191 829 51 830 71 831 192 832 191 833 71 834 193 835 192 836 71 837 194 838 193 839 90 840 194 841 71 842 117 843 89 844 71 845 117 846 113 847 89 848 113 849 111 850 89 851 117 852 115 853 113 854 71 855 121 856 117 857 71 858 123 859 121 860 121 861 119 862 117 863 145 864 58 865 15 866 145 867 141 868 58 869 141 870 139 871 58 872 145 873 143 874 141 875 15 876 149 877 145 878 15 879 151 880 149 881 149 882 147 883 145 884 65 885 49 886 169 887 49 888 55 889 169 890 49 891 65 892 52 893 36 894 60 895 64 896 168 897 36 898 64 899 168 900 35 901 36 902 169 903 168 904 65 905 168 906 64 907 65 908 80 909 85 910 61 911 79 912 80 913 61 914 61 915 63 916 79 917 81 918 83 919 92 920 93 921 92 922 83 923 197 924 196 925 195 926 195 927 198 928 197 929 197 930 198 931 199 932 200 933 199 934 198 935 200 936 198 937 201 938 202 939 200 940 201 941 41 942 201 943 40 944 41 945 202 946 201 947 83 948 195 949 93 950 93 951 195 952 196 953 103 954 79 955 63 956 103 957 99 958 79 959 99 960 97 961 79 962 103 963 101 964 99 965 63 966 107 967 103 968 63 969 109 970 107 971 107 972 105 973 103 974 205 975 204 976 203 977 205 978 203 979 206 980 207 981 205 982 206 983 206 984 208 985 207 986 209 987 207 988 208 989 209 990 208 991 210 992 211 993 209 994 210 995 211 996 210 997 212 998 213 999 211 1000 212 1001 213 1002 212 1003 214 1004 215 1005 213 1006 214 1007 215 1008 214 1009 216 1010 217 1011 215 1012 216 1013 217 1014 216 1015 218 1016 43 1017 217 1018 218 1019 218 1020 42 1021 43 1022 221 1023 220 1024 219 1025 221 1026 219 1027 222 1028 223 1029 221 1030 222 1031 222 1032 224 1033 223 1034 226 1035 223 1036 225 1037 223 1038 224 1039 225 1040 227 1041 226 1042 225 1043 226 1044 227 1045 228 1046 228 1047 227 1048 229 1049 230 1050 228 1051 229 1052 230 1053 229 1054 231 1055 232 1056 230 1057 231 1058 232 1059 231 1060 233 1061 234 1062 232 1063 233 1064 234 1065 233 1066 44 1067 45 1068 234 1069 44 1070 235 1071 91 1072 87 1073 235 1074 236 1075 91 1076 236 1077 237 1078 91 1079 239 1080 238 1081 237 1082 237 1083 236 1084 239 1085 239 1086 240 1087 238 1088 240 1089 241 1090 238 1091 48 1092 242 1093 46 1094 243 1095 242 1096 48 1097 243 1098 48 1099 244 1100 245 1101 243 1102 244 1103 244 1104 246 1105 245 1106 246 1107 247 1108 245 1109 248 1110 247 1111 246 1112 247 1113 249 1114 240 1115 240 1116 249 1117 241 1118 249 1119 247 1120 248 1121 85 1122 206 1123 203 1124 85 1125 93 1126 206 1127 93 1128 208 1129 206 1130 93 1131 196 1132 208 1133 196 1134 210 1135 208 1136 196 1137 197 1138 210 1139 197 1140 212 1141 210 1142 197 1143 199 1144 212 1145 199 1146 214 1147 212 1148 216 1149 214 1150 199 1151 216 1152 199 1153 200 1154 218 1155 216 1156 200 1157 218 1158 200 1159 202 1160 42 1161 218 1162 202 1163 42 1164 202 1165 41 1166 222 1167 219 1168 204 1169 222 1170 204 1171 205 1172 205 1173 224 1174 222 1175 205 1176 207 1177 224 1178 207 1179 225 1180 224 1181 207 1182 209 1183 225 1184 209 1185 227 1186 225 1187 209 1188 211 1189 227 1190 211 1191 213 1192 229 1193 229 1194 227 1195 211 1196 213 1197 215 1198 231 1199 231 1200 229 1201 213 1202 215 1203 217 1204 233 1205 233 1206 231 1207 215 1208 217 1209 43 1210 44 1211 44 1212 233 1213 217 1214 220 1215 250 1216 75 1217 219 1218 220 1219 204 1220 203 1221 204 1222 85 1223 61 1224 85 1225 204 1226 61 1227 204 1228 220 1229 75 1230 61 1231 220 1232 88 1233 86 1234 76 1235 88 1236 76 1237 75 1238 251 1239 88 1240 75 1241 250 1242 251 1243 75 1244 116 1245 76 1246 86 1247 116 1248 86 1249 112 1250 112 1251 86 1252 110 1253 116 1254 112 1255 114 1256 76 1257 120 1258 122 1259 120 1260 116 1261 118 1262 116 1263 120 1264 76 1265 226 1266 69 1267 223 1268 228 1269 66 1270 226 1271 240 1272 72 1273 94 1274 240 1275 94 1276 247 1277 66 1278 252 1279 67 1280 67 1281 253 1282 68 1283 252 1284 66 1285 228 1286 253 1287 67 1288 252 1289 68 1290 254 1291 70 1292 254 1293 68 1294 253 1295 255 1296 70 1297 254 1298 95 1299 70 1300 255 1301 95 1302 255 1303 247 1304 247 1305 94 1306 95 1307 77 1308 223 1309 69 1310 77 1311 256 1312 223 1313 78 1314 256 1315 77 1316 256 1317 78 1318 257 1319 257 1320 78 1321 74 1322 74 1323 258 1324 257 1325 258 1326 74 1327 73 1328 73 1329 259 1330 258 1331 259 1332 73 1333 72 1334 240 1335 259 1336 72 1337 46 1338 234 1339 45 1340 46 1341 242 1342 234 1343 242 1344 232 1345 234 1346 242 1347 243 1348 232 1349 243 1350 230 1351 232 1352 243 1353 245 1354 230 1355 252 1356 228 1357 230 1358 253 1359 252 1360 230 1361 245 1362 247 1363 255 1364 245 1365 255 1366 254 1367 254 1368 253 1369 230 1370 254 1371 230 1372 245 1373 88 1374 235 1375 87 1376 88 1377 251 1378 235 1379 235 1380 251 1381 236 1382 251 1383 250 1384 236 1385 239 1386 259 1387 240 1388 239 1389 258 1390 259 1391 239 1392 236 1393 250 1394 221 1395 257 1396 258 1397 221 1398 258 1399 239 1400 256 1401 257 1402 221 1403 223 1404 256 1405 221 1406 220 1407 239 1408 250 1409 220 1410 221 1411 239 1412 47 1413 244 1414 48 1415 188 1416 244 1417 47 1418 246 1419 244 1420 188 1421 188 1422 189 1423 246 1424 248 1425 246 1426 189 1427 248 1428 189 1429 190 1430 249 1431 248 1432 190 1433 249 1434 190 1435 191 1436 241 1437 249 1438 191 1439 241 1440 191 1441 192 1442 238 1443 241 1444 192 1445 238 1446 192 1447 193 1448 237 1449 238 1450 193 1451 237 1452 193 1453 194 1454 91 1455 237 1456 194 1457 91 1458 194 1459 90 1460 83 1461 84 1462 187 1463 195 1464 83 1465 187 1466 195 1467 187 1468 185 1469 195 1470 185 1471 198 1472 185 1473 186 1474 198 1475 40 1476 201 1477 39 1478 39 1479 201 1480 186 1481 186 1482 201 1483 198 1484 30 1485 28 1486 167 1487 167 1488 166 1489 30 1490 9 1491 179 1492 11 1493 9 1494 172 1495 179 1496 172 1497 178 1498 179 1499 172 1500 171 1501 178 1502 171 1503 173 1504 180 1505 180 1506 178 1507 171 1508 173 1509 170 1510 177 1511 177 1512 180 1513 173 1514 170 1515 176 1516 183 1517 176 1518 174 1519 182 1520 182 1521 183 1522 176 1523 170 1524 183 1525 177 1526 174 1527 181 1528 182 1529 174 1530 175 1531 181 1532 5 1533 21 1534 175 1535 181 1536 175 1537 21 1538 181 1539 21 1540 184 1541 14 1542 184 1543 13 1544 13 1545 184 1546 53 1547 53 1548 184 1549 54 1550 21 1551 54 1552 184 1553</p>
				</triangles>
			</mesh>
		</geometry>
	</library_geometries>
	<library_visual_scenes>
		<visual_scene id="Scene" name="Scene">
			<node layer="L1" id="ShapeIndexedFaceS_015" name="ShapeIndexedFaceS_015">
				<translate sid="translate">0.00000 0.00000 0.00000</translate>
				<rotate sid="rotateZ">0 0 1 0.00000</rotate>
				<rotate sid="rotateY">0 1 0 -0.00000</rotate>
				<rotate sid="rotateX">1 0 0 0.00000</rotate>
				<scale sid="scale">1.00000 1.00000 1.00000</scale>
				<instance_geometry url="#ShapeIndexedFaceS_014">
					<bind_material>
						<technique_common>
							<instance_material symbol="Material_012" target="#Material_012">
								<bind_vertex_input input_semantic="TEXCOORD" input_set="1" semantic="CHANNEL1"/>
							</instance_material>
						</technique_common>
					</bind_material>
				</instance_geometry>
			</node>
			<node layer="L1" id="Lamp" name="Lamp">
				<translate sid="translate">4.07625 1.00545 5.90386</translate>
				<rotate sid="rotateZ">0 0 1 106.93632</rotate>
				<rotate sid="rotateY">0 1 0 3.16371</rotate>
				<rotate sid="rotateX">1 0 0 37.26105</rotate>
				<scale sid="scale">1.00000 1.00000 1.00000</scale>
				<instance_light url="#Spot"/>
			</node>
			<node layer="L1" id="Camera" name="Camera">
				<translate sid="translate">7.48113 -6.50764 5.34367</translate>
				<rotate sid="rotateZ">0 0 1 46.69194</rotate>
				<rotate sid="rotateY">0 1 0 0.61977</rotate>
				<rotate sid="rotateX">1 0 0 63.55930</rotate>
				<scale sid="scale">1.00000 1.00000 1.00000</scale>
				<instance_camera url="#Camera-Camera"/>
			</node>
		</visual_scene>
	</library_visual_scenes>
	<library_physics_materials>
		<physics_material id="ShapeIndexedFaceS_015-PhysicsMaterial" name="ShapeIndexedFaceS_015-PhysicsMaterial">
			<technique_common>
				<dynamic_friction>0.5</dynamic_friction>
				<restitution>0.0</restitution>
				<static_friction>0.5</static_friction>
			</technique_common>
		</physics_material>
	</library_physics_materials>
	<library_physics_models>
		<physics_model id="Scene-PhysicsModel" name="Scene-PhysicsModel">
			<rigid_body name="ShapeIndexedFaceS_015-RigidBody" sid="ShapeIndexedFaceS_015-RigidBody">
				<technique_common>
					<dynamic>false</dynamic>
					<mass>0</mass>
					<instance_physics_material url="#ShapeIndexedFaceS_015-PhysicsMaterial"/>
					<shape>
						<instance_geometry url="#ShapeIndexedFaceS_014"/>
					</shape>
				</technique_common>
			</rigid_body>
		</physics_model>
	</library_physics_models>
	<library_physics_scenes>
		<physics_scene id="Scene-Physics" name="Scene-Physics">
			<instance_physics_model url="#Scene-PhysicsModel">
				<instance_rigid_body body="ShapeIndexedFaceS_015-RigidBody" target="#ShapeIndexedFaceS_015"/>
			</instance_physics_model>
		</physics_scene>
	</library_physics_scenes>
	<scene>
		<instance_physics_scene url="#Scene-Physics"/>
		<instance_visual_scene url="#Scene"/>
	</scene>
</COLLADA>