<?xml version="1.0" encoding="utf-8"?>
<COLLADA version="1.4.0" xmlns="http://www.collada.org/2005/11/COLLADASchema">
	<asset>
		<contributor>
			<author>Illusoft Collada 1.4.0 plugin for Blender - http://colladablender.illusoft.com</author>
			<authoring_tool>Blender v:249 - Illusoft Collada Exporter v:0.3.162</authoring_tool>
			<comments></comments>
			<copyright></copyright>
			<source_data>file://</source_data>
		</contributor>
		<created>2012-02-24T15:52:37.209423</created>
		<modified>2012-02-24T15:52:37.209444</modified>
		<unit meter="1" name="meter"/>
		<up_axis>Z_UP</up_axis>
	</asset>
	<library_cameras>
		<camera id="Camera-Camera" name="Camera-Camera">
			<optics>
				<technique_common>
					<perspective>
						<yfov>49.13434</yfov>
						<znear>0.1</znear>
						<zfar>100.0</zfar>
					</perspective>
				</technique_common>
			</optics>
		</camera>
	</library_cameras>
	<library_effects>
		<effect id="Material_008-fx" name="Material_008-fx">
			<profile_COMMON>
				<technique sid="blender">
					<phong>
						<emission>
							<color>0.00000 0.00000 0.00000 1</color>
						</emission>
						<ambient>
							<color>0.00000 0.00000 0.00000 1</color>
						</ambient>
						<diffuse>
							<color>1.00000 1.00000 1.00000 1</color>
						</diffuse>
						<specular>
							<color>0.12500 0.12500 0.12500 1</color>
						</specular>
						<shininess>
							<float>25.75</float>
						</shininess>
						<reflective>
							<color>0.00000 0.00000 0.00000 1</color>
						</reflective>
						<reflectivity>
							<float>0.0</float>
						</reflectivity>
						<transparent>
							<color>1 1 1 1</color>
						</transparent>
						<transparency>
							<float>0.0</float>
						</transparency>
					</phong>
				</technique>
			</profile_COMMON>
		</effect>
		<effect id="Material_007-fx" name="Material_007-fx">
			<profile_COMMON>
				<technique sid="blender">
					<phong>
						<emission>
							<color>0.00000 0.00000 0.00000 1</color>
						</emission>
						<ambient>
							<color>0.00000 0.00000 0.00000 1</color>
						</ambient>
						<diffuse>
							<color>0.90000 0.90000 0.90000 1</color>
						</diffuse>
						<specular>
							<color>0.12500 0.12500 0.12500 1</color>
						</specular>
						<shininess>
							<float>25.75</float>
						</shininess>
						<reflective>
							<color>0.00000 0.00000 0.00000 1</color>
						</reflective>
						<reflectivity>
							<float>0.0</float>
						</reflectivity>
						<transparent>
							<color>1 1 1 1</color>
						</transparent>
						<transparency>
							<float>0.0</float>
						</transparency>
					</phong>
				</technique>
			</profile_COMMON>
		</effect>
	</library_effects>
	<library_lights>
		<light id="Spot" name="Spot">
			<technique_common>
				<point>
					<color>1.00000 1.00000 1.00000</color>
					<constant_attenuation>1.0</constant_attenuation>
					<linear_attenuation>0.0</linear_attenuation>
					<quadratic_attenuation>0.0</quadratic_attenuation>
				</point>
			</technique_common>
		</light>
	</library_lights>
	<library_materials>
		<material id="Material_008" name="Material_008">
			<instance_effect url="#Material_008-fx"/>
		</material>
		<material id="Material_007" name="Material_007">
			<instance_effect url="#Material_007-fx"/>
		</material>
	</library_materials>
	<library_geometries>
		<geometry id="ShapeIndexedFaceS_009" name="ShapeIndexedFaceS_009">
			<mesh>
				<source id="ShapeIndexedFaceS_009-Position">
					<float_array count="153" id="ShapeIndexedFaceS_009-Position-array">0.04000 0.01950 -0.01800 0.04000 0.00250 -0.02820 0.04000 0.00250 -0.01800 0.04000 0.01450 -0.04300 0.04000 0.01950 -0.04300 0.03957 0.00026 -0.01800 0.03960 0.00035 -0.02570 0.03826 -0.00172 -0.01800 0.03833 -0.00165 -0.02369 0.03600 -0.00316 -0.01800 0.03635 -0.00302 -0.02273 0.03400 -0.00350 -0.02300 -0.01400 0.00252 -0.04800 -0.02000 0.00395 -0.04800 -0.03139 0.00666 -0.01800 -0.03539 0.00762 -0.04415 -0.03539 0.00762 -0.01800 -0.04000 0.01343 -0.04300 -0.04000 0.01950 -0.01800 -0.04000 0.01345 -0.01800 -0.04000 0.01950 -0.04300 -0.03967 0.01148 -0.01800 -0.03967 0.01148 -0.04308 -0.03868 0.00970 -0.04334 -0.03868 0.00970 -0.01800 -0.03726 0.00841 -0.01800 -0.03726 0.00842 -0.04370 0.01061 -0.00334 -0.03176 0.02000 0.01262 -0.04800 0.01200 -0.00350 -0.03105 0.03600 0.01950 -0.01800 -0.03473 0.00881 -0.01800 -0.03600 0.01250 -0.01800 -0.03600 0.01950 -0.01800 -0.03500 0.01950 -0.04425 -0.03500 0.01950 -0.01800 0.01900 0.01438 -0.01800 0.01100 0.01950 -0.01800 0.01900 0.01950 -0.01800 0.01100 0.01438 -0.01800 0.02000 0.01950 -0.04800 0.01000 0.01950 -0.04800 -0.01100 0.00738 -0.04800 -0.01400 0.00738 -0.04800 -0.02000 0.01084 -0.04800 0.01061 -0.00334 -0.01800 0.01200 -0.00350 -0.01800 0.03400 -0.00350 -0.01800 0.01000 0.01950 -0.01800 -0.01100 0.00738 -0.01800 -0.01400 0.00738 -0.01800</float_array>
					<technique_common>
						<accessor count="51" source="#ShapeIndexedFaceS_009-Position-array" stride="3">
							<param type="float" name="X"></param>
							<param type="float" name="Y"></param>
							<param type="float" name="Z"></param>
						</accessor>
					</technique_common>
				</source>
				<source id="ShapeIndexedFaceS_009-Normals">
					<float_array count="747" id="ShapeIndexedFaceS_009-Normals-array">0.89138 -0.37977 -0.24732 0.90451 0.30149 0.30149 0.70229 -0.06711 0.70870 0.71313 -0.19916 -0.67214 0.90451 0.30149 0.30149 0.89138 -0.37977 -0.24732 0.48790 0.78536 -0.38093 0.90451 0.30149 0.30149 0.71313 -0.19916 -0.67214 0.70229 -0.06711 0.70870 0.78634 -0.25773 0.56145 0.89138 -0.37977 -0.24732 0.78634 -0.25773 0.56145 0.71609 -0.63869 -0.28153 0.89138 -0.37977 -0.24732 0.78634 -0.25773 0.56145 0.62389 -0.54286 0.56215 0.71609 -0.63869 -0.28153 0.62389 -0.54286 0.56215 0.52477 -0.80935 -0.26362 0.71609 -0.63869 -0.28153 0.62389 -0.54286 0.56215 0.36616 -0.89691 0.24781 0.52477 -0.80935 -0.26362 0.32804 -0.88623 -0.32701 0.52477 -0.80935 -0.26362 0.36616 -0.89691 0.24781 0.36616 -0.89691 0.24781 0.14426 -0.96509 -0.21857 0.32804 -0.88623 -0.32701 -0.22715 -0.95389 0.19605 -0.25971 -0.53288 -0.80532 -0.04456 -0.50490 -0.86200 -0.22715 -0.95389 0.19605 -0.36964 -0.56911 -0.73446 -0.25971 -0.53288 -0.80532 -0.36964 -0.56911 -0.73446 -0.22715 -0.95389 0.19605 -0.17325 -0.52547 0.83294 -0.70153 -0.07892 0.70821 -0.81649 0.40825 0.40825 -0.78933 -0.03641 -0.61284 -0.81649 0.40825 0.40825 -0.47032 0.63338 -0.61446 -0.78933 -0.03641 -0.61284 -0.70153 -0.07892 0.70821 -0.92624 -0.24607 -0.28544 -0.76522 -0.31816 0.55962 -0.70153 -0.07892 0.70821 -0.78933 -0.03641 -0.61284 -0.92624 -0.24607 -0.28544 -0.68426 -0.36805 -0.62947 -0.76522 -0.31816 0.55962 -0.92624 -0.24607 -0.28544 -0.68426 -0.36805 -0.62947 -0.61962 -0.55065 0.55928 -0.76522 -0.31816 0.55962 -0.60640 -0.73620 -0.30045 -0.40751 -0.72182 0.55934 -0.61962 -0.55065 0.55928 -0.61962 -0.55065 0.55928 -0.68426 -0.36805 -0.62947 -0.60640 -0.73620 -0.30045 -0.17325 -0.52547 0.83294 -0.40751 -0.72182 0.55934 -0.36964 -0.56911 -0.73446 -0.40751 -0.72182 0.55934 -0.60640 -0.73620 -0.30045 -0.36964 -0.56911 -0.73446 -0.04456 -0.50490 -0.86200 0.18647 -0.55345 -0.81170 -0.02820 -0.96362 -0.26576 0.18647 -0.55345 -0.81170 0.04636 -0.96365 -0.26301 -0.02820 -0.96362 -0.26576 0.71313 -0.19916 -0.67214 0.89138 -0.37977 -0.24732 0.18647 -0.55345 -0.81170 0.18647 -0.55345 -0.81170 0.14426 -0.96509 -0.21857 0.04636 -0.96365 -0.26301 0.18647 -0.55345 -0.81170 0.32804 -0.88623 -0.32701 0.14426 -0.96509 -0.21857 0.18647 -0.55345 -0.81170 0.52477 -0.80935 -0.26362 0.32804 -0.88623 -0.32701 0.18647 -0.55345 -0.81170 0.71609 -0.63869 -0.28153 0.52477 -0.80935 -0.26362 0.89138 -0.37977 -0.24732 0.71609 -0.63869 -0.28153 0.18647 -0.55345 -0.81170 0.70229 -0.06711 0.70870 0.90451 0.30149 0.30149 0.00000 0.59999 0.79998 0.00000 0.59999 0.79998 0.78634 -0.25773 0.56145 0.70229 -0.06711 0.70870 0.62389 -0.54286 0.56215 0.78634 -0.25773 0.56145 0.00000 0.59999 0.79998 0.00000 0.59999 0.79998 0.36616 -0.89691 0.24781 0.62389 -0.54286 0.56215 0.00000 0.00000 1.00000 -0.17325 -0.52547 0.83294 -0.22715 -0.95389 0.19605 0.00000 0.00000 1.00000 -0.17325 -0.52547 0.83294 0.00000 0.00000 1.00000 -0.40751 -0.72182 0.55934 -0.17325 -0.52547 0.83294 0.00000 0.00000 1.00000 0.00000 0.00000 1.00000 -0.61962 -0.55065 0.55928 -0.40751 -0.72182 0.55934 -0.76522 -0.31816 0.55962 -0.61962 -0.55065 0.55928 0.00000 0.00000 1.00000 0.00000 0.00000 1.00000 -0.70153 -0.07892 0.70821 -0.76522 -0.31816 0.55962 0.00000 0.83203 0.55467 -0.70153 -0.07892 0.70821 0.00000 0.00000 1.00000 0.00000 0.83203 0.55467 -0.81649 0.40825 0.40825 -0.70153 -0.07892 0.70821 0.00000 0.83203 0.55467 0.25874 0.96594 0.00000 0.05741 0.78726 -0.61391 -0.81649 0.40825 0.40825 0.00000 0.83203 0.55467 -0.47032 0.63338 -0.61446 0.00000 0.83203 0.55467 0.05741 0.78726 -0.61391 -0.47032 0.63338 -0.61446 0.00000 0.94867 0.31620 0.00000 0.70708 0.70708 0.00000 0.00000 1.00000 0.00000 0.70708 0.70708 0.00000 0.00000 1.00000 0.00000 0.00000 1.00000 0.71313 -0.19916 -0.67214 0.11469 0.70946 -0.69533 0.48790 0.78536 -0.38093 0.71313 -0.19916 -0.67214 0.18647 -0.55345 -0.81170 0.11469 0.70946 -0.69533 0.11469 0.70946 -0.69533 0.18647 -0.55345 -0.81170 -0.11411 0.88238 -0.45647 -0.23923 0.65374 -0.71789 -0.11411 0.88238 -0.45647 0.18647 -0.55345 -0.81170 0.18647 -0.55345 -0.81170 -0.04456 -0.50490 -0.86200 -0.23923 0.65374 -0.71789 -0.04456 -0.50490 -0.86200 0.14161 0.81173 -0.56658 -0.23923 0.65374 -0.71789 -0.04456 -0.50490 -0.86200 0.21512 0.49193 -0.84362 0.14161 0.81173 -0.56658 -0.04456 -0.50490 -0.86200 -0.25971 -0.53288 -0.80532 0.21512 0.49193 -0.84362 -0.25971 -0.53288 -0.80532 0.05741 0.78726 -0.61391 0.21512 0.49193 -0.84362 -0.36964 -0.56911 -0.73446 0.05741 0.78726 -0.61391 -0.25971 -0.53288 -0.80532 -0.47032 0.63338 -0.61446 0.05741 0.78726 -0.61391 -0.36964 -0.56911 -0.73446 -0.78933 -0.03641 -0.61284 -0.47032 0.63338 -0.61446 -0.36964 -0.56911 -0.73446 -0.36964 -0.56911 -0.73446 -0.68426 -0.36805 -0.62947 -0.78933 -0.03641 -0.61284 -0.68426 -0.36805 -0.62947 -0.92624 -0.24607 -0.28544 -0.78933 -0.03641 -0.61284 -0.36964 -0.56911 -0.73446 -0.60640 -0.73620 -0.30045 -0.68426 -0.36805 -0.62947 0.00000 0.59999 0.79998 0.90451 0.30149 0.30149 0.48790 0.78536 -0.38093 0.48790 0.78536 -0.38093 0.11469 0.70946 -0.69533 0.00000 0.59999 0.79998 0.00000 0.94867 0.31620 0.00000 0.59999 0.79998 0.11469 0.70946 -0.69533 0.00000 0.94867 0.31620 0.11469 0.70946 -0.69533 -0.11411 0.88238 -0.45647 0.00000 0.94867 0.31620 -0.11411 0.88238 -0.45647 0.00000 0.70708 0.70708 -0.22715 -0.95389 0.19605 -0.04456 -0.50490 -0.86200 -0.02820 -0.96362 -0.26576 -0.02820 -0.96362 -0.26576 -0.15510 -0.98788 -0.00021 -0.22715 -0.95389 0.19605 0.04636 -0.96365 -0.26301 -0.03879 -0.99924 -0.00015 -0.15510 -0.98788 -0.00021 -0.15510 -0.98788 -0.00021 -0.02820 -0.96362 -0.26576 0.04636 -0.96365 -0.26301 -0.03879 -0.99924 -0.00015 0.04636 -0.96365 -0.26301 0.14426 -0.96509 -0.21857 0.14426 -0.96509 -0.21857 0.08478 -0.99637 0.00000 -0.03879 -0.99924 -0.00015 0.14426 -0.96509 -0.21857 0.36616 -0.89691 0.24781 0.08478 -0.99637 0.00000 -0.34367 0.93909 -0.00003 -0.11411 0.88238 -0.45647 -0.23923 0.65374 -0.71789 -0.23923 0.65374 -0.71789 -0.17182 0.98511 -0.00012 -0.34367 0.93909 -0.00003 0.14161 0.81173 -0.56658 0.38475 0.92300 -0.00009 -0.17182 0.98511 -0.00012 -0.17182 0.98511 -0.00012 -0.23923 0.65374 -0.71789 0.14161 0.81173 -0.56658 0.05741 0.78726 -0.61391 0.25874 0.96594 0.00000 0.38475 0.92300 -0.00009 0.38475 0.92300 -0.00009 0.21512 0.49193 -0.84362 0.05741 0.78726 -0.61391 0.14161 0.81173 -0.56658 0.21512 0.49193 -0.84362 0.38475 0.92300 -0.00009 -0.34367 0.93909 -0.00003 0.00000 0.70708 0.70708 -0.11411 0.88238 -0.45647</float_array>
					<technique_common>
						<accessor count="249" source="#ShapeIndexedFaceS_009-Normals-array" stride="3">
							<param type="float" name="X"></param>
							<param type="float" name="Y"></param>
							<param type="float" name="Z"></param>
						</accessor>
					</technique_common>
				</source>
				<vertices id="ShapeIndexedFaceS_009-Vertex">
					<input semantic="POSITION" source="#ShapeIndexedFaceS_009-Position"/>
				</vertices>
				<triangles count="83" material="Material_008">
					<input offset="0" semantic="VERTEX" source="#ShapeIndexedFaceS_009-Vertex"/>
					<input offset="1" semantic="NORMAL" source="#ShapeIndexedFaceS_009-Normals"/>
					<p>1 0 0 1 2 2 3 3 0 4 1 5 4 6 0 7 3 8 2 9 5 10 1 11 5 12 6 13 1 14 5 15 7 16 6 17 7 18 8 19 6 20 7 21 9 22 8 23 10 24 8 25 9 26 9 27 11 28 10 29 14 30 13 31 12 32 14 33 15 34 13 35 15 36 14 37 16 38 19 39 18 40 17 41 18 42 20 43 17 44 19 45 22 46 21 47 19 48 17 49 22 50 23 51 21 52 22 53 23 54 24 55 21 56 26 57 25 58 24 59 24 60 23 61 26 62 16 63 25 64 15 65 25 66 26 67 15 68 12 69 28 70 27 71 28 72 29 73 27 74 3 75 1 76 28 77 28 78 11 79 29 80 28 81 10 82 11 83 28 84 8 85 10 86 28 87 6 88 8 89 1 90 6 91 28 92 2 93 0 94 30 95 30 96 5 97 2 98 7 99 5 100 30 101 30 102 9 103 7 104 31 105 16 106 14 107 32 108 16 109 31 110 25 111 16 112 32 113 32 114 24 115 25 116 21 117 24 118 32 119 32 120 19 121 21 122 33 123 19 124 32 125 33 126 18 127 19 128 33 129 35 130 34 131 18 132 33 133 20 134 33 135 34 136 20 137 38 138 37 139 36 140 37 141 39 142 36 143 3 144 40 145 4 146 3 147 28 148 40 149 40 150 28 151 41 152 42 153 41 154 28 155 28 156 12 157 42 158 12 159 43 160 42 161 12 162 44 163 43 164 12 165 13 166 44 167 13 168 34 169 44 170 15 171 34 172 13 173 20 174 34 175 15 176 17 177 20 178 15 179 15 180 23 181 17 182 23 183 22 184 17 185 15 186 26 187 23 188 30 189 0 190 4 191 4 192 40 193 30 194 38 195 30 196 40 197 38 198 40 199 41 200 38 201 41 202 37 203 14 204 12 205 27 206 27 207 45 208 14 209 29 210 46 211 45 212 45 213 27 214 29 215 46 216 29 217 11 218 11 219 47 220 46 221 11 222 9 223 47 224 48 225 41 226 42 227 42 228 49 229 48 230 43 231 50 232 49 233 49 234 42 235 43 236 34 237 35 238 50 239 50 240 44 241 34 242 43 243 44 244 50 245 48 246 37 247 41 248</p>
				</triangles>
			</mesh>
		</geometry>
		<geometry id="ShapeIndexedFaceS_009-Geometry" name="ShapeIndexedFaceS_009-Geometry">
			<mesh>
				<source id="ShapeIndexedFaceS_009-Geometry-Position">
					<float_array count="303" id="ShapeIndexedFaceS_009-Geometry-Position-array">0.03600 -0.00316 -0.01800 0.03400 -0.00350 -0.01050 0.03600 -0.00316 -0.01050 0.03400 -0.00350 0.00000 0.02810 -0.00350 -0.00400 0.02810 -0.00350 0.00000 0.01790 -0.00350 0.00000 0.01790 -0.00350 -0.00400 0.01200 -0.00350 0.00000 0.03400 0.00350 -0.00550 0.02810 0.00350 -0.00400 0.01200 0.00350 -0.00550 0.01790 0.00350 -0.00400 0.01790 0.00350 0.00000 0.01200 0.00350 0.00000 0.01200 0.00380 -0.00720 0.03400 0.00380 -0.00720 0.01200 0.00466 -0.00870 0.03400 0.00466 -0.00870 0.01200 0.00574 -0.00967 0.01900 0.00579 -0.00970 0.03400 0.00574 -0.00967 0.01900 0.00770 -0.01050 0.03400 0.00770 -0.01047 -0.03473 0.00881 -0.01800 -0.03473 0.00881 -0.01050 -0.03139 0.00666 -0.01800 -0.03600 0.01250 -0.01800 -0.03600 0.01250 -0.01050 -0.03139 0.00666 -0.01050 -0.03600 0.01950 -0.01800 -0.03600 0.01950 -0.01400 -0.03600 0.01600 -0.01050 -0.03600 0.01731 -0.01075 -0.03600 0.01846 -0.01151 -0.03600 0.01922 -0.01263 0.02810 0.00350 0.00000 0.03400 0.00350 0.00000 0.01200 -0.00303 0.00175 0.01790 -0.00303 0.00175 0.01200 -0.00175 0.00303 0.01790 -0.00175 0.00303 0.01200 -0.00000 0.00350 0.01790 -0.00000 0.00350 0.01200 0.00175 0.00303 0.01790 0.00175 0.00303 0.01200 0.00303 0.00175 0.01790 0.00303 0.00175 0.02810 -0.00303 0.00175 0.03400 -0.00303 0.00175 0.02810 -0.00175 0.00303 0.03400 -0.00175 0.00303 0.02810 -0.00000 0.00350 0.03400 -0.00000 0.00350 0.02810 0.00175 0.00303 0.03400 0.00175 0.00303 0.02810 0.00303 0.00175 0.03400 0.00303 0.00175 0.01900 0.01600 -0.01050 0.01900 0.01732 -0.01076 0.03600 0.01600 -0.01050 0.03600 0.01732 -0.01076 0.01900 0.01850 -0.01155 0.03600 0.01850 -0.01155 0.01900 0.01925 -0.01269 0.03600 0.01925 -0.01269 0.01900 0.01950 -0.01400 0.03600 0.01950 -0.01400 0.00606 0.01731 -0.01075 0.01100 0.01600 -0.01050 0.00394 0.01600 -0.01050 0.01100 0.01731 -0.01075 0.00801 0.01846 -0.01151 0.01100 0.01846 -0.01151 0.00939 0.01922 -0.01263 0.01100 0.01922 -0.01263 0.01000 0.01950 -0.01400 0.01100 0.01950 -0.01400 0.03600 0.01950 -0.01800 0.01200 -0.00350 -0.01050 0.01200 0.00662 -0.01050 -0.03500 0.01950 -0.01400 -0.03500 0.01950 -0.01800 -0.02894 0.01600 -0.01050 -0.03339 0.01846 -0.01151 -0.03132 0.01731 -0.01075 -0.03462 0.01922 -0.01263 0.01061 -0.00334 -0.01050 0.01100 0.00662 -0.01050 -0.01400 0.00738 -0.01050 -0.01100 0.00738 -0.01050 0.01100 0.01438 -0.01800 0.01100 0.01950 -0.01800 0.01900 0.01438 -0.01800 0.01900 0.01950 -0.01800 0.01061 -0.00334 -0.01800 0.01200 -0.00350 -0.01800 0.03400 -0.00350 -0.01800 -0.01400 0.00738 -0.01800 -0.01100 0.00738 -0.01800 0.01000 0.01950 -0.01800</float_array>
					<technique_common>
						<accessor count="101" source="#ShapeIndexedFaceS_009-Geometry-Position-array" stride="3">
							<param type="float" name="X"></param>
							<param type="float" name="Y"></param>
							<param type="float" name="Z"></param>
						</accessor>
					</technique_common>
				</source>
				<source id="ShapeIndexedFaceS_009-Geometry-Normals">
					<float_array count="1647" id="ShapeIndexedFaceS_009-Geometry-Normals-array">0.72289 -0.68145 0.11405 0.95486 -0.29701 -0.00003 0.46928 -0.39134 0.79156 -0.83422 -0.54668 0.07196 -0.48506 -0.72759 0.48506 0.45027 -0.88522 0.11652 -0.48506 -0.72759 0.48506 0.72289 -0.68145 0.11405 0.45027 -0.88522 0.11652 -0.70980 -0.70171 0.06122 0.23569 -0.94281 0.23569 0.70977 -0.69366 0.12247 -0.37214 0.92761 0.03207 -0.30149 0.90451 0.30149 0.37254 0.92578 0.06424 -0.37214 0.92761 0.03207 0.57735 0.57735 0.57732 -0.30149 0.90451 0.30149 0.57735 0.57735 0.57732 -0.37214 0.92761 0.03207 0.70977 0.70171 0.06122 -0.37214 0.92761 0.03207 -0.70977 0.69366 0.12244 0.70977 0.70171 0.06122 0.37254 0.92578 0.06424 -0.55986 0.79431 0.23576 -0.37214 0.92761 0.03207 0.37254 0.92578 0.06424 0.55986 0.76144 0.32667 -0.55986 0.79431 0.23576 0.55986 0.76144 0.32667 -0.55904 0.67180 0.48592 -0.55986 0.79431 0.23576 0.55986 0.76144 0.32667 0.45067 0.64415 0.61800 -0.55904 0.67180 0.48592 0.45067 0.64415 0.61800 -0.55531 0.55696 0.61754 -0.55904 0.67180 0.48592 0.45067 0.64415 0.61800 -0.16630 0.62728 0.76080 -0.55531 0.55696 0.61754 0.55925 0.40077 0.72567 -0.16630 0.62728 0.76080 0.45067 0.64415 0.61800 -0.56221 0.21409 0.79876 -0.16630 0.62728 0.76080 0.55925 0.40077 0.72567 -0.56221 0.21409 0.79876 0.55925 0.40077 0.72567 0.20084 0.07520 0.97671 -0.44349 -0.89627 0.00000 -0.67071 -0.66387 0.33076 -0.85257 -0.52260 0.00000 -0.85257 -0.52260 0.00000 -0.80871 -0.18180 0.55937 -0.99890 -0.04672 0.00000 -0.85257 -0.52260 0.00000 -0.67071 -0.66387 0.33076 -0.80871 -0.18180 0.55937 -0.67071 -0.66387 0.33076 -0.44349 -0.89627 0.00000 -0.17280 -0.47945 0.86035 -0.99890 -0.04672 0.00000 -0.55629 0.82348 0.11124 -0.44719 0.89441 0.00000 -0.80871 -0.18180 0.55937 -0.55623 0.05267 0.82934 -0.99890 -0.04672 0.00000 -0.55623 0.05267 0.82934 -0.56157 0.25974 0.78555 -0.99890 -0.04672 0.00000 -0.56157 0.25974 0.78555 -0.56151 0.54082 0.62621 -0.99890 -0.04672 0.00000 -0.99890 -0.04672 0.00000 -0.56151 0.54082 0.62621 -0.56114 0.73974 0.37132 -0.56114 0.73974 0.37132 -0.55629 0.82348 0.11124 -0.99890 -0.04672 0.00000 0.37254 0.92578 0.06424 -0.30149 0.90451 0.30149 -0.60329 0.79067 0.10407 -0.60329 0.79067 0.10407 0.89593 0.44032 0.05795 0.37254 0.92578 0.06424 0.70977 -0.69366 0.12247 0.71786 -0.56954 0.40031 -0.71786 -0.63146 0.29307 0.70977 -0.69366 0.12247 -0.71786 -0.63146 0.29307 -0.70980 -0.70171 0.06122 0.71786 -0.56954 0.40031 0.71786 -0.29304 0.63146 -0.56648 -0.47389 0.67415 0.71786 -0.56954 0.40031 -0.56648 -0.47389 0.67415 -0.71786 -0.63146 0.29307 0.71786 -0.29304 0.63146 0.32505 0.08411 0.94192 -0.32505 -0.08411 0.94192 0.71786 -0.29304 0.63146 -0.32505 -0.08411 0.94192 -0.56648 -0.47389 0.67415 0.32505 0.08411 0.94192 0.56648 0.47386 0.67415 -0.71786 0.29304 0.63146 0.32505 0.08411 0.94192 -0.71786 0.29304 0.63146 -0.32505 -0.08411 0.94192 0.56648 0.47386 0.67415 0.71786 0.63146 0.29304 -0.71786 0.56954 0.40031 0.56648 0.47386 0.67415 -0.71786 0.56954 0.40031 -0.71786 0.29304 0.63146 0.71786 0.63146 0.29304 0.70977 0.70171 0.06122 -0.70977 0.69366 0.12244 0.71786 0.63146 0.29304 -0.70977 0.69366 0.12244 -0.71786 0.56954 0.40031 0.45027 -0.88522 0.11652 0.71786 -0.56954 0.40031 -0.71786 -0.63146 0.29304 0.45027 -0.88522 0.11652 -0.71786 -0.63146 0.29304 -0.83422 -0.54668 0.07196 0.71786 -0.56954 0.40031 0.71786 -0.29304 0.63146 -0.56648 -0.47386 0.67415 0.71786 -0.56954 0.40031 -0.56648 -0.47386 0.67415 -0.71786 -0.63146 0.29304 0.71786 -0.29304 0.63146 0.32505 0.08411 0.94192 -0.32505 -0.08411 0.94192 0.71786 -0.29304 0.63146 -0.32505 -0.08411 0.94192 -0.56648 -0.47386 0.67415 0.32505 0.08411 0.94192 0.56648 0.47386 0.67415 -0.71786 0.29304 0.63146 0.32505 0.08411 0.94192 -0.71786 0.29304 0.63146 -0.32505 -0.08411 0.94192 0.56648 0.47386 0.67415 0.71786 0.63146 0.29304 -0.71786 0.56954 0.40031 0.56648 0.47386 0.67415 -0.71786 0.56954 0.40031 -0.71786 0.29304 0.63146 0.71786 0.63146 0.29304 0.89593 0.44032 0.05795 -0.60329 0.79067 0.10407 0.71786 0.63146 0.29304 -0.60329 0.79067 0.10407 -0.71786 0.56954 0.40031 0.45180 0.08692 0.88784 -0.56151 0.26444 0.78405 -0.55666 0.05448 0.82891 0.45180 0.08692 0.88784 0.56151 0.36720 0.74151 -0.56151 0.26444 0.78405 0.56151 0.36720 0.74151 -0.56139 0.54756 0.62044 -0.56151 0.26444 0.78405 0.56151 0.36720 0.74151 0.56148 0.62569 0.54149 -0.56139 0.54756 0.62044 0.56148 0.62569 0.54149 -0.56124 0.74468 0.36110 -0.56139 0.54756 0.62044 0.56148 0.62569 0.54149 0.56130 0.78576 0.25977 -0.56124 0.74468 0.36110 0.56130 0.78576 0.25977 -0.55620 0.82437 0.10495 -0.56124 0.74468 0.36110 0.56130 0.78576 0.25977 0.55623 0.82931 0.05280 -0.55620 0.82437 0.10495 -0.34321 0.64153 0.68600 0.44881 0.08411 0.88965 -0.25459 0.65569 0.71078 0.44881 0.08411 0.88965 0.56151 0.36235 0.74389 -0.25459 0.65569 0.71078 0.56151 0.36235 0.74389 -0.22813 0.83316 0.50374 -0.25459 0.65569 0.71078 0.56151 0.36235 0.74389 0.56117 0.61922 0.54918 -0.22813 0.83316 0.50374 0.56117 0.61922 0.54918 -0.21302 0.93899 0.26994 -0.22813 0.83316 0.50374 0.56127 0.78234 0.27000 -0.21302 0.93899 0.26994 0.56117 0.61922 0.54918 0.56127 0.78234 0.27000 -0.17151 0.98321 0.06174 -0.21302 0.93899 0.26994 0.70894 0.70168 0.07071 -0.17151 0.98321 0.06174 0.56127 0.78234 0.27000 0.45180 0.08692 0.88784 0.95486 -0.29701 -0.00003 0.56151 0.36720 0.74151 0.95486 -0.29701 -0.00003 0.56148 0.62569 0.54149 0.56151 0.36720 0.74151 0.56148 0.62569 0.54149 0.95486 -0.29701 -0.00003 0.56130 0.78576 0.25977 0.56130 0.78576 0.25977 0.95486 -0.29701 -0.00003 0.55623 0.82931 0.05280 0.95486 -0.29701 -0.00003 0.70708 0.70708 0.00000 0.55623 0.82931 0.05280 0.46928 -0.39134 0.79156 0.95486 -0.29701 -0.00003 0.45180 0.08692 0.88784 0.89593 0.44032 0.05795 0.45027 -0.88522 0.11652 0.72289 -0.68145 0.11405 0.37254 0.92578 0.06424 0.89593 0.44032 0.05795 0.72289 -0.68145 0.11405 0.72289 -0.68145 0.11405 0.55986 0.76144 0.32667 0.37254 0.92578 0.06424 0.72289 -0.68145 0.11405 0.45067 0.64415 0.61800 0.55986 0.76144 0.32667 0.72289 -0.68145 0.11405 0.55925 0.40077 0.72567 0.45067 0.64415 0.61800 0.72289 -0.68145 0.11405 0.20084 0.07520 0.97671 0.55925 0.40077 0.72567 0.71786 -0.56954 0.40031 0.89593 0.44032 0.05795 0.71786 0.63146 0.29304 0.71786 -0.56954 0.40031 0.45027 -0.88522 0.11652 0.89593 0.44032 0.05795 0.71786 -0.29304 0.63146 0.71786 0.63146 0.29304 0.56648 0.47386 0.67415 0.71786 -0.29304 0.63146 0.71786 -0.56954 0.40031 0.71786 0.63146 0.29304 0.71786 -0.29304 0.63146 0.56648 0.47386 0.67415 0.32505 0.08411 0.94192 0.70977 -0.69366 0.12247 0.57735 0.57735 0.57732 0.70977 0.70171 0.06122 0.70977 -0.69366 0.12247 0.23569 -0.94281 0.23569 0.57735 0.57735 0.57732 0.71786 -0.56954 0.40031 0.70977 -0.69366 0.12247 0.70977 0.70171 0.06122 0.70977 0.70171 0.06122 0.71786 0.63146 0.29304 0.71786 -0.56954 0.40031 0.71786 0.63146 0.29304 0.71786 -0.29304 0.63146 0.71786 -0.56954 0.40031 0.71786 0.63146 0.29304 0.56648 0.47386 0.67415 0.71786 -0.29304 0.63146 0.56648 0.47386 0.67415 0.32505 0.08411 0.94192 0.71786 -0.29304 0.63146 -0.83422 -0.54668 0.07196 -0.60329 0.79067 0.10407 -0.48506 -0.72759 0.48506 -0.60329 0.79067 0.10407 -0.30149 0.90451 0.30149 -0.48506 -0.72759 0.48506 -0.71786 0.56954 0.40031 -0.83422 -0.54668 0.07196 -0.71786 -0.63146 0.29304 -0.71786 0.56954 0.40031 -0.60329 0.79067 0.10407 -0.83422 -0.54668 0.07196 -0.71786 0.29304 0.63146 -0.71786 -0.63146 0.29304 -0.56648 -0.47386 0.67415 -0.71786 0.29304 0.63146 -0.71786 0.56954 0.40031 -0.71786 -0.63146 0.29304 -0.71786 0.29304 0.63146 -0.56648 -0.47386 0.67415 -0.32505 -0.08411 0.94192 -0.70977 0.69366 0.12244 -0.37214 0.92761 0.03207 -0.76849 -0.62737 0.12574 -0.70980 -0.70171 0.06122 -0.70977 0.69366 0.12244 -0.76849 -0.62737 0.12574 -0.76849 -0.62737 0.12574 -0.37214 0.92761 0.03207 -0.55986 0.79431 0.23576 -0.76849 -0.62737 0.12574 -0.55986 0.79431 0.23576 -0.55904 0.67180 0.48592 -0.76849 -0.62737 0.12574 -0.55904 0.67180 0.48592 -0.55531 0.55696 0.61754 -0.55531 0.55696 0.61754 -0.21039 0.43611 0.87494 -0.76849 -0.62737 0.12574 -0.70980 -0.70171 0.06122 -0.71786 -0.63146 0.29307 -0.71786 0.56954 0.40031 -0.71786 0.56954 0.40031 -0.70977 0.69366 0.12244 -0.70980 -0.70171 0.06122 -0.71786 0.56954 0.40031 -0.71786 -0.63146 0.29307 -0.71786 0.29304 0.63146 -0.71786 -0.63146 0.29307 -0.56648 -0.47389 0.67415 -0.71786 0.29304 0.63146 -0.56648 -0.47389 0.67415 -0.32505 -0.08411 0.94192 -0.71786 0.29304 0.63146 0.32981 0.65258 0.68212 0.38475 0.92300 0.00012 0.25367 0.96585 0.05237 0.32981 0.65258 0.68212 0.25367 0.96585 0.05237 0.26603 0.88577 0.38026 0.26603 0.88577 0.38026 0.13837 0.62423 0.76885 0.32981 0.65258 0.68212 0.25367 0.96585 0.05237 0.13034 0.95618 0.26209 0.26603 0.88577 0.38026 -0.21039 0.43611 0.87494 -0.07968 -0.50758 0.85788 -0.76849 -0.62737 0.12574 -0.21039 0.43611 0.87494 0.25550 0.17750 0.95035 -0.07968 -0.50758 0.85788 -0.07968 -0.50758 0.85788 -0.10105 0.57927 0.80880 0.23920 0.65365 0.71798 -0.07968 -0.50758 0.85788 0.23920 0.65365 0.71798 -0.17280 -0.47945 0.86035 -0.07968 -0.50758 0.85788 0.25550 0.17750 0.95035 -0.10105 0.57927 0.80880 0.44881 0.08411 0.88965 -0.34321 0.64153 0.68600 -0.10105 0.57927 0.80880 -0.10105 0.57927 0.80880 0.25550 0.17750 0.95035 0.44881 0.08411 0.88965 0.32981 0.65258 0.68212 -0.17280 -0.47945 0.86035 0.23920 0.65365 0.71798 -0.80871 -0.18180 0.55937 -0.17280 -0.47945 0.86035 -0.55623 0.05267 0.82934 -0.80871 -0.18180 0.55937 -0.67071 -0.66387 0.33076 -0.17280 -0.47945 0.86035 -0.55623 0.05267 0.82934 -0.17280 -0.47945 0.86035 0.32981 0.65258 0.68212 0.25367 0.96585 0.05237 -0.44719 0.89441 0.00000 -0.55629 0.82348 0.11124 0.38475 0.92300 0.00012 -0.44719 0.89441 0.00000 0.25367 0.96585 0.05237 0.32981 0.65258 0.68212 -0.56157 0.25974 0.78555 -0.55623 0.05267 0.82934 0.32981 0.65258 0.68212 0.13837 0.62423 0.76885 -0.56157 0.25974 0.78555 0.13837 0.62423 0.76885 -0.56151 0.54082 0.62621 -0.56157 0.25974 0.78555 0.13837 0.62423 0.76885 0.26603 0.88577 0.38026 -0.56151 0.54082 0.62621 0.26603 0.88577 0.38026 -0.56114 0.73974 0.37132 -0.56151 0.54082 0.62621 0.26603 0.88577 0.38026 0.13034 0.95618 0.26209 -0.56114 0.73974 0.37132 0.13034 0.95618 0.26209 -0.55629 0.82348 0.11124 -0.56114 0.73974 0.37132 0.13034 0.95618 0.26209 0.25367 0.96585 0.05237 -0.55629 0.82348 0.11124 0.44719 0.89441 0.00000 0.70894 0.70168 0.07071 0.89441 0.31065 0.32170 0.89441 0.31065 0.32170 0.70894 0.70168 0.07071 0.56127 0.78234 0.27000 0.56127 0.78234 0.27000 0.56117 0.61922 0.54918 0.89441 0.31065 0.32170 0.89441 0.31065 0.32170 0.56117 0.61922 0.54918 0.56151 0.36235 0.74389 0.89441 0.31065 0.32170 0.56151 0.36235 0.74389 0.44881 0.08411 0.88965 0.44881 0.08411 0.88965 0.25550 0.17750 0.95035 0.89441 0.31065 0.32170 -0.55620 0.82437 0.10495 -0.44719 0.89441 0.00000 -0.98993 0.09821 0.10172 -0.98993 0.09821 0.10172 -0.56124 0.74468 0.36110 -0.55620 0.82437 0.10495 -0.98993 0.09821 0.10172 -0.56139 0.54756 0.62044 -0.56124 0.74468 0.36110 -0.98993 0.09821 0.10172 -0.56151 0.26444 0.78405 -0.56139 0.54756 0.62044 -0.98993 0.09821 0.10172 -0.55666 0.05448 0.82891 -0.56151 0.26444 0.78405 -0.16630 0.62728 0.76080 -0.56221 0.21409 0.79876 -0.98993 0.09821 0.10172 -0.98993 0.09821 0.10172 -0.56221 0.21409 0.79876 -0.55666 0.05448 0.82891 0.55623 0.82931 0.05280 0.70708 0.70708 0.00000 -0.44719 0.89441 0.00000 0.55623 0.82931 0.05280 -0.44719 0.89441 0.00000 -0.55620 0.82437 0.10495 -0.17151 0.98321 0.06174 0.70894 0.70168 0.07071 0.44719 0.89441 0.00000 0.89441 0.31065 0.32170 0.25550 0.17750 0.95035 -0.21039 0.43611 0.87494 -0.16630 0.62728 0.76080 -0.21039 0.43611 0.87494 -0.55531 0.55696 0.61754 -0.21039 0.43611 0.87494 -0.16630 0.62728 0.76080 0.89441 0.31065 0.32170 0.89441 0.31065 0.32170 -0.16630 0.62728 0.76080 -0.98993 0.09821 0.10172 0.20084 0.07520 0.97671 0.72289 -0.68145 0.11405 0.46928 -0.39134 0.79156 0.45180 0.08692 0.88784 0.20084 0.07520 0.97671 0.46928 -0.39134 0.79156 -0.55666 0.05448 0.82891 -0.56221 0.21409 0.79876 0.20084 0.07520 0.97671 0.45180 0.08692 0.88784 -0.55666 0.05448 0.82891 0.20084 0.07520 0.97671 -0.48506 -0.72759 0.48506 -0.30149 0.90451 0.30149 0.57735 0.57735 0.57732 0.23569 -0.94281 0.23569 -0.48506 -0.72759 0.48506 0.57735 0.57735 0.57732 0.23569 -0.94281 0.23569 -0.70980 -0.70171 0.06122 -0.76849 -0.62737 0.12574 -0.17280 -0.47945 0.86035 -0.44349 -0.89627 0.00000 -0.19355 -0.98108 0.00024 -0.19355 -0.98108 0.00024 -0.07968 -0.50758 0.85788 -0.17280 -0.47945 0.86035 -0.07770 -0.99695 0.00040 -0.76849 -0.62737 0.12574 -0.07968 -0.50758 0.85788 -0.07968 -0.50758 0.85788 -0.19355 -0.98108 0.00024 -0.07770 -0.99695 0.00040 -0.76849 -0.62737 0.12574 -0.07770 -0.99695 0.00040 0.05649 -0.99838 0.00012 0.05649 -0.99838 0.00012 0.72289 -0.68145 0.11405 -0.76849 -0.62737 0.12574 0.72289 -0.68145 0.11405 -0.48506 -0.72759 0.48506 0.23569 -0.94281 0.23569 0.23569 -0.94281 0.23569 -0.76849 -0.62737 0.12574 0.72289 -0.68145 0.11405 0.05649 -0.99838 0.00012 0.95486 -0.29701 -0.00003 0.72289 -0.68145 0.11405 -0.10105 0.57927 0.80880 -0.43837 0.89877 -0.00024 0.17179 0.98511 0.00055 0.17179 0.98511 0.00055 0.23920 0.65365 0.71798 -0.10105 0.57927 0.80880 -0.43837 0.89877 -0.00024 -0.10105 0.57927 0.80880 -0.34321 0.64153 0.68600 -0.34321 0.64153 0.68600 -0.25459 0.65569 0.71078 -0.43837 0.89877 -0.00024 -0.43837 0.89877 -0.00024 -0.25459 0.65569 0.71078 -0.22813 0.83316 0.50374 -0.22813 0.83316 0.50374 -0.21302 0.93899 0.26994 -0.43837 0.89877 -0.00024 -0.43837 0.89877 -0.00024 -0.21302 0.93899 0.26994 -0.17151 0.98321 0.06174 -0.17151 0.98321 0.06174 -0.25874 0.96594 0.00000 -0.43837 0.89877 -0.00024 0.23920 0.65365 0.71798 0.17179 0.98511 0.00055 0.38475 0.92300 0.00012 0.38475 0.92300 0.00012 0.32981 0.65258 0.68212 0.23920 0.65365 0.71798 -0.17151 0.98321 0.06174 0.44719 0.89441 0.00000 -0.25874 0.96594 0.00000</float_array>
					<technique_common>
						<accessor count="549" source="#ShapeIndexedFaceS_009-Geometry-Normals-array" stride="3">
							<param type="float" name="X"></param>
							<param type="float" name="Y"></param>
							<param type="float" name="Z"></param>
						</accessor>
					</technique_common>
				</source>
				<vertices id="ShapeIndexedFaceS_009-Geometry-Vertex">
					<input semantic="POSITION" source="#ShapeIndexedFaceS_009-Geometry-Position"/>
				</vertices>
				<triangles count="183" material="Material_007">
					<input offset="0" semantic="VERTEX" source="#ShapeIndexedFaceS_009-Geometry-Vertex"/>
					<input offset="1" semantic="NORMAL" source="#ShapeIndexedFaceS_009-Geometry-Normals"/>
					<p>1 0 0 1 2 2 5 3 4 4 3 5 4 6 1 7 3 8 8 9 7 10 6 11 11 12 10 13 9 14 11 15 12 16 10 17 12 18 11 19 13 20 11 21 14 22 13 23 9 24 15 25 11 26 9 27 16 28 15 29 16 30 17 31 15 32 16 33 18 34 17 35 18 36 19 37 17 38 18 39 20 40 19 41 21 42 20 43 18 44 22 45 20 46 21 47 22 48 21 49 23 50 26 51 25 52 24 53 24 54 28 55 27 56 24 57 25 58 28 59 25 60 26 61 29 62 27 63 31 64 30 65 28 66 32 67 27 68 32 69 33 70 27 71 33 72 34 73 27 74 27 75 34 76 35 77 35 78 31 79 27 80 9 81 10 82 36 83 36 84 37 85 9 86 6 87 39 88 38 89 6 90 38 91 8 92 39 93 41 94 40 95 39 96 40 97 38 98 41 99 43 100 42 101 41 102 42 103 40 104 43 105 45 106 44 107 43 108 44 109 42 110 45 111 47 112 46 113 45 114 46 115 44 116 47 117 13 118 14 119 47 120 14 121 46 122 3 123 49 124 48 125 3 126 48 127 5 128 49 129 51 130 50 131 49 132 50 133 48 134 51 135 53 136 52 137 51 138 52 139 50 140 53 141 55 142 54 143 53 144 54 145 52 146 55 147 57 148 56 149 55 150 56 151 54 152 57 153 37 154 36 155 57 156 36 157 56 158 60 159 59 160 58 161 60 162 61 163 59 164 61 165 62 166 59 167 61 168 63 169 62 170 63 171 64 172 62 173 63 174 65 175 64 176 65 177 66 178 64 179 65 180 67 181 66 182 70 183 69 184 68 185 69 186 71 187 68 188 71 189 72 190 68 191 71 192 73 193 72 194 73 195 74 196 72 197 75 198 74 199 73 200 75 201 76 202 74 203 77 204 76 205 75 206 60 207 0 208 61 209 0 210 63 211 61 212 63 213 0 214 65 215 65 216 0 217 67 218 0 219 78 220 67 221 2 222 0 223 60 224 37 225 3 226 1 227 9 228 37 229 1 230 1 231 16 232 9 233 1 234 18 235 16 236 1 237 21 238 18 239 1 240 23 241 21 242 49 243 37 244 57 245 49 246 3 247 37 248 51 249 57 250 55 251 51 252 49 253 57 254 51 255 55 256 53 257 6 258 12 259 13 260 6 261 7 262 12 263 39 264 6 265 13 266 13 267 47 268 39 269 47 270 41 271 39 272 47 273 45 274 41 275 45 276 43 277 41 278 5 279 36 280 4 281 36 282 10 283 4 284 56 285 5 286 48 287 56 288 36 289 5 290 54 291 48 292 50 293 54 294 56 295 48 296 54 297 50 298 52 299 14 300 11 301 79 302 8 303 14 304 79 305 79 306 11 307 15 308 79 309 15 310 17 311 79 312 17 313 19 314 19 315 80 316 79 317 8 318 38 319 46 320 46 321 14 322 8 323 46 324 38 325 44 326 38 327 40 328 44 329 40 330 42 331 44 332 83 333 82 334 81 335 83 336 81 337 84 338 84 339 85 340 83 341 81 342 86 343 84 344 80 345 87 346 79 347 80 348 88 349 87 350 87 351 90 352 89 353 87 354 89 355 29 356 87 357 88 358 90 359 69 360 70 361 90 362 90 363 88 364 69 365 83 366 29 367 89 368 28 369 29 370 32 371 28 372 25 373 29 374 32 375 29 376 83 377 81 378 30 379 31 380 82 381 30 382 81 383 83 384 33 385 32 386 83 387 85 388 33 389 85 390 34 391 33 392 85 393 84 394 34 395 84 396 35 397 34 398 84 399 86 400 35 401 86 402 31 403 35 404 86 405 81 406 31 407 92 408 77 409 91 410 91 411 77 412 75 413 75 414 73 415 91 416 91 417 73 418 71 419 91 420 71 421 69 422 69 423 88 424 91 425 66 426 94 427 93 428 93 429 64 430 66 431 93 432 62 433 64 434 93 435 59 436 62 437 93 438 58 439 59 440 20 441 22 442 93 443 93 444 22 445 58 446 67 447 78 448 94 449 67 450 94 451 66 452 76 453 77 454 92 455 91 456 88 457 80 458 20 459 80 460 19 461 80 462 20 463 91 464 91 465 20 466 93 467 23 468 1 469 2 470 60 471 23 472 2 473 58 474 22 475 23 476 60 477 58 478 23 479 4 480 10 481 12 482 7 483 4 484 12 485 7 486 8 487 79 488 29 489 26 490 95 491 95 492 87 493 29 494 96 495 79 496 87 497 87 498 95 499 96 500 79 501 96 502 97 503 97 504 1 505 79 506 1 507 4 508 7 509 7 510 79 511 1 512 97 513 0 514 1 515 90 516 99 517 98 518 98 519 89 520 90 521 99 522 90 523 70 524 70 525 68 526 99 527 99 528 68 529 72 530 72 531 74 532 99 533 99 534 74 535 76 536 76 537 100 538 99 539 89 540 98 541 82 542 82 543 83 544 89 545 76 546 92 547 100 548</p>
				</triangles>
			</mesh>
		</geometry>
	</library_geometries>
	<library_visual_scenes>
		<visual_scene id="Scene" name="Scene">
			<node layer="L1" id="ShapeIndexedFaceS_008" name="ShapeIndexedFaceS_008">
				<translate sid="translate">0.00000 0.00000 0.00000</translate>
				<rotate sid="rotateZ">0 0 1 0.00000</rotate>
				<rotate sid="rotateY">0 1 0 -0.00000</rotate>
				<rotate sid="rotateX">1 0 0 0.00000</rotate>
				<scale sid="scale">1.00000 1.00000 1.00000</scale>
				<instance_geometry url="#ShapeIndexedFaceS_009">
					<bind_material>
						<technique_common>
							<instance_material symbol="Material_008" target="#Material_008">
								<bind_vertex_input input_semantic="TEXCOORD" input_set="1" semantic="CHANNEL1"/>
							</instance_material>
						</technique_common>
					</bind_material>
				</instance_geometry>
			</node>
			<node layer="L1" id="ShapeIndexedFaceS_007" name="ShapeIndexedFaceS_007">
				<translate sid="translate">0.00000 0.00000 0.00000</translate>
				<rotate sid="rotateZ">0 0 1 0.00000</rotate>
				<rotate sid="rotateY">0 1 0 -0.00000</rotate>
				<rotate sid="rotateX">1 0 0 0.00000</rotate>
				<scale sid="scale">1.00000 1.00000 1.00000</scale>
				<instance_geometry url="#ShapeIndexedFaceS_009-Geometry">
					<bind_material>
						<technique_common>
							<instance_material symbol="Material_007" target="#Material_007">
								<bind_vertex_input input_semantic="TEXCOORD" input_set="1" semantic="CHANNEL1"/>
							</instance_material>
						</technique_common>
					</bind_material>
				</instance_geometry>
			</node>
			<node layer="L1" id="Lamp" name="Lamp">
				<translate sid="translate">4.07625 1.00545 5.90386</translate>
				<rotate sid="rotateZ">0 0 1 106.93632</rotate>
				<rotate sid="rotateY">0 1 0 3.16371</rotate>
				<rotate sid="rotateX">1 0 0 37.26105</rotate>
				<scale sid="scale">1.00000 1.00000 1.00000</scale>
				<instance_light url="#Spot"/>
			</node>
			<node layer="L1" id="Camera" name="Camera">
				<translate sid="translate">7.48113 -6.50764 5.34367</translate>
				<rotate sid="rotateZ">0 0 1 46.69194</rotate>
				<rotate sid="rotateY">0 1 0 0.61977</rotate>
				<rotate sid="rotateX">1 0 0 63.55930</rotate>
				<scale sid="scale">1.00000 1.00000 1.00000</scale>
				<instance_camera url="#Camera-Camera"/>
			</node>
		</visual_scene>
	</library_visual_scenes>
	<library_physics_materials>
		<physics_material id="ShapeIndexedFaceS_008-PhysicsMaterial" name="ShapeIndexedFaceS_008-PhysicsMaterial">
			<technique_common>
				<dynamic_friction>0.5</dynamic_friction>
				<restitution>0.0</restitution>
				<static_friction>0.5</static_friction>
			</technique_common>
		</physics_material>
		<physics_material id="ShapeIndexedFaceS_007-PhysicsMaterial" name="ShapeIndexedFaceS_007-PhysicsMaterial">
			<technique_common>
				<dynamic_friction>0.5</dynamic_friction>
				<restitution>0.0</restitution>
				<static_friction>0.5</static_friction>
			</technique_common>
		</physics_material>
	</library_physics_materials>
	<library_physics_models>
		<physics_model id="Scene-PhysicsModel" name="Scene-PhysicsModel">
			<rigid_body name="ShapeIndexedFaceS_008-RigidBody" sid="ShapeIndexedFaceS_008-RigidBody">
				<technique_common>
					<dynamic>false</dynamic>
					<mass>0</mass>
					<instance_physics_material url="#ShapeIndexedFaceS_008-PhysicsMaterial"/>
					<shape>
						<instance_geometry url="#ShapeIndexedFaceS_009"/>
					</shape>
				</technique_common>
			</rigid_body>
			<rigid_body name="ShapeIndexedFaceS_007-RigidBody" sid="ShapeIndexedFaceS_007-RigidBody">
				<technique_common>
					<dynamic>false</dynamic>
					<mass>0</mass>
					<instance_physics_material url="#ShapeIndexedFaceS_007-PhysicsMaterial"/>
					<shape>
						<instance_geometry url="#ShapeIndexedFaceS_009-Geometry"/>
					</shape>
				</technique_common>
			</rigid_body>
		</physics_model>
	</library_physics_models>
	<library_physics_scenes>
		<physics_scene id="Scene-Physics" name="Scene-Physics">
			<instance_physics_model url="#Scene-PhysicsModel">
				<instance_rigid_body body="ShapeIndexedFaceS_008-RigidBody" target="#ShapeIndexedFaceS_008"/>
				<instance_rigid_body body="ShapeIndexedFaceS_007-RigidBody" target="#ShapeIndexedFaceS_007"/>
			</instance_physics_model>
		</physics_scene>
	</library_physics_scenes>
	<scene>
		<instance_physics_scene url="#Scene-Physics"/>
		<instance_visual_scene url="#Scene"/>
	</scene>
</COLLADA>