<?xml version="1.0" encoding="utf-8"?>
<COLLADA version="1.4.0" xmlns="http://www.collada.org/2005/11/COLLADASchema">
	<asset>
		<contributor>
			<author>Illusoft Collada 1.4.0 plugin for Blender - http://colladablender.illusoft.com</author>
			<authoring_tool>Blender v:249 - Illusoft Collada Exporter v:0.3.162</authoring_tool>
			<comments></comments>
			<copyright></copyright>
			<source_data>file://</source_data>
		</contributor>
		<created>2012-02-24T15:51:39.334150</created>
		<modified>2012-02-24T15:51:39.334172</modified>
		<unit meter="1" name="meter"/>
		<up_axis>Z_UP</up_axis>
	</asset>
	<library_cameras>
		<camera id="Camera-Camera" name="Camera-Camera">
			<optics>
				<technique_common>
					<perspective>
						<yfov>49.13434</yfov>
						<znear>0.1</znear>
						<zfar>100.0</zfar>
					</perspective>
				</technique_common>
			</optics>
		</camera>
	</library_cameras>
	<library_effects>
		<effect id="Material_005-fx" name="Material_005-fx">
			<profile_COMMON>
				<technique sid="blender">
					<phong>
						<emission>
							<color>0.00000 0.00000 0.00000 1</color>
						</emission>
						<ambient>
							<color>0.00000 0.00000 0.00000 1</color>
						</ambient>
						<diffuse>
							<color>0.90000 0.90000 0.90000 1</color>
						</diffuse>
						<specular>
							<color>0.12500 0.12500 0.12500 1</color>
						</specular>
						<shininess>
							<float>25.75</float>
						</shininess>
						<reflective>
							<color>0.00000 0.00000 0.00000 1</color>
						</reflective>
						<reflectivity>
							<float>0.0</float>
						</reflectivity>
						<transparent>
							<color>1 1 1 1</color>
						</transparent>
						<transparency>
							<float>0.0</float>
						</transparency>
					</phong>
				</technique>
			</profile_COMMON>
		</effect>
	</library_effects>
	<library_lights>
		<light id="Spot" name="Spot">
			<technique_common>
				<point>
					<color>1.00000 1.00000 1.00000</color>
					<constant_attenuation>1.0</constant_attenuation>
					<linear_attenuation>0.0</linear_attenuation>
					<quadratic_attenuation>0.0</quadratic_attenuation>
				</point>
			</technique_common>
		</light>
	</library_lights>
	<library_materials>
		<material id="Material_005" name="Material_005">
			<instance_effect url="#Material_005-fx"/>
		</material>
	</library_materials>
	<library_geometries>
		<geometry id="ShapeIndexedFaceS_006" name="ShapeIndexedFaceS_006">
			<mesh>
				<source id="ShapeIndexedFaceS_006-Position">
					<float_array count="411" id="ShapeIndexedFaceS_006-Position-array">-0.02000 0.02892 0.02397 0.01100 0.02581 0.02086 0.04000 0.02892 0.02397 0.03500 0.02581 0.02086 0.04000 0.00247 -0.00247 0.03500 0.00884 0.00389 0.03410 0.00884 0.00389 0.03410 0.00247 -0.00247 0.01100 0.00945 0.00450 -0.01410 0.00945 0.00450 -0.02000 0.00247 -0.00247 -0.01410 0.00247 -0.00247 -0.01410 -0.00247 0.00247 -0.02000 -0.00247 0.00247 -0.01410 -0.00100 0.00395 -0.02000 0.02192 0.02687 0.04000 0.02192 0.02687 0.03410 -0.00100 0.00395 0.04000 -0.00247 0.00247 0.03410 -0.00247 0.00247 -0.02000 0.02892 0.03825 0.04000 0.02892 0.03825 0.02900 0.02279 0.04439 0.03410 0.00945 0.05772 0.02900 0.00945 0.05772 0.04000 0.00247 0.06470 0.03410 0.00247 0.06470 -0.00700 0.02279 0.04439 0.03410 -0.00100 0.05827 0.04000 0.02192 0.03536 -0.02026 0.02192 0.03536 0.04000 -0.00247 0.05975 0.03410 -0.00247 0.05975 -0.02247 0.02032 0.03696 -0.03410 -0.00100 0.05827 -0.03150 0.01768 0.03960 -0.04000 0.00495 0.05233 -0.04000 -0.00247 0.05975 -0.03410 -0.00247 0.05975 -0.02113 0.02096 0.03631 -0.02068 0.02631 0.04087 -0.02000 0.02788 0.03929 -0.02247 0.02527 0.04191 -0.01650 0.01921 0.04797 -0.03150 0.02263 0.04455 -0.00700 0.00945 0.05772 -0.00950 0.01921 0.04797 -0.00950 0.00945 0.05772 -0.03410 0.00945 0.05772 -0.04000 0.00990 0.05728 -0.01650 0.00945 0.05772 -0.03410 0.00247 0.06470 -0.04000 0.00247 0.06470 0.04000 0.00137 0.06545 0.03410 0.00137 0.06545 0.04000 0.00002 0.06572 0.03410 0.00002 0.06572 0.04000 -0.00131 0.06547 0.03410 -0.00131 0.06547 0.04000 -0.00247 0.06470 0.03410 -0.00247 0.06470 0.04000 -0.00322 0.06360 0.03410 -0.00322 0.06360 0.04000 -0.00350 0.06224 0.03410 -0.00350 0.06224 0.04000 -0.00325 0.06092 0.03410 -0.00325 0.06092 -0.03410 0.00137 0.06545 -0.04000 0.00137 0.06545 -0.03410 0.00002 0.06572 -0.04000 0.00002 0.06572 -0.03410 -0.00131 0.06547 -0.04000 -0.00131 0.06547 -0.03410 -0.00247 0.06470 -0.04000 -0.00247 0.06470 -0.03410 -0.00322 0.06360 -0.04000 -0.00322 0.06360 -0.03410 -0.00350 0.06224 -0.04000 -0.00350 0.06224 -0.03410 -0.00325 0.06092 -0.04000 -0.00325 0.06092 0.04000 -0.00322 0.00137 0.03410 -0.00322 0.00137 0.04000 -0.00350 0.00002 0.03410 -0.00350 0.00002 0.04000 -0.00325 -0.00131 0.03410 -0.00325 -0.00131 0.04000 -0.00247 -0.00247 0.03410 -0.00247 -0.00247 0.04000 -0.00137 -0.00322 0.03410 -0.00137 -0.00322 0.04000 -0.00002 -0.00350 0.03410 -0.00002 -0.00350 0.04000 0.00131 -0.00325 0.03410 0.00131 -0.00325 -0.01410 -0.00322 0.00137 -0.02000 -0.00322 0.00137 -0.01410 -0.00350 0.00002 -0.02000 -0.00350 0.00002 -0.01410 -0.00325 -0.00131 -0.02000 -0.00325 -0.00131 -0.01410 -0.00247 -0.00247 -0.02000 -0.00247 -0.00247 -0.01410 -0.00137 -0.00322 -0.02000 -0.00137 -0.00322 -0.01410 -0.00002 -0.00350 -0.02000 -0.00002 -0.00350 -0.01410 0.00131 -0.00325 -0.02000 0.00131 -0.00325 -0.00700 0.00496 0.05796 -0.00700 0.00623 0.05390 -0.00700 0.00835 0.05048 -0.00700 0.01124 0.04769 -0.00700 0.01465 0.04567 -0.00700 0.01860 0.04452 0.02900 0.00496 0.05796 0.02900 0.00623 0.05390 0.02900 0.00835 0.05048 0.02900 0.01124 0.04768 0.02900 0.01465 0.04567 0.02900 0.01860 0.04452 -0.01650 0.01202 0.05162 -0.01650 0.01000 0.05423 -0.01650 0.01556 0.04910 -0.01650 0.00857 0.05777 -0.00950 0.01202 0.05162 -0.00950 0.01000 0.05423 -0.00950 0.01556 0.04911 -0.00950 0.00857 0.05777 -0.02000 0.02192 0.03333 0.03500 0.01308 0.01662 0.03500 0.00947 0.01081 0.03500 0.01901 0.02026 0.01100 0.01308 0.01662 0.01100 0.01894 0.02024 0.01100 0.00947 0.01081 0.01100 0.00877 0.00447</float_array>
					<technique_common>
						<accessor count="137" source="#ShapeIndexedFaceS_006-Position-array" stride="3">
							<param type="float" name="X"></param>
							<param type="float" name="Y"></param>
							<param type="float" name="Z"></param>
						</accessor>
					</technique_common>
				</source>
				<source id="ShapeIndexedFaceS_006-Normals">
					<float_array count="2430" id="ShapeIndexedFaceS_006-Normals-array">0.33219 0.49898 -0.80038 -0.46825 0.73080 -0.49663 0.54335 0.74645 -0.38414 -0.46373 0.51210 -0.72295 0.33219 0.49898 -0.80038 0.54335 0.74645 -0.38414 -0.46373 0.51210 -0.72295 0.54335 0.74645 -0.38414 0.62655 0.50517 -0.59343 -0.46376 0.72243 -0.51277 -0.46373 0.51210 -0.72295 0.62655 0.50517 -0.59343 -0.85852 0.33757 -0.38597 -0.23890 0.85357 -0.46290 -0.46376 0.72243 -0.51277 -0.85852 0.33757 -0.38597 -0.46376 0.72243 -0.51277 0.62655 0.50517 -0.59343 0.17435 0.51143 -0.84143 0.33219 0.49898 -0.80038 0.84896 0.21491 -0.48271 0.17435 0.51143 -0.84143 -0.46825 0.73080 -0.49663 0.33219 0.49898 -0.80038 -0.85849 0.33760 -0.38597 -0.46825 0.73080 -0.49663 0.17435 0.51143 -0.84143 0.17435 0.51143 -0.84143 0.85849 0.31098 -0.40773 -0.85849 0.33760 -0.38597 0.57472 -0.78271 0.23884 -0.70870 -0.54402 0.44914 0.89523 -0.34361 0.28367 -0.70870 -0.54402 0.44914 0.57472 -0.78271 0.23884 -0.73449 -0.62691 0.25968 0.62224 -0.64742 0.43999 -0.73449 -0.62691 0.25968 0.57472 -0.78271 0.23884 0.57472 -0.78271 0.23884 -0.69768 -0.71511 0.04236 0.62224 -0.64742 0.43999 -0.80114 -0.47337 0.36610 0.85839 -0.38496 0.33900 -0.69768 -0.71511 0.04236 -0.69768 -0.71511 0.04236 0.85839 -0.38496 0.33900 0.62224 -0.64742 0.43999 -0.47038 0.45357 0.75695 0.62224 0.64742 0.43999 -0.64724 0.68819 0.32777 0.62224 0.64742 0.43999 -0.47038 0.45357 0.75695 -0.17435 0.51143 0.84143 -0.17435 0.51143 0.84143 -0.47038 0.45357 0.75695 -0.90613 0.17203 0.38639 0.62224 0.64742 0.43999 -0.17435 0.51143 0.84143 0.85839 0.33897 0.38499 0.85839 0.33897 0.38499 -0.17435 0.51143 0.84143 -0.85839 0.31379 0.40577 -0.47038 0.45357 0.75695 -0.64724 0.68819 0.32777 0.36064 0.59883 0.71505 -0.71355 -0.49782 -0.49290 0.54332 -0.79946 -0.25614 -0.42402 -0.86621 -0.26432 -0.42402 -0.86621 -0.26432 0.54332 -0.79946 -0.25614 0.70885 -0.54607 -0.44639 -0.89532 -0.34483 -0.28190 -0.42402 -0.86621 -0.26432 0.70885 -0.54607 -0.44639 0.50465 -0.85250 -0.13614 -0.39265 0.05927 -0.91775 -0.42402 -0.86621 -0.26432 -0.63344 -0.04538 -0.77242 -0.39265 0.05927 -0.91775 0.50465 -0.85250 -0.13614 -0.81762 -0.31312 -0.48314 -0.63344 -0.04538 -0.77242 0.50465 -0.85250 -0.13614 -0.81762 -0.31312 -0.48314 0.50465 -0.85250 -0.13614 -0.80126 -0.45027 -0.39393 -0.80126 -0.45027 -0.39393 0.50465 -0.85250 -0.13614 0.80126 -0.47560 -0.36293 -0.66454 -0.08249 -0.74264 -0.71355 -0.49782 -0.49290 -0.42402 -0.86621 -0.26432 -0.39265 0.05927 -0.91775 -0.66454 -0.08249 -0.74264 -0.42402 -0.86621 -0.26432 -0.79073 0.56554 0.23417 -0.61489 0.78823 0.02383 0.36064 0.59883 0.71505 -0.64724 0.68819 0.32777 -0.79073 0.56554 0.23417 0.36064 0.59883 0.71505 0.36064 0.59883 0.71505 -0.61489 0.78823 0.02383 -0.28282 0.92428 0.25626 -0.34095 0.90643 0.24915 0.37736 0.58992 0.71383 -0.28282 0.92428 0.25626 -0.28282 0.92428 0.25626 0.37736 0.58992 0.71383 0.36064 0.59883 0.71505 0.36064 0.59883 0.71505 -0.38044 0.51689 0.76684 0.73098 0.27750 0.62337 0.36064 0.59883 0.71505 0.37736 0.58992 0.71383 -0.38044 0.51689 0.76684 -0.84896 0.21491 0.48274 0.73098 0.27750 0.62337 -0.38044 0.51689 0.76684 -0.79064 0.56813 0.22813 0.17435 0.51143 0.84143 -0.34095 0.90643 0.24915 -0.34095 0.90643 0.24915 0.72817 0.35594 0.58568 0.37736 0.58992 0.71383 -0.34095 0.90643 0.24915 0.17435 0.51143 0.84143 0.72817 0.35594 0.58568 0.17435 0.51143 0.84143 -0.78225 0.39656 0.48039 0.92904 0.23548 0.28529 -0.79064 0.56813 0.22813 -0.78225 0.39656 0.48039 0.17435 0.51143 0.84143 -0.85839 0.31379 0.40577 0.32112 0.42467 0.84646 0.85839 0.33897 0.38499 -0.85839 0.31379 0.40577 -0.32112 0.30955 0.89502 0.32112 0.42467 0.84646 0.71310 0.05152 0.69912 0.32112 0.42467 0.84646 -0.32112 0.30955 0.89502 0.71310 0.05152 0.69912 -0.32112 0.30955 0.89502 -0.71310 -0.04086 0.69985 -0.71310 -0.04086 0.69985 0.32127 -0.29752 0.89901 0.71310 0.05152 0.69912 0.32127 -0.29752 0.89901 -0.71310 -0.04086 0.69985 -0.32127 -0.41493 0.85122 -0.32127 -0.41493 0.85122 0.86129 -0.33296 0.38371 0.32127 -0.29752 0.89901 0.86129 -0.33296 0.38371 -0.32127 -0.41493 0.85122 -0.86129 -0.38050 0.33665 -0.86129 -0.38050 0.33665 0.32112 -0.84646 0.42467 0.86129 -0.33296 0.38371 -0.32112 -0.89502 0.30955 0.32112 -0.84646 0.42467 -0.86129 -0.38050 0.33665 -0.32112 -0.89502 0.30955 0.71310 -0.69915 0.05152 0.32112 -0.84646 0.42467 0.71310 -0.69915 0.05152 -0.32112 -0.89502 0.30955 -0.71310 -0.69985 -0.04083 -0.71310 -0.69985 -0.04083 0.32127 -0.89901 -0.29749 0.71310 -0.69915 0.05152 0.32127 -0.89901 -0.29749 -0.71310 -0.69985 -0.04083 -0.32127 -0.85122 -0.41493 -0.32127 -0.85122 -0.41493 0.70885 -0.54607 -0.44639 0.32127 -0.89901 -0.29749 -0.89532 -0.34483 -0.28190 0.70885 -0.54607 -0.44639 -0.32127 -0.85122 -0.41493 -0.78225 0.39656 0.48039 0.32112 0.42467 0.84646 0.92904 0.23548 0.28529 -0.78225 0.39656 0.48039 -0.32112 0.30955 0.89502 0.32112 0.42467 0.84646 0.71310 0.05152 0.69912 0.32112 0.42467 0.84646 -0.32112 0.30955 0.89502 0.71310 0.05152 0.69912 -0.32112 0.30955 0.89502 -0.71310 -0.04086 0.69985 -0.71310 -0.04086 0.69985 0.32127 -0.29752 0.89901 0.71310 0.05152 0.69912 0.32127 -0.29752 0.89901 -0.71310 -0.04086 0.69985 -0.32127 -0.41493 0.85122 -0.32127 -0.41493 0.85122 0.86129 -0.33296 0.38371 0.32127 -0.29752 0.89901 0.86129 -0.33296 0.38371 -0.32127 -0.41493 0.85122 -0.86129 -0.38050 0.33665 -0.86129 -0.38050 0.33665 0.32112 -0.84646 0.42467 0.86129 -0.33296 0.38371 -0.32112 -0.89502 0.30955 0.32112 -0.84646 0.42467 -0.86129 -0.38050 0.33665 -0.32112 -0.89502 0.30955 0.71310 -0.69915 0.05152 0.32112 -0.84646 0.42467 0.71310 -0.69915 0.05152 -0.32112 -0.89502 0.30955 -0.71310 -0.69985 -0.04083 -0.71310 -0.69985 -0.04083 0.32127 -0.89901 -0.29749 0.71310 -0.69915 0.05152 0.32127 -0.89901 -0.29749 -0.71310 -0.69985 -0.04083 -0.32127 -0.85122 -0.41493 -0.32127 -0.85122 -0.41493 0.80126 -0.47560 -0.36293 0.32127 -0.89901 -0.29749 -0.80126 -0.45027 -0.39393 0.80126 -0.47560 -0.36293 -0.32127 -0.85122 -0.41493 -0.80114 -0.47337 0.36610 0.32112 -0.84646 0.42463 0.85839 -0.38496 0.33900 -0.80114 -0.47337 0.36610 -0.32112 -0.89505 0.30940 0.32112 -0.84646 0.42463 0.71310 -0.69915 0.05139 0.32112 -0.84646 0.42463 -0.32112 -0.89505 0.30940 0.71310 -0.69915 0.05139 -0.32112 -0.89505 0.30940 -0.71310 -0.69985 -0.04086 -0.71310 -0.69985 -0.04086 0.32124 -0.89908 -0.29740 0.71310 -0.69915 0.05139 0.32124 -0.89908 -0.29740 -0.71310 -0.69985 -0.04086 -0.32124 -0.85131 -0.41475 -0.32124 -0.85131 -0.41475 0.86132 -0.38377 -0.33287 0.32124 -0.89908 -0.29740 0.86132 -0.38377 -0.33287 -0.32124 -0.85131 -0.41475 -0.86132 -0.33668 -0.38044 -0.86132 -0.33668 -0.38044 0.32112 -0.42460 -0.84649 0.86132 -0.38377 -0.33287 -0.32112 -0.30937 -0.89505 0.32112 -0.42460 -0.84649 -0.86132 -0.33668 -0.38044 -0.32112 -0.30937 -0.89505 0.71310 -0.05139 -0.69915 0.32112 -0.42460 -0.84649 0.71310 -0.05139 -0.69915 -0.32112 -0.30937 -0.89505 -0.71310 0.04089 -0.69985 -0.71310 0.04089 -0.69985 0.32124 0.29740 -0.89904 0.71310 -0.05139 -0.69915 0.32124 0.29740 -0.89904 -0.71310 0.04089 -0.69985 -0.32124 0.41475 -0.85131 -0.32124 0.41475 -0.85131 0.62655 0.50517 -0.59343 0.32124 0.29740 -0.89904 -0.85852 0.33757 -0.38597 0.62655 0.50517 -0.59343 -0.32124 0.41475 -0.85131 -0.70870 -0.54402 0.44914 0.32112 -0.84646 0.42463 0.89523 -0.34361 0.28367 -0.70870 -0.54402 0.44914 -0.32112 -0.89505 0.30940 0.32112 -0.84646 0.42463 0.71310 -0.69915 0.05139 0.32112 -0.84646 0.42463 -0.32112 -0.89505 0.30940 0.71310 -0.69915 0.05139 -0.32112 -0.89505 0.30940 -0.71310 -0.69985 -0.04086 -0.71310 -0.69985 -0.04086 0.32124 -0.89908 -0.29737 0.71310 -0.69915 0.05139 0.32124 -0.89908 -0.29737 -0.71310 -0.69985 -0.04086 -0.32124 -0.85131 -0.41475 -0.32124 -0.85131 -0.41475 0.86132 -0.38377 -0.33290 0.32124 -0.89908 -0.29737 0.86132 -0.38377 -0.33290 -0.32124 -0.85131 -0.41475 -0.86132 -0.33668 -0.38044 -0.86132 -0.33668 -0.38044 0.32112 -0.42460 -0.84649 0.86132 -0.38377 -0.33290 -0.32112 -0.30937 -0.89505 0.32112 -0.42460 -0.84649 -0.86132 -0.33668 -0.38044 -0.32112 -0.30937 -0.89505 0.71310 -0.05139 -0.69915 0.32112 -0.42460 -0.84649 0.71310 -0.05139 -0.69915 -0.32112 -0.30937 -0.89505 -0.71310 0.04089 -0.69985 -0.71310 0.04089 -0.69985 0.32124 0.29740 -0.89904 0.71310 -0.05139 -0.69915 0.32124 0.29740 -0.89904 -0.71310 0.04089 -0.69985 -0.32124 0.41475 -0.85131 -0.32124 0.41475 -0.85131 0.85849 0.31098 -0.40773 0.32124 0.29740 -0.89904 -0.85849 0.33760 -0.38597 0.85849 0.31098 -0.40773 -0.32124 0.41475 -0.85131 0.85839 -0.38496 0.33900 0.62655 0.50517 -0.59343 0.54335 0.74645 -0.38414 0.54335 0.74645 -0.38414 0.62224 -0.64742 0.43999 0.85839 -0.38496 0.33900 0.62224 -0.64742 0.43999 0.54335 0.74645 -0.38414 0.62224 0.64742 0.43999 0.54332 -0.79946 -0.25614 0.62224 -0.64742 0.43999 0.62224 0.64742 0.43999 0.85839 0.33897 0.38499 0.54332 -0.79946 -0.25614 0.62224 0.64742 0.43999 0.70885 -0.54607 -0.44639 0.54332 -0.79946 -0.25614 0.85839 0.33897 0.38499 0.86129 -0.33296 0.38371 0.70885 -0.54607 -0.44639 0.85839 0.33897 0.38499 0.71310 0.05152 0.69912 0.86129 -0.33296 0.38371 0.85839 0.33897 0.38499 0.70885 -0.54607 -0.44639 0.86129 -0.33296 0.38371 0.71310 -0.69915 0.05152 0.32112 0.42467 0.84646 0.71310 0.05152 0.69912 0.85839 0.33897 0.38499 0.86129 -0.33296 0.38371 0.71310 0.05152 0.69912 0.32127 -0.29752 0.89901 0.71310 -0.69915 0.05152 0.86129 -0.33296 0.38371 0.32112 -0.84646 0.42467 0.70885 -0.54607 -0.44639 0.71310 -0.69915 0.05152 0.32127 -0.89901 -0.29749 0.86132 -0.38377 -0.33287 0.62655 0.50517 -0.59343 0.85839 -0.38496 0.33900 0.71310 -0.69915 0.05139 0.86132 -0.38377 -0.33287 0.85839 -0.38496 0.33900 0.62655 0.50517 -0.59343 0.86132 -0.38377 -0.33287 0.71310 -0.05139 -0.69915 0.32112 -0.84646 0.42463 0.71310 -0.69915 0.05139 0.85839 -0.38496 0.33900 0.86132 -0.38377 -0.33287 0.71310 -0.69915 0.05139 0.32124 -0.89908 -0.29740 0.71310 -0.05139 -0.69915 0.86132 -0.38377 -0.33287 0.32112 -0.42460 -0.84649 0.62655 0.50517 -0.59343 0.71310 -0.05139 -0.69915 0.32124 0.29740 -0.89904 -0.17435 0.51143 0.84143 -0.42402 -0.86621 -0.26432 -0.85839 0.31379 0.40577 -0.42402 -0.86621 -0.26432 -0.89532 -0.34483 -0.28190 -0.85839 0.31379 0.40577 -0.86129 -0.38050 0.33665 -0.85839 0.31379 0.40577 -0.89532 -0.34483 -0.28190 -0.71310 -0.04086 0.69985 -0.85839 0.31379 0.40577 -0.86129 -0.38050 0.33665 -0.89532 -0.34483 -0.28190 -0.71310 -0.69985 -0.04083 -0.86129 -0.38050 0.33665 -0.32112 0.30955 0.89502 -0.85839 0.31379 0.40577 -0.71310 -0.04086 0.69985 -0.86129 -0.38050 0.33665 -0.32127 -0.41493 0.85122 -0.71310 -0.04086 0.69985 -0.71310 -0.69985 -0.04083 -0.32112 -0.89502 0.30955 -0.86129 -0.38050 0.33665 -0.89532 -0.34483 -0.28190 -0.32127 -0.85122 -0.41493 -0.71310 -0.69985 -0.04083 0.92904 0.23548 0.28529 0.50465 -0.85250 -0.13614 0.17435 0.51143 0.84143 0.92904 0.23548 0.28529 0.80126 -0.47560 -0.36293 0.50465 -0.85250 -0.13614 0.86129 -0.33296 0.38371 0.80126 -0.47560 -0.36293 0.92904 0.23548 0.28529 0.71310 0.05152 0.69912 0.86129 -0.33296 0.38371 0.92904 0.23548 0.28529 0.80126 -0.47560 -0.36293 0.86129 -0.33296 0.38371 0.71310 -0.69915 0.05152 0.32112 0.42467 0.84646 0.71310 0.05152 0.69912 0.92904 0.23548 0.28529 0.86129 -0.33296 0.38371 0.71310 0.05152 0.69912 0.32127 -0.29752 0.89901 0.71310 -0.69915 0.05152 0.86129 -0.33296 0.38371 0.32112 -0.84646 0.42467 0.80126 -0.47560 -0.36293 0.71310 -0.69915 0.05152 0.32127 -0.89901 -0.29749 0.55739 0.76888 0.31318 0.73098 0.27750 0.62337 0.18113 0.22022 0.95846 0.73098 0.27750 0.62337 0.55739 0.76888 0.31318 0.55730 0.66750 0.49379 0.70928 0.44917 0.54323 0.36064 0.59883 0.71505 0.73098 0.27750 0.62337 0.73098 0.27750 0.62337 0.55730 0.66750 0.49379 0.70928 0.44917 0.54323 0.36064 0.59883 0.71505 0.70928 0.44917 0.54323 0.55739 0.36137 0.74746 0.24433 0.15201 0.95767 0.36064 0.59883 0.71505 0.55739 0.36137 0.74746 -0.55739 0.73974 0.37687 -0.23453 0.48454 0.84271 -0.90613 0.17203 0.38639 -0.90613 0.17203 0.38639 -0.55730 0.62447 0.54720 -0.55739 0.73974 0.37687 -0.70925 0.40504 0.57692 -0.90613 0.17203 0.38639 -0.47038 0.45357 0.75695 -0.90613 0.17203 0.38639 -0.70925 0.40504 0.57692 -0.55730 0.62447 0.54720 -0.47038 0.45357 0.75695 -0.55736 0.29731 0.77517 -0.70925 0.40504 0.57692 -0.45000 0.13993 0.88198 -0.55736 0.29731 0.77517 -0.47038 0.45357 0.75695 0.72817 0.35594 0.58568 0.71053 0.46153 0.53108 0.37736 0.58992 0.71383 0.72817 0.35594 0.58568 0.55806 0.69997 0.44560 0.71053 0.46153 0.53108 0.71053 0.46153 0.53108 0.31935 0.37507 0.87024 0.37736 0.58992 0.71383 0.72817 0.35594 0.58568 0.18989 0.39186 0.90020 0.55806 0.69997 0.44560 -0.84896 0.21491 0.48274 -0.38044 0.51689 0.76684 -0.71044 0.51186 0.48292 -0.84896 0.21491 0.48274 -0.71044 0.51186 0.48292 -0.55779 0.73824 0.37922 -0.71044 0.51186 0.48292 -0.38044 0.51689 0.76684 -0.31938 0.46492 0.82571 -0.84896 0.21491 0.48274 -0.55779 0.73824 0.37922 -0.27186 0.29481 0.91604 -0.46825 0.73080 -0.49663 -0.85849 0.33760 -0.38597 -0.73449 -0.62691 0.25968 -0.85849 0.33760 -0.38597 -0.70870 -0.54402 0.44914 -0.73449 -0.62691 0.25968 -0.39265 0.05927 -0.91775 -0.28282 0.92428 0.25626 -0.61489 0.78823 0.02383 -0.66454 -0.08249 -0.74264 -0.39265 0.05927 -0.91775 -0.61489 0.78823 0.02383 -0.66454 -0.08249 -0.74264 -0.61489 0.78823 0.02383 -0.79073 0.56554 0.23417 -0.79073 0.56554 0.23417 -0.71355 -0.49782 -0.49290 -0.66454 -0.08249 -0.74264 -0.71355 -0.49782 -0.49290 -0.79073 0.56554 0.23417 -0.64724 0.68819 0.32777 -0.64724 0.68819 0.32777 -0.72036 -0.69198 -0.04685 -0.71355 -0.49782 -0.49290 -0.73449 -0.62691 0.25968 -0.72036 -0.69198 -0.04685 -0.64724 0.68819 0.32777 -0.46825 0.73080 -0.49663 -0.73449 -0.62691 0.25968 -0.64724 0.68819 0.32777 -0.34095 0.90643 0.24915 -0.28282 0.92428 0.25626 -0.39265 0.05927 -0.91775 -0.63344 -0.04538 -0.77242 -0.34095 0.90643 0.24915 -0.39265 0.05927 -0.91775 -0.63344 -0.04538 -0.77242 -0.79064 0.56813 0.22813 -0.34095 0.90643 0.24915 -0.63344 -0.04538 -0.77242 -0.81762 -0.31312 -0.48314 -0.79064 0.56813 0.22813 -0.81762 -0.31312 -0.48314 -0.78225 0.39656 0.48039 -0.79064 0.56813 0.22813 -0.81762 -0.31312 -0.48314 -0.80126 -0.45027 -0.39393 -0.78225 0.39656 0.48039 -0.86129 -0.38050 0.33665 -0.78225 0.39656 0.48039 -0.80126 -0.45027 -0.39393 -0.71310 -0.04086 0.69985 -0.78225 0.39656 0.48039 -0.86129 -0.38050 0.33665 -0.80126 -0.45027 -0.39393 -0.71310 -0.69985 -0.04083 -0.86129 -0.38050 0.33665 -0.32112 0.30955 0.89502 -0.78225 0.39656 0.48039 -0.71310 -0.04086 0.69985 -0.86129 -0.38050 0.33665 -0.32127 -0.41493 0.85122 -0.71310 -0.04086 0.69985 -0.71310 -0.69985 -0.04083 -0.32112 -0.89502 0.30955 -0.86129 -0.38050 0.33665 -0.80126 -0.45027 -0.39393 -0.32127 -0.85122 -0.41493 -0.71310 -0.69985 -0.04083 -0.86132 -0.33668 -0.38044 -0.70870 -0.54402 0.44914 -0.85849 0.33760 -0.38597 -0.71310 -0.69985 -0.04086 -0.70870 -0.54402 0.44914 -0.86132 -0.33668 -0.38044 -0.85849 0.33760 -0.38597 -0.71310 0.04089 -0.69985 -0.86132 -0.33668 -0.38044 -0.32112 -0.89505 0.30940 -0.70870 -0.54402 0.44914 -0.71310 -0.69985 -0.04086 -0.86132 -0.33668 -0.38044 -0.32124 -0.85131 -0.41475 -0.71310 -0.69985 -0.04086 -0.71310 0.04089 -0.69985 -0.32112 -0.30937 -0.89505 -0.86132 -0.33668 -0.38044 -0.85849 0.33760 -0.38597 -0.32124 0.41475 -0.85131 -0.71310 0.04089 -0.69985 -0.23890 0.85357 -0.46290 -0.85852 0.33757 -0.38597 -0.69768 -0.71511 0.04236 -0.85852 0.33757 -0.38597 -0.80114 -0.47337 0.36610 -0.69768 -0.71511 0.04236 -0.86132 -0.33668 -0.38044 -0.80114 -0.47337 0.36610 -0.85852 0.33757 -0.38597 -0.71310 -0.69985 -0.04086 -0.80114 -0.47337 0.36610 -0.86132 -0.33668 -0.38044 -0.85852 0.33757 -0.38597 -0.71310 0.04089 -0.69985 -0.86132 -0.33668 -0.38044 -0.32112 -0.89505 0.30940 -0.80114 -0.47337 0.36610 -0.71310 -0.69985 -0.04086 -0.86132 -0.33668 -0.38044 -0.32124 -0.85131 -0.41475 -0.71310 -0.69985 -0.04086 -0.71310 0.04089 -0.69985 -0.32112 -0.30937 -0.89505 -0.86132 -0.33668 -0.38044 -0.85852 0.33757 -0.38597 -0.32124 0.41475 -0.85131 -0.71310 0.04089 -0.69985 0.57472 -0.78271 0.23884 0.85849 0.31098 -0.40773 0.17435 0.51143 -0.84143 0.57472 -0.78271 0.23884 0.89523 -0.34361 0.28367 0.85849 0.31098 -0.40773 0.86132 -0.38377 -0.33290 0.85849 0.31098 -0.40773 0.89523 -0.34361 0.28367 0.71310 -0.69915 0.05139 0.86132 -0.38377 -0.33290 0.89523 -0.34361 0.28367 0.85849 0.31098 -0.40773 0.86132 -0.38377 -0.33290 0.71310 -0.05139 -0.69915 0.32112 -0.84646 0.42463 0.71310 -0.69915 0.05139 0.89523 -0.34361 0.28367 0.86132 -0.38377 -0.33290 0.71310 -0.69915 0.05139 0.32124 -0.89908 -0.29737 0.71310 -0.05139 -0.69915 0.86132 -0.38377 -0.33290 0.32112 -0.42460 -0.84649 0.85849 0.31098 -0.40773 0.71310 -0.05139 -0.69915 0.32124 0.29740 -0.89904 -0.46376 0.72243 -0.51277 -0.71554 0.45293 -0.53179 -0.46373 0.51210 -0.72295 -0.46376 0.72243 -0.51277 -0.24900 0.91824 -0.30787 -0.71554 0.45293 -0.53179 -0.71554 0.45293 -0.53179 -0.32301 0.22636 -0.91891 -0.46373 0.51210 -0.72295 0.71545 0.53053 -0.45454 0.84896 0.21491 -0.48271 0.33219 0.49898 -0.80038 0.33219 0.49898 -0.80038 0.32316 0.36811 -0.87179 0.71545 0.53053 -0.45454 0.71545 0.53053 -0.45454 0.56249 0.80081 -0.20557 0.84896 0.21491 -0.48271 0.22175 0.26182 -0.93927 0.84896 0.21491 -0.48271 0.56249 0.80081 -0.20557 -0.32301 0.22636 -0.91891 0.32316 0.36811 -0.87179 0.33219 0.49898 -0.80038 -0.46373 0.51210 -0.72295 -0.32301 0.22636 -0.91891 0.33219 0.49898 -0.80038 0.32316 0.36811 -0.87179 -0.32301 0.22636 -0.91891 -0.71554 0.45293 -0.53179 -0.71554 0.45293 -0.53179 0.71545 0.53053 -0.45454 0.32316 0.36811 -0.87179 -0.24900 0.91824 -0.30787 0.56249 0.80081 -0.20557 0.71545 0.53053 -0.45454 -0.71554 0.45293 -0.53179 -0.24900 0.91824 -0.30787 0.71545 0.53053 -0.45454 -0.46376 0.72243 -0.51277 -0.23890 0.85357 -0.46290 -0.24900 0.91824 -0.30787 -0.23890 0.85357 -0.46290 0.22175 0.26182 -0.93927 0.56249 0.80081 -0.20557 0.56249 0.80081 -0.20557 -0.24900 0.91824 -0.30787 -0.23890 0.85357 -0.46290 0.84896 0.21491 -0.48271 0.22175 0.26182 -0.93927 0.17435 0.51143 -0.84143 -0.69768 -0.71511 0.04236 0.22175 0.26182 -0.93927 -0.23890 0.85357 -0.46290 0.57472 -0.78271 0.23884 0.22175 0.26182 -0.93927 -0.69768 -0.71511 0.04236 0.22175 0.26182 -0.93927 0.57472 -0.78271 0.23884 0.17435 0.51143 -0.84143 0.73098 0.27750 0.62337 -0.84896 0.21491 0.48274 -0.27186 0.29481 0.91604 0.17435 0.51143 0.84143 0.18989 0.39186 0.90020 0.72817 0.35594 0.58568 0.18113 0.22022 0.95846 0.73098 0.27750 0.62337 -0.27186 0.29481 0.91604 0.18113 0.22022 0.95846 -0.27186 0.29481 0.91604 0.18989 0.39186 0.90020 0.18989 0.39186 0.90020 0.17435 0.51143 0.84143 0.50465 -0.85250 -0.13614 0.18113 0.22022 0.95846 0.18989 0.39186 0.90020 0.50465 -0.85250 -0.13614 -0.42402 -0.86621 -0.26432 0.18113 0.22022 0.95846 0.50465 -0.85250 -0.13614 0.18113 0.22022 0.95846 -0.42402 -0.86621 -0.26432 -0.23453 0.48454 0.84271 -0.23453 0.48454 0.84271 -0.42402 -0.86621 -0.26432 -0.17435 0.51143 0.84143 -0.17435 0.51143 0.84143 -0.90613 0.17203 0.38639 -0.23453 0.48454 0.84271 0.37736 0.58992 0.71383 0.31935 0.37507 0.87024 -0.38044 0.51689 0.76684 -0.31938 0.46492 0.82571 -0.38044 0.51689 0.76684 0.31935 0.37507 0.87024 0.31935 0.37507 0.87024 0.71053 0.46153 0.53108 -0.31938 0.46492 0.82571 0.71053 0.46153 0.53108 -0.71044 0.51186 0.48292 -0.31938 0.46492 0.82571 0.71053 0.46153 0.53108 0.55806 0.69997 0.44560 -0.71044 0.51186 0.48292 0.55806 0.69997 0.44560 -0.55779 0.73824 0.37922 -0.71044 0.51186 0.48292 0.55806 0.69997 0.44560 0.18989 0.39186 0.90020 -0.55779 0.73824 0.37922 0.18989 0.39186 0.90020 -0.27186 0.29481 0.91604 -0.55779 0.73824 0.37922 0.36064 0.59883 0.71505 0.24433 0.15201 0.95767 -0.47038 0.45357 0.75695 -0.45000 0.13993 0.88198 -0.47038 0.45357 0.75695 0.24433 0.15201 0.95767 0.24433 0.15201 0.95767 -0.55736 0.29731 0.77517 -0.45000 0.13993 0.88198 0.24433 0.15201 0.95767 0.55739 0.36137 0.74746 -0.55736 0.29731 0.77517 0.55739 0.36137 0.74746 -0.70925 0.40504 0.57692 -0.55736 0.29731 0.77517 0.55739 0.36137 0.74746 0.70928 0.44917 0.54323 -0.70925 0.40504 0.57692 0.70928 0.44917 0.54323 -0.55730 0.62447 0.54720 -0.70925 0.40504 0.57692 0.70928 0.44917 0.54323 0.55730 0.66750 0.49379 -0.55730 0.62447 0.54720 0.55730 0.66750 0.49379 -0.55739 0.73974 0.37687 -0.55730 0.62447 0.54720 0.55730 0.66750 0.49379 0.55739 0.76888 0.31318 -0.55739 0.73974 0.37687 0.55739 0.76888 0.31318 -0.23453 0.48454 0.84271 -0.55739 0.73974 0.37687 0.55739 0.76888 0.31318 0.18113 0.22022 0.95846 -0.23453 0.48454 0.84271 0.54335 0.74645 -0.38414 -0.46825 0.73080 -0.49663 -0.64724 0.68819 0.32777 0.54335 0.74645 -0.38414 -0.64724 0.68819 0.32777 0.62224 0.64742 0.43999 -0.73449 -0.62691 0.25968 0.62224 -0.64742 0.43999 0.54332 -0.79946 -0.25614 -0.72036 -0.69198 -0.04685 -0.73449 -0.62691 0.25968 0.54332 -0.79946 -0.25614 -0.71355 -0.49782 -0.49290 -0.72036 -0.69198 -0.04685 0.54332 -0.79946 -0.25614</float_array>
					<technique_common>
						<accessor count="810" source="#ShapeIndexedFaceS_006-Normals-array" stride="3">
							<param type="float" name="X"></param>
							<param type="float" name="Y"></param>
							<param type="float" name="Z"></param>
						</accessor>
					</technique_common>
				</source>
				<vertices id="ShapeIndexedFaceS_006-Vertex">
					<input semantic="POSITION" source="#ShapeIndexedFaceS_006-Position"/>
				</vertices>
				<triangles count="270" material="Material_005">
					<input offset="0" semantic="VERTEX" source="#ShapeIndexedFaceS_006-Vertex"/>
					<input offset="1" semantic="NORMAL" source="#ShapeIndexedFaceS_006-Normals"/>
					<p>1 0 0 1 2 2 3 3 1 4 2 5 3 6 2 7 4 8 5 9 3 10 4 11 7 12 6 13 5 14 7 15 5 16 4 17 9 18 1 19 8 20 9 21 0 22 1 23 10 24 0 25 9 26 9 27 11 28 10 29 14 30 13 31 12 32 13 33 14 34 15 35 16 36 15 37 14 38 14 39 17 40 16 41 19 42 18 43 17 44 17 45 18 46 16 47 22 48 21 49 20 50 21 51 22 52 23 53 23 54 22 55 24 56 21 57 23 58 25 59 25 60 23 61 26 62 22 63 20 64 27 65 30 66 29 67 28 68 28 69 29 70 31 71 32 72 28 73 31 74 34 75 33 76 28 77 35 78 33 79 34 80 36 81 35 82 34 83 36 84 34 85 37 86 37 87 34 88 38 89 39 90 30 91 28 92 33 93 39 94 28 95 41 96 40 97 27 98 20 99 41 100 27 101 27 102 40 103 42 104 44 105 43 106 42 107 42 108 43 109 27 110 27 111 46 112 45 113 27 114 43 115 46 116 47 117 45 118 46 119 49 120 48 121 44 122 44 123 50 124 43 125 44 126 48 127 50 128 48 129 52 130 51 131 49 132 52 133 48 134 26 135 53 136 25 137 26 138 54 139 53 140 55 141 53 142 54 143 55 144 54 145 56 146 56 147 57 148 55 149 57 150 56 151 58 152 58 153 59 154 57 155 59 156 58 157 60 158 60 159 61 160 59 161 62 162 61 163 60 164 62 165 63 166 61 167 63 168 62 169 64 170 64 171 65 172 63 173 65 174 64 175 66 176 66 177 31 178 65 179 32 180 31 181 66 182 52 183 67 184 51 185 52 186 68 187 67 188 69 189 67 190 68 191 69 192 68 193 70 194 70 195 71 196 69 197 71 198 70 199 72 200 72 201 73 202 71 203 73 204 72 205 74 206 74 207 75 208 73 209 76 210 75 211 74 212 76 213 77 214 75 215 77 216 76 217 78 218 78 219 79 220 77 221 79 222 78 223 80 224 80 225 38 226 79 227 37 228 38 229 80 230 19 231 81 232 18 233 19 234 82 235 81 236 83 237 81 238 82 239 83 240 82 241 84 242 84 243 85 244 83 245 85 246 84 247 86 248 86 249 87 250 85 251 87 252 86 253 88 254 88 255 89 256 87 257 90 258 89 259 88 260 90 261 91 262 89 263 91 264 90 265 92 266 92 267 93 268 91 269 93 270 92 271 94 272 94 273 4 274 93 275 7 276 4 277 94 278 13 279 95 280 12 281 13 282 96 283 95 284 97 285 95 286 96 287 97 288 96 289 98 290 98 291 99 292 97 293 99 294 98 295 100 296 100 297 101 298 99 299 101 300 100 301 102 302 102 303 103 304 101 305 104 306 103 307 102 308 104 309 105 310 103 311 105 312 104 313 106 314 106 315 107 316 105 317 107 318 106 319 108 320 108 321 11 322 107 323 10 324 11 325 108 326 18 327 4 328 2 329 2 330 16 331 18 332 16 333 2 334 21 335 29 336 16 337 21 338 25 339 29 340 21 341 31 342 29 343 25 344 59 345 31 346 25 347 55 348 59 349 25 350 31 351 59 352 63 353 53 354 55 355 25 356 59 357 55 358 57 359 63 360 59 361 61 362 31 363 63 364 65 365 87 366 4 367 18 368 83 369 87 370 18 371 4 372 87 373 91 374 81 375 83 376 18 377 87 378 83 379 85 380 91 381 87 382 89 383 4 384 91 385 93 386 23 387 28 388 26 389 28 390 32 391 26 392 60 393 26 394 32 395 56 396 26 397 60 398 32 399 64 400 60 401 54 402 26 403 56 404 60 405 58 406 56 407 64 408 62 409 60 410 32 411 66 412 64 413 51 414 34 415 48 416 51 417 38 418 34 419 73 420 38 421 51 422 69 423 73 424 51 425 38 426 73 427 77 428 67 429 69 430 51 431 73 432 69 433 71 434 77 435 73 436 75 437 38 438 77 439 79 440 110 441 45 442 109 443 45 444 110 445 111 446 112 447 27 448 45 449 45 450 111 451 112 452 27 453 112 454 113 455 114 456 27 457 113 458 116 459 115 460 24 461 24 462 117 463 116 464 118 465 24 466 22 467 24 468 118 469 117 470 22 471 119 472 118 473 120 474 119 475 22 476 50 477 121 478 43 479 50 480 122 481 121 482 121 483 123 484 43 485 50 486 124 487 122 488 47 489 46 490 125 491 47 492 125 493 126 494 125 495 46 496 127 497 47 498 126 499 128 500 0 501 10 502 15 503 10 504 13 505 15 506 33 507 42 508 40 509 39 510 33 511 40 512 39 513 40 514 41 515 41 516 30 517 39 518 30 519 41 520 20 521 20 522 129 523 30 524 15 525 129 526 20 527 0 528 15 529 20 530 44 531 42 532 33 533 35 534 44 535 33 536 35 537 49 538 44 539 35 540 36 541 49 542 36 543 52 544 49 545 36 546 37 547 52 548 74 549 52 550 37 551 70 552 52 553 74 554 37 555 78 556 74 557 68 558 52 559 70 560 74 561 72 562 70 563 78 564 76 565 74 566 37 567 80 568 78 569 102 570 13 571 10 572 98 573 13 574 102 575 10 576 106 577 102 578 96 579 13 580 98 581 102 582 100 583 98 584 106 585 104 586 102 587 10 588 108 589 106 590 6 591 7 592 17 593 7 594 19 595 17 596 88 597 19 598 7 599 84 600 19 601 88 602 7 603 92 604 88 605 82 606 19 607 84 608 88 609 86 610 84 611 92 612 90 613 88 614 7 615 94 616 92 617 14 618 11 619 9 620 14 621 12 622 11 623 101 624 11 625 12 626 97 627 101 628 12 629 11 630 101 631 105 632 95 633 97 634 12 635 101 636 97 637 99 638 105 639 101 640 103 641 11 642 105 643 107 644 5 645 130 646 3 647 5 648 131 649 130 650 130 651 132 652 3 653 133 654 8 655 1 656 1 657 134 658 133 659 133 660 135 661 8 662 136 663 8 664 135 665 132 666 134 667 1 668 3 669 132 670 1 671 134 672 132 673 130 674 130 675 133 676 134 677 131 678 135 679 133 680 130 681 131 682 133 683 5 684 6 685 131 686 6 687 136 688 135 689 135 690 131 691 6 692 8 693 136 694 9 695 17 696 136 697 6 698 14 699 136 700 17 701 136 702 14 703 9 704 45 705 47 706 128 707 48 708 124 709 50 710 109 711 45 712 128 713 109 714 128 715 124 716 124 717 48 718 34 719 109 720 124 721 34 722 28 723 109 724 34 725 109 726 28 727 115 728 115 729 28 730 23 731 23 732 24 733 115 734 43 735 123 736 46 737 127 738 46 739 123 740 123 741 121 742 127 743 121 744 125 745 127 746 121 747 122 748 125 749 122 750 126 751 125 752 122 753 124 754 126 755 124 756 128 757 126 758 27 759 114 760 22 761 120 762 22 763 114 764 114 765 119 766 120 767 114 768 113 769 119 770 113 771 118 772 119 773 113 774 112 775 118 776 112 777 117 778 118 779 112 780 111 781 117 782 111 783 116 784 117 785 111 786 110 787 116 788 110 789 115 790 116 791 110 792 109 793 115 794 2 795 0 796 20 797 2 798 20 799 21 800 15 801 16 802 29 803 129 804 15 805 29 806 30 807 129 808 29 809</p>
				</triangles>
			</mesh>
		</geometry>
	</library_geometries>
	<library_visual_scenes>
		<visual_scene id="Scene" name="Scene">
			<node layer="L1" id="ShapeIndexedFaceS" name="ShapeIndexedFaceS">
				<translate sid="translate">0.00000 0.00000 0.00000</translate>
				<rotate sid="rotateZ">0 0 1 0.00000</rotate>
				<rotate sid="rotateY">0 1 0 -0.00000</rotate>
				<rotate sid="rotateX">1 0 0 0.00000</rotate>
				<scale sid="scale">1.00000 1.00000 1.00000</scale>
				<instance_geometry url="#ShapeIndexedFaceS_006">
					<bind_material>
						<technique_common>
							<instance_material symbol="Material_005" target="#Material_005">
								<bind_vertex_input input_semantic="TEXCOORD" input_set="1" semantic="CHANNEL1"/>
							</instance_material>
						</technique_common>
					</bind_material>
				</instance_geometry>
			</node>
			<node layer="L1" id="Lamp" name="Lamp">
				<translate sid="translate">4.07625 1.00545 5.90386</translate>
				<rotate sid="rotateZ">0 0 1 106.93632</rotate>
				<rotate sid="rotateY">0 1 0 3.16371</rotate>
				<rotate sid="rotateX">1 0 0 37.26105</rotate>
				<scale sid="scale">1.00000 1.00000 1.00000</scale>
				<instance_light url="#Spot"/>
			</node>
			<node layer="L1" id="Camera" name="Camera">
				<translate sid="translate">7.48113 -6.50764 5.34367</translate>
				<rotate sid="rotateZ">0 0 1 46.69194</rotate>
				<rotate sid="rotateY">0 1 0 0.61977</rotate>
				<rotate sid="rotateX">1 0 0 63.55930</rotate>
				<scale sid="scale">1.00000 1.00000 1.00000</scale>
				<instance_camera url="#Camera-Camera"/>
			</node>
		</visual_scene>
	</library_visual_scenes>
	<library_physics_materials>
		<physics_material id="ShapeIndexedFaceS-PhysicsMaterial" name="ShapeIndexedFaceS-PhysicsMaterial">
			<technique_common>
				<dynamic_friction>0.5</dynamic_friction>
				<restitution>0.0</restitution>
				<static_friction>0.5</static_friction>
			</technique_common>
		</physics_material>
	</library_physics_materials>
	<library_physics_models>
		<physics_model id="Scene-PhysicsModel" name="Scene-PhysicsModel">
			<rigid_body name="ShapeIndexedFaceS-RigidBody" sid="ShapeIndexedFaceS-RigidBody">
				<technique_common>
					<dynamic>false</dynamic>
					<mass>0</mass>
					<instance_physics_material url="#ShapeIndexedFaceS-PhysicsMaterial"/>
					<shape>
						<instance_geometry url="#ShapeIndexedFaceS_006"/>
					</shape>
				</technique_common>
			</rigid_body>
		</physics_model>
	</library_physics_models>
	<library_physics_scenes>
		<physics_scene id="Scene-Physics" name="Scene-Physics">
			<instance_physics_model url="#Scene-PhysicsModel">
				<instance_rigid_body body="ShapeIndexedFaceS-RigidBody" target="#ShapeIndexedFaceS"/>
			</instance_physics_model>
		</physics_scene>
	</library_physics_scenes>
	<scene>
		<instance_physics_scene url="#Scene-Physics"/>
		<instance_visual_scene url="#Scene"/>
	</scene>
</COLLADA>