<?xml version="1.0" encoding="utf-8"?>
<COLLADA version="1.4.0" xmlns="http://www.collada.org/2005/11/COLLADASchema">
	<asset>
		<contributor>
			<author>Illusoft Collada 1.4.0 plugin for Blender - http://colladablender.illusoft.com</author>
			<authoring_tool>Blender v:249 - Illusoft Collada Exporter v:0.3.162</authoring_tool>
			<comments></comments>
			<copyright></copyright>
			<source_data>file://</source_data>
		</contributor>
		<created>2012-02-24T15:40:08.400313</created>
		<modified>2012-02-24T15:40:08.400334</modified>
		<unit meter="1" name="meter"/>
		<up_axis>Z_UP</up_axis>
	</asset>
	<library_cameras>
		<camera id="Camera-Camera" name="Camera-Camera">
			<optics>
				<technique_common>
					<perspective>
						<yfov>49.13434</yfov>
						<znear>0.1</znear>
						<zfar>100.0</zfar>
					</perspective>
				</technique_common>
			</optics>
		</camera>
	</library_cameras>
	<library_effects>
		<effect id="Material_016-fx" name="Material_016-fx">
			<profile_COMMON>
				<technique sid="blender">
					<phong>
						<emission>
							<color>0.00000 0.00000 0.00000 1</color>
						</emission>
						<ambient>
							<color>0.00000 0.00000 0.00000 1</color>
						</ambient>
						<diffuse>
							<color>0.90000 0.90000 0.90000 1</color>
						</diffuse>
						<specular>
							<color>0.12500 0.12500 0.12500 1</color>
						</specular>
						<shininess>
							<float>25.75</float>
						</shininess>
						<reflective>
							<color>0.00000 0.00000 0.00000 1</color>
						</reflective>
						<reflectivity>
							<float>0.0</float>
						</reflectivity>
						<transparent>
							<color>1 1 1 1</color>
						</transparent>
						<transparency>
							<float>0.0</float>
						</transparency>
					</phong>
				</technique>
			</profile_COMMON>
		</effect>
	</library_effects>
	<library_lights>
		<light id="Spot" name="Spot">
			<technique_common>
				<point>
					<color>1.00000 1.00000 1.00000</color>
					<constant_attenuation>1.0</constant_attenuation>
					<linear_attenuation>0.0</linear_attenuation>
					<quadratic_attenuation>0.0</quadratic_attenuation>
				</point>
			</technique_common>
		</light>
	</library_lights>
	<library_materials>
		<material id="Material_016" name="Material_016">
			<instance_effect url="#Material_016-fx"/>
		</material>
	</library_materials>
	<library_geometries>
		<geometry id="ShapeIndexedFaceS_019-Geometry" name="ShapeIndexedFaceS_019-Geometry">
			<mesh>
				<source id="ShapeIndexedFaceS_019-Geometry-Position">
					<float_array count="1062" id="ShapeIndexedFaceS_019-Geometry-Position-array">-0.00250 0.03600 0.07396 -0.02782 0.03600 0.07396 -0.02782 0.03600 0.05177 -0.00250 0.03600 0.05177 0.02283 0.03600 0.07396 0.02283 0.03600 0.05177 0.04700 0.03600 0.08200 0.04700 0.03600 0.06900 0.04700 0.03600 0.05600 0.03616 0.03600 0.04516 0.02283 0.03600 0.02958 0.03616 0.03580 0.03328 0.03549 0.03600 0.01849 0.02916 0.03600 0.01849 -0.03300 0.03118 -0.02083 -0.03300 0.01941 -0.03209 0.03000 0.01854 -0.03202 0.03000 0.03118 -0.02083 -0.03300 0.03699 -0.00618 0.03000 0.03699 -0.00618 -0.00150 0.03600 0.01050 0.01740 0.01426 0.10300 0.00937 0.02046 0.10300 0.00937 0.02046 0.10000 0.01740 0.01426 0.10000 0.02190 0.00515 0.10300 0.02190 0.00515 0.10000 0.02197 -0.00486 0.10300 0.02197 -0.00486 0.10000 0.01737 -0.01431 0.10300 0.01737 -0.01431 0.10000 0.01005 -0.02013 0.10300 0.01005 -0.02013 0.10000 0.00000 -0.02250 0.10300 0.00000 -0.02250 0.10000 0.00000 0.02250 0.10000 0.00000 0.02250 0.10300 -0.02079 0.00861 0.10000 -0.02778 0.01386 0.10000 -0.01591 0.01591 0.10000 0.02079 -0.00861 0.10000 0.03609 -0.02900 0.10000 0.01591 -0.01591 0.10000 -0.05200 0.02395 -0.02820 -0.05200 0.03078 -0.02053 -0.05432 0.02943 -0.01963 -0.05432 0.02290 -0.02696 -0.05661 0.02804 -0.01870 -0.05661 0.02182 -0.02569 -0.06062 0.00398 -0.02905 -0.06062 0.01898 -0.02235 -0.06312 0.01557 -0.01833 -0.06312 0.00326 -0.02383 -0.05661 0.00457 -0.03340 -0.05200 0.00502 -0.03666 -0.06062 -0.01210 -0.02670 -0.06312 -0.00993 -0.02191 -0.05661 -0.01391 -0.03070 -0.05200 -0.01527 -0.03370 -0.06062 -0.02456 -0.01600 -0.06312 -0.02015 -0.01313 -0.05661 -0.02824 -0.01840 -0.05200 -0.03100 -0.02020 -0.06062 -0.02932 0.00000 -0.06312 -0.02405 0.00000 -0.05661 -0.03371 0.00000 -0.05200 -0.03700 0.00000 -0.05200 0.03524 -0.01127 -0.05547 0.03271 -0.01118 -0.05988 0.02551 0.09797 -0.05428 0.03187 0.09797 -0.05301 0.03006 0.09945 -0.05792 0.02448 0.09945 -0.06123 0.02622 0.09572 -0.05516 0.03312 0.09572 -0.06171 0.02647 0.09300 0.03687 0.01617 0.03402 0.03687 0.00000 0.03767 0.03616 0.00000 0.04088 0.03616 0.01755 0.03692 0.03884 0.01502 0.03160 0.03884 0.00000 0.03499 0.03687 0.02947 0.02347 0.03616 0.03198 0.02546 0.03771 0.02834 0.02257 0.03884 0.02737 0.02180 0.03616 -0.01355 0.04516 0.03616 0.00000 0.04516 0.03616 -0.01053 0.03950 0.01476 -0.03700 0.07327 0.04700 -0.03700 0.07327 0.01476 -0.01215 0.05587 0.04700 -0.02467 0.06463 0.03894 -0.02458 0.06457 0.04700 -0.01234 0.05600 0.04700 -0.03700 0.08263 0.03088 -0.03700 0.07327 0.00462 -0.03700 0.07626 -0.05009 -0.03535 0.09687 0.00000 -0.03198 0.09942 0.00000 -0.03463 0.09769 0.00000 -0.03636 0.09513 -0.04987 -0.03657 0.09458 -0.05043 -0.03346 0.09864 -0.05084 -0.03111 0.09972 0.01800 -0.03198 0.09942 0.03600 -0.03198 0.09942 0.03600 -0.03463 0.09769 0.03991 -0.01576 0.03006 0.03884 -0.02311 0.02627 0.03781 -0.01685 0.03214 0.04183 -0.01385 0.02661 0.04183 -0.01978 0.02255 0.04139 -0.02082 0.02367 0.04139 -0.01464 0.02792 0.04078 0.00000 0.03273 0.04183 0.00000 0.03000 0.04183 -0.00713 0.02914 0.04139 0.02466 0.01964 0.04078 0.01405 0.02956 0.04183 0.02335 0.01865 0.04183 0.00985 0.02834 0.03481 -0.02483 0.02806 0.03616 -0.02034 0.03546 0.03635 -0.01822 0.03475 -0.06386 -0.02055 0.01163 -0.06343 -0.02293 0.04650 -0.06343 -0.02293 0.02325 -0.06177 -0.02737 0.04650 -0.06273 -0.02519 0.02325 -0.06177 -0.02737 0.01163 -0.06273 -0.02519 0.01163 -0.06092 0.01129 0.09880 -0.06195 -0.01819 0.09795 -0.06195 0.01719 0.09795 -0.06388 0.01129 0.09429 -0.06351 0.01719 0.09558 -0.06351 -0.01819 0.09558 -0.06400 -0.01819 0.09300 -0.05958 0.01719 0.09951 -0.06400 -0.00853 -0.01606 -0.06400 -0.00439 -0.01765 -0.06400 -0.00492 -0.00515 -0.06400 0.00869 -0.01597 -0.06400 0.01231 -0.01339 -0.06400 0.00834 -0.00515 -0.06400 0.01719 -0.00595 -0.03928 -0.01707 0.04013 -0.04694 -0.02042 0.03534 -0.04949 -0.03700 0.04448 -0.05427 -0.02381 0.03050 -0.05200 -0.02848 0.03604 0.02783 -0.02369 0.02958 0.02386 -0.02060 0.03509 0.03616 -0.01673 0.04061 -0.02967 -0.02360 0.03080 -0.04228 -0.02256 0.03228 -0.02687 -0.02060 0.03509 0.01017 -0.01414 0.04431 0.01884 -0.00910 0.05152 0.01541 -0.01575 0.04201 0.02006 -0.01793 0.03889 -0.03860 -0.02446 0.02957 0.02700 0.03455 0.09852 0.03600 0.03564 0.09686 0.03600 0.03455 0.09852 0.00000 0.03296 0.09960 0.03600 0.03296 0.09960 0.01800 0.03455 0.09852 0.00000 0.03455 0.09852 0.00000 0.03564 0.09686 -0.04815 0.03288 0.09963 -0.05993 -0.02642 0.09797 -0.05971 -0.01819 0.09945 -0.05796 -0.02540 0.09945 -0.05428 -0.03287 0.09797 -0.05301 -0.03106 0.09945 -0.05516 -0.03412 0.09572 -0.06128 -0.02712 0.09572 0.01621 -0.01057 0.05404 0.03600 -0.01078 0.05442 0.03600 -0.01009 0.05262 0.02148 -0.01019 0.05049 -0.01740 0.01426 0.10300 -0.01740 0.01426 0.10000 -0.00861 0.02079 0.10000 -0.00937 0.02046 0.10300 -0.02190 0.00515 0.10300 -0.02190 0.00515 0.10000 -0.02197 -0.00486 0.10300 -0.02197 -0.00486 0.10000 -0.01737 -0.01431 0.10300 -0.01737 -0.01431 0.10000 -0.01005 -0.02013 0.10300 -0.01005 -0.02013 0.10000 0.03866 0.03441 -0.00704 0.03317 0.03587 0.00955 0.03324 0.03625 -0.00742 0.03866 0.02818 -0.02097 0.03324 0.02968 -0.02209 0.03866 0.01595 -0.03130 0.03324 0.01680 -0.03297 0.03866 0.00000 -0.03513 0.03324 0.00000 -0.03700 0.04180 0.02962 -0.00606 0.04180 0.02912 0.00813 0.03866 0.03383 0.00945 0.04180 0.02425 -0.01805 0.04180 0.01372 -0.02694 0.04180 0.00000 -0.03023 0.03866 -0.02908 -0.01971 0.03866 -0.01665 -0.03093 0.03324 -0.01754 -0.03258 0.03324 -0.03063 -0.02076 0.03866 -0.03503 -0.00259 0.03324 -0.03690 -0.00273 0.03866 -0.03221 0.01401 0.03324 -0.03393 0.01476 0.04180 -0.01433 -0.02662 0.04180 -0.02502 -0.01696 0.04180 -0.03015 -0.00223 0.04180 -0.02772 0.01206 -0.02250 0.00000 0.10000 0.04700 0.03501 0.09799 0.04700 0.03562 0.09691 0.04700 0.01564 0.08743 0.04700 0.03315 0.09952 0.04700 0.03030 0.10000 0.04700 -0.03243 0.09923 0.04700 -0.02830 0.10000 0.04700 -0.01664 0.08743 0.04700 -0.03542 0.09678 0.04700 -0.03639 0.09506 0.04700 -0.03700 0.09156 0.04700 0.00100 0.10000 0.04700 -0.01851 0.06032 0.04700 -0.01664 0.06857 0.04700 -0.03084 0.06895 0.04700 0.01564 0.06857 0.04700 -0.03700 0.08470 -0.02782 0.03600 0.02958 -0.00250 0.03600 0.02958 0.03000 0.03600 0.01050 -0.05200 -0.03031 0.02122 -0.05698 -0.03041 0.02108 -0.05504 -0.02857 0.02370 -0.05015 -0.02652 0.02664 -0.03140 -0.02686 0.02615 -0.03200 -0.03028 0.02126 0.03600 -0.03636 0.09513 0.00000 -0.02900 0.10000 -0.00861 -0.02079 0.10000 -0.01591 -0.01591 0.10000 0.00861 -0.02079 0.10000 -0.02079 -0.00861 0.10000 -0.04296 -0.01614 0.10000 -0.05700 -0.01840 0.10000 -0.04296 0.01386 0.10000 -0.05541 -0.02441 0.10000 -0.05122 -0.02900 0.10000 -0.05691 0.01721 0.10000 -0.05558 0.02309 0.10000 -0.06400 0.01719 0.09300 -0.05130 0.02764 0.10000 -0.04694 0.03100 0.10000 -0.05200 0.03600 0.07185 -0.05200 0.03600 0.05075 -0.05200 0.03600 0.02964 -0.03300 0.03600 0.01050 -0.04250 0.03600 0.00854 -0.00225 0.03600 0.09500 -0.05149 0.03600 0.09500 -0.05157 0.03600 0.09315 -0.05547 0.03357 0.09300 -0.04932 0.03449 0.09858 -0.05043 0.03560 0.09696 0.04700 0.03600 0.09500 0.03594 0.03600 0.09500 0.00000 0.03100 0.10000 0.03592 0.03100 0.10000 0.02079 0.00861 0.10000 0.01591 0.01591 0.10000 0.02250 0.00000 0.10000 0.03618 -0.03700 0.09200 -0.00302 -0.03700 0.07644 0.00012 -0.03700 0.09200 -0.01148 -0.03700 0.07460 -0.02393 -0.03700 0.06731 -0.04979 -0.03700 0.09200 -0.05190 -0.03668 0.09200 -0.03251 -0.03700 0.06006 -0.04979 -0.03700 0.06919 -0.03838 -0.03700 0.05489 0.01167 -0.03360 0.07215 0.01167 -0.00746 0.05385 0.00474 -0.00666 0.05500 -0.00218 -0.00654 0.05517 -0.01571 -0.00827 0.05269 -0.02287 -0.01044 0.04959 -0.00934 -0.00711 0.05435 -0.03132 -0.01378 0.04482 0.03602 -0.01228 0.05596 0.03601 -0.01093 0.04890 0.02410 -0.01092 0.04891 0.00448 -0.01315 0.04572 -0.00150 -0.01281 0.04621 -0.00748 -0.01315 0.04572 -0.01317 -0.01415 0.04431 -0.01842 -0.01575 0.04201 -0.02307 -0.01794 0.03889 -0.06174 0.02642 -0.00599 -0.06174 0.02594 -0.00892 -0.05547 0.03357 -0.00602 -0.05904 0.03037 -0.00600 -0.05200 0.03600 -0.00641 -0.06400 -0.01819 0.00000 -0.05547 -0.03457 0.01326 -0.06172 -0.02746 0.02530 -0.03200 -0.03673 0.00449 -0.03200 -0.03433 -0.01380 -0.03200 -0.02346 -0.02861 -0.03200 -0.00580 -0.03654 -0.03200 0.00319 -0.03686 -0.03200 0.01655 -0.03309 -0.05200 0.03600 0.00854 -0.05547 0.03357 0.04349 -0.05547 0.03357 0.01055 -0.06400 0.00449 -0.01762 -0.06400 -0.01714 -0.00609 -0.06400 -0.01368 -0.01178 -0.06400 -0.00050 0.03741 -0.06400 -0.01819 0.04677 -0.05904 -0.03137 0.04650 -0.06174 -0.02742 0.09300 -0.05547 -0.03457 0.09300 -0.05537 -0.03464 0.03696 -0.05908 -0.03132 0.01978 -0.05383 -0.03572 0.09219 0.02900 0.01784 -0.03241 0.02900 0.00000 -0.03700 0.02900 -0.01686 -0.03294 0.02900 -0.02991 -0.02178 0.02900 -0.03660 -0.00544 0.02900 -0.03486 0.01241 -0.06400 0.00834 0.03741 0.03676 0.03528 0.00955 0.03616 0.01949 0.04516 0.04429 0.02361 0.05329 0.04700 0.01989 0.05600 0.04700 -0.00429 0.05600 0.04151 -0.01018 0.05051 0.04564 -0.00735 0.05464 0.04210 0.00507 0.05110 0.04445 -0.01031 0.05345</float_array>
					<technique_common>
						<accessor count="354" source="#ShapeIndexedFaceS_019-Geometry-Position-array" stride="3">
							<param type="float" name="X"></param>
							<param type="float" name="Y"></param>
							<param type="float" name="Z"></param>
						</accessor>
					</technique_common>
				</source>
				<source id="ShapeIndexedFaceS_019-Geometry-Normals">
					<float_array count="5715" id="ShapeIndexedFaceS_019-Geometry-Normals-array">0.00000 1.00000 0.00000 0.00000 1.00000 0.00000 0.00000 1.00000 0.00000 0.00000 1.00000 0.00000 0.00000 1.00000 0.00000 0.00000 1.00000 0.00000 0.00000 1.00000 0.00000 0.00000 1.00000 0.00000 0.00000 1.00000 0.00000 0.00000 1.00000 0.00000 0.00000 1.00000 0.00000 0.00000 1.00000 0.00000 0.70708 0.70708 0.00000 0.00000 1.00000 0.00000 0.70708 0.70708 0.00000 0.73077 0.46825 -0.49666 0.00000 1.00000 0.00000 0.70708 0.70708 0.00000 0.66219 0.72839 -0.17582 0.00000 1.00000 0.00000 0.73077 0.46825 -0.49666 0.77435 0.63271 0.00320 0.00351 0.99997 -0.00043 0.66219 0.72839 -0.17582 0.01059 0.99994 -0.00250 0.00351 0.99997 -0.00043 0.12577 0.99194 -0.01331 0.00000 1.00000 0.00000 0.66219 0.72839 -0.17582 0.00351 0.99997 -0.00043 0.00000 1.00000 0.00000 0.70708 0.70708 0.00000 0.00000 1.00000 0.00000 0.77435 0.63271 0.00320 0.12577 0.99194 -0.01331 0.00351 0.99997 -0.00043 0.00513 0.67702 -0.73592 -0.03317 0.57225 -0.81939 -0.00162 0.80923 -0.58745 0.05857 0.81283 -0.57952 0.00513 0.67702 -0.73592 -0.00162 0.80923 -0.58745 0.05857 0.81283 -0.57952 -0.00162 0.80923 -0.58745 -0.01282 0.99091 -0.13376 0.09836 0.98144 -0.16443 0.05857 0.81283 -0.57952 -0.01282 0.99091 -0.13376 -0.01282 0.99091 -0.13376 0.00000 0.99954 0.02954 0.09836 0.98144 -0.16443 0.43516 0.77685 0.45503 0.35328 0.93548 0.00000 0.72250 0.69134 0.00000 0.82003 0.57228 0.00000 0.43516 0.77685 0.45503 0.72250 0.69134 0.00000 0.82003 0.57228 0.00000 0.72250 0.69134 0.00000 0.95257 0.30427 0.00000 0.98782 0.15546 0.00000 0.82003 0.57228 0.00000 0.95257 0.30427 0.00000 0.98782 0.15546 0.00000 0.95257 0.30427 0.00000 0.98941 -0.14505 0.00000 0.95492 -0.29676 0.00000 0.98782 0.15546 0.00000 0.98941 -0.14505 0.00000 0.95492 -0.29676 0.00000 0.98941 -0.14505 0.00000 0.82501 -0.56508 0.00000 0.73095 -0.68239 0.00000 0.95492 -0.29676 0.00000 0.82501 -0.56508 0.00000 0.73095 -0.68239 0.00000 0.82501 -0.56508 0.00000 0.50261 -0.86450 0.00000 0.36857 -0.92956 0.00000 0.73095 -0.68239 0.00000 0.50261 -0.86450 0.00000 0.36857 -0.92956 0.00000 0.50261 -0.86450 0.00000 0.07834 -0.99692 0.00000 0.06470 -0.82327 0.56389 0.36857 -0.92956 0.00000 0.07834 -0.99692 0.00000 0.07251 0.99734 0.00000 0.35328 0.93548 0.00000 0.07135 0.94113 0.33039 0.07135 0.94113 0.33039 0.35328 0.93548 0.00000 0.43516 0.77685 0.45503 0.00000 0.00000 1.00000 0.00000 0.00000 1.00000 0.00000 0.00000 1.00000 0.00000 0.00000 1.00000 0.00217 -0.09476 0.99548 0.00000 0.00000 1.00000 -0.57924 0.66289 -0.47435 -0.36674 0.78619 -0.49733 -0.28922 0.56230 -0.77468 -0.58116 0.47948 -0.65749 -0.57924 0.66289 -0.47435 -0.28922 0.56230 -0.77468 -0.76388 0.55202 -0.33427 -0.57924 0.66289 -0.47435 -0.58116 0.47948 -0.65749 -0.66610 0.43953 -0.60256 -0.76388 0.55202 -0.33427 -0.58116 0.47948 -0.65749 -0.95025 0.24665 -0.19013 -0.81231 0.34913 -0.46715 -0.83041 0.06491 -0.55330 -0.96088 0.02304 -0.27595 -0.95025 0.24665 -0.19013 -0.83041 0.06491 -0.55330 -0.81231 0.34913 -0.46715 -0.66610 0.43953 -0.60256 -0.65322 0.13141 -0.74566 -0.83041 0.06491 -0.55330 -0.81231 0.34913 -0.46715 -0.65322 0.13141 -0.74566 -0.65322 0.13141 -0.74566 -0.66610 0.43953 -0.60256 -0.58116 0.47948 -0.65749 -0.58116 0.47948 -0.65749 -0.28922 0.56230 -0.77468 -0.28016 0.16117 -0.94632 -0.58116 0.47948 -0.65749 -0.28016 0.16117 -0.94632 -0.65322 0.13141 -0.74566 -0.96088 0.02304 -0.27595 -0.83041 0.06491 -0.55330 -0.83041 -0.24134 -0.50209 -0.96094 -0.13471 -0.24168 -0.96088 0.02304 -0.27595 -0.83041 -0.24134 -0.50209 -0.83041 0.06491 -0.55330 -0.65322 0.13141 -0.74566 -0.66393 -0.31565 -0.67788 -0.83041 -0.24134 -0.50209 -0.83041 0.06491 -0.55330 -0.66393 -0.31565 -0.67788 -0.65322 0.13141 -0.74566 -0.28016 0.16117 -0.94632 -0.31822 -0.35401 -0.87942 -0.66393 -0.31565 -0.67788 -0.65322 0.13141 -0.74566 -0.31822 -0.35401 -0.87942 -0.96094 -0.13471 -0.24168 -0.83041 -0.24134 -0.50209 -0.83044 -0.47383 -0.29292 -0.95514 -0.25999 -0.14173 -0.96094 -0.13471 -0.24168 -0.83044 -0.47383 -0.29292 -0.83041 -0.24134 -0.50209 -0.66393 -0.31565 -0.67788 -0.66396 -0.63109 -0.40104 -0.83044 -0.47383 -0.29292 -0.83041 -0.24134 -0.50209 -0.66396 -0.63109 -0.40104 -0.66393 -0.31565 -0.67788 -0.31822 -0.35401 -0.87942 -0.27369 -0.81841 -0.50520 -0.66396 -0.63109 -0.40104 -0.66393 -0.31565 -0.67788 -0.27369 -0.81841 -0.50520 -0.95514 -0.25999 -0.14173 -0.83044 -0.47383 -0.29292 -0.85672 -0.51030 -0.07501 -0.96442 -0.26222 -0.03372 -0.95514 -0.25999 -0.14173 -0.85672 -0.51030 -0.07501 -0.83044 -0.47383 -0.29292 -0.66396 -0.63109 -0.40104 -0.68963 -0.71776 -0.09583 -0.85672 -0.51030 -0.07501 -0.83044 -0.47383 -0.29292 -0.68963 -0.71776 -0.09583 -0.66396 -0.63109 -0.40104 -0.27369 -0.81841 -0.50520 -0.29002 -0.95636 -0.03500 -0.68963 -0.71776 -0.09583 -0.66396 -0.63109 -0.40104 -0.29002 -0.95636 -0.03500 -0.36674 0.78619 -0.49733 -0.63976 0.72024 -0.26817 -0.31300 0.90847 -0.27683 -0.63976 0.72024 -0.26817 -0.36674 0.78619 -0.49733 -0.57924 0.66289 -0.47435 -0.63976 0.72024 -0.26817 -0.57924 0.66289 -0.47435 -0.76388 0.55202 -0.33427 -0.81231 0.34913 -0.46715 -0.76388 0.55202 -0.33427 -0.66610 0.43953 -0.60256 -0.76388 0.55202 -0.33427 -0.81231 0.34913 -0.46715 -0.95025 0.24665 -0.19013 -0.28822 0.30210 0.90863 -0.47356 0.55373 0.68490 -0.63124 0.31639 0.70809 -0.34260 0.16288 0.92523 -0.28822 0.30210 0.90863 -0.63124 0.31639 0.70809 -0.47356 0.55373 0.68490 -0.64080 0.68480 0.34690 -0.82064 0.42183 0.38542 -0.63124 0.31639 0.70809 -0.47356 0.55373 0.68490 -0.82064 0.42183 0.38542 -0.82064 0.42183 0.38542 -0.64080 0.68480 0.34690 -0.87527 0.47591 0.08591 0.98978 -0.00772 0.14225 0.87301 -0.00092 0.48762 0.91839 0.18244 0.35102 0.99567 0.04636 0.08051 0.98978 -0.00772 0.14225 0.91839 0.18244 0.35102 0.87301 -0.00092 0.48762 0.77746 0.02893 0.62822 0.77981 0.27467 0.56252 0.91839 0.18244 0.35102 0.87301 -0.00092 0.48762 0.77981 0.27467 0.56252 0.99567 0.04636 0.08051 0.91839 0.18244 0.35102 0.94256 0.26133 0.20786 0.99475 0.07395 0.07038 0.99567 0.04636 0.08051 0.94256 0.26133 0.20786 0.77981 0.27467 0.56252 0.74279 0.52709 0.41279 0.80575 0.45338 0.38105 0.80575 0.45338 0.38105 0.94256 0.26133 0.20786 0.91839 0.18244 0.35102 0.80575 0.45338 0.38105 0.91839 0.18244 0.35102 0.77981 0.27467 0.56252 0.99936 -0.01093 0.03345 0.92389 0.00000 -0.38261 0.70623 -0.65468 0.26939 0.99936 -0.01093 0.03345 0.98978 -0.00772 0.14225 0.92389 0.00000 -0.38261 -0.14313 -0.59825 -0.78838 0.47887 -0.65145 -0.58840 -0.15622 -0.72359 -0.67229 0.00000 -0.57356 -0.81915 0.70708 -0.40556 -0.57921 0.47887 -0.65145 -0.58840 0.47887 -0.65145 -0.58840 -0.14313 -0.59825 -0.78838 0.00000 -0.57356 -0.81915 0.70708 -0.40556 -0.57921 0.00000 -0.57356 -0.81915 0.63506 -0.35926 -0.68380 0.00000 -1.00000 0.00000 0.47887 -0.65145 -0.58840 0.00000 -1.00000 0.00000 -0.09745 -0.81259 -0.57460 -0.15622 -0.72359 -0.67229 0.00000 -1.00000 0.00000 -0.00058 -0.67284 0.73977 0.00055 -0.37144 0.92843 -0.12265 -0.77059 0.62539 -0.00058 -0.67284 0.73977 -0.12265 -0.77059 0.62539 0.00052 -0.91839 0.39564 0.00052 -0.91839 0.39564 -0.12265 -0.77059 0.62539 -0.20438 -0.92785 0.31187 0.00055 -0.37144 0.92843 -0.11368 -0.55596 0.82336 -0.12265 -0.77059 0.62539 0.00055 -0.37144 0.92843 -0.06088 -0.28678 0.95605 -0.11368 -0.55596 0.82336 0.00058 -0.37666 0.92633 0.00217 -0.09476 0.99548 0.00000 -0.41288 0.91076 0.00058 -0.37666 0.92633 0.00000 -0.41288 0.91076 0.00610 -0.70513 0.70901 0.85351 -0.23057 0.46721 0.63851 -0.56432 0.52327 0.79791 -0.23557 0.55480 0.90350 -0.29951 0.30650 0.92666 -0.30442 0.22037 0.96060 -0.13813 0.24104 0.90350 -0.29951 0.30650 0.96060 -0.13813 0.24104 0.90381 -0.16596 0.39442 0.79791 -0.23557 0.55480 0.90350 -0.29951 0.30650 0.90381 -0.16596 0.39442 0.79791 -0.23557 0.55480 0.86438 -0.02292 0.50227 0.77746 0.02893 0.62822 0.86438 -0.02292 0.50227 0.92044 -0.09235 0.37977 0.93390 0.00858 0.35734 0.92044 -0.09235 0.37977 0.90381 -0.16596 0.39442 0.96060 -0.13813 0.24104 0.86438 -0.02292 0.50227 0.79791 -0.23557 0.55480 0.90381 -0.16596 0.39442 0.90381 -0.16596 0.39442 0.92044 -0.09235 0.37977 0.86438 -0.02292 0.50227 0.85861 0.22080 0.46260 0.89129 0.36772 0.26521 0.74279 0.52709 0.41279 0.74279 0.52709 0.41279 0.77981 0.27467 0.56252 0.85861 0.22080 0.46260 0.85861 0.22080 0.46260 0.93295 0.10944 0.34291 0.96332 0.18467 0.19456 0.86438 -0.02292 0.50227 0.93390 0.00858 0.35734 0.93295 0.10944 0.34291 0.85861 0.22080 0.46260 0.77746 0.02893 0.62822 0.86438 -0.02292 0.50227 0.85861 0.22080 0.46260 0.77981 0.27467 0.56252 0.77746 0.02893 0.62822 0.96332 0.18467 0.19456 0.89129 0.36772 0.26521 0.85861 0.22080 0.46260 0.86438 -0.02292 0.50227 0.93295 0.10944 0.34291 0.85861 0.22080 0.46260 0.71355 -0.54732 0.43730 0.43141 -0.74691 0.50594 0.85351 -0.23057 0.46721 0.71355 -0.54732 0.43730 0.85351 -0.23057 0.46721 0.95734 -0.02261 0.28800 -0.95923 -0.28184 0.02045 -0.97430 -0.22514 0.00571 -0.99008 -0.14029 -0.00354 -0.97430 -0.22514 0.00571 -0.95923 -0.28184 0.02045 -0.89505 -0.44572 -0.01425 -0.92969 -0.36827 -0.00650 -0.83816 -0.54537 -0.00571 -0.93573 -0.35078 0.03641 -0.93573 -0.35078 0.03641 -0.95923 -0.28184 0.02045 -0.92969 -0.36827 -0.00650 -0.66881 0.08362 0.73870 -0.73632 -0.07761 0.67214 -0.47655 0.00339 0.87912 -0.93802 -0.11393 0.32725 -0.90545 0.09616 0.41331 -0.98245 0.00418 0.18641 -0.90545 0.09616 0.41331 -0.93802 -0.11393 0.32725 -0.73632 -0.07761 0.67214 -0.98245 0.00418 0.18641 -0.99091 -0.11963 0.06149 -0.93802 -0.11393 0.32725 -0.66881 0.08362 0.73870 -0.47655 0.00339 0.87912 -0.34938 0.03925 0.93612 -0.66881 0.08362 0.73870 -0.90545 0.09616 0.41331 -0.73632 -0.07761 0.67214 -1.00000 0.00000 0.00000 -0.99710 -0.01282 -0.07483 -0.99710 -0.03894 -0.06522 -1.00000 0.00000 0.00000 -0.98047 0.17649 -0.08664 -0.99530 0.04334 -0.08634 -0.98047 0.17649 -0.08664 -1.00000 0.00000 0.00000 -0.98758 0.15430 -0.02927 0.39744 -0.75304 -0.52431 0.51552 -0.82907 -0.21638 0.53328 -0.77798 -0.33216 0.63070 -0.44551 -0.63536 0.38215 -0.92056 0.08060 0.51552 -0.82907 -0.21638 0.63070 -0.44551 -0.63536 0.51552 -0.82907 -0.21638 0.39744 -0.75304 -0.52431 0.71355 -0.54732 0.43730 -0.03766 -0.84741 0.52959 0.43141 -0.74691 0.50594 0.00000 -0.81915 0.57356 0.00119 -0.83740 0.54656 0.71355 -0.54732 0.43730 -0.00003 -0.81912 0.57356 0.00000 -0.81915 0.57353 -0.00003 -0.81915 0.57356 0.00000 -0.81912 0.57356 -0.29987 -0.95273 -0.04819 0.00000 -0.81912 0.57356 0.00119 -0.83740 0.54656 0.00000 -0.81915 0.57356 0.00000 -0.81912 0.57356 -0.03766 -0.84741 0.52959 0.71355 -0.54732 0.43730 0.00119 -0.83740 0.54656 -0.00003 -0.81915 0.57353 -0.00003 -0.81915 0.57356 0.00000 -0.81915 0.57353 0.00439 0.69103 0.72277 0.00000 0.89129 0.45338 0.00000 0.71245 0.70168 0.00439 0.69103 0.72277 0.00000 0.71245 0.70168 0.00000 0.43382 0.90097 0.00021 0.38820 0.92157 0.00439 0.69103 0.72277 0.00000 0.43382 0.90097 0.00000 0.71245 0.70168 0.00000 0.89129 0.45338 0.00000 0.71245 0.70168 0.00000 0.71245 0.70168 0.00000 0.71245 0.70168 0.00000 0.43382 0.90097 0.00000 0.71245 0.70168 0.00000 0.89129 0.45338 0.00000 0.72857 0.68496 0.00000 0.71245 0.70168 0.00000 0.72857 0.68496 0.00000 0.43382 0.90097 0.00000 0.89129 0.45338 0.00000 0.94858 0.31651 0.00000 0.72857 0.68496 0.00000 0.43382 0.90097 0.00000 0.72857 0.68496 -0.10456 0.33259 0.93722 -0.33341 -0.19062 0.92328 -0.42015 -0.06265 0.90527 -0.62050 -0.33421 0.70940 -0.33341 -0.19062 0.92328 -0.62050 -0.33421 0.70940 -0.38496 -0.56249 0.73168 -0.20316 -0.29704 0.93298 -0.33341 -0.19062 0.92328 -0.38496 -0.56249 0.73168 -0.62050 -0.33421 0.70940 -0.81637 -0.43025 0.38520 -0.51296 -0.75695 0.40480 -0.38496 -0.56249 0.73168 -0.62050 -0.33421 0.70940 -0.51296 -0.75695 0.40480 0.00760 -0.99789 -0.06400 -0.00687 -0.84289 -0.53801 -0.18024 -0.76501 -0.61827 -0.18024 -0.76501 -0.61827 -0.22938 -0.96112 -0.15366 0.00760 -0.99789 -0.06400 -0.33442 0.61443 0.71456 -0.81655 0.57723 0.00000 -0.71804 0.69558 -0.02304 -0.34733 0.93771 -0.00296 -0.33442 0.61443 0.71456 -0.71804 0.69558 -0.02304 -0.81655 0.57723 0.00000 -0.98782 0.15546 0.00000 -0.95257 0.30427 0.00000 -0.71804 0.69558 -0.02304 -0.81655 0.57723 0.00000 -0.95257 0.30427 0.00000 -0.98782 0.15546 0.00000 -0.95492 -0.29676 0.00000 -0.98941 -0.14505 0.00000 -0.95257 0.30427 0.00000 -0.98782 0.15546 0.00000 -0.98941 -0.14505 0.00000 -0.95492 -0.29676 0.00000 -0.73095 -0.68239 0.00000 -0.82501 -0.56508 0.00000 -0.98941 -0.14505 0.00000 -0.95492 -0.29676 0.00000 -0.82501 -0.56508 0.00000 -0.73095 -0.68239 0.00000 -0.36857 -0.92956 0.00000 -0.50261 -0.86450 0.00000 -0.82501 -0.56508 0.00000 -0.73095 -0.68239 0.00000 -0.50261 -0.86450 0.00000 -0.36857 -0.92956 0.00000 0.06470 -0.82327 0.56389 0.07834 -0.99692 0.00000 -0.50261 -0.86450 0.00000 -0.36857 -0.92956 0.00000 0.07834 -0.99692 0.00000 -0.34733 0.93771 -0.00296 0.07251 0.99734 0.00000 0.07135 0.94113 0.33039 -0.34733 0.93771 -0.00296 0.07135 0.94113 0.33039 -0.33442 0.61443 0.71456 0.22382 0.95669 -0.18601 0.12253 0.99240 -0.00913 0.60088 0.78985 -0.12268 0.22382 0.95669 -0.18601 0.60088 0.78985 -0.12268 0.62041 0.63591 -0.45897 0.22205 0.78341 -0.58043 0.22382 0.95669 -0.18601 0.62041 0.63591 -0.45897 0.22205 0.78341 -0.58043 0.62041 0.63591 -0.45897 0.62062 0.36851 -0.69207 0.16474 0.44865 -0.87835 0.22205 0.78341 -0.58043 0.62062 0.36851 -0.69207 0.16474 0.44865 -0.87835 0.62062 0.36851 -0.69207 0.62075 0.01251 -0.78390 0.15394 -0.00089 -0.98807 0.16474 0.44865 -0.87835 0.62075 0.01251 -0.78390 0.76577 0.62313 0.15888 0.89346 0.43171 0.12369 0.84121 0.53710 -0.06220 0.60088 0.78985 -0.12268 0.76577 0.62313 0.15888 0.84121 0.53710 -0.06220 0.60088 0.78985 -0.12268 0.84121 0.53710 -0.06220 0.84149 0.45494 -0.29133 0.62041 0.63591 -0.45897 0.60088 0.78985 -0.12268 0.84149 0.45494 -0.29133 0.62041 0.63591 -0.45897 0.84149 0.45494 -0.29133 0.84140 0.28111 -0.46150 0.62062 0.36851 -0.69207 0.62041 0.63591 -0.45897 0.84140 0.28111 -0.46150 0.62062 0.36851 -0.69207 0.84140 0.28111 -0.46150 0.84143 0.04099 -0.53880 0.62075 0.01251 -0.78390 0.62062 0.36851 -0.69207 0.84143 0.04099 -0.53880 0.16572 -0.46129 -0.87161 0.62084 -0.35411 -0.69939 0.62087 -0.64345 -0.44771 0.15693 -0.81933 -0.55138 0.16572 -0.46129 -0.87161 0.62087 -0.64345 -0.44771 0.15693 -0.81933 -0.55138 0.62087 -0.64345 -0.44771 0.62096 -0.77941 -0.08298 0.15326 -0.98376 -0.09320 0.15693 -0.81933 -0.55138 0.62096 -0.77941 -0.08298 0.15326 -0.98376 -0.09320 0.62096 -0.77941 -0.08298 0.67788 -0.68352 0.27061 0.15223 -0.91198 0.38084 0.15326 -0.98376 -0.09320 0.67788 -0.68352 0.27061 0.62075 0.01251 -0.78390 0.84143 0.04099 -0.53880 0.84121 -0.21445 -0.49629 0.62084 -0.35411 -0.69939 0.62075 0.01251 -0.78390 0.84121 -0.21445 -0.49629 0.62084 -0.35411 -0.69939 0.84121 -0.21445 -0.49629 0.84146 -0.42338 -0.33564 0.62087 -0.64345 -0.44771 0.62084 -0.35411 -0.69939 0.84146 -0.42338 -0.33564 0.62087 -0.64345 -0.44771 0.84146 -0.42338 -0.33564 0.84100 -0.53328 -0.09101 0.62096 -0.77941 -0.08298 0.62087 -0.64345 -0.44771 0.84100 -0.53328 -0.09101 0.62096 -0.77941 -0.08298 0.84100 -0.53328 -0.09101 0.84121 -0.51225 0.17292 0.67788 -0.68352 0.27061 0.62096 -0.77941 -0.08298 0.84121 -0.51225 0.17292 0.43516 0.77685 0.45503 0.35328 0.93548 0.00000 0.72250 0.69134 0.00000 0.82003 0.57228 0.00000 0.43516 0.77685 0.45503 0.72250 0.69134 0.00000 0.82003 0.57228 0.00000 0.72250 0.69134 0.00000 0.95257 0.30427 0.00000 0.98782 0.15546 0.00000 0.82003 0.57228 0.00000 0.95257 0.30427 0.00000 0.98782 0.15546 0.00000 0.95257 0.30427 0.00000 0.98941 -0.14505 0.00000 0.95492 -0.29676 0.00000 0.98782 0.15546 0.00000 0.98941 -0.14505 0.00000 0.95492 -0.29676 0.00000 0.98941 -0.14505 0.00000 0.82501 -0.56508 0.00000 0.73095 -0.68239 0.00000 0.95492 -0.29676 0.00000 0.82501 -0.56508 0.00000 0.73095 -0.68239 0.00000 0.82501 -0.56508 0.00000 0.50261 -0.86450 0.00000 0.36857 -0.92956 0.00000 0.73095 -0.68239 0.00000 0.50261 -0.86450 0.00000 0.36857 -0.92956 0.00000 0.50261 -0.86450 0.00000 0.07834 -0.99692 0.00000 0.06470 -0.82327 0.56389 0.36857 -0.92956 0.00000 0.07834 -0.99692 0.00000 0.07251 0.99734 0.00000 0.35328 0.93548 0.00000 0.07135 0.94113 0.33039 0.07135 0.94113 0.33039 0.35328 0.93548 0.00000 0.43516 0.77685 0.45503 0.00000 0.00000 1.00000 0.00000 0.00000 1.00000 -0.33442 0.61443 0.71456 0.00000 0.00000 1.00000 0.00000 0.00000 1.00000 0.00000 0.00000 1.00000 1.00000 0.00000 0.00000 0.46373 0.80468 0.37065 1.00000 0.00000 0.00000 1.00000 0.00000 0.00000 1.00000 0.00000 0.00000 0.46809 0.37904 0.79821 1.00000 0.00000 0.00000 0.46809 0.37904 0.79821 0.71023 0.05914 0.70147 1.00000 0.00000 0.00000 0.71068 -0.06497 0.70046 0.47145 -0.37651 0.79745 1.00000 0.00000 0.00000 0.47145 -0.37651 0.79745 1.00000 0.00000 0.00000 1.00000 0.00000 0.00000 1.00000 0.00000 0.00000 0.46879 -0.80218 0.36970 1.00000 0.00000 0.00000 0.46879 -0.80218 0.36970 0.70962 -0.70193 0.06058 1.00000 0.00000 0.00000 1.00000 0.00000 0.00000 0.44719 0.00000 0.89441 1.00000 0.00000 0.00000 0.70708 -0.40556 -0.57921 1.00000 0.00000 0.00000 1.00000 0.00000 0.00000 0.47887 -0.65145 -0.58840 1.00000 0.00000 0.00000 1.00000 0.00000 0.00000 1.00000 0.00000 0.00000 0.70708 -0.40556 -0.57921 1.00000 0.00000 0.00000 1.00000 0.00000 0.00000 1.00000 0.00000 0.00000 1.00000 0.00000 0.00000 1.00000 0.00000 0.00000 1.00000 0.00000 0.00000 0.71023 0.05914 0.70147 0.44719 0.00000 0.89441 1.00000 0.00000 0.00000 0.44719 0.00000 0.89441 0.71068 -0.06497 0.70046 1.00000 0.00000 0.00000 1.00000 0.00000 0.00000 1.00000 0.00000 0.00000 0.70962 -0.70193 0.06058 1.00000 0.00000 0.00000 0.47887 -0.65145 -0.58840 1.00000 0.00000 0.00000 1.00000 0.00000 0.00000 1.00000 0.00000 0.00000 1.00000 0.00000 0.00000 0.99567 0.04636 0.08051 0.77435 0.63271 0.00320 0.66219 0.72839 -0.17582 0.99936 -0.01093 0.03345 0.71355 -0.54732 0.43730 0.95734 -0.02261 0.28800 0.00000 1.00000 0.00000 0.00000 1.00000 0.00000 0.00000 1.00000 0.00000 0.00000 1.00000 0.00000 0.00000 1.00000 0.00000 0.00000 1.00000 0.00000 0.01059 0.99994 -0.00250 0.12253 0.99240 -0.00913 0.05579 0.99814 0.02396 0.00351 0.99997 -0.00043 0.00000 1.00000 0.00000 0.00000 1.00000 0.00000 0.00351 0.99997 -0.00043 0.00000 1.00000 0.00000 0.00000 1.00000 0.00000 0.00351 0.99997 -0.00043 0.00000 0.99954 0.02954 0.00000 1.00000 0.00000 0.00351 0.99997 -0.00043 0.01059 0.99994 -0.00250 0.05579 0.99814 0.02396 0.00000 -0.81915 0.57353 0.01715 -0.84445 0.53529 0.00085 -0.84585 0.53340 0.00000 -0.81915 0.57356 0.00000 -0.81915 0.57353 0.00085 -0.84585 0.53340 -0.00003 -0.81915 0.57353 0.00671 -0.88510 0.46532 -0.00003 -0.81915 0.57356 -0.00003 -0.81915 0.57353 -0.00003 -0.81915 0.57356 -0.00003 -0.81915 0.57356 0.00000 -0.81915 0.57353 0.00000 -0.81915 0.57356 -0.00003 -0.81915 0.57353 -0.11368 -0.55596 0.82336 -0.20316 -0.29704 0.93298 -0.38496 -0.56249 0.73168 -0.11368 -0.55596 0.82336 -0.06088 -0.28678 0.95605 -0.20316 -0.29704 0.93298 -0.12265 -0.77059 0.62539 -0.11368 -0.55596 0.82336 -0.38496 -0.56249 0.73168 -0.12265 -0.77059 0.62539 -0.38496 -0.56249 0.73168 -0.51296 -0.75695 0.40480 0.00217 -0.09476 0.99548 0.47145 -0.37651 0.79745 0.71068 -0.06497 0.70046 0.00217 -0.09476 0.99548 0.00058 -0.37666 0.92633 0.47145 -0.37651 0.79745 0.00610 -0.70513 0.70901 0.46879 -0.80218 0.36970 0.47145 -0.37651 0.79745 0.00610 -0.70513 0.70901 0.47145 -0.37651 0.79745 0.00058 -0.37666 0.92633 0.00000 -0.93637 0.35096 0.46879 -0.80218 0.36970 0.00610 -0.70513 0.70901 0.00055 -0.37144 0.92843 0.00217 -0.09476 0.99548 0.00000 -0.05441 0.99850 0.00055 -0.37144 0.92843 0.00000 -0.41288 0.91076 0.00217 -0.09476 0.99548 -0.00058 -0.67284 0.73977 0.00610 -0.70513 0.70901 0.00000 -0.41288 0.91076 -0.00058 -0.67284 0.73977 0.00000 -0.41288 0.91076 0.00055 -0.37144 0.92843 0.00052 -0.91839 0.39564 0.00000 -0.93637 0.35096 0.00610 -0.70513 0.70901 0.00052 -0.91839 0.39564 0.00610 -0.70513 0.70901 -0.00058 -0.67284 0.73977 0.00000 -0.05441 0.99850 0.06470 -0.82327 0.56389 0.00000 0.00000 1.00000 0.00000 -0.05441 0.99850 0.00000 0.00000 1.00000 0.00000 0.00000 1.00000 0.00000 -0.05441 0.99850 0.00000 0.00000 1.00000 0.06470 -0.82327 0.56389 0.00217 -0.09476 0.99548 0.00000 0.00000 1.00000 0.00000 0.00000 1.00000 0.00217 -0.09476 0.99548 0.00000 0.00000 1.00000 0.00000 -0.05441 0.99850 0.00000 0.00000 1.00000 0.00000 0.00000 1.00000 0.00000 0.00000 1.00000 0.00000 0.00000 1.00000 0.00000 0.00000 1.00000 0.00000 0.00000 1.00000 0.00000 0.00000 1.00000 0.00000 0.00000 1.00000 -0.14853 -0.01288 0.98880 -0.03809 -0.08753 0.99542 0.00000 0.00000 1.00000 -0.09931 -0.06452 0.99295 -0.03809 -0.08753 0.99542 -0.20316 -0.29704 0.93298 -0.06088 -0.28678 0.95605 -0.03809 -0.08753 0.99542 -0.06088 -0.28678 0.95605 0.00055 -0.37144 0.92843 -0.03809 -0.08753 0.99542 0.00055 -0.37144 0.92843 0.00000 -0.05441 0.99850 -0.09931 -0.06452 0.99295 -0.33341 -0.19062 0.92328 -0.20316 -0.29704 0.93298 -0.09931 -0.06452 0.99295 0.00000 0.00000 1.00000 -0.14853 -0.01288 0.98880 -0.09931 -0.06452 0.99295 -0.20316 -0.29704 0.93298 -0.03809 -0.08753 0.99542 -0.14853 -0.01288 0.98880 -0.34938 0.03925 0.93612 -0.47655 0.00339 0.87912 -0.14853 -0.01288 0.98880 -0.42015 -0.06265 0.90527 -0.33341 -0.19062 0.92328 -0.14853 -0.01288 0.98880 -0.33341 -0.19062 0.92328 -0.09931 -0.06452 0.99295 -0.73632 -0.07761 0.67214 -0.62050 -0.33421 0.70940 -0.42015 -0.06265 0.90527 -0.73632 -0.07761 0.67214 -0.81637 -0.43025 0.38520 -0.62050 -0.33421 0.70940 -0.93802 -0.11393 0.32725 -0.81637 -0.43025 0.38520 -0.73632 -0.07761 0.67214 -0.42015 -0.06265 0.90527 -0.47655 0.00339 0.87912 -0.73632 -0.07761 0.67214 -0.42015 -0.06265 0.90527 -0.14853 -0.01288 0.98880 -0.47655 0.00339 0.87912 -0.09082 0.01035 0.99579 -0.14853 -0.01288 0.98880 0.00000 0.00000 1.00000 -0.09082 0.01035 0.99579 0.00000 0.00000 1.00000 -0.10572 0.04657 0.99329 -0.09082 0.01035 0.99579 -0.34938 0.03925 0.93612 -0.14853 -0.01288 0.98880 -0.90545 0.09616 0.41331 -0.63124 0.31639 0.70809 -0.82064 0.42183 0.38542 -0.99390 0.08225 0.07340 -0.82064 0.42183 0.38542 -0.87527 0.47591 0.08591 -0.99390 0.08225 0.07340 -0.98245 0.00418 0.18641 -0.90545 0.09616 0.41331 -0.99390 0.08225 0.07340 -0.99091 -0.11963 0.06149 -0.98245 0.00418 0.18641 -0.99390 0.08225 0.07340 -0.90545 0.09616 0.41331 -0.82064 0.42183 0.38542 0.00000 0.00000 1.00000 -0.01984 0.06412 0.99774 -0.08420 0.08853 0.99249 -0.08420 0.08853 0.99249 -0.28822 0.30210 0.90863 -0.34260 0.16288 0.92523 -0.08420 0.08853 0.99249 -0.10572 0.04657 0.99329 0.00000 0.00000 1.00000 -0.10572 0.04657 0.99329 -0.34260 0.16288 0.92523 -0.34938 0.03925 0.93612 -0.10572 0.04657 0.99329 -0.34938 0.03925 0.93612 -0.09082 0.01035 0.99579 -0.10572 0.04657 0.99329 -0.08420 0.08853 0.99249 -0.34260 0.16288 0.92523 -0.24006 0.97073 0.00000 -0.29206 0.95639 0.00186 0.00000 1.00000 0.00000 -0.24006 0.97073 0.00000 0.00000 1.00000 0.00000 0.00000 1.00000 0.00000 -0.25745 0.96628 0.00000 -0.24006 0.97073 0.00000 0.00000 1.00000 0.00000 -0.25745 0.96628 0.00000 0.00000 1.00000 0.00000 0.00000 1.00000 0.00000 -0.01071 0.99982 0.01538 0.00000 1.00000 0.00000 -0.00241 0.99969 0.02362 0.00000 0.99884 0.04767 0.00000 1.00000 0.00000 0.00000 1.00000 0.00000 0.00000 0.99884 0.04767 -0.27497 0.96139 0.00833 -0.32191 0.91427 0.24583 0.00000 0.99884 0.04767 0.00000 1.00000 0.00000 -0.29206 0.95639 0.00186 0.00000 0.99884 0.04767 -0.29206 0.95639 0.00186 -0.27497 0.96139 0.00833 0.00000 1.00000 0.00000 0.00000 1.00000 0.00000 0.00000 0.99884 0.04767 -0.32191 0.91427 0.24583 -0.27497 0.96139 0.00833 -0.63054 0.77364 0.06183 -0.64080 0.68480 0.34690 -0.32191 0.91427 0.24583 -0.63054 0.77364 0.06183 -0.47356 0.55373 0.68490 -0.32191 0.91427 0.24583 -0.64080 0.68480 0.34690 -0.10456 0.33259 0.93722 -0.08420 0.08853 0.99249 -0.01984 0.06412 0.99774 -0.10456 0.33259 0.93722 -0.28822 0.30210 0.90863 -0.08420 0.08853 0.99249 -0.10456 0.33259 0.93722 -0.47356 0.55373 0.68490 -0.28822 0.30210 0.90863 -0.18226 0.60729 0.77325 -0.47356 0.55373 0.68490 -0.10456 0.33259 0.93722 -0.20322 0.83197 0.51622 -0.32191 0.91427 0.24583 -0.47356 0.55373 0.68490 -0.20322 0.83197 0.51622 -0.47356 0.55373 0.68490 -0.18226 0.60729 0.77325 -0.32191 0.91427 0.24583 0.00000 0.94858 0.31651 0.00000 0.99884 0.04767 0.00000 0.72857 0.68496 -0.18226 0.60729 0.77325 -0.10456 0.33259 0.93722 0.00000 0.72857 0.68496 -0.20322 0.83197 0.51622 -0.18226 0.60729 0.77325 0.00000 0.94858 0.31651 -0.20322 0.83197 0.51622 0.00000 0.72857 0.68496 0.00000 0.94858 0.31651 -0.32191 0.91427 0.24583 -0.20322 0.83197 0.51622 0.00012 0.99393 0.10984 0.70879 0.70199 0.06922 0.70708 0.70708 0.00000 0.00012 0.99393 0.10984 0.70708 0.70708 0.00000 0.00000 1.00000 0.00000 0.00012 0.99393 0.10984 0.00000 1.00000 0.00000 0.00000 0.99884 0.04767 0.00012 0.99393 0.10984 0.00000 0.94858 0.31651 0.00000 0.89129 0.45338 0.00012 0.99393 0.10984 0.00000 0.99884 0.04767 0.00000 0.94858 0.31651 0.00000 0.89129 0.45338 0.46373 0.80468 0.37065 0.00012 0.99393 0.10984 0.00439 0.69103 0.72277 0.46809 0.37904 0.79821 0.46373 0.80468 0.37065 0.00439 0.69103 0.72277 0.46373 0.80468 0.37065 0.00000 0.89129 0.45338 0.00021 0.38820 0.92157 0.46809 0.37904 0.79821 0.00439 0.69103 0.72277 -0.01984 0.06412 0.99774 0.00000 0.00000 1.00000 0.00000 0.00000 1.00000 0.00003 0.07416 0.99722 0.07135 0.94113 0.33039 0.43516 0.77685 0.45503 0.00003 0.07416 0.99722 -0.33442 0.61443 0.71456 0.07135 0.94113 0.33039 0.00003 0.07416 0.99722 0.00000 0.00000 1.00000 -0.33442 0.61443 0.71456 0.00003 0.07416 0.99722 -0.01984 0.06412 0.99774 0.00000 0.00000 1.00000 0.00003 0.07416 0.99722 0.00000 0.43382 0.90097 -0.10456 0.33259 0.93722 0.00003 0.07416 0.99722 -0.10456 0.33259 0.93722 -0.01984 0.06412 0.99774 0.00165 0.08557 0.99631 0.00003 0.07416 0.99722 0.43516 0.77685 0.45503 0.00165 0.08557 0.99631 0.00000 0.00000 1.00000 0.00000 0.00000 1.00000 0.00165 0.08557 0.99631 0.71023 0.05914 0.70147 0.46809 0.37904 0.79821 0.00165 0.08557 0.99631 0.46809 0.37904 0.79821 0.00021 0.38820 0.92157 0.00165 0.08557 0.99631 0.43516 0.77685 0.45503 0.00000 0.00000 1.00000 0.00165 0.08557 0.99631 0.00021 0.38820 0.92157 0.00000 0.43382 0.90097 0.00165 0.08557 0.99631 0.00000 0.43382 0.90097 0.00003 0.07416 0.99722 0.44719 0.00000 0.89441 0.00217 -0.09476 0.99548 0.71068 -0.06497 0.70046 0.44719 0.00000 0.89441 0.00000 0.00000 1.00000 0.00000 0.00000 1.00000 0.44719 0.00000 0.89441 0.00000 0.00000 1.00000 0.00217 -0.09476 0.99548 0.44719 0.00000 0.89441 0.00000 0.00000 1.00000 0.00000 0.00000 1.00000 0.44719 0.00000 0.89441 0.71023 0.05914 0.70147 0.00165 0.08557 0.99631 0.44719 0.00000 0.89441 0.00165 0.08557 0.99631 0.00000 0.00000 1.00000 0.00000 -1.00000 0.00000 0.70962 -0.70193 0.06058 0.00113 -0.99338 0.11463 0.00113 -0.99338 0.11463 0.70962 -0.70193 0.06058 0.46879 -0.80218 0.36970 0.00113 -0.99338 0.11463 0.46879 -0.80218 0.36970 0.00000 -0.93637 0.35096 0.00000 -0.99774 0.06684 0.04407 -0.88717 -0.45930 -0.09745 -0.81259 -0.57460 0.00000 -0.99774 0.06684 0.17118 -0.84231 -0.51103 0.04407 -0.88717 -0.45930 0.00000 -0.99774 0.06684 -0.09745 -0.81259 -0.57460 0.00000 -1.00000 0.00000 0.00000 -0.99774 0.06684 0.00000 -1.00000 0.00000 0.00000 -1.00000 0.00000 0.00000 -0.99774 0.06684 0.00000 -0.93637 0.35096 0.00052 -0.91839 0.39564 0.00000 -0.99774 0.06684 0.00000 -1.00000 0.00000 0.00113 -0.99338 0.11463 0.00000 -0.99774 0.06684 0.00113 -0.99338 0.11463 0.00000 -0.93637 0.35096 -0.05029 -0.99490 0.08704 0.28428 -0.86471 -0.41401 0.17118 -0.84231 -0.51103 -0.05029 -0.99490 0.08704 0.00052 -0.91839 0.39564 -0.20438 -0.92785 0.31187 -0.05029 -0.99490 0.08704 -0.20438 -0.92785 0.31187 -0.30503 -0.94726 0.09790 -0.05029 -0.99490 0.08704 0.00000 -0.99774 0.06684 0.00052 -0.91839 0.39564 -0.05029 -0.99490 0.08704 0.17118 -0.84231 -0.51103 0.00000 -0.99774 0.06684 0.00000 -1.00000 0.00000 0.43962 -0.73904 -0.51039 0.28428 -0.86471 -0.41401 0.00000 -1.00000 0.00000 0.34922 -0.85443 -0.38462 0.43962 -0.73904 -0.51039 0.00000 -1.00000 0.00000 0.28428 -0.86471 -0.41401 -0.05029 -0.99490 0.08704 -0.09745 -0.81259 -0.57460 -0.26447 -0.82284 -0.50291 -0.27042 -0.53752 -0.79867 -0.09745 -0.81259 -0.57460 -0.05130 -0.98727 0.15052 -0.26447 -0.82284 -0.50291 -0.09745 -0.81259 -0.57460 0.05301 -0.94967 -0.30866 -0.05130 -0.98727 0.15052 -0.09745 -0.81259 -0.57460 -0.27042 -0.53752 -0.79867 -0.15622 -0.72359 -0.67229 0.28428 -0.86471 -0.41401 0.32124 -0.94595 0.04401 0.33601 -0.89022 -0.30747 0.04407 -0.88717 -0.45930 0.05301 -0.94967 -0.30866 -0.09745 -0.81259 -0.57460 0.17118 -0.84231 -0.51103 0.12281 -0.99179 0.03522 0.05301 -0.94967 -0.30866 0.17118 -0.84231 -0.51103 0.33601 -0.89022 -0.30747 0.12281 -0.99179 0.03522 0.17118 -0.84231 -0.51103 0.28428 -0.86471 -0.41401 0.33601 -0.89022 -0.30747 0.17118 -0.84231 -0.51103 0.05301 -0.94967 -0.30866 0.04407 -0.88717 -0.45930 0.43962 -0.73904 -0.51039 0.25748 -0.94238 0.21354 0.32124 -0.94595 0.04401 0.43962 -0.73904 -0.51039 0.32124 -0.94595 0.04401 0.28428 -0.86471 -0.41401 0.34922 -0.85443 -0.38462 0.39744 -0.75304 -0.52431 0.53328 -0.77798 -0.33216 0.34922 -0.85443 -0.38462 0.53328 -0.77798 -0.33216 0.43962 -0.73904 -0.51039 0.63506 -0.35926 -0.68380 1.00000 0.00000 0.00000 1.00000 0.00000 0.00000 -0.00647 -0.69039 -0.72338 0.00000 -0.57356 -0.81915 -0.14313 -0.59825 -0.78838 -0.00647 -0.69039 -0.72338 0.63506 -0.35926 -0.68380 0.00000 -0.57356 -0.81915 -0.00647 -0.69039 -0.72338 -0.18024 -0.76501 -0.61827 -0.00687 -0.84289 -0.53801 -0.00293 -0.91330 0.40724 0.00760 -0.99789 -0.06400 -0.22938 -0.96112 -0.15366 -0.14313 -0.59825 -0.78838 -0.15622 -0.72359 -0.67229 -0.27042 -0.53752 -0.79867 -0.14313 -0.59825 -0.78838 -0.27042 -0.53752 -0.79867 -0.26447 -0.82284 -0.50291 -0.14313 -0.59825 -0.78838 -0.18024 -0.76501 -0.61827 -0.00647 -0.69039 -0.72338 -0.29987 -0.95273 -0.04819 -0.07553 -0.89431 0.44096 -0.22938 -0.96112 -0.15366 -0.29987 -0.95273 -0.04819 -0.22938 -0.96112 -0.15366 -0.18024 -0.76501 -0.61827 -0.26447 -0.82284 -0.50291 0.00000 -0.81912 0.57356 -0.29987 -0.95273 -0.04819 -0.26447 -0.82284 -0.50291 -0.18024 -0.76501 -0.61827 -0.14313 -0.59825 -0.78838 -0.26447 -0.82284 -0.50291 -0.29987 -0.95273 -0.04819 -0.18024 -0.76501 -0.61827 -0.05130 -0.98727 0.15052 0.00000 -0.81912 0.57356 0.00000 -0.81915 0.57356 -0.05130 -0.98727 0.15052 0.00000 -0.81915 0.57356 0.00000 -0.81912 0.57356 -0.05130 -0.98727 0.15052 0.00000 -0.81912 0.57356 -0.26447 -0.82284 -0.50291 0.05301 -0.94967 -0.30866 0.00000 -0.81912 0.57356 0.00000 -0.81912 0.57356 0.05301 -0.94967 -0.30866 0.00000 -0.81912 0.57356 -0.05130 -0.98727 0.15052 0.12281 -0.99179 0.03522 0.00003 -0.81915 0.57356 0.00000 -0.81912 0.57356 0.12281 -0.99179 0.03522 0.00000 -0.81912 0.57356 0.05301 -0.94967 -0.30866 0.33601 -0.89022 -0.30747 0.00003 -0.81915 0.57356 0.12281 -0.99179 0.03522 0.32124 -0.94595 0.04401 0.00003 -0.81915 0.57356 0.00003 -0.81915 0.57356 0.32124 -0.94595 0.04401 0.00003 -0.81915 0.57356 0.33601 -0.89022 -0.30747 0.32124 -0.94595 0.04401 0.00000 -0.81915 0.57353 0.00003 -0.81915 0.57356 0.25748 -0.94238 0.21354 -0.00003 -0.81912 0.57356 0.00000 -0.81915 0.57353 0.25748 -0.94238 0.21354 0.00000 -0.81915 0.57353 -0.00003 -0.81912 0.57356 0.25748 -0.94238 0.21354 0.43962 -0.73904 -0.51039 0.53328 -0.77798 -0.33216 0.25748 -0.94238 0.21354 0.00000 -0.81915 0.57353 0.32124 -0.94595 0.04401 0.53328 -0.77798 -0.33216 0.00000 -0.81915 0.57353 0.25748 -0.94238 0.21354 0.51552 -0.82907 -0.21638 0.00000 -0.81915 0.57353 0.53328 -0.77798 -0.33216 0.38215 -0.92056 0.08060 0.00000 -0.81915 0.57356 0.00000 -0.81915 0.57353 0.38215 -0.92056 0.08060 0.00000 -0.81915 0.57353 0.51552 -0.82907 -0.21638 0.38215 -0.92056 0.08060 0.00000 -0.81915 0.57353 0.00000 -0.81915 0.57356 -0.85107 0.47584 -0.22190 -0.98758 0.15430 -0.02927 -0.91269 0.40721 -0.03394 -0.72732 0.68169 -0.07917 -0.62703 0.76974 -0.11948 -0.85107 0.47584 -0.22190 -0.72732 0.68169 -0.07917 -0.85107 0.47584 -0.22190 -0.91269 0.40721 -0.03394 -0.85107 0.47584 -0.22190 -0.63976 0.72024 -0.26817 -0.76388 0.55202 -0.33427 -0.63976 0.72024 -0.26817 -0.85107 0.47584 -0.22190 -0.62703 0.76974 -0.11948 -0.31300 0.90847 -0.27683 -0.62703 0.76974 -0.11948 -0.26206 0.96365 -0.05155 -0.31300 0.90847 -0.27683 -0.63976 0.72024 -0.26817 -0.62703 0.76974 -0.11948 -0.96442 -0.26222 -0.03372 -0.95923 -0.28184 0.02045 -0.99008 -0.14029 -0.00354 -0.96442 -0.26222 -0.03372 -0.92969 -0.36827 -0.00650 -0.95923 -0.28184 0.02045 -0.96442 -0.26222 -0.03372 -0.99008 -0.14029 -0.00354 -0.99741 -0.07123 -0.00876 -0.85672 -0.51030 -0.07501 -0.83816 -0.54537 -0.00571 -0.92969 -0.36827 -0.00650 -0.85672 -0.51030 -0.07501 -0.92969 -0.36827 -0.00650 -0.96442 -0.26222 -0.03372 -0.68963 -0.71776 -0.09583 -0.30164 -0.91974 0.25114 -0.83816 -0.54537 -0.00571 -0.68963 -0.71776 -0.09583 -0.83816 -0.54537 -0.00571 -0.85672 -0.51030 -0.07501 -0.29002 -0.95636 -0.03500 -0.30164 -0.91974 0.25114 -0.68963 -0.71776 -0.09583 -0.57341 -0.79656 0.19144 -0.89505 -0.44572 -0.01425 -0.95923 -0.28184 0.02045 -0.57341 -0.79656 0.19144 -0.93573 -0.35078 0.03641 -0.83816 -0.54537 -0.00571 -0.57341 -0.79656 0.19144 -0.95923 -0.28184 0.02045 -0.93573 -0.35078 0.03641 -0.57341 -0.79656 0.19144 0.00000 -0.81915 0.57353 0.38215 -0.92056 0.08060 -0.30164 -0.91974 0.25114 0.00085 -0.84585 0.53340 0.01715 -0.84445 0.53529 -0.29002 -0.95636 -0.03500 -0.03943 -0.99902 -0.01907 0.00671 -0.88510 0.46532 -0.27369 -0.81841 -0.50520 -0.03504 -0.92715 -0.37300 -0.03943 -0.99902 -0.01907 -0.27369 -0.81841 -0.50520 -0.03943 -0.99902 -0.01907 -0.29002 -0.95636 -0.03500 -0.27369 -0.81841 -0.50520 0.01566 -0.63640 -0.77117 -0.03504 -0.92715 -0.37300 -0.31822 -0.35401 -0.87942 -0.00717 -0.19895 -0.97998 0.01566 -0.63640 -0.77117 -0.31822 -0.35401 -0.87942 0.01566 -0.63640 -0.77117 -0.27369 -0.81841 -0.50520 -0.28016 0.16117 -0.94632 0.00079 0.11942 -0.99283 -0.00717 -0.19895 -0.97998 -0.28016 0.16117 -0.94632 -0.00717 -0.19895 -0.97998 -0.31822 -0.35401 -0.87942 -0.28922 0.56230 -0.77468 -0.03317 0.57225 -0.81939 -0.06079 0.32398 -0.94409 -0.06079 0.32398 -0.94409 0.00079 0.11942 -0.99283 -0.28016 0.16117 -0.94632 -0.06079 0.32398 -0.94409 -0.28016 0.16117 -0.94632 -0.28922 0.56230 -0.77468 -0.00162 0.80923 -0.58745 -0.03317 0.57225 -0.81939 -0.28922 0.56230 -0.77468 -0.36674 0.78619 -0.49733 -0.00162 0.80923 -0.58745 -0.28922 0.56230 -0.77468 -0.31300 0.90847 -0.27683 -0.00162 0.80923 -0.58745 -0.36674 0.78619 -0.49733 -0.00241 0.99969 0.02362 0.00000 0.99954 0.02954 -0.01282 0.99091 -0.13376 -0.36009 0.93289 0.00000 -0.26206 0.96365 -0.05155 -0.62703 0.76974 -0.11948 -0.36009 0.93289 0.00000 -0.01071 0.99982 0.01538 -0.26206 0.96365 -0.05155 -0.25745 0.96628 0.00000 -0.01071 0.99982 0.01538 -0.36009 0.93289 0.00000 -0.25745 0.96628 0.00000 0.00000 1.00000 0.00000 -0.01071 0.99982 0.01538 -0.60582 0.79556 0.00000 -0.24006 0.97073 0.00000 -0.25745 0.96628 0.00000 -0.60582 0.79556 0.00000 -0.29206 0.95639 0.00186 -0.24006 0.97073 0.00000 -0.72732 0.68169 -0.07917 -0.61217 0.79067 0.00000 -0.62703 0.76974 -0.11948 -0.72732 0.68169 -0.07917 -0.60582 0.79556 0.00000 -0.61217 0.79067 0.00000 -0.61217 0.79067 0.00000 -0.36009 0.93289 0.00000 -0.62703 0.76974 -0.11948 -0.61217 0.79067 0.00000 -0.25745 0.96628 0.00000 -0.36009 0.93289 0.00000 -0.61217 0.79067 0.00000 -0.60582 0.79556 0.00000 -0.25745 0.96628 0.00000 -0.98047 0.17649 -0.08664 -0.85107 0.47584 -0.22190 -0.76388 0.55202 -0.33427 -0.98047 0.17649 -0.08664 -0.76388 0.55202 -0.33427 -0.95025 0.24665 -0.19013 -0.98047 0.17649 -0.08664 -0.98758 0.15430 -0.02927 -0.85107 0.47584 -0.22190 -0.99530 0.04334 -0.08634 -0.95025 0.24665 -0.19013 -0.96088 0.02304 -0.27595 -0.99530 0.04334 -0.08634 -0.98047 0.17649 -0.08664 -0.95025 0.24665 -0.19013 -0.99719 0.01502 -0.07318 -0.99530 0.04334 -0.08634 -0.96088 0.02304 -0.27595 -0.99710 -0.01282 -0.07483 -0.96088 0.02304 -0.27595 -0.96094 -0.13471 -0.24168 -0.99710 -0.01282 -0.07483 -0.99719 0.01502 -0.07318 -0.96088 0.02304 -0.27595 -0.99710 -0.03894 -0.06522 -0.99710 -0.01282 -0.07483 -0.96094 -0.13471 -0.24168 -0.99701 -0.07303 -0.02481 -0.96442 -0.26222 -0.03372 -0.99741 -0.07123 -0.00876 -0.99701 -0.07303 -0.02481 -0.95514 -0.25999 -0.14173 -0.96442 -0.26222 -0.03372 -0.99570 -0.06619 -0.06455 -0.96094 -0.13471 -0.24168 -0.95514 -0.25999 -0.14173 -0.99570 -0.06619 -0.06455 -0.99710 -0.03894 -0.06522 -0.96094 -0.13471 -0.24168 -0.99570 -0.06619 -0.06455 -0.95514 -0.25999 -0.14173 -0.99701 -0.07303 -0.02481 -1.00000 0.00000 0.00000 -0.99570 -0.06619 -0.06455 -0.99701 -0.07303 -0.02481 -1.00000 0.00000 0.00000 -0.99710 -0.03894 -0.06522 -0.99570 -0.06619 -0.06455 -0.99741 -0.07123 -0.00876 -1.00000 0.00000 0.00000 -0.99701 -0.07303 -0.02481 -0.99741 -0.07123 -0.00876 -0.99820 -0.05979 0.00079 -1.00000 0.00000 0.00000 -0.99820 -0.05979 0.00079 -0.99008 -0.14029 -0.00354 -0.97430 -0.22514 0.00571 -0.99820 -0.05979 0.00079 -0.99741 -0.07123 -0.00876 -0.99008 -0.14029 -0.00354 -0.89151 -0.44194 0.09931 -0.89505 -0.44572 -0.01425 -0.77099 -0.63619 -0.02805 -0.89151 -0.44194 0.09931 -0.77099 -0.63619 -0.02805 -0.66881 -0.73650 0.10105 -0.99091 -0.11963 0.06149 -0.89505 -0.44572 -0.01425 -0.89151 -0.44194 0.09931 -0.99091 -0.11963 0.06149 -0.97430 -0.22514 0.00571 -0.89505 -0.44572 -0.01425 -0.99091 -0.11963 0.06149 -0.99820 -0.05979 0.00079 -0.97430 -0.22514 0.00571 -0.26081 -0.91345 -0.31230 0.63070 -0.44551 -0.63536 0.39744 -0.75304 -0.52431 -0.57341 -0.79656 0.19144 -0.43458 -0.85437 0.28483 0.01715 -0.84445 0.53529 -0.57341 -0.79656 0.19144 0.01715 -0.84445 0.53529 0.00000 -0.81915 0.57353 -0.26081 -0.91345 -0.31230 -0.57341 -0.79656 0.19144 0.38215 -0.92056 0.08060 -0.26081 -0.91345 -0.31230 0.38215 -0.92056 0.08060 0.63070 -0.44551 -0.63536 0.39744 -0.75304 -0.52431 -0.05029 -0.99490 0.08704 -0.30503 -0.94726 0.09790 0.39744 -0.75304 -0.52431 0.34922 -0.85443 -0.38462 0.00000 -1.00000 0.00000 0.39744 -0.75304 -0.52431 0.00000 -1.00000 0.00000 -0.05029 -0.99490 0.08704 -0.26081 -0.91345 -0.31230 -0.77099 -0.63619 -0.02805 -0.89505 -0.44572 -0.01425 -0.26081 -0.91345 -0.31230 -0.30503 -0.94726 0.09790 -0.45817 -0.87374 0.16309 -0.26081 -0.91345 -0.31230 -0.89505 -0.44572 -0.01425 -0.57341 -0.79656 0.19144 -0.26081 -0.91345 -0.31230 -0.66881 -0.73650 0.10105 -0.77099 -0.63619 -0.02805 -0.26081 -0.91345 -0.31230 0.39744 -0.75304 -0.52431 -0.30503 -0.94726 0.09790 -0.43458 -0.85437 0.28483 -0.30164 -0.91974 0.25114 0.01715 -0.84445 0.53529 -0.43458 -0.85437 0.28483 -0.83816 -0.54537 -0.00571 -0.30164 -0.91974 0.25114 -0.43458 -0.85437 0.28483 -0.57341 -0.79656 0.19144 -0.83816 -0.54537 -0.00571 0.05579 0.99814 0.02396 0.09836 0.98144 -0.16443 0.00000 0.99954 0.02954 0.09836 0.98144 -0.16443 0.05579 0.99814 0.02396 0.22382 0.95669 -0.18601 0.22205 0.78341 -0.58043 0.09836 0.98144 -0.16443 0.22382 0.95669 -0.18601 0.22205 0.78341 -0.58043 0.05857 0.81283 -0.57952 0.09836 0.98144 -0.16443 0.16474 0.44865 -0.87835 -0.00262 0.38774 -0.92175 0.05857 0.81283 -0.57952 0.16474 0.44865 -0.87835 0.05857 0.81283 -0.57952 0.22205 0.78341 -0.58043 0.15394 -0.00089 -0.98807 0.01520 -0.07868 -0.99677 -0.00262 0.38774 -0.92175 0.15394 -0.00089 -0.98807 0.62075 0.01251 -0.78390 0.62084 -0.35411 -0.69939 0.15394 -0.00089 -0.98807 0.62084 -0.35411 -0.69939 0.16572 -0.46129 -0.87161 0.15394 -0.00089 -0.98807 -0.00262 0.38774 -0.92175 0.16474 0.44865 -0.87835 0.16572 -0.46129 -0.87161 0.02484 -0.53166 -0.84655 0.01520 -0.07868 -0.99677 0.16572 -0.46129 -0.87161 0.01520 -0.07868 -0.99677 0.15394 -0.00089 -0.98807 0.15693 -0.81933 -0.55138 0.05753 -0.86236 -0.50298 0.02484 -0.53166 -0.84655 0.15693 -0.81933 -0.55138 0.02484 -0.53166 -0.84655 0.16572 -0.46129 -0.87161 0.15326 -0.98376 -0.09320 0.05640 -0.99762 -0.03916 0.05753 -0.86236 -0.50298 0.15326 -0.98376 -0.09320 0.05753 -0.86236 -0.50298 0.15693 -0.81933 -0.55138 0.15223 -0.91198 0.38084 0.02490 -0.94427 0.32820 0.05640 -0.99762 -0.03916 0.15223 -0.91198 0.38084 0.05640 -0.99762 -0.03916 0.15326 -0.98376 -0.09320 0.05579 0.99814 0.02396 0.00000 0.99954 0.02954 0.00351 0.99997 -0.00043 -0.00241 0.99969 0.02362 0.00000 1.00000 0.00000 0.00000 0.99954 0.02954 -0.00241 0.99969 0.02362 0.00000 1.00000 0.00000 0.00000 1.00000 0.00000 -0.63054 0.77364 0.06183 -0.60582 0.79556 0.00000 -0.72732 0.68169 -0.07917 -0.63054 0.77364 0.06183 -0.27497 0.96139 0.00833 -0.29206 0.95639 0.00186 -0.63054 0.77364 0.06183 -0.29206 0.95639 0.00186 -0.60582 0.79556 0.00000 -0.63054 0.77364 0.06183 -0.87527 0.47591 0.08591 -0.64080 0.68480 0.34690 -0.87527 0.47591 0.08591 -0.72732 0.68169 -0.07917 -0.91269 0.40721 -0.03394 -0.87527 0.47591 0.08591 -0.98758 0.15430 -0.02927 -0.99390 0.08225 0.07340 -0.87527 0.47591 0.08591 -0.91269 0.40721 -0.03394 -0.98758 0.15430 -0.02927 -0.87527 0.47591 0.08591 -0.63054 0.77364 0.06183 -0.72732 0.68169 -0.07917 -0.99390 0.08225 0.07340 -1.00000 0.00000 0.00000 -1.00000 0.00000 0.00000 -0.66881 0.08362 0.73870 -0.34260 0.16288 0.92523 -0.63124 0.31639 0.70809 -0.66881 0.08362 0.73870 -0.34938 0.03925 0.93612 -0.34260 0.16288 0.92523 -0.66881 0.08362 0.73870 -0.63124 0.31639 0.70809 -0.90545 0.09616 0.41331 -0.89151 -0.44194 0.09931 -0.81637 -0.43025 0.38520 -0.93802 -0.11393 0.32725 -0.89151 -0.44194 0.09931 -0.93802 -0.11393 0.32725 -0.99091 -0.11963 0.06149 -0.66881 -0.73650 0.10105 -0.26081 -0.91345 -0.31230 -0.45817 -0.87374 0.16309 -0.66881 -0.73650 0.10105 -0.51296 -0.75695 0.40480 -0.81637 -0.43025 0.38520 -0.66881 -0.73650 0.10105 -0.45817 -0.87374 0.16309 -0.51296 -0.75695 0.40480 -0.66881 -0.73650 0.10105 -0.81637 -0.43025 0.38520 -0.89151 -0.44194 0.09931 0.00671 -0.88510 0.46532 0.00000 -0.81915 0.57356 0.00085 -0.84585 0.53340 0.00671 -0.88510 0.46532 -0.00003 -0.81915 0.57353 0.00000 -0.81915 0.57356 0.63851 -0.56432 0.52327 0.85351 -0.23057 0.46721 0.43141 -0.74691 0.50594 0.63851 -0.56432 0.52327 0.90350 -0.29951 0.30650 0.79791 -0.23557 0.55480 0.63851 -0.56432 0.52327 0.15223 -0.91198 0.38084 0.67788 -0.68352 0.27061 0.92666 -0.30442 0.22037 0.67788 -0.68352 0.27061 0.84121 -0.51225 0.17292 0.12253 0.99240 -0.00913 0.22382 0.95669 -0.18601 0.05579 0.99814 0.02396 0.69341 0.71181 0.11148 0.12577 0.99194 -0.01331 0.77435 0.63271 0.00320 -0.01282 0.99091 -0.13376 -0.00162 0.80923 -0.58745 -0.31300 0.90847 -0.27683 -0.01282 0.99091 -0.13376 -0.26206 0.96365 -0.05155 -0.01071 0.99982 0.01538 -0.01282 0.99091 -0.13376 -0.31300 0.90847 -0.27683 -0.26206 0.96365 -0.05155 -0.00241 0.99969 0.02362 -0.01282 0.99091 -0.13376 -0.01071 0.99982 0.01538 0.70879 0.70199 0.06922 0.00012 0.99393 0.10984 0.46373 0.80468 0.37065 0.70879 0.70199 0.06922 0.46373 0.80468 0.37065 1.00000 0.00000 0.00000 0.70708 0.70708 0.00000 1.00000 0.00000 0.00000 1.00000 0.00000 0.00000 0.70708 0.70708 0.00000 0.70879 0.70199 0.06922 1.00000 0.00000 0.00000 0.70708 0.70708 0.00000 1.00000 0.00000 0.00000 0.70708 0.70708 0.00000 0.89969 0.00000 -0.43651 0.66219 0.72839 -0.17582 0.73077 0.46825 -0.49666 0.89969 0.00000 -0.43651 0.73077 0.46825 -0.49666 0.70708 0.00000 -0.70708 0.92386 0.00000 -0.38267 0.73077 0.46825 -0.49666 0.70708 0.70708 0.00000 0.92386 0.00000 -0.38267 0.70708 0.70708 0.00000 1.00000 0.00000 0.00000 0.92386 0.00000 -0.38267 0.70708 0.00000 -0.70708 0.73077 0.46825 -0.49666 0.92386 0.00000 -0.38267 1.00000 0.00000 0.00000 1.00000 0.00000 0.00000 0.92386 0.00000 -0.38267 1.00000 0.00000 0.00000 0.63506 -0.35926 -0.68380 0.92386 0.00000 -0.38267 0.92386 0.00000 -0.38267 1.00000 0.00000 0.00000 0.89969 0.00000 -0.43651 0.98978 -0.00772 0.14225 0.99567 0.04636 0.08051 0.89969 0.00000 -0.43651 0.99567 0.04636 0.08051 0.66219 0.72839 -0.17582 0.92389 0.00000 -0.38261 0.98978 -0.00772 0.14225 0.89969 0.00000 -0.43651 0.92389 0.00000 -0.38261 0.56224 -0.74435 -0.36027 0.70623 -0.65468 0.26939 0.70708 0.00000 -0.70708 0.92386 0.00000 -0.38267 0.63506 -0.35926 -0.68380 0.70708 0.00000 -0.70708 0.92389 0.00000 -0.38261 0.89969 0.00000 -0.43651 0.70708 0.00000 -0.70708 0.70708 0.00000 -0.70708 0.92386 0.00000 -0.38267 0.70708 0.00000 -0.70708 0.89969 0.00000 -0.43651 0.70708 0.00000 -0.70708 0.70708 0.00000 -0.70708 0.92386 0.00000 -0.38267 0.92386 0.00000 -0.38267 0.70708 0.00000 -0.70708 0.92386 0.00000 -0.38267 0.70708 0.00000 -0.70708 0.70708 0.00000 -0.70708 0.56224 -0.74435 -0.36027 0.92389 0.00000 -0.38261 0.70708 0.00000 -0.70708 0.37342 -0.62044 -0.68963 0.56224 -0.74435 -0.36027 0.70708 0.00000 -0.70708 0.70708 0.00000 -0.70708 0.37342 -0.62044 -0.68963 0.56224 -0.74435 -0.36027 0.00760 -0.99789 -0.06400 -0.00293 -0.91330 0.40724 0.56224 -0.74435 -0.36027 -0.00293 -0.91330 0.40724 0.70623 -0.65468 0.26939 0.37342 -0.62044 -0.68963 0.63506 -0.35926 -0.68380 -0.00647 -0.69039 -0.72338 0.37342 -0.62044 -0.68963 -0.00647 -0.69039 -0.72338 -0.00687 -0.84289 -0.53801 0.37342 -0.62044 -0.68963 -0.00687 -0.84289 -0.53801 0.00760 -0.99789 -0.06400 0.37342 -0.62044 -0.68963 0.70708 0.00000 -0.70708 0.63506 -0.35926 -0.68380 0.37342 -0.62044 -0.68963 0.00760 -0.99789 -0.06400 0.56224 -0.74435 -0.36027 0.71355 -0.54732 0.43730 0.99936 -0.01093 0.03345 0.70623 -0.65468 0.26939 -0.07553 -0.89431 0.44096 -0.00293 -0.91330 0.40724 -0.22938 -0.96112 -0.15366 -0.07553 -0.89431 0.44096 -0.29987 -0.95273 -0.04819 0.00000 -0.81912 0.57356 -0.07553 -0.89431 0.44096 0.00000 -0.81912 0.57356 0.00000 -0.81912 0.57356 -0.07553 -0.89431 0.44096 0.00000 -0.81912 0.57356 0.00000 -0.81915 0.57356 -0.07553 -0.89431 0.44096 0.00000 -0.81915 0.57356 0.70623 -0.65468 0.26939 -0.07553 -0.89431 0.44096 0.70623 -0.65468 0.26939 -0.00293 -0.91330 0.40724 -1.00000 0.00000 0.00000 -0.99701 -0.07303 -0.02481 -1.00000 0.00000 0.00000 -1.00000 0.00000 0.00000 -1.00000 0.00000 0.00000 -0.99390 0.08225 0.07340 -1.00000 0.00000 0.00000 -0.99390 0.08225 0.07340 -0.98758 0.15430 -0.02927 -1.00000 0.00000 0.00000 -0.99530 0.04334 -0.08634 -0.99719 0.01502 -0.07318 -1.00000 0.00000 0.00000 -0.99719 0.01502 -0.07318 -0.99710 -0.01282 -0.07483 -1.00000 0.00000 0.00000 -0.99710 -0.01282 -0.07483 -1.00000 0.00000 0.00000 -1.00000 0.00000 0.00000 -1.00000 0.00000 0.00000 -1.00000 0.00000 0.00000 -1.00000 0.00000 0.00000 -1.00000 0.00000 0.00000 -1.00000 0.00000 0.00000 -0.99091 -0.11963 0.06149 -1.00000 0.00000 0.00000 -0.99820 -0.05979 0.00079 -0.99091 -0.11963 0.06149 -0.99390 0.08225 0.07340 -1.00000 0.00000 0.00000 -0.03809 -0.08753 0.99542 0.00000 0.00000 1.00000 0.00000 0.00000 1.00000 -0.03809 -0.08753 0.99542 0.00000 -0.05441 0.99850 0.00000 0.00000 1.00000 0.00000 0.00000 1.00000 0.00000 0.00000 1.00000 0.00000 0.00000 1.00000 0.00000 0.00000 1.00000 0.00000 0.00000 1.00000 0.00000 0.00000 1.00000 -0.51296 -0.75695 0.40480 -0.20438 -0.92785 0.31187 -0.12265 -0.77059 0.62539 -0.20438 -0.92785 0.31187 -0.45817 -0.87374 0.16309 -0.30503 -0.94726 0.09790 -0.20438 -0.92785 0.31187 -0.51296 -0.75695 0.40480 -0.45817 -0.87374 0.16309 0.00671 -0.88510 0.46532 0.00085 -0.84585 0.53340 -0.30164 -0.91974 0.25114 0.00671 -0.88510 0.46532 -0.30164 -0.91974 0.25114 -0.29002 -0.95636 -0.03500 0.92666 -0.30442 0.22037 0.90350 -0.29951 0.30650 0.67788 -0.68352 0.27061 0.67788 -0.68352 0.27061 0.90350 -0.29951 0.30650 0.63851 -0.56432 0.52327 0.02490 -0.94427 0.32820 0.15223 -0.91198 0.38084 -0.03766 -0.84741 0.52959 0.15223 -0.91198 0.38084 0.43141 -0.74691 0.50594 -0.03766 -0.84741 0.52959 0.15223 -0.91198 0.38084 0.63851 -0.56432 0.52327 0.43141 -0.74691 0.50594 0.12253 0.99240 -0.00913 0.01059 0.99994 -0.00250 0.12577 0.99194 -0.01331 0.12253 0.99240 -0.00913 0.12577 0.99194 -0.01331 0.69341 0.71181 0.11148 0.12253 0.99240 -0.00913 0.69341 0.71181 0.11148 0.60088 0.78985 -0.12268 0.69341 0.71181 0.11148 0.76577 0.62313 0.15888 0.60088 0.78985 -0.12268 0.99567 0.04636 0.08051 0.99475 0.07395 0.07038 0.77435 0.63271 0.00320 0.99475 0.07395 0.07038 0.69341 0.71181 0.11148 0.77435 0.63271 0.00320 0.99475 0.07395 0.07038 0.94256 0.26133 0.20786 0.69341 0.71181 0.11148 0.69341 0.71181 0.11148 0.94256 0.26133 0.20786 0.80575 0.45338 0.38105 0.80575 0.45338 0.38105 0.74279 0.52709 0.41279 0.69341 0.71181 0.11148 0.74279 0.52709 0.41279 0.76577 0.62313 0.15888 0.69341 0.71181 0.11148 0.74279 0.52709 0.41279 0.89129 0.36772 0.26521 0.76577 0.62313 0.15888 0.89129 0.36772 0.26521 0.89346 0.43171 0.12369 0.76577 0.62313 0.15888 0.89129 0.36772 0.26521 0.96332 0.18467 0.19456 0.89346 0.43171 0.12369 0.79791 -0.23557 0.55480 0.77746 0.02893 0.62822 0.87301 -0.00092 0.48762 0.87301 -0.00092 0.48762 0.85351 -0.23057 0.46721 0.79791 -0.23557 0.55480 0.87301 -0.00092 0.48762 0.98978 -0.00772 0.14225 0.85351 -0.23057 0.46721 0.98978 -0.00772 0.14225 0.95734 -0.02261 0.28800 0.85351 -0.23057 0.46721 0.98978 -0.00772 0.14225 0.99936 -0.01093 0.03345 0.95734 -0.02261 0.28800</float_array>
					<technique_common>
						<accessor count="1905" source="#ShapeIndexedFaceS_019-Geometry-Normals-array" stride="3">
							<param type="float" name="X"></param>
							<param type="float" name="Y"></param>
							<param type="float" name="Z"></param>
						</accessor>
					</technique_common>
				</source>
				<vertices id="ShapeIndexedFaceS_019-Geometry-Vertex">
					<input semantic="POSITION" source="#ShapeIndexedFaceS_019-Geometry-Position"/>
				</vertices>
				<triangles count="635" material="Material_016">
					<input offset="0" semantic="VERTEX" source="#ShapeIndexedFaceS_019-Geometry-Vertex"/>
					<input offset="1" semantic="NORMAL" source="#ShapeIndexedFaceS_019-Geometry-Normals"/>
					<p>1 0 0 1 2 2 2 3 0 4 3 5 3 6 0 7 4 8 5 9 3 10 4 11 7 12 4 13 6 14 8 15 5 16 7 17 9 18 5 19 8 20 11 21 10 22 9 23 13 24 10 25 12 26 5 27 9 28 10 29 4 30 7 31 5 32 11 33 12 34 10 35 16 36 15 37 14 38 17 39 16 40 14 41 17 42 14 43 18 44 19 45 17 46 18 47 18 48 20 49 19 50 23 51 22 52 21 53 24 54 23 55 21 56 24 57 21 58 25 59 26 60 24 61 25 62 26 63 25 64 27 65 28 66 26 67 27 68 28 69 27 70 29 71 30 72 28 73 29 74 30 75 29 76 31 77 32 78 30 79 31 80 32 81 31 82 33 83 34 84 32 85 33 86 36 87 22 88 35 89 35 90 22 91 23 92 39 93 38 94 37 95 42 96 41 97 40 98 45 99 44 100 43 101 46 102 45 103 43 104 47 105 45 106 46 107 48 108 47 109 46 110 51 111 50 112 49 113 52 114 51 115 49 116 50 117 48 118 53 119 49 120 50 121 53 122 53 123 48 124 46 125 46 126 43 127 54 128 46 129 54 130 53 131 52 132 49 133 55 134 56 135 52 136 55 137 49 138 53 139 57 140 55 141 49 142 57 143 53 144 54 145 58 146 57 147 53 148 58 149 56 150 55 151 59 152 60 153 56 154 59 155 55 156 57 157 61 158 59 159 55 160 61 161 57 162 58 163 62 164 61 165 57 166 62 167 60 168 59 169 63 170 64 171 60 172 63 173 59 174 61 175 65 176 63 177 59 178 65 179 61 180 62 181 66 182 65 183 61 184 66 185 44 186 68 187 67 188 68 189 44 190 45 191 68 192 45 193 47 194 50 195 47 196 48 197 47 198 50 199 51 200 71 201 70 202 69 203 72 204 71 205 69 206 70 207 74 208 73 209 69 210 70 211 73 212 73 213 74 214 75 215 78 216 77 217 76 218 79 219 78 220 76 221 77 222 81 223 80 224 76 225 77 226 80 227 79 228 76 229 82 230 83 231 79 232 82 233 80 234 85 235 84 236 84 237 82 238 76 239 84 240 76 241 80 242 88 243 87 244 86 245 88 246 78 247 87 248 91 249 90 250 89 251 93 252 92 253 90 254 90 255 91 256 93 257 92 258 93 259 94 260 96 261 90 262 95 263 97 264 89 265 96 266 100 267 99 268 98 269 100 270 98 271 101 272 101 273 98 274 102 275 99 276 103 277 98 278 99 279 104 280 103 281 106 282 41 283 105 284 106 285 105 286 107 287 110 288 109 289 108 290 113 291 112 292 111 293 113 294 111 295 114 296 108 297 113 298 114 299 108 300 115 301 81 302 115 303 117 304 116 305 117 306 114 307 111 308 115 309 108 310 114 311 114 312 117 313 115 314 119 315 118 316 85 317 85 318 80 319 119 320 119 321 121 322 120 323 115 324 116 325 121 326 119 327 81 328 115 329 119 330 80 331 81 332 120 333 118 334 119 335 115 336 121 337 119 338 123 339 122 340 110 341 123 342 110 343 124 344 127 345 126 346 125 347 126 348 127 349 128 350 131 351 130 352 129 353 129 354 127 355 131 356 134 357 133 358 132 359 137 360 136 361 135 362 136 363 137 364 133 365 135 366 138 367 137 368 134 369 132 370 139 371 134 372 136 373 133 374 142 375 141 376 140 377 145 378 144 379 143 380 144 381 145 382 146 383 149 384 148 385 147 386 151 387 150 388 148 389 151 390 148 391 149 392 123 393 152 394 122 395 154 396 153 397 123 398 157 399 156 400 155 401 160 402 159 403 158 404 153 405 154 406 161 407 152 408 123 409 153 410 162 411 155 412 156 413 165 414 164 415 163 416 165 417 163 418 166 419 167 420 165 421 166 422 163 423 164 424 168 425 163 426 168 427 166 428 168 429 164 430 169 431 168 432 169 433 166 434 164 435 170 436 169 437 166 438 169 439 171 440 174 441 173 442 172 443 174 444 172 445 175 446 176 447 174 448 175 449 172 450 178 451 177 452 175 453 172 454 177 455 181 456 180 457 179 458 179 459 182 460 181 461 185 462 184 463 183 464 186 465 185 466 183 467 184 468 188 469 187 470 183 471 184 472 187 473 188 474 190 475 189 476 187 477 188 478 189 479 190 480 192 481 191 482 189 483 190 484 191 485 192 486 194 487 193 488 191 489 192 490 193 491 194 492 34 493 33 494 193 495 194 496 33 497 186 498 36 499 35 500 186 501 35 502 185 503 197 504 196 505 195 506 197 507 195 508 198 509 199 510 197 511 198 512 199 513 198 514 200 515 201 516 199 517 200 518 201 519 200 520 202 521 203 522 201 523 202 524 206 525 205 526 204 527 195 528 206 529 204 530 195 531 204 532 207 533 198 534 195 535 207 536 198 537 207 538 208 539 200 540 198 541 208 542 200 543 208 544 209 545 202 546 200 547 209 548 212 549 211 550 210 551 213 552 212 553 210 554 213 555 210 556 214 557 215 558 213 559 214 560 215 561 214 562 216 563 217 564 215 565 216 566 202 567 209 568 218 569 211 570 202 571 218 572 211 573 218 574 219 575 210 576 211 577 219 578 210 579 219 580 220 581 214 582 210 583 220 584 214 585 220 586 221 587 216 588 214 589 221 590 23 591 22 592 21 593 24 594 23 595 21 596 24 597 21 598 25 599 26 600 24 601 25 602 26 603 25 604 27 605 28 606 26 607 27 608 28 609 27 610 29 611 30 612 28 613 29 614 30 615 29 616 31 617 32 618 30 619 31 620 32 621 31 622 33 623 34 624 32 625 33 626 36 627 22 628 35 629 35 630 22 631 23 632 38 633 39 634 185 635 38 636 222 637 37 638 225 639 224 640 223 641 225 642 223 643 226 644 225 645 226 646 227 647 230 648 229 649 228 650 230 651 228 652 231 653 230 654 231 655 232 656 230 657 232 658 233 659 230 660 225 661 234 662 236 663 92 664 235 665 236 666 90 667 237 668 236 669 237 670 92 671 236 672 225 673 230 674 236 675 238 676 225 677 227 678 234 679 225 680 234 681 229 682 230 683 239 684 230 685 233 686 239 687 90 688 236 689 239 690 236 691 230 692 79 693 11 694 9 695 88 696 123 697 124 698 241 699 240 700 2 701 241 702 2 703 3 704 13 705 196 706 242 707 10 708 241 709 3 710 10 711 3 712 5 713 10 714 20 715 241 716 10 717 13 718 242 719 245 720 244 721 243 722 246 723 245 724 243 725 162 726 248 727 247 728 162 729 247 730 155 731 156 732 246 733 162 734 103 735 176 736 175 737 103 738 104 739 176 740 98 741 103 742 175 743 98 744 175 745 177 746 41 747 228 748 229 749 41 750 106 751 228 752 107 753 232 754 228 755 107 756 228 757 106 758 249 759 232 760 107 761 99 762 41 763 250 764 99 765 105 766 41 767 100 768 107 769 105 770 100 771 105 772 99 773 101 774 249 775 107 776 101 777 107 778 100 779 250 780 34 781 251 782 250 783 251 784 252 785 250 786 253 787 34 788 41 789 42 790 253 791 41 792 253 793 250 794 255 795 252 796 254 797 255 798 254 799 222 800 255 801 257 802 256 803 259 804 255 805 258 806 259 807 176 808 104 809 259 810 104 811 99 812 259 813 99 814 250 815 258 816 174 817 176 818 258 819 255 820 256 821 258 822 176 823 259 824 256 825 139 826 132 827 256 828 173 829 174 830 256 831 174 832 258 833 133 834 172 835 173 836 133 837 178 838 172 839 137 840 178 841 133 842 173 843 132 844 133 845 173 846 256 847 132 848 260 849 256 850 257 851 260 852 257 853 261 854 260 855 139 856 256 857 136 858 69 859 73 860 262 861 73 862 75 863 262 864 135 865 136 866 262 867 138 868 135 869 262 870 136 871 73 872 257 873 264 874 263 875 263 876 71 877 72 878 263 879 261 880 257 881 261 882 72 883 139 884 261 885 139 886 260 887 261 888 263 889 72 890 266 891 265 892 1 893 266 894 1 895 2 896 267 897 266 898 2 899 267 900 2 901 240 902 269 903 240 904 268 905 270 906 0 907 1 908 270 909 272 910 271 911 270 912 1 913 265 914 270 915 265 916 272 917 4 918 0 919 270 920 271 921 272 922 273 923 74 924 271 925 273 926 70 927 271 928 74 929 171 930 263 931 264 932 171 933 71 934 263 935 171 936 70 937 71 938 274 939 70 940 171 941 275 942 271 943 70 944 275 945 70 946 274 947 271 948 170 949 270 950 169 951 274 952 171 953 169 954 275 955 274 956 170 957 275 958 169 959 170 960 271 961 275 962 277 963 276 964 6 965 277 966 6 967 4 968 277 969 4 970 270 971 277 972 170 973 164 974 277 975 270 976 170 977 164 978 224 979 277 980 165 981 226 982 224 983 165 984 224 985 164 986 167 987 226 988 165 989 264 990 257 991 38 992 278 993 35 994 23 995 278 996 185 997 35 998 278 999 38 1000 185 1001 278 1002 264 1003 38 1004 278 1005 166 1006 171 1007 278 1008 171 1009 264 1010 279 1011 278 1012 23 1013 279 1014 281 1015 280 1016 279 1017 227 1018 226 1019 279 1020 226 1021 167 1022 279 1023 23 1024 281 1025 279 1026 167 1027 166 1028 279 1029 166 1030 278 1031 234 1032 41 1033 229 1034 234 1035 282 1036 40 1037 234 1038 40 1039 41 1040 234 1041 280 1042 282 1043 234 1044 227 1045 279 1046 234 1047 279 1048 280 1049 95 1050 233 1051 283 1052 283 1053 233 1054 232 1055 283 1056 232 1057 249 1058 285 1059 284 1060 97 1061 285 1062 286 1063 284 1064 285 1065 97 1066 96 1067 285 1068 96 1069 95 1070 285 1071 249 1072 101 1073 285 1074 95 1075 283 1076 285 1077 283 1078 249 1079 288 1080 287 1081 286 1082 288 1083 101 1084 102 1085 288 1086 102 1087 289 1088 288 1089 285 1090 101 1091 288 1092 286 1093 285 1094 291 1095 290 1096 287 1097 291 1098 292 1099 290 1100 291 1101 287 1102 288 1103 97 1104 294 1105 293 1106 97 1107 295 1108 294 1109 97 1110 296 1111 295 1112 97 1113 293 1114 89 1115 287 1116 298 1117 297 1118 284 1119 296 1120 97 1121 286 1122 299 1123 296 1124 286 1125 297 1126 299 1127 286 1128 287 1129 297 1130 286 1131 296 1132 284 1133 290 1134 300 1135 298 1136 290 1137 298 1138 287 1139 292 1140 149 1141 147 1142 292 1143 147 1144 290 1145 94 1146 236 1147 235 1148 301 1149 93 1150 91 1151 301 1152 94 1153 93 1154 301 1155 179 1156 180 1157 302 1158 181 1159 182 1160 91 1161 89 1162 293 1163 91 1164 293 1165 294 1166 91 1167 179 1168 301 1169 159 1170 303 1171 182 1172 159 1173 182 1174 179 1175 294 1176 158 1177 159 1178 294 1179 179 1180 91 1181 294 1182 159 1183 179 1184 295 1185 305 1186 304 1187 295 1188 304 1189 158 1190 295 1191 158 1192 294 1193 296 1194 306 1195 305 1196 296 1197 305 1198 295 1199 299 1200 307 1201 306 1202 299 1203 306 1204 296 1205 297 1206 307 1207 299 1208 298 1209 308 1210 307 1211 298 1212 307 1213 297 1214 298 1215 309 1216 308 1217 300 1218 157 1219 309 1220 300 1221 156 1222 157 1223 300 1224 290 1225 147 1226 300 1227 309 1228 298 1229 147 1230 156 1231 300 1232 148 1233 156 1234 147 1235 150 1236 246 1237 156 1238 150 1239 156 1240 148 1241 150 1242 245 1243 246 1244 311 1245 146 1246 310 1247 313 1248 312 1249 311 1250 313 1251 311 1252 310 1253 311 1254 68 1255 47 1256 68 1257 311 1258 312 1259 67 1260 312 1261 314 1262 67 1263 68 1264 312 1265 64 1266 127 1267 125 1268 64 1269 131 1270 127 1271 64 1272 125 1273 315 1274 63 1275 130 1276 131 1277 63 1278 131 1279 64 1280 65 1281 316 1282 130 1283 65 1284 130 1285 63 1286 66 1287 316 1288 65 1289 317 1290 128 1291 127 1292 317 1293 129 1294 130 1295 317 1296 127 1297 129 1298 317 1299 245 1300 150 1301 316 1302 243 1303 244 1304 66 1305 318 1306 248 1307 62 1308 319 1309 318 1310 62 1311 318 1312 66 1313 62 1314 320 1315 319 1316 58 1317 321 1318 320 1319 58 1320 320 1321 62 1322 54 1323 322 1324 321 1325 54 1326 321 1327 58 1328 43 1329 15 1330 323 1331 323 1332 322 1333 54 1334 323 1335 54 1336 43 1337 14 1338 15 1339 43 1340 44 1341 14 1342 43 1343 67 1344 14 1345 44 1346 268 1347 20 1348 18 1349 324 1350 314 1351 312 1352 324 1353 269 1354 314 1355 267 1356 269 1357 324 1358 267 1359 240 1360 269 1361 325 1362 266 1363 267 1364 325 1365 265 1366 266 1367 313 1368 326 1369 312 1370 313 1371 325 1372 326 1373 326 1374 324 1375 312 1376 326 1377 267 1378 324 1379 326 1380 325 1381 267 1382 144 1383 311 1384 47 1385 144 1386 47 1387 51 1388 144 1389 146 1390 311 1391 143 1392 51 1393 52 1394 143 1395 144 1396 51 1397 327 1398 143 1399 52 1400 141 1401 52 1402 56 1403 141 1404 327 1405 52 1406 140 1407 141 1408 56 1409 328 1410 64 1411 315 1412 328 1413 60 1414 64 1415 329 1416 56 1417 60 1418 329 1419 140 1420 56 1421 329 1422 60 1423 328 1424 142 1425 329 1426 328 1427 142 1428 140 1429 329 1430 315 1431 330 1432 328 1433 315 1434 331 1435 330 1436 331 1437 125 1438 126 1439 331 1440 315 1441 125 1442 333 1443 128 1444 332 1445 333 1446 332 1447 334 1448 138 1449 128 1450 333 1451 138 1452 126 1453 128 1454 138 1455 331 1456 126 1457 335 1458 151 1459 149 1460 317 1461 336 1462 244 1463 317 1464 244 1465 245 1466 335 1467 317 1468 150 1469 335 1470 150 1471 151 1472 149 1473 288 1474 289 1475 149 1476 292 1477 291 1478 149 1479 291 1480 288 1481 335 1482 332 1483 128 1484 335 1485 289 1486 337 1487 335 1488 128 1489 317 1490 335 1491 334 1492 332 1493 335 1494 149 1495 289 1496 336 1497 316 1498 244 1499 336 1500 130 1501 316 1502 336 1503 317 1504 130 1505 242 1506 19 1507 20 1508 19 1509 242 1510 197 1511 199 1512 19 1513 197 1514 199 1515 17 1516 19 1517 201 1518 338 1519 17 1520 201 1521 17 1522 199 1523 203 1524 339 1525 338 1526 203 1527 202 1528 211 1529 203 1530 211 1531 212 1532 203 1533 338 1534 201 1535 212 1536 340 1537 339 1538 212 1539 339 1540 203 1541 213 1542 341 1543 340 1544 213 1545 340 1546 212 1547 215 1548 342 1549 341 1550 215 1551 341 1552 213 1553 217 1554 343 1555 342 1556 217 1557 342 1558 215 1559 242 1560 20 1561 10 1562 268 1563 241 1564 20 1565 268 1566 240 1567 241 1568 273 1569 325 1570 313 1571 273 1572 272 1573 265 1574 273 1575 265 1576 325 1577 273 1578 75 1579 74 1580 75 1581 313 1582 310 1583 75 1584 146 1585 262 1586 75 1587 310 1588 146 1589 75 1590 273 1591 313 1592 262 1593 344 1594 330 1595 134 1596 72 1597 69 1598 134 1599 139 1600 72 1601 134 1602 69 1603 136 1604 333 1605 178 1606 137 1607 333 1608 137 1609 138 1610 334 1611 335 1612 337 1613 334 1614 177 1615 178 1616 334 1617 337 1618 177 1619 334 1620 178 1621 333 1622 248 1623 246 1624 243 1625 248 1626 162 1627 246 1628 109 1629 110 1630 122 1631 109 1632 113 1633 108 1634 109 1635 217 1636 216 1637 112 1638 216 1639 221 1640 196 1641 197 1642 242 1643 345 1644 12 1645 11 1646 18 1647 14 1648 67 1649 18 1650 314 1651 269 1652 18 1653 67 1654 314 1655 268 1656 18 1657 269 1658 276 1659 277 1660 224 1661 276 1662 224 1663 225 1664 6 1665 225 1666 238 1667 6 1668 276 1669 225 1670 6 1671 238 1672 7 1673 346 1674 9 1675 8 1676 346 1677 8 1678 347 1679 348 1680 8 1681 7 1682 348 1683 7 1684 238 1685 348 1686 347 1687 8 1688 349 1689 238 1690 236 1691 349 1692 236 1693 94 1694 349 1695 348 1696 238 1697 346 1698 78 1699 79 1700 346 1701 79 1702 9 1703 87 1704 78 1705 346 1706 87 1707 350 1708 86 1709 351 1710 349 1711 94 1712 352 1713 87 1714 346 1715 352 1716 347 1717 348 1718 352 1719 346 1720 347 1721 352 1722 348 1723 349 1724 352 1725 349 1726 351 1727 352 1728 350 1729 87 1730 352 1731 353 1732 350 1733 352 1734 351 1735 353 1736 350 1737 181 1738 302 1739 350 1740 302 1741 86 1742 353 1743 94 1744 301 1745 353 1746 301 1747 180 1748 353 1749 180 1750 181 1751 353 1752 351 1753 94 1754 353 1755 181 1756 350 1757 123 1758 88 1759 86 1760 303 1761 302 1762 182 1763 303 1764 159 1765 160 1766 303 1767 160 1768 161 1769 303 1770 161 1771 154 1772 303 1773 154 1774 86 1775 303 1776 86 1777 302 1778 142 1779 328 1780 330 1781 145 1782 344 1783 262 1784 145 1785 262 1786 146 1787 145 1788 143 1789 327 1790 145 1791 327 1792 141 1793 145 1794 141 1795 142 1796 344 1797 142 1798 330 1799 344 1800 145 1801 142 1802 138 1803 330 1804 331 1805 138 1806 262 1807 330 1808 259 1809 252 1810 255 1811 259 1812 250 1813 252 1814 257 1815 222 1816 38 1817 257 1818 255 1819 222 1820 177 1821 102 1822 98 1823 102 1824 337 1825 289 1826 102 1827 177 1828 337 1829 248 1830 243 1831 316 1832 248 1833 316 1834 66 1835 112 1836 113 1837 216 1838 216 1839 113 1840 109 1841 343 1842 217 1843 152 1844 217 1845 122 1846 152 1847 217 1848 109 1849 122 1850 196 1851 13 1852 12 1853 196 1854 12 1855 345 1856 196 1857 345 1858 195 1859 345 1860 206 1861 195 1862 79 1863 83 1864 11 1865 83 1866 345 1867 11 1868 83 1869 82 1870 345 1871 345 1872 82 1873 84 1874 84 1875 85 1876 345 1877 85 1878 206 1879 345 1880 85 1881 118 1882 206 1883 118 1884 205 1885 206 1886 118 1887 120 1888 205 1889 108 1890 81 1891 77 1892 77 1893 110 1894 108 1895 77 1896 78 1897 110 1898 78 1899 124 1900 110 1901 78 1902 88 1903 124 1904</p>
				</triangles>
			</mesh>
		</geometry>
	</library_geometries>
	<library_visual_scenes>
		<visual_scene id="Scene" name="Scene">
			<node layer="L1" id="ShapeIndexedFaceS_019" name="ShapeIndexedFaceS_019">
				<translate sid="translate">0.00000 0.00000 0.00000</translate>
				<rotate sid="rotateZ">0 0 1 0.00000</rotate>
				<rotate sid="rotateY">0 1 0 -0.00000</rotate>
				<rotate sid="rotateX">1 0 0 0.00000</rotate>
				<scale sid="scale">1.00000 1.00000 1.00000</scale>
				<instance_geometry url="#ShapeIndexedFaceS_019-Geometry">
					<bind_material>
						<technique_common>
							<instance_material symbol="Material_016" target="#Material_016">
								<bind_vertex_input input_semantic="TEXCOORD" input_set="1" semantic="CHANNEL1"/>
							</instance_material>
						</technique_common>
					</bind_material>
				</instance_geometry>
			</node>
			<node layer="L1" id="Lamp" name="Lamp">
				<translate sid="translate">4.07625 1.00545 5.90386</translate>
				<rotate sid="rotateZ">0 0 1 106.93632</rotate>
				<rotate sid="rotateY">0 1 0 3.16371</rotate>
				<rotate sid="rotateX">1 0 0 37.26105</rotate>
				<scale sid="scale">1.00000 1.00000 1.00000</scale>
				<instance_light url="#Spot"/>
			</node>
			<node layer="L1" id="Camera" name="Camera">
				<translate sid="translate">7.48113 -6.50764 5.34367</translate>
				<rotate sid="rotateZ">0 0 1 46.69194</rotate>
				<rotate sid="rotateY">0 1 0 0.61977</rotate>
				<rotate sid="rotateX">1 0 0 63.55930</rotate>
				<scale sid="scale">1.00000 1.00000 1.00000</scale>
				<instance_camera url="#Camera-Camera"/>
			</node>
		</visual_scene>
	</library_visual_scenes>
	<library_physics_materials>
		<physics_material id="ShapeIndexedFaceS_019-PhysicsMaterial" name="ShapeIndexedFaceS_019-PhysicsMaterial">
			<technique_common>
				<dynamic_friction>0.5</dynamic_friction>
				<restitution>0.0</restitution>
				<static_friction>0.5</static_friction>
			</technique_common>
		</physics_material>
	</library_physics_materials>
	<library_physics_models>
		<physics_model id="Scene-PhysicsModel" name="Scene-PhysicsModel">
			<rigid_body name="ShapeIndexedFaceS_019-RigidBody" sid="ShapeIndexedFaceS_019-RigidBody">
				<technique_common>
					<dynamic>false</dynamic>
					<mass>0</mass>
					<instance_physics_material url="#ShapeIndexedFaceS_019-PhysicsMaterial"/>
					<shape>
						<instance_geometry url="#ShapeIndexedFaceS_019-Geometry"/>
					</shape>
				</technique_common>
			</rigid_body>
		</physics_model>
	</library_physics_models>
	<library_physics_scenes>
		<physics_scene id="Scene-Physics" name="Scene-Physics">
			<instance_physics_model url="#Scene-PhysicsModel">
				<instance_rigid_body body="ShapeIndexedFaceS_019-RigidBody" target="#ShapeIndexedFaceS_019"/>
			</instance_physics_model>
		</physics_scene>
	</library_physics_scenes>
	<scene>
		<instance_physics_scene url="#Scene-Physics"/>
		<instance_visual_scene url="#Scene"/>
	</scene>
</COLLADA>