<?xml version="1.0" encoding="UTF-8"?>
<COLLADA xmlns="http://www.collada.org/2005/11/COLLADASchema" version="1.4.1">
    <asset>
        <contributor>
            <author>VCGLab</author>
            <authoring_tool>VCGLib | MeshLab</authoring_tool>
        </contributor>
        <up_axis>Y_UP</up_axis>
        <created>Mon Mar 12 16:59:19 2012</created>
        <modified>Mon Mar 12 16:59:19 2012</modified>
    </asset>
    <library_images/>
    <library_materials/>
    <library_effects/>
    <library_geometries>
        <geometry id="shape0-lib" name="shape0">
            <mesh>
                <source id="shape0-lib-positions" name="position">
                    <float_array id="shape0-lib-positions-array" count="4125">-0.038675 0.114283 -0.016628 -0.036836 0.11382 -0.025873 -0.038675 0.11382 -0.026054 -0.035068 0.11382 -0.025337 -0.033438 0.11382 -0.024466 -0.03201 0.11382 -0.023293 -0.030838 0.11382 -0.021865 -0.029966 0.11382 -0.020235 -0.02943 0.11382 -0.018467 -0.029249 0.11382 -0.016628 -0.02943 0.11382 -0.014789 -0.029966 0.11382 -0.013021 -0.030838 0.11382 -0.011391 -0.03201 0.11382 -0.009963 -0.033438 0.11382 -0.008791 -0.035068 0.11382 -0.00792 -0.036836 0.11382 -0.007383 -0.038675 0.11382 -0.007202 -0.040514 0.11382 -0.007383 -0.042282 0.11382 -0.00792 -0.043912 0.11382 -0.008791 -0.04534 0.11382 -0.009963 -0.046512 0.11382 -0.011391 -0.047383 0.11382 -0.013021 -0.04792 0.11382 -0.014789 -0.048101 0.11382 -0.016628 -0.04792 0.11382 -0.018467 -0.047383 0.11382 -0.020235 -0.046512 0.11382 -0.021865 -0.04534 0.11382 -0.023293 -0.043912 0.11382 -0.024466 -0.042282 0.11382 -0.025337 -0.040514 0.11382 -0.025873 0.014752 0.018117 -0.096588 0.014752 0.018117 -0.096588 0.014752 0.018117 -0.096588 -0.001873 0.018117 -0.105475 0.014753 0.018117 -0.096588 -0.019914 0.018117 -0.110947 -0.019914 0.018117 -0.110947 -0.019914 0.018117 -0.110947 -0.038675 0.018117 -0.112795 -0.019914 0.018117 -0.110947 -0.057436 0.018117 -0.110947 -0.057436 0.018117 -0.110947 -0.057436 0.018117 -0.110947 -0.075477 0.018117 -0.105475 -0.057436 0.018117 -0.110947 -0.092102 0.018117 -0.096588 -0.092102 0.018117 -0.096588 -0.092102 0.018117 -0.096588 -0.106675 0.018117 -0.084628 -0.092102 0.018117 -0.096588 -0.118635 0.018117 -0.070056 -0.118635 0.018117 -0.070056 -0.118635 0.018117 -0.070056 -0.127521 0.018117 -0.05343 -0.118635 0.018117 -0.070056 -0.132994 0.018117 -0.035389 -0.132994 0.018117 -0.035389 -0.132994 0.018117 -0.035389 -0.134842 0.018117 -0.016628 -0.134842 0.018117 -0.016628 -0.132994 0.018117 -0.035389 -0.134842 0.018117 -0.016628 -0.132994 0.018117 0.002133 -0.132994 0.018117 0.002133 -0.127521 0.018117 0.020173 -0.127521 0.018117 0.020173 -0.118635 0.018117 0.036799 -0.118635 0.018117 0.036799 -0.127521 0.018117 0.020173 -0.106675 0.018117 0.051372 -0.106675 0.018117 0.051372 -0.092103 0.018116 0.063331 -0.092102 0.018116 0.063331 -0.106675 0.018117 0.051372 -0.075476 0.018116 0.072218 -0.075477 0.018116 0.072218 -0.057436 0.018116 0.077691 -0.057436 0.018116 0.077691 -0.075476 0.018117 0.072218 -0.019914 0.018116 0.077691 -0.038675 0.018116 0.079539 -0.019914 0.018116 0.077691 -0.019914 0.018117 0.077691 -0.038675 0.018117 0.079539 0.014752 0.018116 0.063332 -0.000561 0.018116 0.071517 0.014752 0.018116 0.063332 0.014752 0.018117 0.063332 -0.001873 0.018117 0.072218 0.041284 0.018116 0.0368 0.031395 0.018116 0.04885 0.041285 0.018116 0.0368 0.041285 0.018117 0.036799 0.029325 0.018117 0.051372 0.055644 0.018116 0.002134 0.051717 0.018116 0.01508 0.055644 0.018116 0.002134 0.055644 0.018117 0.002133 0.050172 0.018117 0.020173 0.055644 0.018116 -0.035389 0.05687 0.018116 -0.022937 0.055644 0.018116 -0.035389 0.055644 0.018117 -0.035389 0.057492 0.018117 -0.016628 0.041285 0.018116 -0.070055 0.046264 0.018116 -0.06074 0.041285 0.018116 -0.070055 0.041285 0.018117 -0.070056 0.050172 0.018117 -0.05343 -0.001874 0.018117 -0.105475 -0.001873 0.018116 -0.105475 -0.001874 0.018117 -0.105475 -0.019914 0.018116 0.077691 -0.019914 -0.018117 0.077691 -0.019914 0.018116 0.077691 0.014752 0.018116 0.063332 0.016056 0.018116 0.062262 0.014753 -0.018117 0.063332 0.014495 0.008691 0.062947 0.041285 0.018116 0.036799 0.043267 0.018116 0.033091 0.041285 -0.018117 0.036799 0.0409 0.008691 0.036542 0.055644 0.018116 0.002133 0.056177 0.018116 -0.00328 0.055644 -0.018117 0.002133 0.05519 0.008691 0.002043 0.055644 0.018115 -0.035389 0.053457 0.018116 -0.042599 0.055644 -0.018117 -0.03539 0.05519 0.008691 -0.035299 0.029325 0.018117 -0.084628 0.029325 0.018116 -0.084628 0.029325 0.018117 -0.084629 0.029325 0.018117 -0.084628 -0.001874 0.018117 -0.105475 0.014753 0.018116 -0.096588 -0.038675 0.018117 -0.112795 -0.038675 0.018117 -0.112795 -0.075476 0.018117 -0.105475 -0.075476 0.018117 -0.105475 -0.075476 0.018117 -0.105475 -0.092102 0.018117 -0.096588 -0.106675 0.018117 -0.084628 -0.106675 0.018117 -0.084628 -0.106675 0.018117 -0.084628 -0.118635 0.018117 -0.070056 -0.127521 0.018117 -0.05343 -0.127521 0.018117 -0.05343 -0.127521 0.018117 -0.05343 -0.132994 0.018117 -0.035389 -0.134842 0.018117 -0.016628 -0.120946 -0.018116 0.01745 -0.120946 -0.018116 0.01745 -0.127521 -0.018116 0.020173 -0.132994 0.018117 0.002133 -0.118635 0.018117 0.036799 -0.092102 0.018116 0.063332 -0.057436 0.018116 0.077691 -0.038675 0.018116 0.079539 -0.001873 -0.018117 0.072218 -0.001873 0.018116 0.072218 -0.001874 0.018116 0.072219 -0.002051 0.008691 0.07179 0.029325 -0.018117 0.051372 0.029325 0.018116 0.051372 0.029325 0.018116 0.051372 0.028998 0.008691 0.051045 0.050172 -0.018117 0.020173 0.050172 0.018116 0.020173 0.050171 0.018116 0.020174 0.049744 0.008691 0.019996 0.057492 0.018116 -0.016628 0.057492 -0.018117 -0.016628 0.057029 0.008691 -0.016628 0.050172 -0.018117 -0.05343 0.050172 0.018115 -0.05343 0.050172 0.018116 -0.053429 0.049744 0.008691 -0.053252 0.005646 0.018117 -0.101456 -0.019914 0.018116 -0.110947 -0.019914 0.018116 -0.110947 -0.020004 0.008691 -0.110493 0.014752 0.018116 0.063332 0.041285 0.018116 0.036799 0.055644 0.018116 0.002133 0.055644 0.018116 -0.035389 0.041285 0.018115 -0.070056 0.041285 -0.018117 -0.070056 0.029326 0.018116 -0.084628 0.041285 0.018116 -0.070055 0.029325 0.018117 -0.084629 -0.001874 0.018116 0.072218 -0.001874 0.018116 0.072218 -0.019914 0.018116 0.077691 0.029325 0.018116 0.051372 0.029325 0.018116 0.051372 0.050172 0.018116 0.020173 0.050171 0.018116 0.020174 0.057492 0.018116 -0.016628 0.057492 0.018116 -0.016628 0.057492 0.018116 -0.016628 0.050172 0.018116 -0.053429 0.050172 0.018116 -0.053429 -0.010767 0.018117 -0.108173 -0.013344 0.018116 -0.108954 0.02049 0.018117 -0.091879 -0.127521 0.018117 0.020173 -0.132994 0.018117 0.002133 -0.106675 0.018117 0.051372 -0.118635 0.018117 0.036799 -0.075477 0.018116 0.072218 -0.092102 0.018117 0.063332 -0.038675 0.018116 0.079539 -0.057436 0.018117 0.077691 -0.036836 -0.11382 -0.025873 -0.038675 -0.114283 -0.016628 -0.038675 -0.11382 -0.026054 -0.035068 -0.11382 -0.025337 -0.033438 -0.11382 -0.024466 -0.03201 -0.11382 -0.023293 -0.030837 -0.11382 -0.021865 -0.029966 -0.11382 -0.020235 -0.02943 -0.11382 -0.018467 -0.029249 -0.11382 -0.016628 0.057029 -0.027542 -0.016628 0.057492 -0.018116 -0.016628 0.05519 -0.027542 0.002043 -0.02943 -0.11382 -0.014789 -0.029966 -0.11382 -0.013021 -0.030837 -0.11382 -0.011391 -0.03201 -0.11382 -0.009963 -0.033438 -0.11382 -0.008791 -0.035068 -0.11382 -0.00792 -0.036836 -0.11382 -0.007383 -0.038675 -0.11382 -0.007202 -0.040514 -0.11382 -0.007383 -0.042282 -0.11382 -0.00792 -0.043912 -0.11382 -0.008791 -0.04534 -0.11382 -0.009963 -0.046512 -0.11382 -0.011391 -0.047383 -0.11382 -0.013021 -0.109193 -0.063449 0.030491 -0.112548 -0.054918 0.032732 -0.11703 -0.063449 0.015828 -0.117098 0.000645 0.035773 -0.125814 0.000645 0.019466 -0.127094 -0.00869 0.019996 -0.13254 -0.00869 0.002043 -0.127521 -0.018116 0.020173 -0.132994 -0.018116 0.002133 -0.123696 -0.046032 0.018589 -0.128932 -0.046032 0.001325 -0.125814 -0.054918 0.000705 -0.112548 -0.071544 0.013971 -0.117098 -0.071544 -0.001029 -0.04792 -0.11382 -0.014789 -0.048101 -0.11382 -0.016628 -0.121857 -0.063449 -8.2e-05 -0.123486 -0.063449 -0.016628 -0.118635 -0.071544 -0.016628 -0.13254 -0.027542 0.002043 -0.134379 -0.027542 -0.016628 -0.134842 -0.018116 -0.016628 -0.04792 -0.11382 -0.018467 -0.047383 -0.11382 -0.020235 -0.046512 -0.11382 -0.021865 -0.04534 -0.11382 -0.023293 -0.043912 -0.11382 -0.024466 -0.042282 -0.11382 -0.025337 -0.040514 -0.11382 -0.025873 -0.001873 -0.018116 -0.105475 -0.001873 -0.018116 -0.105475 -0.002051 -0.027542 -0.105047 -0.134842 -0.018116 -0.016628 0.057492 -0.018117 -0.016628 0.055644 -0.018116 -0.035389 0.029325 -0.018117 -0.084628 0.0409 -0.027542 -0.069798 0.028998 -0.027542 -0.084301 -0.001873 -0.018116 -0.105475 -0.001873 -0.018116 -0.105475 0.014753 -0.018116 -0.096588 0.014753 -0.018116 -0.096588 0.029325 -0.018117 -0.084628 0.014753 -0.018116 -0.096588 0.000964 -0.018116 -0.103958 -0.019914 -0.018116 -0.110947 -0.020004 -0.027542 -0.110493 -0.019914 -0.018116 -0.110947 -0.038675 -0.018116 -0.112795 -0.038675 -0.018116 -0.112795 -0.092102 -0.018116 -0.096588 -0.092102 -0.018116 -0.096588 -0.091845 -0.027542 -0.096203 -0.118635 -0.018116 -0.070056 -0.118635 -0.018116 -0.070056 -0.11825 -0.027542 -0.069798 -0.134842 -0.018116 -0.016628 -0.134842 -0.018116 -0.016628 -0.132994 -0.018116 -0.035389 -0.132994 -0.018116 -0.035389 -0.132994 -0.018116 0.002133 -0.132994 -0.018116 0.002133 -0.132994 -0.018116 0.002133 -0.127521 -0.018116 0.020173 -0.118635 -0.018116 0.036799 -0.118635 -0.018116 0.036799 -0.118635 -0.018116 0.036799 -0.106675 -0.018116 0.051372 -0.118635 -0.018116 0.036799 -0.106675 -0.018117 0.051372 -0.106675 -0.018117 0.051372 -0.092102 -0.018117 0.063332 -0.092102 -0.018117 0.063332 -0.092102 -0.018117 0.063332 -0.057436 -0.018117 0.077691 -0.057436 -0.018117 0.077691 -0.075476 -0.018117 0.072218 -0.057436 -0.018117 0.077691 -0.001873 -0.018117 0.072218 0.014753 -0.018117 0.063331 0.014752 -0.018117 0.063332 0.014495 -0.027542 0.062947 0.029325 -0.018117 0.051372 0.041285 -0.018117 0.036799 0.041285 -0.018117 0.036799 0.0409 -0.027542 0.036542 0.050172 -0.018117 0.020173 0.057492 -0.018117 -0.016628 0.057492 -0.018117 -0.016628 0.055644 -0.018117 -0.035389 0.055644 -0.018117 -0.03539 0.050172 -0.018117 -0.05343 0.043121 -0.018117 -0.06662 0.050172 -0.018117 -0.05343 0.049744 -0.027542 -0.053252 0.041285 -0.018117 -0.070056 -0.001873 -0.018116 -0.105475 -0.075476 -0.018116 -0.105475 -0.075476 -0.018116 -0.105475 -0.075476 -0.018116 -0.105475 -0.075299 -0.027542 -0.105047 -0.106675 -0.018116 -0.084628 -0.106675 -0.018116 -0.084628 -0.106675 -0.018116 -0.084628 -0.106348 -0.027542 -0.084301 -0.127521 -0.018116 -0.053429 -0.127521 -0.018116 -0.05343 -0.127521 -0.018116 -0.05343 -0.127094 -0.027542 -0.053252 -0.134842 -0.018116 -0.016628 -0.106675 -0.018117 0.051372 -0.106675 -0.018117 0.051372 -0.075476 -0.018117 0.072218 -0.075476 -0.018117 0.072218 -0.075299 -0.027542 0.07179 -0.038675 -0.018117 0.079539 -0.038675 -0.018117 0.079539 -0.038675 -0.018117 0.079539 -0.001873 -0.018117 0.072218 -0.001873 -0.018117 0.072218 -0.002051 -0.027542 0.07179 0.029325 -0.018117 0.051372 0.029325 -0.018117 0.051372 0.028998 -0.027542 0.051045 0.050172 -0.018117 0.020173 0.050172 -0.018117 0.020173 0.049744 -0.027542 0.019996 0.057492 -0.018117 -0.016628 0.029325 -0.018117 -0.084628 0.029325 -0.018117 -0.084628 0.029325 -0.018117 -0.084628 0.014753 -0.018116 -0.096588 -0.038675 -0.018116 -0.112795 -0.038675 -0.018116 -0.112795 0.050172 -0.018116 -0.05343 0.050651 -0.018116 -0.051849 0.050172 -0.018116 -0.05343 0.041285 -0.018116 -0.070056 0.043149 -0.018116 -0.066567 0.041285 -0.018116 -0.070056 0.002428 -0.018116 -0.103175 -0.019914 -0.018116 -0.110947 -0.038675 -0.018116 -0.112795 -0.038675 -0.018116 -0.112795 -0.057436 -0.018116 -0.110947 -0.057436 -0.018116 -0.110947 -0.057436 -0.018116 -0.110947 -0.057436 -0.018116 -0.110947 -0.075476 -0.018116 -0.105475 -0.092102 -0.018116 -0.096588 -0.092102 -0.018116 -0.096588 -0.106675 -0.018116 -0.084628 -0.118635 -0.018116 -0.070056 -0.118635 -0.018116 -0.070056 -0.127521 -0.018116 -0.05343 -0.132994 -0.018116 -0.035389 -0.132994 -0.018116 -0.035389 -0.134842 -0.018116 -0.016628 -0.134842 -0.018116 -0.016628 -0.13254 -0.027542 -0.035299 -0.127521 -0.018116 0.020173 -0.127521 -0.018116 0.020173 -0.106675 -0.018117 0.051372 -0.106675 -0.018117 0.051372 -0.106348 -0.027542 0.051045 -0.11825 -0.027542 0.036542 -0.075476 -0.018117 0.072218 -0.019914 -0.018117 0.077691 -0.019914 -0.018117 0.077691 -0.019914 -0.018117 0.077691 0.014752 -0.018117 0.063332 0.041285 -0.018117 0.036799 0.055644 -0.018117 0.002133 0.055644 -0.018117 0.002133 0.055644 -0.018117 0.002133 0.057492 -0.018117 -0.016628 0.056933 -0.018117 -0.010955 0.050583 -0.018117 -0.052074 0.041285 -0.018117 -0.070056 0.043253 -0.018116 -0.066373 0.029325 -0.018117 -0.084628 -0.091716 -0.018116 -0.096794 -0.132994 -0.018116 0.002133 -0.092102 -0.018117 0.063331 -0.092102 -0.018116 0.063332 0.055644 -0.018117 -0.035389 0.029325 -0.018117 -0.084628 0.029325 -0.018117 -0.084628 0.014753 -0.018116 -0.096588 0.050695 -0.018116 -0.051705 0.050684 -0.018116 -0.05174 0.00208 -0.018116 -0.103362 -0.075476 -0.018116 -0.105475 -0.075476 -0.018116 -0.105475 -0.127521 -0.018116 -0.05343 -0.127521 -0.018116 -0.05343 0.009389 -0.018117 0.066198 0.041285 -0.018117 -0.070056 -0.019914 -0.018116 -0.110947 -0.010894 -0.018116 -0.108211 -0.010894 -0.018116 -0.108211 -0.010894 -0.018116 -0.108211 -0.019914 -0.018116 -0.110947 -0.019914 -0.018116 -0.110947 -0.019914 -0.018116 -0.110947 -0.007962 -0.018116 -0.107322 -0.007683 -0.018116 -0.107237 -0.00894 -0.018116 -0.107618 -0.010894 -0.018116 -0.108211 0.041285 -0.018116 -0.070056 -0.010768 -0.018116 -0.108173 -0.010452 -0.018116 -0.108077 -0.010767 -0.018116 -0.108172 -0.010451 -0.018116 -0.108077 -0.010452 -0.018116 -0.108077 -0.001874 -0.018116 -0.105475 -0.007687 -0.018116 -0.107238 -0.007687 -0.018116 -0.107238 -0.007967 -0.018116 -0.107323 -0.007966 -0.018116 -0.107323 0.050172 -0.018116 -0.05343 -0.091845 -0.027542 0.062946 -0.038675 -0.018117 0.079539 -0.038675 -0.027542 0.079075 -0.057346 -0.027542 0.077237 -0.020004 -0.027542 0.077237 0.050172 -0.018117 -0.05343 -0.057346 -0.027542 -0.110493 -0.038675 -0.027542 -0.112332 0.043291 -0.018116 -0.066302 -0.035015 0.112435 -0.035029 -0.038675 0.112435 -0.035389 -0.033229 0.110142 -0.044007 -0.038675 0.110142 -0.044544 -0.031495 0.106963 -0.052722 -0.038675 0.106963 -0.05343 -0.029831 0.102928 -0.06109 -0.038675 0.102928 -0.061961 -0.028252 0.098076 -0.069029 -0.038675 0.098076 -0.070056 -0.026773 0.092454 -0.076463 -0.038675 0.092454 -0.077636 -0.025409 0.086117 -0.083322 -0.038675 0.086117 -0.084628 -0.024172 0.079124 -0.089538 -0.038675 0.079124 -0.090966 -0.023076 0.071544 -0.095052 -0.038675 0.071544 -0.096588 -0.022129 0.063449 -0.09981 -0.038675 0.063449 -0.10144 -0.021342 0.054918 -0.103768 -0.038675 0.054918 -0.105475 -0.020722 0.046032 -0.106886 -0.038675 0.046032 -0.108654 -0.020274 0.036878 -0.109135 -0.038675 0.036878 -0.110947 -0.020004 0.027543 -0.110493 -0.038675 0.027543 -0.112332 -0.038675 0.018117 -0.112795 -0.002051 0.027543 -0.105047 -0.002581 0.036878 -0.103768 -0.003458 0.046032 -0.101649 -0.004675 0.054918 -0.098712 -0.006219 0.063449 -0.094984 -0.008076 0.071544 -0.090501 -0.010227 0.079124 -0.085307 -0.012652 0.086117 -0.079452 -0.015328 0.092454 -0.072992 -0.018229 0.098076 -0.065989 -0.021327 0.102928 -0.05851 -0.024592 0.106963 -0.050628 -0.027992 0.110142 -0.042419 -0.031495 0.112435 -0.033961 -0.028252 0.112435 -0.032228 -0.023166 0.110142 -0.039839 -0.018229 0.106963 -0.047227 -0.013489 0.102928 -0.054321 -0.008992 0.098076 -0.061051 -0.004781 0.092454 -0.067354 -0.000896 0.086117 -0.073168 0.002625 0.079124 -0.078438 0.005748 0.071544 -0.083112 0.008444 0.063449 -0.087146 0.010686 0.054918 -0.090501 0.012452 0.046032 -0.093145 0.013726 0.036878 -0.095052 0.014495 0.027543 -0.096203 0.028998 0.027543 -0.084301 0.028019 0.036878 -0.083322 0.026397 0.046032 -0.0817 0.024149 0.054918 -0.079452 0.021296 0.063449 -0.076599 0.017865 0.071544 -0.073168 0.01389 0.079124 -0.069193 0.009408 0.086117 -0.064712 0.004464 0.092454 -0.059767 -0.000896 0.098076 -0.054407 -0.00662 0.102928 -0.048683 -0.012652 0.106963 -0.042651 -0.018936 0.110142 -0.036368 -0.025409 0.112435 -0.029894 -0.023076 0.112435 -0.027051 -0.015464 0.110142 -0.032137 -0.008076 0.106963 -0.037074 -0.000982 0.102928 -0.041814 0.005748 0.098076 -0.046311 0.012051 0.092454 -0.050522 0.017865 0.086117 -0.054407 0.023135 0.079124 -0.057928 0.027809 0.071544 -0.061051 0.031843 0.063449 -0.063747 0.035198 0.054918 -0.065989 0.037842 0.046032 -0.067755 0.039748 0.036878 -0.069029 0.0409 0.027543 -0.069798 0.049744 0.027543 -0.053252 0.048464 0.036878 -0.052723 0.046346 0.046032 -0.051845 0.043409 0.054918 -0.050628 0.039681 0.063449 -0.049084 0.035198 0.071544 -0.047227 0.030004 0.079124 -0.045076 0.024149 0.086117 -0.042651 0.017689 0.092454 -0.039975 0.010686 0.098076 -0.037074 0.003207 0.102928 -0.033976 -0.004675 0.106963 -0.030711 -0.012884 0.110142 -0.027311 -0.021342 0.112435 -0.023808 -0.020274 0.112435 -0.020288 -0.011296 0.110142 -0.022074 -0.002581 0.106963 -0.023808 0.005787 0.102928 -0.025472 0.013726 0.098076 -0.027051 0.02116 0.092454 -0.02853 0.028019 0.086117 -0.029894 0.034235 0.079124 -0.031131 0.039748 0.071544 -0.032228 0.044507 0.063449 -0.033174 0.048464 0.054918 -0.033961 0.051583 0.046032 -0.034582 0.053832 0.036878 -0.035029 0.05519 0.027543 -0.035299 0.057029 0.027543 -0.016628 0.055644 0.036878 -0.016628 0.053351 0.046032 -0.016628 0.050172 0.054918 -0.016628 0.046137 0.063449 -0.016628 0.041285 0.071544 -0.016628 0.035663 0.079124 -0.016628 0.029325 0.086117 -0.016628 0.022333 0.092454 -0.016628 0.014752 0.098076 -0.016628 0.006658 0.102928 -0.016628 -0.001874 0.106963 -0.016628 -0.010759 0.110142 -0.016628 -0.019914 0.112435 -0.016628 -0.020274 0.112435 -0.012968 -0.011296 0.110142 -0.011182 -0.002581 0.106963 -0.009449 0.005787 0.102928 -0.007784 0.013726 0.098076 -0.006205 0.02116 0.092454 -0.004726 0.028019 0.086117 -0.003362 0.034235 0.079124 -0.002126 0.039748 0.071544 -0.001029 0.044507 0.063449 -8.2e-05 0.048464 0.054918 0.000705 0.051583 0.046032 0.001325 0.053832 0.036878 0.001773 0.05519 0.027543 0.002043 0.049744 0.027543 0.019996 0.048464 0.036878 0.019466 0.046346 0.046032 0.018589 0.043409 0.054918 0.017372 0.039681 0.063449 0.015828 0.035198 0.071544 0.013971 0.030004 0.079124 0.01182 0.024149 0.086117 0.009394 0.017689 0.092454 0.006718 0.010686 0.098076 0.003818 0.003207 0.102928 0.00072 -0.004675 0.106963 -0.002545 -0.012884 0.110142 -0.005945 -0.021342 0.112435 -0.009449 -0.023076 0.112435 -0.006205 -0.015464 0.110142 -0.001119 -0.008076 0.106963 0.003818 -0.000982 0.102928 0.008557 0.005748 0.098076 0.013054 0.012051 0.092454 0.017266 0.017865 0.086117 0.021151 0.023135 0.079124 0.024672 0.027809 0.071544 0.027795 0.031843 0.063449 0.030491 0.035198 0.054918 0.032732 0.037842 0.046032 0.034499 0.039748 0.036878 0.035773 0.0409 0.027543 0.036542 0.028998 0.027543 0.051045 0.028019 0.036878 0.050065 0.026397 0.046032 0.048444 0.024149 0.054918 0.046196 0.021296 0.063449 0.043343 0.017865 0.071544 0.039912 0.01389 0.079124 0.035937 0.009408 0.086117 0.031455 0.004464 0.092454 0.026511 -0.000896 0.098076 0.021151 -0.00662 0.102928 0.015427 -0.012652 0.106963 0.009394 -0.018936 0.110142 0.003111 -0.025409 0.112435 -0.003362 -0.028252 0.112435 -0.001029 -0.023166 0.110142 0.006583 -0.018229 0.106963 0.013971 -0.013489 0.102928 0.021065 -0.008992 0.098076 0.027795 -0.004781 0.092454 0.034098 -0.000896 0.086117 0.039912 0.002625 0.079124 0.045181 0.005748 0.071544 0.049856 0.008444 0.063449 0.05389 0.010686 0.054918 0.057245 0.012452 0.046032 0.059888 0.013726 0.036878 0.061795 0.014495 0.027543 0.062947 -0.002051 0.027543 0.07179 -0.002581 0.036878 0.070511 -0.003458 0.046032 0.068393 -0.004675 0.054918 0.065455 -0.006219 0.063449 0.061727 -0.008076 0.071544 0.057245 -0.010227 0.079124 0.052051 -0.012652 0.086117 0.046196 -0.015328 0.092454 0.039735 -0.018229 0.098076 0.032732 -0.021327 0.102928 0.025254 -0.024592 0.106963 0.017372 -0.027992 0.110142 0.009163 -0.031495 0.112435 0.000705 -0.035015 0.112435 0.001772 -0.033229 0.110142 0.010751 -0.031495 0.106963 0.019466 -0.029831 0.102928 0.027833 -0.028252 0.098076 0.035773 -0.026773 0.092454 0.043207 -0.025409 0.086117 0.050065 -0.024172 0.079124 0.056281 -0.023076 0.071544 0.061795 -0.022129 0.063449 0.066554 -0.021342 0.054918 0.070511 -0.020722 0.046032 0.073629 -0.020274 0.036878 0.075878 -0.020004 0.027543 0.077237 -0.038675 0.027543 0.079075 -0.038675 0.036878 0.077691 -0.038675 0.046032 0.075398 -0.038675 0.054918 0.072218 -0.038675 0.063449 0.068183 -0.038675 0.071544 0.063332 -0.038675 0.079124 0.05771 -0.038675 0.086117 0.051372 -0.038675 0.092454 0.044379 -0.038675 0.098076 0.036799 -0.038675 0.102928 0.028704 -0.038675 0.106963 0.020173 -0.038675 0.110142 0.011287 -0.038675 0.112435 0.002133 -0.042335 0.112435 0.001772 -0.044121 0.110142 0.010751 -0.045854 0.106963 0.019466 -0.047519 0.102928 0.027833 -0.049098 0.098076 0.035773 -0.050577 0.092454 0.043207 -0.051941 0.086117 0.050065 -0.053178 0.079124 0.056281 -0.054274 0.071544 0.061795 -0.055221 0.063449 0.066554 -0.056008 0.054918 0.070511 -0.056628 0.046032 0.073629 -0.057076 0.036878 0.075878 -0.057346 0.027543 0.077237 -0.075299 0.027543 0.07179 -0.074769 0.036878 0.070511 -0.073892 0.046032 0.068393 -0.072675 0.054918 0.065455 -0.071131 0.063449 0.061727 -0.069274 0.071544 0.057245 -0.067123 0.079124 0.052051 -0.064697 0.086117 0.046196 -0.062021 0.092454 0.039735 -0.059121 0.098076 0.032732 -0.056023 0.102928 0.025254 -0.052758 0.106963 0.017372 -0.049358 0.110142 0.009163 -0.045854 0.112435 0.000705 -0.049098 0.112435 -0.001029 -0.054184 0.110142 0.006583 -0.059121 0.106963 0.013971 -0.06386 0.102928 0.021065 -0.068358 0.098076 0.027795 -0.072569 0.092454 0.034098 -0.076454 0.086117 0.039912 -0.079975 0.079124 0.045181 -0.083098 0.071544 0.049856 -0.085794 0.063449 0.05389 -0.088035 0.054918 0.057245 -0.089802 0.046032 0.059888 -0.091076 0.036878 0.061795 -0.091845 0.027543 0.062946 -0.106348 0.027543 0.051045 -0.105368 0.036878 0.050065 -0.103747 0.046032 0.048444 -0.101499 0.054918 0.046196 -0.098646 0.063449 0.043343 -0.095215 0.071544 0.039912 -0.09124 0.079124 0.035937 -0.086758 0.086117 0.031455 -0.081814 0.092454 0.026511 -0.076454 0.098076 0.021151 -0.07073 0.102928 0.015427 -0.064697 0.106963 0.009394 -0.058414 0.110142 0.003111 -0.051941 0.112435 -0.003362 -0.054274 0.112435 -0.006205 -0.061886 0.110142 -0.001119 -0.069274 0.106963 0.003818 -0.076368 0.102928 0.008557 -0.083098 0.098076 0.013054 -0.089401 0.092454 0.017266 -0.095215 0.086117 0.021151 -0.100485 0.079124 0.024672 -0.105159 0.071544 0.027795 -0.109193 0.063449 0.030491 -0.112548 0.054918 0.032732 -0.115192 0.046032 0.034499 -0.117098 0.036878 0.035773 -0.11825 0.027543 0.036542 -0.127094 0.027543 0.019996 -0.125814 0.036878 0.019466 -0.123696 0.046032 0.018589 -0.120758 0.054918 0.017372 -0.11703 0.063449 0.015828 -0.112548 0.071544 0.013971 -0.107354 0.079124 0.01182 -0.101499 0.086117 0.009394 -0.095038 0.092454 0.006718 -0.088035 0.098076 0.003818 -0.080557 0.102928 0.00072 -0.072675 0.106963 -0.002545 -0.064466 0.110142 -0.005945 -0.056008 0.112435 -0.009449 -0.057076 0.112435 -0.012968 -0.066054 0.110142 -0.011182 -0.074769 0.106963 -0.009449 -0.083136 0.102928 -0.007784 -0.091076 0.098076 -0.006205 -0.09851 0.092454 -0.004726 -0.105368 0.086117 -0.003362 -0.111584 0.079124 -0.002126 -0.117098 0.071544 -0.001029 -0.121857 0.063449 -8.2e-05 -0.125814 0.054918 0.000705 -0.128932 0.046032 0.001325 -0.131181 0.036878 0.001772 -0.13254 0.027543 0.002043 -0.134379 0.027543 -0.016628 -0.132994 0.036878 -0.016628 -0.130701 0.046032 -0.016628 -0.127521 0.054918 -0.016628 -0.123486 0.063449 -0.016628 -0.118635 0.071544 -0.016628 -0.113013 0.079124 -0.016628 -0.106675 0.086117 -0.016628 -0.099682 0.092454 -0.016628 -0.092102 0.098076 -0.016628 -0.084008 0.102928 -0.016628 -0.075476 0.106963 -0.016628 -0.066591 0.110142 -0.016628 -0.057436 0.112435 -0.016628 -0.057076 0.112435 -0.020288 -0.066054 0.110142 -0.022074 -0.074769 0.106963 -0.023808 -0.083136 0.102928 -0.025472 -0.091076 0.098076 -0.027051 -0.09851 0.092454 -0.02853 -0.105368 0.086117 -0.029894 -0.111584 0.079124 -0.031131 -0.117098 0.071544 -0.032228 -0.121857 0.063449 -0.033174 -0.125814 0.054918 -0.033961 -0.128932 0.046032 -0.034582 -0.131181 0.036878 -0.035029 -0.13254 0.027543 -0.035299 -0.127094 0.027543 -0.053252 -0.125814 0.036878 -0.052722 -0.123696 0.046032 -0.051845 -0.120758 0.054918 -0.050628 -0.11703 0.063449 -0.049084 -0.112548 0.071544 -0.047227 -0.107354 0.079124 -0.045076 -0.101499 0.086117 -0.042651 -0.095038 0.092454 -0.039975 -0.088035 0.098076 -0.037074 -0.080557 0.102928 -0.033976 -0.072675 0.106963 -0.030711 -0.064466 0.110142 -0.027311 -0.056008 0.112435 -0.023808 -0.054274 0.112435 -0.027051 -0.061886 0.110142 -0.032137 -0.069274 0.106963 -0.037074 -0.076368 0.102928 -0.041814 -0.083098 0.098076 -0.046311 -0.089401 0.092454 -0.050522 -0.095215 0.086117 -0.054407 -0.100485 0.079124 -0.057928 -0.105159 0.071544 -0.061051 -0.109193 0.063449 -0.063747 -0.112548 0.054918 -0.065989 -0.115192 0.046032 -0.067755 -0.117098 0.036878 -0.069029 -0.11825 0.027543 -0.069798 -0.106348 0.027543 -0.084301 -0.105368 0.036878 -0.083322 -0.103747 0.046032 -0.0817 -0.101499 0.054918 -0.079452 -0.098646 0.063449 -0.076599 -0.095215 0.071544 -0.073168 -0.09124 0.079124 -0.069193 -0.086758 0.086117 -0.064712 -0.081814 0.092454 -0.059767 -0.076454 0.098076 -0.054407 -0.07073 0.102928 -0.048683 -0.064697 0.106963 -0.042651 -0.058414 0.110142 -0.036368 -0.051941 0.112435 -0.029894 -0.049098 0.112435 -0.032228 -0.054184 0.110142 -0.039839 -0.059121 0.106963 -0.047227 -0.06386 0.102928 -0.054321 -0.068358 0.098076 -0.061051 -0.072569 0.092454 -0.067354 -0.076454 0.086117 -0.073168 -0.079975 0.079124 -0.078438 -0.083098 0.071544 -0.083112 -0.085794 0.063449 -0.087146 -0.088035 0.054918 -0.090501 -0.089802 0.046032 -0.093145 -0.091076 0.036878 -0.095051 -0.091845 0.027543 -0.096203 -0.075299 0.027543 -0.105047 -0.074769 0.036878 -0.103767 -0.073892 0.046032 -0.101649 -0.072675 0.054918 -0.098712 -0.071131 0.063449 -0.094984 -0.069274 0.071544 -0.090501 -0.067123 0.079124 -0.085307 -0.064697 0.086117 -0.079452 -0.062021 0.092454 -0.072992 -0.059121 0.098076 -0.065989 -0.056023 0.102928 -0.05851 -0.052758 0.106963 -0.050628 -0.049358 0.110142 -0.042419 -0.045854 0.112435 -0.033961 -0.042335 0.112435 -0.035029 -0.044121 0.110142 -0.044007 -0.045854 0.106963 -0.052722 -0.047519 0.102928 -0.06109 -0.049098 0.098076 -0.069029 -0.050577 0.092454 -0.076463 -0.051941 0.086117 -0.083322 -0.053177 0.079124 -0.089538 -0.054274 0.071544 -0.095051 -0.055221 0.063449 -0.09981 -0.056008 0.054918 -0.103767 -0.056628 0.046032 -0.106886 -0.057076 0.036878 -0.109135 -0.057346 0.027543 -0.110493 -0.120402 -0.018116 0.018468 -0.112717 -0.018116 0.032845 -0.020274 -0.036878 -0.109135 -0.038675 -0.036878 -0.110947 -0.020722 -0.046032 -0.106886 -0.038675 -0.046032 -0.108654 -0.021342 -0.054918 -0.103768 -0.038675 -0.054918 -0.105475 -0.022129 -0.063449 -0.09981 -0.038675 -0.063449 -0.10144 -0.023076 -0.071544 -0.095052 -0.038675 -0.071544 -0.096588 -0.024172 -0.079124 -0.089538 -0.038675 -0.079124 -0.090966 -0.025409 -0.086117 -0.083322 -0.038675 -0.086117 -0.084628 -0.026773 -0.092454 -0.076464 -0.038675 -0.092454 -0.077636 -0.028252 -0.098076 -0.069029 -0.038675 -0.098076 -0.070056 -0.029831 -0.102928 -0.06109 -0.038675 -0.102928 -0.061961 -0.031495 -0.106963 -0.052723 -0.038675 -0.106963 -0.05343 -0.033229 -0.110142 -0.044008 -0.038675 -0.110142 -0.044544 -0.035015 -0.112435 -0.035029 -0.038675 -0.112435 -0.035389 -0.031495 -0.112435 -0.033961 -0.027992 -0.110142 -0.042419 -0.024592 -0.106963 -0.050628 -0.021327 -0.102928 -0.05851 -0.018229 -0.098076 -0.065989 -0.015328 -0.092454 -0.072992 -0.012652 -0.086117 -0.079452 -0.010227 -0.079124 -0.085307 -0.008076 -0.071544 -0.090501 -0.006219 -0.063449 -0.094984 -0.004675 -0.054918 -0.098712 -0.003458 -0.046032 -0.101649 -0.002581 -0.036878 -0.103768 0.014495 -0.027542 -0.096203 0.013726 -0.036878 -0.095052 0.012452 -0.046032 -0.093145 0.010686 -0.054918 -0.090501 0.008444 -0.063449 -0.087146 0.005748 -0.071544 -0.083112 0.002625 -0.079124 -0.078438 -0.000896 -0.086117 -0.073168 -0.004781 -0.092454 -0.067354 -0.008992 -0.098076 -0.061051 -0.013489 -0.102928 -0.054321 -0.018229 -0.106963 -0.047227 -0.023166 -0.110142 -0.039839 -0.028252 -0.112435 -0.032228 -0.025409 -0.112435 -0.029894 -0.018935 -0.110142 -0.036368 -0.012652 -0.106963 -0.042651 -0.00662 -0.102928 -0.048683 -0.000896 -0.098076 -0.054407 0.004464 -0.092454 -0.059767 0.009408 -0.086117 -0.064712 0.01389 -0.079124 -0.069193 0.017865 -0.071544 -0.073168 0.021296 -0.063449 -0.076599 0.024149 -0.054918 -0.079452 0.026397 -0.046032 -0.0817 0.028019 -0.036878 -0.083322 0.039748 -0.036878 -0.069029 0.037842 -0.046032 -0.067755 0.035198 -0.054918 -0.065989 0.031843 -0.063449 -0.063747 0.027809 -0.071544 -0.061051 0.023135 -0.079124 -0.057928 0.017865 -0.086117 -0.054407 0.012051 -0.092454 -0.050522 0.005748 -0.098076 -0.046311 -0.000982 -0.102928 -0.041814 -0.008076 -0.106963 -0.037074 -0.015464 -0.110142 -0.032137 -0.023076 -0.112435 -0.027051 -0.021342 -0.112435 -0.023808 -0.012884 -0.110142 -0.027311 -0.004675 -0.106963 -0.030712 0.003207 -0.102928 -0.033976 0.010686 -0.098076 -0.037074 0.017689 -0.092454 -0.039975 0.024149 -0.086117 -0.042651 0.030004 -0.079124 -0.045076 0.035198 -0.071544 -0.047227 0.039681 -0.063449 -0.049084 0.043409 -0.054918 -0.050628 0.046346 -0.046032 -0.051845 0.048464 -0.036878 -0.052723 0.037842 0.009799 -0.067755 0.046346 0.009799 -0.051845 0.048464 0.000645 -0.052723 0.039748 0.000645 -0.069029 0.035198 0.018685 -0.065989 0.043409 0.018685 -0.050628 0.048464 0.018685 -0.033961 0.051583 0.009799 -0.034582 0.053832 0.000645 -0.035029 0.05519 -0.027542 -0.035299 0.053832 -0.036878 -0.035029 0.051583 -0.046032 -0.034582 0.048464 -0.054918 -0.033961 0.044507 -0.063449 -0.033174 0.039748 -0.071544 -0.032228 0.034235 -0.079124 -0.031131 0.028019 -0.086117 -0.029894 0.02116 -0.092454 -0.02853 0.013726 -0.098076 -0.027051 0.005787 -0.102928 -0.025472 -0.002581 -0.106963 -0.023808 -0.011296 -0.110142 -0.022074 -0.020274 -0.112435 -0.020288 -0.019914 -0.112435 -0.016628 -0.010759 -0.110142 -0.016628 -0.001873 -0.106963 -0.016628 0.006658 -0.102928 -0.016628 0.014752 -0.098076 -0.016628 0.022333 -0.092454 -0.016628 0.029325 -0.086117 -0.016628 0.035663 -0.079124 -0.016628 0.041285 -0.071544 -0.016628 0.046137 -0.063449 -0.016628 0.050172 -0.054918 -0.016628 0.053351 -0.046032 -0.016628 0.055644 -0.036878 -0.016628 0.05519 -0.00869 -0.035299 0.057029 -0.00869 -0.016628 0.055644 0.000645 -0.016628 0.053351 0.009799 -0.016628 0.050172 0.018685 -0.016628 0.048464 0.018685 0.000705 0.051583 0.009799 0.001325 0.053832 0.000645 0.001773 0.05519 -0.00869 0.002043 0.055644 -0.018116 0.002133 0.053832 -0.036878 0.001773 0.051583 -0.046032 0.001325 0.048464 -0.054918 0.000705 0.044507 -0.063449 -8.2e-05 0.039748 -0.071544 -0.001029 0.034235 -0.079124 -0.002126 0.028019 -0.086117 -0.003362 0.02116 -0.092454 -0.004726 0.013726 -0.098076 -0.006205 0.005787 -0.102928 -0.007784 -0.002581 -0.106963 -0.009449 -0.011296 -0.110142 -0.011182 -0.020274 -0.112435 -0.012968 -0.021342 -0.112435 -0.009449 -0.012884 -0.110142 -0.005945 -0.004675 -0.106963 -0.002545 0.003207 -0.102928 0.00072 0.010686 -0.098076 0.003818 0.017689 -0.092454 0.006718 0.024149 -0.086117 0.009394 0.030004 -0.079124 0.01182 0.035198 -0.071544 0.013971 0.039681 -0.063449 0.015828 0.043409 -0.054918 0.017372 0.046346 -0.046032 0.018589 0.048464 -0.036878 0.019466 0.046346 0.009799 0.018589 0.048464 0.000645 0.019466 0.043409 0.018685 0.017372 0.035198 0.018685 0.032732 0.037842 0.009799 0.034499 0.039748 0.000645 0.035773 0.039748 -0.036878 0.035773 0.037842 -0.046032 0.034499 0.035198 -0.054918 0.032732 0.031843 -0.063449 0.030491 0.027809 -0.071544 0.027795 0.023135 -0.079124 0.024672 0.017865 -0.086117 0.021151 0.012051 -0.092454 0.017266 0.005748 -0.098076 0.013054 -0.000982 -0.102928 0.008557 -0.008076 -0.106963 0.003818 -0.015464 -0.110142 -0.001119 -0.023076 -0.112435 -0.006205 -0.025409 -0.112435 -0.003362 -0.018935 -0.110142 0.003111 -0.012652 -0.106963 0.009394 -0.00662 -0.102928 0.015427 -0.000896 -0.098076 0.021151 0.004464 -0.092454 0.026511 0.009408 -0.086117 0.031455 0.01389 -0.079124 0.035937 0.017865 -0.071544 0.039912 0.021296 -0.063449 0.043343 0.024149 -0.054918 0.046196 0.026397 -0.046032 0.048444 0.028019 -0.036878 0.050065 0.013726 -0.036878 0.061795 0.012452 -0.046032 0.059888 0.010686 -0.054918 0.057245 0.008444 -0.063449 0.05389 0.005748 -0.071544 0.049856 0.002625 -0.079124 0.045182 -0.000896 -0.086117 0.039912 -0.004781 -0.092454 0.034098 -0.008992 -0.098076 0.027795 -0.013489 -0.102928 0.021065 -0.018229 -0.106963 0.013971 -0.023166 -0.110142 0.006583 -0.028252 -0.112435 -0.001029 -0.031495 -0.112435 0.000705 -0.027992 -0.110142 0.009163 -0.024592 -0.106963 0.017372 -0.021327 -0.102928 0.025254 -0.018229 -0.098076 0.032732 -0.015328 -0.092454 0.039735 -0.012652 -0.086117 0.046196 -0.010227 -0.079124 0.052051 -0.008076 -0.071544 0.057245 -0.006219 -0.063449 0.061727 -0.004675 -0.054918 0.065455 -0.003458 -0.046032 0.068393 -0.002581 -0.036878 0.070511 -0.020274 -0.036878 0.075878 -0.020722 -0.046032 0.073629 -0.021342 -0.054918 0.070511 -0.022129 -0.063449 0.066554 -0.023076 -0.071544 0.061795 -0.024172 -0.079124 0.056281 -0.025409 -0.086117 0.050065 -0.026773 -0.092454 0.043207 -0.028252 -0.098076 0.035773 -0.029831 -0.102928 0.027833 -0.031495 -0.106963 0.019466 -0.033229 -0.110142 0.010751 -0.035015 -0.112435 0.001773 -0.038675 -0.112435 0.002133 -0.038675 -0.110142 0.011288 -0.038675 -0.106963 0.020173 -0.038675 -0.102928 0.028704 -0.038675 -0.098076 0.036799 -0.038675 -0.092454 0.044379 -0.038675 -0.086117 0.051372 -0.038675 -0.079124 0.05771 -0.038675 -0.071544 0.063332 -0.038675 -0.063449 0.068183 -0.038675 -0.054918 0.072218 -0.038675 -0.046032 0.075398 -0.038675 -0.036878 0.077691 -0.057076 -0.036878 0.075878 -0.056628 -0.046032 0.073629 -0.056008 -0.054918 0.070511 -0.055221 -0.063449 0.066554 -0.054274 -0.071544 0.061795 -0.053178 -0.079124 0.056281 -0.051941 -0.086117 0.050065 -0.050577 -0.092454 0.043207 -0.049098 -0.098076 0.035773 -0.047519 -0.102928 0.027833 -0.045855 -0.106963 0.019466 -0.044121 -0.110142 0.010751 -0.042335 -0.112435 0.001773 -0.045855 -0.112435 0.000705 -0.049358 -0.110142 0.009163 -0.052758 -0.106963 0.017372 -0.056023 -0.102928 0.025254 -0.059121 -0.098076 0.032732 -0.062021 -0.092454 0.039735 -0.064697 -0.086117 0.046196 -0.067123 -0.079124 0.052051 -0.069274 -0.071544 0.057245 -0.071131 -0.063449 0.061727 -0.072675 -0.054918 0.065455 -0.073892 -0.046032 0.068393 -0.074769 -0.036878 0.070511 -0.072675 0.018685 0.065455 -0.088035 0.018685 0.057245 -0.089802 0.009799 0.059888 -0.073892 0.009799 0.068393 -0.091076 -0.036878 0.061795 -0.089802 -0.046032 0.059888 -0.088035 -0.054918 0.057245 -0.085794 -0.063449 0.05389 -0.083098 -0.071544 0.049856 -0.079975 -0.079124 0.045181 -0.076454 -0.086117 0.039912 -0.072569 -0.092454 0.034098 -0.068358 -0.098076 0.027795 -0.06386 -0.102928 0.021065 -0.059121 -0.106963 0.013971 -0.054184 -0.110142 0.006583 -0.049098 -0.112435 -0.001029 -0.051941 -0.112435 -0.003362 -0.058414 -0.110142 0.003111 -0.064697 -0.106963 0.009394 -0.07073 -0.102928 0.015427 -0.076454 -0.098076 0.021151 -0.081814 -0.092454 0.026511 -0.086758 -0.086117 0.031455 -0.09124 -0.079124 0.035937 -0.095215 -0.071544 0.039912 -0.098646 -0.063449 0.043343 -0.101499 -0.054918 0.046196 -0.103747 -0.046032 0.048444 -0.105368 -0.036878 0.050065 -0.091845 -0.00869 0.062946 -0.106348 -0.00869 0.051045 -0.101499 0.018685 0.046196 -0.103747 0.009799 0.048444 -0.112548 0.018685 0.032732 -0.115192 0.009799 0.034499 -0.105368 0.000645 0.050065 -0.11825 -0.00869 0.036542 -0.117098 -0.036878 0.035773 -0.115192 -0.046032 0.034499 -0.105159 -0.071544 0.027795 -0.100485 -0.079124 0.024672 -0.095215 -0.086117 0.021151 -0.089401 -0.092454 0.017266 -0.083098 -0.098076 0.013054 -0.076368 -0.102928 0.008557 -0.069274 -0.106963 0.003818 -0.061886 -0.110142 -0.001119 -0.054274 -0.112435 -0.006205 -0.056008 -0.112435 -0.009449 -0.064466 -0.110142 -0.005945 -0.072675 -0.106963 -0.002545 -0.080557 -0.102928 0.00072 -0.088035 -0.098076 0.003818 -0.095039 -0.092454 0.006718 -0.101499 -0.086117 0.009394 -0.107354 -0.079124 0.01182 -0.127094 -0.027542 0.019996 -0.120758 0.018685 0.017372 -0.123696 0.009799 0.018589 -0.131181 -0.036878 0.001772 -0.125814 -0.036878 0.019466 -0.111584 -0.079124 -0.002126 -0.105368 -0.086117 -0.003362 -0.09851 -0.092454 -0.004726 -0.091076 -0.098076 -0.006205 -0.083137 -0.102928 -0.007784 -0.074769 -0.106963 -0.009449 -0.066054 -0.110142 -0.011182 -0.057076 -0.112435 -0.012968 -0.057436 -0.112435 -0.016628 -0.066591 -0.110142 -0.016628 -0.075476 -0.106963 -0.016628 -0.084008 -0.102928 -0.016628 -0.092102 -0.098076 -0.016628 -0.099682 -0.092454 -0.016628 -0.106675 -0.086117 -0.016628 -0.113013 -0.079124 -0.016628 -0.127521 -0.054918 -0.016628 -0.130701 -0.046032 -0.016628 -0.132994 -0.036878 -0.016628 -0.131181 -0.036878 -0.035029 -0.128932 -0.046032 -0.034582 -0.125814 -0.054918 -0.033961 -0.121857 -0.063449 -0.033174 -0.117098 -0.071544 -0.032228 -0.111584 -0.079124 -0.031131 -0.105368 -0.086117 -0.029894 -0.09851 -0.092454 -0.02853 -0.091076 -0.098076 -0.027051 -0.083137 -0.102928 -0.025472 -0.074769 -0.106963 -0.023808 -0.066054 -0.110142 -0.022074 -0.057076 -0.112435 -0.020288 -0.056008 -0.112435 -0.023808 -0.064466 -0.110142 -0.027311 -0.072675 -0.106963 -0.030711 -0.080557 -0.102928 -0.033976 -0.088035 -0.098076 -0.037074 -0.095038 -0.092454 -0.039975 -0.101499 -0.086117 -0.042651 -0.107354 -0.079124 -0.045076 -0.112548 -0.071544 -0.047227 -0.11703 -0.063449 -0.049084 -0.120758 -0.054918 -0.050628 -0.123696 -0.046032 -0.051845 -0.125814 -0.036878 -0.052722 -0.117098 -0.036878 -0.069029 -0.115192 -0.046032 -0.067755 -0.112548 -0.054918 -0.065989 -0.109193 -0.063449 -0.063747 -0.105159 -0.071544 -0.061051 -0.100485 -0.079124 -0.057928 -0.095215 -0.086117 -0.054407 -0.089401 -0.092454 -0.050522 -0.083098 -0.098076 -0.046311 -0.076368 -0.102928 -0.041814 -0.069274 -0.106963 -0.037074 -0.061886 -0.110142 -0.032137 -0.054274 -0.112435 -0.027051 -0.051941 -0.112435 -0.029894 -0.058414 -0.110142 -0.036368 -0.064697 -0.106963 -0.042651 -0.07073 -0.102928 -0.048683 -0.076454 -0.098076 -0.054407 -0.081814 -0.092454 -0.059767 -0.086758 -0.086117 -0.064712 -0.09124 -0.079124 -0.069193 -0.095215 -0.071544 -0.073168 -0.098646 -0.063449 -0.076599 -0.101499 -0.054918 -0.079452 -0.103747 -0.046032 -0.0817 -0.105368 -0.036878 -0.083322 -0.091076 -0.036878 -0.095051 -0.089802 -0.046032 -0.093145 -0.088035 -0.054918 -0.090501 -0.085794 -0.063449 -0.087146 -0.083098 -0.071544 -0.083112 -0.079975 -0.079124 -0.078438 -0.076454 -0.086117 -0.073168 -0.072569 -0.092454 -0.067354 -0.068358 -0.098076 -0.061051 -0.06386 -0.102928 -0.054321 -0.059121 -0.106963 -0.047227 -0.054184 -0.110142 -0.039839 -0.049098 -0.112435 -0.032228 -0.045854 -0.112435 -0.033961 -0.049358 -0.110142 -0.042419 -0.052758 -0.106963 -0.050628 -0.056023 -0.102928 -0.05851 -0.059121 -0.098076 -0.065989 -0.062021 -0.092454 -0.072992 -0.064697 -0.086117 -0.079452 -0.067123 -0.079124 -0.085307 -0.069274 -0.071544 -0.090501 -0.071131 -0.063449 -0.094984 -0.072675 -0.054918 -0.098712 -0.073892 -0.046032 -0.101649 -0.074769 -0.036878 -0.103767 -0.057076 -0.036878 -0.109135 -0.056628 -0.046032 -0.106886 -0.056008 -0.054918 -0.103767 -0.055221 -0.063449 -0.09981 -0.054274 -0.071544 -0.095051 -0.053177 -0.079124 -0.089538 -0.051941 -0.086117 -0.083322 -0.050577 -0.092454 -0.076463 -0.049098 -0.098076 -0.069029 -0.047519 -0.102928 -0.06109 -0.045854 -0.106963 -0.052722 -0.044121 -0.110142 -0.044008 -0.042335 -0.112435 -0.035029 -0.038675 -0.018116 -0.112795 0.035367 -0.018117 -0.066102 -0.010894 -0.018116 -0.108211</float_array>
                    <technique_common>
                        <accessor count="1375" source="#shape0-lib-positions-array" stride="3">
                            <param name="X" type="float"/>
                            <param name="Y" type="float"/>
                            <param name="Z" type="float"/>
                        </accessor>
                    </technique_common>
                </source>
                <vertices id="shape0-lib-vertices">
                    <input semantic="POSITION" source="#shape0-lib-positions"/>
                </vertices>
                <triangles count="2689">
                    <input offset="0" semantic="VERTEX" source="#shape0-lib-vertices"/>
                    <p>0 1 2 0 3 1 0 4 3 0 5 4 0 6 5 0 7 6 0 8 7 0 9 8 0 10 9 0 11 10 0 12 11 0 13 12 0 14 13 0 15 14 0 16 15 0 17 16 0 18 17 0 19 18 0 20 19 0 21 20 0 22 21 0 23 22 0 24 23 0 25 24 0 26 25 0 27 26 0 28 27 0 29 28 0 30 29 0 31 30 0 32 31 0 2 32 33 34 35 33 36 37 34 33 37 38 39 40 38 40 41 39 38 42 43 44 45 43 45 46 44 43 47 48 46 49 50 48 49 50 49 51 48 50 52 53 51 54 55 53 54 55 54 56 53 55 57 58 56 59 60 58 59 60 59 61 60 62 63 58 60 63 64 61 65 66 64 65 64 66 62 67 68 69 70 67 69 67 70 71 72 73 74 75 72 74 72 75 76 77 78 79 80 77 79 77 80 81 82 83 84 82 85 86 83 82 86 87 88 89 87 90 91 88 87 91 92 93 94 92 95 96 93 92 96 97 98 99 97 100 101 98 97 101 102 103 104 102 105 106 103 102 106 107 108 109 107 110 111 108 107 111 112 113 114 112 42 36 113 112 36 115 84 116 117 115 116 118 119 120 119 118 121 119 96 90 118 119 90 122 123 124 123 122 125 123 101 95 122 123 95 126 127 128 127 126 129 127 106 100 126 127 100 130 131 132 131 130 133 131 111 105 130 131 105 134 135 136 134 37 137 135 134 137 138 112 114 138 42 112 139 35 34 34 37 139 140 141 41 142 143 46 142 52 144 143 142 144 145 46 48 48 52 145 146 147 51 146 57 148 147 146 148 53 57 149 150 151 56 150 63 152 151 150 152 153 56 58 58 63 153 154 60 61 155 156 157 158 65 68 159 69 73 160 74 78 161 79 162 163 164 165 164 163 88 88 164 166 88 91 164 167 168 169 168 167 93 93 168 170 93 96 168 171 172 173 172 171 98 98 172 174 98 101 172 175 176 103 103 175 177 103 106 175 178 179 180 179 178 108 108 179 181 108 111 179 33 35 182 183 184 40 39 183 40 39 183 185 183 42 184 183 39 42 186 89 120 87 89 186 187 94 124 92 94 187 188 99 128 97 99 188 189 104 132 102 104 189 190 109 191 135 137 192 192 135 193 107 109 193 193 110 107 194 134 136 194 37 134 195 196 165 195 91 196 115 117 197 198 199 169 198 96 199 200 201 173 200 101 201 202 203 204 202 106 203 205 206 180 205 111 206 182 36 33 207 208 42 207 113 208 186 90 87 187 95 92 188 100 97 189 105 102 197 117 165 197 115 117 209 194 136 37 194 209 114 207 138 138 207 42 41 141 38 210 158 68 211 158 71 71 158 210 68 67 210 210 67 71 212 159 73 213 159 76 76 159 212 73 72 212 212 72 76 214 160 78 215 160 81 81 160 214 78 77 214 214 77 81 216 161 162 217 161 86 86 161 216 216 83 86 169 199 119 119 199 96 165 164 195 195 164 91 173 201 123 123 201 101 169 168 198 198 168 96 204 203 127 127 203 106 173 172 200 200 172 101 180 206 131 131 206 111 202 175 106 180 179 205 205 179 111 84 115 82 118 186 120 90 186 118 122 187 124 95 187 122 126 188 128 100 188 126 130 189 132 105 189 130 140 44 47 143 43 46 145 142 46 52 142 145 147 50 51 149 146 51 57 146 149 151 55 56 153 150 56 63 150 153 64 154 61 158 66 65 159 70 69 160 75 74 161 80 79 196 197 165 85 197 91 91 197 196 42 208 184 109 190 193 193 190 110 209 139 37 62 66 211 66 158 211 60 154 62 154 64 62 36 182 113 218 219 220 221 219 218 222 219 221 223 219 222 224 219 223 225 219 224 226 219 225 227 219 226 228 229 230 231 219 227 232 219 231 233 219 232 234 219 233 235 219 234 236 219 235 237 219 236 238 219 237 239 219 238 240 219 239 241 219 240 242 219 241 243 219 242 244 219 243 245 246 247 248 249 250 250 249 251 252 250 253 254 255 256 257 247 258 259 219 244 260 219 259 261 262 263 264 253 265 253 251 266 267 219 260 268 219 267 269 219 268 270 219 269 271 219 270 272 219 271 273 219 272 220 219 273 274 275 276 277 253 266 278 279 229 280 281 282 283 284 114 279 132 104 279 176 132 285 286 287 285 288 286 288 289 286 290 276 291 292 293 294 295 296 297 298 299 300 301 302 303 304 301 303 305 306 302 305 307 306 307 252 253 305 307 253 307 157 306 307 308 157 309 310 157 309 311 310 311 312 313 309 311 313 314 315 310 311 314 310 316 317 315 316 318 317 319 320 321 319 322 320 323 163 116 324 325 326 327 167 120 328 329 330 331 171 124 332 278 176 332 278 229 333 332 229 334 132 176 334 335 132 336 337 178 336 178 338 337 336 339 336 338 339 191 340 287 341 208 207 342 343 344 342 344 345 346 347 348 346 348 349 350 351 352 350 352 353 354 302 277 354 277 265 354 253 277 355 315 356 357 321 358 357 358 359 360 361 362 363 163 364 363 364 365 366 167 367 366 367 368 369 171 370 369 370 371 372 176 278 372 278 228 372 279 278 373 374 282 375 287 280 375 376 373 377 378 294 379 380 180 379 380 381 382 383 109 382 383 384 385 283 286 386 292 387 293 291 388 389 390 294 389 391 390 392 294 389 393 344 343 393 345 344 296 394 343 296 295 394 395 343 296 396 348 347 396 349 348 299 397 347 299 298 397 398 347 299 399 352 351 399 353 352 400 303 351 400 304 303 401 351 400 402 403 302 402 265 277 301 404 403 405 406 157 406 405 252 308 264 406 407 408 315 408 407 312 407 356 312 407 409 356 314 410 408 411 358 321 411 359 358 412 116 361 412 413 116 414 361 412 325 120 163 325 324 120 415 163 325 329 124 167 329 328 124 416 167 329 417 128 171 417 418 128 419 171 417 420 176 128 421 420 128 420 421 230 332 228 278 332 333 228 335 422 132 423 384 281 424 178 337 425 287 340 426 343 342 295 426 342 395 426 343 426 345 395 426 342 345 427 302 354 427 305 302 354 265 427 355 428 429 428 315 355 428 316 315 430 176 372 430 334 176 372 430 279 372 228 430 373 280 282 373 431 280 431 375 373 431 432 375 433 287 375 433 285 287 375 433 376 375 282 433 434 435 381 435 380 132 380 381 435 380 422 381 436 286 289 436 385 286 436 289 283 385 436 283 289 436 288 289 275 436 436 275 385 288 436 385 293 388 292 388 294 293 387 292 293 391 437 438 439 440 298 301 403 304 403 302 301 402 277 302 308 406 307 406 157 308 252 307 308 405 155 157 314 408 311 408 315 314 312 311 314 407 356 315 415 441 163 415 324 441 441 365 415 441 363 365 333 332 176 333 176 420 421 420 229 333 420 128 421 128 418 442 340 191 423 281 442 424 337 384 424 384 383 443 290 386 274 444 275 445 446 275 444 445 275 441 163 363 435 434 132 436 275 283 446 290 275 447 448 184 448 292 40 184 448 40 444 290 445 449 446 445 290 449 445 290 446 449 448 443 386 443 448 184 435 422 380 434 132 422 435 434 422 450 451 275 451 450 447 452 450 275 452 443 450 446 453 276 454 442 191 454 423 442 455 386 290 456 455 457 458 456 457 456 455 290 456 459 460 456 290 459 461 462 460 461 463 464 462 461 464 381 465 379 384 454 382 390 391 343 394 295 347 397 298 351 359 411 466 322 467 320 468 467 469 413 323 116 365 323 470 324 327 120 328 331 124 178 471 338 468 362 467 323 364 163 365 364 323 327 367 167 368 367 327 331 370 171 371 370 331 431 375 280 345 393 472 391 393 343 295 396 347 298 399 351 465 471 178 381 471 465 458 341 456 451 341 275 447 341 451 321 357 319 378 392 294 473 392 378 346 398 347 349 398 346 350 401 351 353 401 350 360 414 361 366 416 167 368 416 366 369 419 171 371 419 369 474 424 178 384 424 474 287 286 35 287 35 139 286 283 114 286 114 113 292 294 41 292 41 40 294 390 45 294 45 41 390 343 46 390 46 45 343 394 49 343 49 46 394 347 51 394 51 49 347 397 54 347 54 51 397 351 56 397 56 54 351 303 59 351 59 56 303 302 61 303 61 59 302 306 65 302 65 61 306 157 68 306 68 65 157 310 69 157 69 68 310 315 73 310 73 69 315 317 74 315 74 73 317 321 78 317 78 74 321 320 79 321 79 78 320 361 162 320 162 79 361 116 84 361 84 162 116 163 165 116 165 117 163 120 89 163 89 88 120 167 169 120 169 119 167 124 94 167 94 93 124 171 173 124 173 123 171 128 99 171 99 98 128 176 204 128 204 127 176 279 104 176 104 103 132 434 180 132 180 131 178 383 109 178 109 108 191 287 136 191 136 135 2 1 475 2 475 476 476 475 477 476 477 478 478 477 479 478 479 480 480 479 481 480 481 482 482 481 483 482 483 484 484 483 485 484 485 486 486 485 487 486 487 488 488 487 489 488 489 490 490 489 491 490 491 492 492 491 493 492 493 494 494 493 495 494 495 496 496 495 497 496 497 498 498 497 499 498 499 500 500 499 501 500 501 502 502 501 42 502 42 503 501 504 36 501 36 42 499 505 504 499 504 501 497 506 505 497 505 499 495 507 506 495 506 497 493 508 507 493 507 495 491 509 508 491 508 493 489 510 509 489 509 491 487 511 510 487 510 489 485 512 511 485 511 487 483 513 512 483 512 485 481 514 513 481 513 483 479 515 514 479 514 481 477 516 515 477 515 479 475 517 516 475 516 477 1 3 517 1 517 475 3 4 518 3 518 517 517 518 519 517 519 516 516 519 520 516 520 515 515 520 521 515 521 514 514 521 522 514 522 513 513 522 523 513 523 512 512 523 524 512 524 511 511 524 525 511 525 510 510 525 526 510 526 509 509 526 527 509 527 508 508 527 528 508 528 507 507 528 529 507 529 506 506 529 530 506 530 505 505 530 531 505 531 504 504 531 37 504 37 36 531 532 137 531 137 37 530 533 532 530 532 531 529 534 533 529 533 530 528 535 534 528 534 529 527 536 535 527 535 528 526 537 536 526 536 527 525 538 537 525 537 526 524 539 538 524 538 525 523 540 539 523 539 524 522 541 540 522 540 523 521 542 541 521 541 522 520 543 542 520 542 521 519 544 543 519 543 520 518 545 544 518 544 519 4 5 545 4 545 518 5 6 546 5 546 545 545 546 547 545 547 544 544 547 548 544 548 543 543 548 549 543 549 542 542 549 550 542 550 541 541 550 551 541 551 540 540 551 552 540 552 539 539 552 553 539 553 538 538 553 554 538 554 537 537 554 555 537 555 536 536 555 556 536 556 535 535 556 557 535 557 534 534 557 558 534 558 533 533 558 559 533 559 532 532 559 110 532 110 137 559 560 111 559 111 110 558 561 560 558 560 559 557 562 561 557 561 558 556 563 562 556 562 557 555 564 563 555 563 556 554 565 564 554 564 555 553 566 565 553 565 554 552 567 566 552 566 553 551 568 567 551 567 552 550 569 568 550 568 551 549 570 569 549 569 550 548 571 570 548 570 549 547 572 571 547 571 548 546 573 572 546 572 547 6 7 573 6 573 546 7 8 574 7 574 573 573 574 575 573 575 572 572 575 576 572 576 571 571 576 577 571 577 570 570 577 578 570 578 569 569 578 579 569 579 568 568 579 580 568 580 567 567 580 581 567 581 566 566 581 582 566 582 565 565 582 583 565 583 564 564 583 584 564 584 563 563 584 585 563 585 562 562 585 586 562 586 561 561 586 587 561 587 560 560 587 105 560 105 111 587 588 106 587 106 105 586 589 588 586 588 587 585 590 589 585 589 586 584 591 590 584 590 585 583 592 591 583 591 584 582 593 592 582 592 583 581 594 593 581 593 582 580 595 594 580 594 581 579 596 595 579 595 580 578 597 596 578 596 579 577 598 597 577 597 578 576 599 598 576 598 577 575 600 599 575 599 576 574 601 600 574 600 575 8 9 601 8 601 574 9 10 602 9 602 601 601 602 603 601 603 600 600 603 604 600 604 599 599 604 605 599 605 598 598 605 606 598 606 597 597 606 607 597 607 596 596 607 608 596 608 595 595 608 609 595 609 594 594 609 610 594 610 593 593 610 611 593 611 592 592 611 612 592 612 591 591 612 613 591 613 590 590 613 614 590 614 589 589 614 615 589 615 588 588 615 100 588 100 106 615 616 101 615 101 100 614 617 616 614 616 615 613 618 617 613 617 614 612 619 618 612 618 613 611 620 619 611 619 612 610 621 620 610 620 611 609 622 621 609 621 610 608 623 622 608 622 609 607 624 623 607 623 608 606 625 624 606 624 607 605 626 625 605 625 606 604 627 626 604 626 605 603 628 627 603 627 604 602 629 628 602 628 603 10 11 629 10 629 602 11 12 630 11 630 629 629 630 631 629 631 628 628 631 632 628 632 627 627 632 633 627 633 626 626 633 634 626 634 625 625 634 635 625 635 624 624 635 636 624 636 623 623 636 637 623 637 622 622 637 638 622 638 621 621 638 639 621 639 620 620 639 640 620 640 619 619 640 641 619 641 618 618 641 642 618 642 617 617 642 643 617 643 616 616 643 95 616 95 101 643 644 96 643 96 95 642 645 644 642 644 643 641 646 645 641 645 642 640 647 646 640 646 641 639 648 647 639 647 640 638 649 648 638 648 639 637 650 649 637 649 638 636 651 650 636 650 637 635 652 651 635 651 636 634 653 652 634 652 635 633 654 653 633 653 634 632 655 654 632 654 633 631 656 655 631 655 632 630 657 656 630 656 631 12 13 657 12 657 630 13 14 658 13 658 657 657 658 659 657 659 656 656 659 660 656 660 655 655 660 661 655 661 654 654 661 662 654 662 653 653 662 663 653 663 652 652 663 664 652 664 651 651 664 665 651 665 650 650 665 666 650 666 649 649 666 667 649 667 648 648 667 668 648 668 647 647 668 669 647 669 646 646 669 670 646 670 645 645 670 671 645 671 644 644 671 90 644 90 96 671 672 91 671 91 90 670 673 672 670 672 671 669 674 673 669 673 670 668 675 674 668 674 669 667 676 675 667 675 668 666 677 676 666 676 667 665 678 677 665 677 666 664 679 678 664 678 665 663 680 679 663 679 664 662 681 680 662 680 663 661 682 681 661 681 662 660 683 682 660 682 661 659 684 683 659 683 660 658 685 684 658 684 659 14 15 685 14 685 658 15 16 686 15 686 685 685 686 687 685 687 684 684 687 688 684 688 683 683 688 689 683 689 682 682 689 690 682 690 681 681 690 691 681 691 680 680 691 692 680 692 679 679 692 693 679 693 678 678 693 694 678 694 677 677 694 695 677 695 676 676 695 696 676 696 675 675 696 697 675 697 674 674 697 698 674 698 673 673 698 699 673 699 672 672 699 85 672 85 91 699 700 86 699 86 85 698 701 700 698 700 699 697 702 701 697 701 698 696 703 702 696 702 697 695 704 703 695 703 696 694 705 704 694 704 695 693 706 705 693 705 694 692 707 706 692 706 693 691 708 707 691 707 692 690 709 708 690 708 691 689 710 709 689 709 690 688 711 710 688 710 689 687 712 711 687 711 688 686 713 712 686 712 687 16 17 713 16 713 686 17 18 714 17 714 713 713 714 715 713 715 712 712 715 716 712 716 711 711 716 717 711 717 710 710 717 718 710 718 709 709 718 719 709 719 708 708 719 720 708 720 707 707 720 721 707 721 706 706 721 722 706 722 705 705 722 723 705 723 704 704 723 724 704 724 703 703 724 725 703 725 702 702 725 726 702 726 701 701 726 727 701 727 700 700 727 217 700 217 86 727 728 81 727 81 217 726 729 728 726 728 727 725 730 729 725 729 726 724 731 730 724 730 725 723 732 731 723 731 724 722 733 732 722 732 723 721 734 733 721 733 722 720 735 734 720 734 721 719 736 735 719 735 720 718 737 736 718 736 719 717 738 737 717 737 718 716 739 738 716 738 717 715 740 739 715 739 716 714 741 740 714 740 715 18 19 741 18 741 714 19 20 742 19 742 741 741 742 743 741 743 740 740 743 744 740 744 739 739 744 745 739 745 738 738 745 746 738 746 737 737 746 747 737 747 736 736 747 748 736 748 735 735 748 749 735 749 734 734 749 750 734 750 733 733 750 751 733 751 732 732 751 752 732 752 731 731 752 753 731 753 730 730 753 754 730 754 729 729 754 755 729 755 728 728 755 215 728 215 81 755 756 76 755 76 215 754 757 756 754 756 755 753 758 757 753 757 754 752 759 758 752 758 753 751 760 759 751 759 752 750 761 760 750 760 751 749 762 761 749 761 750 748 763 762 748 762 749 747 764 763 747 763 748 746 765 764 746 764 747 745 766 765 745 765 746 744 767 766 744 766 745 743 768 767 743 767 744 742 769 768 742 768 743 20 21 769 20 769 742 21 22 770 21 770 769 769 770 771 769 771 768 768 771 772 768 772 767 767 772 773 767 773 766 766 773 774 766 774 765 765 774 775 765 775 764 764 775 776 764 776 763 763 776 777 763 777 762 762 777 778 762 778 761 761 778 779 761 779 760 760 779 780 760 780 759 759 780 781 759 781 758 758 781 782 758 782 757 757 782 783 757 783 756 756 783 213 756 213 76 783 784 71 783 71 213 782 785 784 782 784 783 781 786 785 781 785 782 780 787 786 780 786 781 779 788 787 779 787 780 778 789 788 778 788 779 777 790 789 777 789 778 776 791 790 776 790 777 775 792 791 775 791 776 774 793 792 774 792 775 773 794 793 773 793 774 772 795 794 772 794 773 771 796 795 771 795 772 770 797 796 770 796 771 22 23 797 22 797 770 23 24 798 23 798 797 797 798 799 797 799 796 796 799 800 796 800 795 795 800 801 795 801 794 794 801 802 794 802 793 793 802 803 793 803 792 792 803 804 792 804 791 791 804 805 791 805 790 790 805 806 790 806 789 789 806 807 789 807 788 788 807 808 788 808 787 787 808 809 787 809 786 786 809 810 786 810 785 785 810 811 785 811 784 784 811 211 784 211 71 811 812 62 811 62 211 810 813 812 810 812 811 809 814 813 809 813 810 808 815 814 808 814 809 807 816 815 807 815 808 806 817 816 806 816 807 805 818 817 805 817 806 804 819 818 804 818 805 803 820 819 803 819 804 802 821 820 802 820 803 801 822 821 801 821 802 800 823 822 800 822 801 799 824 823 799 823 800 798 825 824 798 824 799 24 25 825 24 825 798 25 26 826 25 826 825 825 826 827 825 827 824 824 827 828 824 828 823 823 828 829 823 829 822 822 829 830 822 830 821 821 830 831 821 831 820 820 831 832 820 832 819 819 832 833 819 833 818 818 833 834 818 834 817 817 834 835 817 835 816 816 835 836 816 836 815 815 836 837 815 837 814 814 837 838 814 838 813 813 838 839 813 839 812 812 839 63 812 63 62 839 840 152 839 152 63 838 841 840 838 840 839 837 842 841 837 841 838 836 843 842 836 842 837 835 844 843 835 843 836 834 845 844 834 844 835 833 846 845 833 845 834 832 847 846 832 846 833 831 848 847 831 847 832 830 849 848 830 848 831 829 850 849 829 849 830 828 851 850 828 850 829 827 852 851 827 851 828 826 853 852 826 852 827 26 27 853 26 853 826 27 28 854 27 854 853 853 854 855 853 855 852 852 855 856 852 856 851 851 856 857 851 857 850 850 857 858 850 858 849 849 858 859 849 859 848 848 859 860 848 860 847 847 860 861 847 861 846 846 861 862 846 862 845 845 862 863 845 863 844 844 863 864 844 864 843 843 864 865 843 865 842 842 865 866 842 866 841 841 866 867 841 867 840 840 867 57 840 57 152 867 868 148 867 148 57 866 869 868 866 868 867 865 870 869 865 869 866 864 871 870 864 870 865 863 872 871 863 871 864 862 873 872 862 872 863 861 874 873 861 873 862 860 875 874 860 874 861 859 876 875 859 875 860 858 877 876 858 876 859 857 878 877 857 877 858 856 879 878 856 878 857 855 880 879 855 879 856 854 881 880 854 880 855 28 29 881 28 881 854 29 30 882 29 882 881 881 882 883 881 883 880 880 883 884 880 884 879 879 884 885 879 885 878 878 885 886 878 886 877 877 886 887 877 887 876 876 887 888 876 888 875 875 888 889 875 889 874 874 889 890 874 890 873 873 890 891 873 891 872 872 891 892 872 892 871 871 892 893 871 893 870 870 893 894 870 894 869 869 894 895 869 895 868 868 895 52 868 52 148 895 896 144 895 144 52 894 897 896 894 896 895 893 898 897 893 897 894 892 899 898 892 898 893 891 900 899 891 899 892 890 901 900 890 900 891 889 902 901 889 901 890 888 903 902 888 902 889 887 904 903 887 903 888 886 905 904 886 904 887 885 906 905 885 905 886 884 907 906 884 906 885 883 908 907 883 907 884 882 909 908 882 908 883 30 31 909 30 909 882 31 32 910 31 910 909 909 910 911 909 911 908 908 911 912 908 912 907 907 912 913 907 913 906 906 913 914 906 914 905 905 914 915 905 915 904 904 915 916 904 916 903 903 916 917 903 917 902 902 917 918 902 918 901 901 918 919 901 919 900 900 919 920 900 920 899 899 920 921 899 921 898 898 921 922 898 922 897 897 922 923 897 923 896 896 923 47 896 47 144 923 502 503 923 503 47 922 500 502 922 502 923 921 498 500 921 500 922 920 496 498 920 498 921 919 494 496 919 496 920 918 492 494 918 494 919 917 490 492 917 492 918 916 488 490 916 490 917 915 486 488 915 488 916 914 484 486 914 486 915 913 482 484 913 484 914 912 480 482 912 482 913 911 478 480 911 480 912 910 476 478 910 478 911 32 2 476 32 476 910 38 141 503 38 503 42 44 140 41 44 41 45 43 143 144 43 144 47 50 147 148 50 148 52 55 151 152 55 152 57 70 159 213 70 213 71 75 160 215 75 215 76 80 161 217 80 217 81 83 216 162 83 162 84 47 503 141 47 141 140 175 202 204 175 204 176 192 190 191 192 191 135 192 137 110 192 110 190 924 925 157 924 157 156 115 197 85 115 85 82 139 209 136 139 136 287 113 182 35 113 35 286 473 291 926 473 926 927 927 926 928 927 928 929 929 928 930 929 930 931 931 930 932 931 932 933 933 932 934 933 934 935 935 934 936 935 936 937 937 936 938 937 938 939 939 938 940 939 940 941 941 940 942 941 942 943 943 942 944 943 944 945 945 944 946 945 946 947 947 946 948 947 948 949 949 948 950 949 950 951 951 950 218 951 218 220 950 952 221 950 221 218 948 953 952 948 952 950 946 954 953 946 953 948 944 955 954 944 954 946 942 956 955 942 955 944 940 957 956 940 956 942 938 958 957 938 957 940 936 959 958 936 958 938 934 960 959 934 959 936 932 961 960 932 960 934 930 962 961 930 961 932 928 963 962 928 962 930 926 964 963 926 963 928 291 276 964 291 964 926 275 289 965 275 965 276 276 965 966 276 966 964 964 966 967 964 967 963 963 967 968 963 968 962 962 968 969 962 969 961 961 969 970 961 970 960 960 970 971 960 971 959 959 971 972 959 972 958 958 972 973 958 973 957 957 973 974 957 974 956 956 974 975 956 975 955 955 975 976 955 976 954 954 976 977 954 977 953 953 977 978 953 978 952 952 978 222 952 222 221 978 979 223 978 223 222 977 980 979 977 979 978 976 981 980 976 980 977 975 982 981 975 981 976 974 983 982 974 982 975 973 984 983 973 983 974 972 985 984 972 984 973 971 986 985 971 985 972 970 987 986 970 986 971 969 988 987 969 987 970 968 989 988 968 988 969 967 990 989 967 989 968 966 991 990 966 990 967 965 282 991 965 991 966 282 281 992 282 992 991 991 992 993 991 993 990 990 993 994 990 994 989 989 994 995 989 995 988 988 995 996 988 996 987 987 996 997 987 997 986 986 997 998 986 998 985 985 998 999 985 999 984 984 999 1000 984 1000 983 983 1000 1001 983 1001 982 982 1001 1002 982 1002 981 981 1002 1003 981 1003 980 980 1003 1004 980 1004 979 979 1004 224 979 224 223 1004 1005 225 1004 225 224 1003 1006 1005 1003 1005 1004 1002 1007 1006 1002 1006 1003 1001 1008 1007 1001 1007 1002 1000 1009 1008 1000 1008 1001 999 1010 1009 999 1009 1000 998 1011 1010 998 1010 999 997 1012 1011 997 1011 998 996 1013 1012 996 1012 997 995 1014 1013 995 1013 996 994 1015 1014 994 1014 995 993 1016 1015 993 1015 994 992 1017 1016 992 1016 993 281 339 1017 281 1017 992 384 337 339 384 339 281 1018 1019 1020 1018 1020 1021 1022 1023 1019 1022 1019 1018 1023 1024 1025 1023 1025 1019 1019 1025 1026 1019 1026 1020 381 422 1027 381 1027 339 339 1027 1028 339 1028 1017 1017 1028 1029 1017 1029 1016 1016 1029 1030 1016 1030 1015 1015 1030 1031 1015 1031 1014 1014 1031 1032 1014 1032 1013 1013 1032 1033 1013 1033 1012 1012 1033 1034 1012 1034 1011 1011 1034 1035 1011 1035 1010 1010 1035 1036 1010 1036 1009 1009 1036 1037 1009 1037 1008 1008 1037 1038 1008 1038 1007 1007 1038 1039 1007 1039 1006 1006 1039 1040 1006 1040 1005 1005 1040 226 1005 226 225 1040 1041 227 1040 227 226 1039 1042 1041 1039 1041 1040 1038 1043 1042 1038 1042 1039 1037 1044 1043 1037 1043 1038 1036 1045 1044 1036 1044 1037 1035 1046 1045 1035 1045 1036 1034 1047 1046 1034 1046 1035 1033 1048 1047 1033 1047 1034 1032 1049 1048 1032 1048 1033 1031 1050 1049 1031 1049 1032 1030 1051 1050 1030 1050 1031 1029 1052 1051 1029 1051 1030 1028 1053 1052 1028 1052 1029 1027 228 1053 1027 1053 1028 1054 1055 229 1054 229 279 1026 1056 1055 1026 1055 1054 1025 1057 1056 1025 1056 1026 1024 1058 1057 1024 1057 1025 1058 1059 1060 1058 1060 1057 1057 1060 1061 1057 1061 1056 1056 1061 1062 1056 1062 1055 1055 1062 1063 1055 1063 229 228 230 1064 228 1064 1053 1053 1064 1065 1053 1065 1052 1052 1065 1066 1052 1066 1051 1051 1066 1067 1051 1067 1050 1050 1067 1068 1050 1068 1049 1049 1068 1069 1049 1069 1048 1048 1069 1070 1048 1070 1047 1047 1070 1071 1047 1071 1046 1046 1071 1072 1046 1072 1045 1045 1072 1073 1045 1073 1044 1044 1073 1074 1044 1074 1043 1043 1074 1075 1043 1075 1042 1042 1075 1076 1042 1076 1041 1041 1076 231 1041 231 227 1076 1077 232 1076 232 231 1075 1078 1077 1075 1077 1076 1074 1079 1078 1074 1078 1075 1073 1080 1079 1073 1079 1074 1072 1081 1080 1072 1080 1073 1071 1082 1081 1071 1081 1072 1070 1083 1082 1070 1082 1071 1069 1084 1083 1069 1083 1070 1068 1085 1084 1068 1084 1069 1067 1086 1085 1067 1085 1068 1066 1087 1086 1066 1086 1067 1065 1088 1087 1065 1087 1066 1064 1089 1088 1064 1088 1065 230 371 1089 230 1089 1064 1060 1090 1091 1060 1091 1061 1059 1092 1090 1059 1090 1060 1092 1093 1094 1092 1094 1090 1090 1094 1095 1090 1095 1091 371 330 1096 371 1096 1089 1089 1096 1097 1089 1097 1088 1088 1097 1098 1088 1098 1087 1087 1098 1099 1087 1099 1086 1086 1099 1100 1086 1100 1085 1085 1100 1101 1085 1101 1084 1084 1101 1102 1084 1102 1083 1083 1102 1103 1083 1103 1082 1082 1103 1104 1082 1104 1081 1081 1104 1105 1081 1105 1080 1080 1105 1106 1080 1106 1079 1079 1106 1107 1079 1107 1078 1078 1107 1108 1078 1108 1077 1077 1108 233 1077 233 232 1108 1109 234 1108 234 233 1107 1110 1109 1107 1109 1108 1106 1111 1110 1106 1110 1107 1105 1112 1111 1105 1111 1106 1104 1113 1112 1104 1112 1105 1103 1114 1113 1103 1113 1104 1102 1115 1114 1102 1114 1103 1101 1116 1115 1101 1115 1102 1100 1117 1116 1100 1116 1101 1099 1118 1117 1099 1117 1100 1098 1119 1118 1098 1118 1099 1097 1120 1119 1097 1119 1098 1096 1121 1120 1096 1120 1097 330 368 1121 330 1121 1096 368 326 1122 368 1122 1121 1121 1122 1123 1121 1123 1120 1120 1123 1124 1120 1124 1119 1119 1124 1125 1119 1125 1118 1118 1125 1126 1118 1126 1117 1117 1126 1127 1117 1127 1116 1116 1127 1128 1116 1128 1115 1115 1128 1129 1115 1129 1114 1114 1129 1130 1114 1130 1113 1113 1130 1131 1113 1131 1112 1112 1131 1132 1112 1132 1111 1111 1132 1133 1111 1133 1110 1110 1133 1134 1110 1134 1109 1109 1134 235 1109 235 234 1134 1135 236 1134 236 235 1133 1136 1135 1133 1135 1134 1132 1137 1136 1132 1136 1133 1131 1138 1137 1131 1137 1132 1130 1139 1138 1130 1138 1131 1129 1140 1139 1129 1139 1130 1128 1141 1140 1128 1140 1129 1127 1142 1141 1127 1141 1128 1126 1143 1142 1126 1142 1127 1125 1144 1143 1125 1143 1126 1124 1145 1144 1124 1144 1125 1123 1146 1145 1123 1145 1124 1122 1147 1146 1122 1146 1123 326 365 1147 326 1147 1122 365 470 1148 365 1148 1147 1147 1148 1149 1147 1149 1146 1146 1149 1150 1146 1150 1145 1145 1150 1151 1145 1151 1144 1144 1151 1152 1144 1152 1143 1143 1152 1153 1143 1153 1142 1142 1153 1154 1142 1154 1141 1141 1154 1155 1141 1155 1140 1140 1155 1156 1140 1156 1139 1139 1156 1157 1139 1157 1138 1138 1157 1158 1138 1158 1137 1137 1158 1159 1137 1159 1136 1136 1159 1160 1136 1160 1135 1135 1160 237 1135 237 236 1160 1161 238 1160 238 237 1159 1162 1161 1159 1161 1160 1158 1163 1162 1158 1162 1159 1157 1164 1163 1157 1163 1158 1156 1165 1164 1156 1164 1157 1155 1166 1165 1155 1165 1156 1154 1167 1166 1154 1166 1155 1153 1168 1167 1153 1167 1154 1152 1169 1168 1152 1168 1153 1151 1170 1169 1151 1169 1152 1150 1171 1170 1150 1170 1151 1149 1172 1171 1149 1171 1150 1148 1173 1172 1148 1172 1149 470 468 1173 470 1173 1148 468 469 1174 468 1174 1173 1173 1174 1175 1173 1175 1172 1172 1175 1176 1172 1176 1171 1171 1176 1177 1171 1177 1170 1170 1177 1178 1170 1178 1169 1169 1178 1179 1169 1179 1168 1168 1179 1180 1168 1180 1167 1167 1180 1181 1167 1181 1166 1166 1181 1182 1166 1182 1165 1165 1182 1183 1165 1183 1164 1164 1183 1184 1164 1184 1163 1163 1184 1185 1163 1185 1162 1162 1185 1186 1162 1186 1161 1161 1186 239 1161 239 238 1186 1187 240 1186 240 239 1185 1188 1187 1185 1187 1186 1184 1189 1188 1184 1188 1185 1183 1190 1189 1183 1189 1184 1182 1191 1190 1182 1190 1183 1181 1192 1191 1181 1191 1182 1180 1193 1192 1180 1192 1181 1179 1194 1193 1179 1193 1180 1178 1195 1194 1178 1194 1179 1177 1196 1195 1177 1195 1178 1176 1197 1196 1176 1196 1177 1175 1198 1197 1175 1197 1176 1174 1199 1198 1174 1198 1175 469 359 1199 469 1199 1174 1200 1201 1202 1200 1202 1203 359 466 1204 359 1204 1199 1199 1204 1205 1199 1205 1198 1198 1205 1206 1198 1206 1197 1197 1206 1207 1197 1207 1196 1196 1207 1208 1196 1208 1195 1195 1208 1209 1195 1209 1194 1194 1209 1210 1194 1210 1193 1193 1210 1211 1193 1211 1192 1192 1211 1212 1192 1212 1191 1191 1212 1213 1191 1213 1190 1190 1213 1214 1190 1214 1189 1189 1214 1215 1189 1215 1188 1188 1215 1216 1188 1216 1187 1187 1216 241 1187 241 240 1216 1217 242 1216 242 241 1215 1218 1217 1215 1217 1216 1214 1219 1218 1214 1218 1215 1213 1220 1219 1213 1219 1214 1212 1221 1220 1212 1220 1213 1211 1222 1221 1211 1221 1212 1210 1223 1222 1210 1222 1211 1209 1224 1223 1209 1223 1210 1208 1225 1224 1208 1224 1209 1207 1226 1225 1207 1225 1208 1206 1227 1226 1206 1226 1207 1205 1228 1227 1205 1227 1206 1204 1229 1228 1204 1228 1205 466 409 1229 466 1229 1204 1230 1231 312 1230 312 429 1201 1232 1233 1201 1233 1202 1232 1234 1235 1232 1235 1233 1236 248 1237 1236 1237 1231 409 410 1238 409 1238 1229 1229 1238 1239 1229 1239 1228 1228 1239 246 1228 246 1227 1227 246 245 1227 245 1226 1226 245 1240 1226 1240 1225 1225 1240 1241 1225 1241 1224 1224 1241 1242 1224 1242 1223 1223 1242 1243 1223 1243 1222 1222 1243 1244 1222 1244 1221 1221 1244 1245 1221 1245 1220 1220 1245 1246 1220 1246 1219 1219 1246 1247 1219 1247 1218 1218 1247 1248 1218 1248 1217 1217 1248 243 1217 243 242 1248 1249 244 1248 244 243 1247 1250 1249 1247 1249 1248 1246 1251 1250 1246 1250 1247 1245 1252 1251 1245 1251 1246 1244 1253 1252 1244 1252 1245 1243 1254 1253 1243 1253 1244 1242 1255 1254 1242 1254 1243 1241 1256 1255 1241 1255 1242 1240 257 1256 1240 1256 1241 245 247 257 245 257 1240 313 252 1257 313 1257 410 1237 250 252 1237 252 313 1234 1258 1259 1234 1259 1235 1257 264 1260 1257 1260 1261 1261 1260 255 1261 255 254 257 258 1262 257 1262 1256 1256 1262 1263 1256 1263 1255 1255 1263 1264 1255 1264 1254 1254 1264 1265 1254 1265 1253 1253 1265 1266 1253 1266 1252 1252 1266 1267 1252 1267 1251 1251 1267 1268 1251 1268 1250 1250 1268 1269 1250 1269 1249 1249 1269 259 1249 259 244 1269 1270 260 1269 260 259 1268 1271 1270 1268 1270 1269 1267 1272 1271 1267 1271 1268 1266 1273 1272 1266 1272 1267 1265 1274 1273 1265 1273 1266 1264 1275 1274 1264 1274 1265 1263 1276 1275 1263 1275 1264 1262 1277 1276 1262 1276 1263 258 263 1277 258 1277 1262 256 1278 262 256 262 261 255 1279 1278 255 1278 256 1260 1280 1279 1260 1279 255 264 265 1280 264 1280 1260 265 404 1281 265 1281 1280 1280 1281 1282 1280 1282 1279 1279 1282 1283 1279 1283 1278 1278 1283 1284 1278 1284 262 262 1284 1285 262 1285 263 263 1285 1286 263 1286 1277 1277 1286 1287 1277 1287 1276 1276 1287 1288 1276 1288 1275 1275 1288 1289 1275 1289 1274 1274 1289 1290 1274 1290 1273 1273 1290 1291 1273 1291 1272 1272 1291 1292 1272 1292 1271 1271 1292 1293 1271 1293 1270 1270 1293 267 1270 267 260 1293 1294 268 1293 268 267 1292 1295 1294 1292 1294 1293 1291 1296 1295 1291 1295 1292 1290 1297 1296 1290 1296 1291 1289 1298 1297 1289 1297 1290 1288 1299 1298 1288 1298 1289 1287 1300 1299 1287 1299 1288 1286 1301 1300 1286 1300 1287 1285 1302 1301 1285 1301 1286 1284 1303 1302 1284 1302 1285 1283 1304 1303 1283 1303 1284 1282 1305 1304 1282 1304 1283 1281 1306 1305 1281 1305 1282 404 353 1306 404 1306 1281 353 300 1307 353 1307 1306 1306 1307 1308 1306 1308 1305 1305 1308 1309 1305 1309 1304 1304 1309 1310 1304 1310 1303 1303 1310 1311 1303 1311 1302 1302 1311 1312 1302 1312 1301 1301 1312 1313 1301 1313 1300 1300 1313 1314 1300 1314 1299 1299 1314 1315 1299 1315 1298 1298 1315 1316 1298 1316 1297 1297 1316 1317 1297 1317 1296 1296 1317 1318 1296 1318 1295 1295 1318 1319 1295 1319 1294 1294 1319 269 1294 269 268 1319 1320 270 1319 270 269 1318 1321 1320 1318 1320 1319 1317 1322 1321 1317 1321 1318 1316 1323 1322 1316 1322 1317 1315 1324 1323 1315 1323 1316 1314 1325 1324 1314 1324 1315 1313 1326 1325 1313 1325 1314 1312 1327 1326 1312 1326 1313 1311 1328 1327 1311 1327 1312 1310 1329 1328 1310 1328 1311 1309 1330 1329 1309 1329 1310 1308 1331 1330 1308 1330 1309 1307 1332 1331 1307 1331 1308 300 349 1332 300 1332 1307 349 297 1333 349 1333 1332 1332 1333 1334 1332 1334 1331 1331 1334 1335 1331 1335 1330 1330 1335 1336 1330 1336 1329 1329 1336 1337 1329 1337 1328 1328 1337 1338 1328 1338 1327 1327 1338 1339 1327 1339 1326 1326 1339 1340 1326 1340 1325 1325 1340 1341 1325 1341 1324 1324 1341 1342 1324 1342 1323 1323 1342 1343 1323 1343 1322 1322 1343 1344 1322 1344 1321 1321 1344 1345 1321 1345 1320 1320 1345 271 1320 271 270 1345 1346 272 1345 272 271 1344 1347 1346 1344 1346 1345 1343 1348 1347 1343 1347 1344 1342 1349 1348 1342 1348 1343 1341 1350 1349 1341 1349 1342 1340 1351 1350 1340 1350 1341 1339 1352 1351 1339 1351 1340 1338 1353 1352 1338 1352 1339 1337 1354 1353 1337 1353 1338 1336 1355 1354 1336 1354 1337 1335 1356 1355 1335 1355 1336 1334 1357 1356 1334 1356 1335 1333 1358 1357 1333 1357 1334 297 345 1358 297 1358 1333 345 472 1359 345 1359 1358 1358 1359 1360 1358 1360 1357 1357 1360 1361 1357 1361 1356 1356 1361 1362 1356 1362 1355 1355 1362 1363 1355 1363 1354 1354 1363 1364 1354 1364 1353 1353 1364 1365 1353 1365 1352 1352 1365 1366 1352 1366 1351 1351 1366 1367 1351 1367 1350 1350 1367 1368 1350 1368 1349 1349 1368 1369 1349 1369 1348 1348 1369 1370 1348 1370 1347 1347 1370 1371 1347 1371 1346 1346 1371 273 1346 273 272 1371 951 220 1371 220 273 1370 949 951 1370 951 1371 1369 947 949 1369 949 1370 1368 945 947 1368 947 1369 1367 943 945 1367 945 1368 1366 941 943 1366 943 1367 1365 939 941 1365 941 1366 1364 937 939 1364 939 1365 1363 935 937 1363 937 1364 1362 933 935 1362 935 1363 1361 931 933 1361 933 1362 1360 929 931 1360 931 1361 1359 927 929 1359 929 1360 472 473 927 472 927 1359 207 114 284 207 284 341 284 283 275 284 275 341 288 285 965 288 965 289 285 433 282 285 282 965 292 386 291 292 291 293 391 389 472 391 472 393 389 392 473 389 473 472 296 395 345 296 345 297 299 398 349 299 349 300 304 400 404 304 404 301 400 401 353 400 353 404 307 305 264 307 264 308 311 309 410 311 410 314 318 316 466 318 466 411 316 428 409 316 409 466 322 319 469 322 469 467 319 357 359 319 359 469 467 362 361 467 361 320 413 412 470 413 470 323 412 414 468 412 468 470 325 415 365 325 365 326 329 416 368 329 368 330 418 417 230 418 230 421 417 419 371 417 371 230 335 334 1027 335 1027 422 334 430 228 334 228 1027 339 338 471 339 471 381 184 208 341 184 341 447 355 356 409 355 409 428 360 362 468 360 468 414 373 280 287 373 287 374 377 1372 473 377 473 378 274 290 386 274 386 292 1372 377 294 1372 294 388 388 291 473 388 473 1372 403 404 265 403 265 402 406 264 1257 406 1257 405 408 410 409 408 409 407 423 442 454 423 454 384 1373 374 287 1373 287 425 340 442 281 340 281 425 282 375 431 282 431 373 435 380 180 435 180 434 1374 274 276 1374 276 453 1374 453 444 1374 444 274 444 453 446 444 446 290 457 455 386 457 386 292 464 463 444 464 444 446 180 379 465 180 465 178 109 382 454 109 454 191 317 318 411 317 411 321 327 324 326 327 326 368 331 328 330 331 330 371 396 295 297 396 297 349 399 298 300 399 300 353</p>
                </triangles>
            </mesh>
        </geometry>
    </library_geometries>
    <library_visual_scenes>
        <visual_scene id="VisualSceneNode" name="VisualScene">
            <node id="node" name="node">
                <instance_geometry url="#shape0-lib">
                    <bind_material>
                        <technique_common/>
                    </bind_material>
                </instance_geometry>
            </node>
        </visual_scene>
    </library_visual_scenes>
    <scene>
        <instance_visual_scene url="#VisualSceneNode"/>
    </scene>
</COLLADA>
