<?xml version="1.0" encoding="UTF-8"?>
<COLLADA xmlns="http://www.collada.org/2005/11/COLLADASchema" version="1.4.1">
    <asset>
        <contributor>
            <author>VCGLab</author>
            <authoring_tool>VCGLib | MeshLab</authoring_tool>
        </contributor>
        <up_axis>Y_UP</up_axis>
        <created>Mon Mar 12 16:59:11 2012</created>
        <modified>Mon Mar 12 16:59:11 2012</modified>
    </asset>
    <library_images/>
    <library_materials/>
    <library_effects/>
    <library_geometries>
        <geometry id="shape0-lib" name="shape0">
            <mesh>
                <source id="shape0-lib-positions" name="position">
                    <float_array id="shape0-lib-positions-array" count="3975">-0.08728 -0.018172 0.004291 -0.087252 -0.016968 -0.001718 -0.087131 -0.018156 -0.001835 -0.087363 -0.015825 -0.00137 -0.087459 -0.014771 -0.000804 -0.087537 -0.013847 -4.3e-05 -0.087593 -0.013087 0.000884 -0.087626 -0.012522 0.001942 -0.087635 -0.012172 0.00309 -0.087618 -0.012052 0.004284 -0.087576 -0.012166 0.005478 -0.087512 -0.01251 0.006626 -0.087427 -0.01307 0.007683 -0.087326 -0.013825 0.008611 -0.08721 -0.014745 0.009372 -0.087087 -0.015796 0.009937 -0.086959 -0.016937 0.010285 -0.086832 -0.018125 0.010403 -0.08671 -0.019313 0.010285 -0.086599 -0.020456 0.009937 -0.086503 -0.02151 0.009372 -0.086425 -0.022434 0.008611 -0.086369 -0.023194 0.007683 -0.086336 -0.023759 0.006626 -0.086328 -0.024108 0.005478 -0.086344 -0.024228 0.004284 -0.086386 -0.024114 0.00309 -0.08645 -0.023771 0.001942 -0.086535 -0.023211 0.000884 -0.086637 -0.022456 -4.3e-05 -0.086752 -0.021536 -0.000804 -0.086876 -0.020485 -0.00137 -0.087003 -0.019343 -0.001718 -0.030065 0.022696 -0.049152 -0.030065 0.022696 -0.049152 -0.030065 0.022696 -0.049152 -0.029083 0.011943 -0.054921 -0.030065 0.022696 -0.049152 -0.027951 0.000282 -0.058473 -0.027951 0.000282 -0.058473 -0.027951 0.000282 -0.058473 -0.026713 -0.011838 -0.059673 -0.026713 -0.011838 -0.059673 -0.027951 0.000282 -0.058473 -0.025417 -0.023952 -0.058473 -0.025417 -0.023952 -0.058473 -0.025417 -0.023952 -0.058473 -0.024111 -0.035595 -0.054921 -0.024111 -0.035595 -0.054921 -0.025417 -0.023952 -0.058473 -0.022847 -0.046318 -0.049152 -0.022847 -0.046318 -0.049151 -0.022847 -0.046318 -0.049151 -0.021674 -0.05571 -0.041387 -0.021674 -0.05571 -0.041387 -0.022847 -0.046318 -0.049152 -0.020635 -0.06341 -0.031927 -0.020635 -0.06341 -0.031927 -0.020635 -0.06341 -0.031927 -0.019771 -0.069122 -0.021133 -0.019771 -0.069122 -0.021133 -0.020635 -0.06341 -0.031927 -0.019115 -0.072627 -0.009422 -0.019115 -0.072627 -0.009422 -0.018693 -0.073789 0.002758 -0.018693 -0.073789 0.002758 -0.019115 -0.072627 -0.009422 -0.01852 -0.072565 0.014937 -0.01852 -0.072565 0.014937 -0.018693 -0.073789 0.002758 -0.01852 -0.072565 0.014937 -0.018604 -0.069 0.026649 -0.018603 -0.069 0.026649 -0.01894 -0.063233 0.037442 -0.01894 -0.063233 0.037442 -0.01894 -0.063233 0.037442 -0.018604 -0.069 0.026649 -0.019517 -0.055485 0.046903 -0.019517 -0.055485 0.046903 -0.020311 -0.046053 0.054667 -0.020311 -0.046053 0.054667 -0.020311 -0.046053 0.054667 -0.019517 -0.055485 0.046903 -0.021293 -0.0353 0.060436 -0.021293 -0.0353 0.060436 -0.022425 -0.023639 0.063989 -0.022425 -0.023639 0.063989 -0.022425 -0.023639 0.063989 -0.021293 -0.0353 0.060436 -0.023663 -0.011519 0.065188 -0.023663 -0.011519 0.065189 -0.024959 0.000595 0.063989 -0.024959 0.000595 0.063989 -0.024959 0.000595 0.063989 -0.023663 -0.011519 0.065188 -0.027528 0.022961 0.054667 -0.026393 0.013327 0.05985 -0.027528 0.022961 0.054667 -0.027528 0.022961 0.054667 -0.026264 0.012238 0.060436 -0.029741 0.040053 0.037443 -0.028906 0.033866 0.045044 -0.029741 0.040053 0.037443 -0.029741 0.040054 0.037442 -0.028702 0.032353 0.046903 -0.031261 0.04927 0.014938 -0.030782 0.046714 0.02348 -0.031261 0.04927 0.014938 -0.031261 0.04927 0.014937 -0.030605 0.045766 0.026649 -0.031856 0.049208 -0.009421 -0.031736 0.050055 -0.001 -0.031856 0.049208 -0.009421 -0.031856 0.049208 -0.009422 -0.031683 0.050432 0.002758 -0.031436 0.039877 -0.031926 -0.031639 0.043354 -0.025418 -0.031436 0.039877 -0.031927 -0.031436 0.039876 -0.031927 -0.031772 0.045644 -0.021133 -0.029083 0.011943 -0.054921 -0.029082 0.011943 -0.054921 -0.029083 0.011943 -0.054921 -0.02771 0.024418 0.053463 -0.027528 0.022961 0.054667 0.017772 0.027698 0.053548 -0.021431 0.023431 0.054267 -0.029962 0.041516 0.034678 -0.029741 0.040054 0.037442 0.015559 0.044791 0.036324 -0.023633 0.040441 0.037125 -0.031389 0.049623 0.011238 -0.03126 0.04927 0.014937 0.01404 0.054007 0.013819 -0.025145 0.049613 0.014728 -0.031855 0.049208 -0.009422 -0.031825 0.047913 -0.013676 0.013444 0.053945 -0.010541 -0.025738 0.049551 -0.009514 -0.030859 0.032128 -0.041387 -0.030859 0.032128 -0.041387 -0.030859 0.032128 -0.041388 -0.030859 0.032128 -0.041387 -0.029083 0.011943 -0.054921 -0.030064 0.022696 -0.049152 -0.030064 0.022696 -0.049152 -0.026713 -0.011838 -0.059673 -0.027951 0.000282 -0.058473 -0.027951 0.000282 -0.058473 0.016218 0.01668 -0.05604 -0.026713 -0.011838 -0.059673 -0.024111 -0.035595 -0.054921 -0.024111 -0.035595 -0.054921 -0.022847 -0.046318 -0.049152 -0.021674 -0.05571 -0.041387 -0.021674 -0.05571 -0.041387 -0.020635 -0.06341 -0.031927 -0.019771 -0.069122 -0.021133 -0.019771 -0.069122 -0.021133 -0.018693 -0.073789 0.002758 -0.01852 -0.072565 0.014937 -0.01894 -0.063233 0.037442 -0.020311 -0.046053 0.054667 -0.022425 -0.023639 0.063989 -0.026264 0.012238 0.060436 -0.026264 0.012237 0.060436 -0.026264 0.012238 0.060436 -0.028702 0.032353 0.046903 0.016598 0.037091 0.045784 -0.022599 0.032778 0.04654 -0.030605 0.045766 0.026649 0.014695 0.050503 0.02553 -0.024493 0.046125 0.026384 -0.031683 0.050433 0.002758 0.013617 0.05517 0.001639 -0.025566 0.05077 0.002607 0.013528 0.050381 -0.022252 -0.031772 0.045644 -0.021133 -0.031772 0.045644 -0.021133 -0.025655 0.046004 -0.021169 -0.02939 0.015311 -0.053114 -0.027528 0.022961 0.054667 -0.029741 0.040053 0.037442 -0.031261 0.04927 0.014938 -0.031856 0.049208 -0.009422 -0.031435 0.039876 -0.031927 0.013865 0.044613 -0.033046 -0.030859 0.032128 -0.041387 -0.031436 0.039876 -0.031927 -0.030859 0.032128 -0.041388 -0.028328 0.004169 -0.057289 -0.027951 0.000283 -0.058473 -0.026264 0.012238 0.060436 0.019036 0.016975 0.059317 -0.020173 0.012759 0.060008 -0.028702 0.032353 0.046903 -0.028702 0.032353 0.046903 -0.028702 0.032353 0.046903 -0.030605 0.045766 0.026649 -0.030605 0.045765 0.026649 -0.030605 0.045765 0.026649 -0.031683 0.050432 0.002758 -0.031683 0.050432 0.002758 -0.031683 0.050433 0.002758 -0.031772 0.045644 -0.021133 -0.031772 0.045644 -0.021133 -0.031436 0.039876 -0.031927 -0.030064 0.022696 -0.049151 -0.030234 0.024704 -0.047498 -0.030254 0.024946 -0.0473 -0.030064 0.022696 -0.049152 -0.028422 0.005136 -0.056995 -0.018604 -0.069 0.026649 -0.019517 -0.055485 0.046903 -0.021293 -0.0353 0.060436 -0.023663 -0.011519 0.065188 -0.024959 0.000595 0.063989 0.081635 0.000693 -0.005889 0.082205 -0.000448 0.000106 0.081756 -0.000495 -0.006006 0.081524 0.001836 -0.005541 0.081428 0.00289 -0.004975 0.08135 0.003815 -0.004214 0.081293 0.004574 -0.003287 0.08126 0.005139 -0.002229 0.081252 0.005489 -0.001081 0.081269 0.005609 0.000113 0.08131 0.005495 0.001307 0.081375 0.005151 0.002455 0.081459 0.004591 0.003513 0.081561 0.003837 0.00444 0.081676 0.002916 0.005201 0.0818 0.001865 0.005766 0.081928 0.000724 0.006115 0.082055 -0.000464 0.006232 0.082176 -0.001652 0.006115 0.082287 -0.002795 0.005766 0.082384 -0.003848 0.005201 0.082461 -0.004773 0.00444 0.082518 -0.005532 0.003513 0.082551 -0.006098 0.002455 0.082559 -0.006447 0.001307 0.082542 -0.006567 0.000113 0.082501 -0.006453 -0.001081 0.082437 -0.00611 -0.002229 0.02007 -0.068233 -0.010332 0.019417 -0.064745 -0.021987 0.02553 -0.064385 -0.022252 0.082352 -0.00555 -0.003287 0.08225 -0.004795 -0.004214 0.082135 -0.003874 -0.004975 0.082011 -0.002823 -0.005541 0.022453 -0.041581 -0.05027 0.016355 -0.04205 -0.04987 0.021189 -0.030857 -0.056039 0.081883 -0.001682 -0.005889 0.014441 0.036865 -0.042506 0.014441 0.036865 -0.042506 0.014441 0.036865 -0.042506 0.013528 0.050381 -0.022252 0.013528 0.050381 -0.022252 0.013528 0.050381 -0.022252 0.017349 0.00502 -0.059592 0.017349 0.00502 -0.059592 0.017349 0.00502 -0.059592 0.018587 -0.007101 -0.060792 0.019884 -0.019215 -0.059592 0.019884 -0.019215 -0.059592 0.019884 -0.019215 -0.059592 0.02636 -0.058496 0.036324 0.02636 -0.058496 0.036324 0.026697 -0.064263 0.02553 0.02636 -0.058496 0.036324 0.024989 -0.041316 0.053548 0.024989 -0.041315 0.053548 0.025784 -0.050747 0.045784 0.024989 -0.041315 0.053548 0.022875 -0.018902 0.06287 0.022875 -0.018902 0.06287 0.024007 -0.030563 0.059318 0.022875 -0.018902 0.06287 0.019036 0.016975 0.059318 0.019036 0.016975 0.059318 0.019036 0.016975 0.059318 0.020341 0.005333 0.06287 0.013528 0.050381 -0.022252 0.013803 0.04566 -0.031087 0.013528 0.050381 -0.022252 0.021189 -0.030857 -0.056039 0.021189 -0.030857 -0.056039 0.021189 -0.030857 -0.05604 0.02727 -0.030106 -0.055912 0.016218 0.01668 -0.056039 0.016218 0.01668 -0.056039 0.022323 0.017203 -0.055912 0.023627 -0.050973 -0.042506 0.023627 -0.050973 -0.042506 0.023627 -0.050973 -0.042506 0.02553 -0.064385 -0.022252 0.02553 -0.064385 -0.022252 0.02553 -0.064385 -0.022252 0.026608 -0.069052 0.001639 0.026608 -0.069052 0.001639 0.026608 -0.069052 0.001639 0.026697 -0.064263 0.02553 0.026697 -0.064263 0.02553 0.032751 -0.063351 0.025265 0.025784 -0.050747 0.045784 0.025784 -0.050747 0.045784 0.031842 -0.0499 0.045421 0.024007 -0.030563 0.059318 0.024007 -0.030563 0.059318 0.030074 -0.029812 0.058889 0.021638 -0.006782 0.06407 0.021638 -0.006782 0.06407 0.021638 -0.006782 0.06407 0.027716 -0.006146 0.063619 0.019036 0.016975 0.059317 0.025127 0.017496 0.058889 0.019036 0.016975 0.059317 0.019036 0.016975 0.059317 0.016598 0.037091 0.045784 0.016598 0.037091 0.045784 0.014695 0.050503 0.02553 0.014695 0.050503 0.02553 0.013617 0.05517 0.001639 0.013617 0.05517 0.001639 0.018587 -0.007101 -0.060792 0.018587 -0.007101 -0.060792 0.018587 -0.007101 -0.060792 0.013528 0.050381 -0.022252 0.015236 0.027433 -0.05027 0.021345 0.027904 -0.050171 0.015236 0.027433 -0.05027 0.015236 0.027433 -0.05027 0.015236 0.027433 -0.05027 0.021189 -0.030857 -0.056039 0.023627 -0.050973 -0.042506 0.029696 -0.050124 -0.042444 0.024666 -0.058673 -0.033046 0.024666 -0.058673 -0.033046 0.024666 -0.058673 -0.033046 0.024666 -0.058673 -0.033046 0.02553 -0.064385 -0.022252 0.03159 -0.063472 -0.022287 0.026185 -0.06789 -0.010541 0.026185 -0.06789 -0.010541 0.026185 -0.06789 -0.010541 0.026185 -0.06789 -0.010541 0.02678 -0.067827 0.013819 0.02678 -0.067828 0.013819 0.02678 -0.067827 0.013819 0.02678 -0.067827 0.013819 0.017772 0.027698 0.053548 0.017772 0.027698 0.053548 0.017772 0.027698 0.053548 0.015559 0.044791 0.036324 0.015559 0.044791 0.036324 0.015559 0.044791 0.036324 0.01404 0.054007 0.013819 0.01404 0.054007 0.013819 0.01404 0.054007 0.013819 0.013444 0.053945 -0.010541 0.013444 0.053945 -0.010541 0.013444 0.053945 -0.010541 0.013519 0.050759 -0.021011 0.013865 0.044614 -0.033046 0.013865 0.044614 -0.033046 0.019981 0.045002 -0.033029 0.013518 0.050809 -0.020845 0.013518 0.050803 -0.020864 0.013803 0.045668 -0.031072 0.013864 0.044614 -0.033046 0.013865 0.044614 -0.033046 0.013865 0.044613 -0.033046 0.013799 0.045739 -0.03094 0.0138 0.045714 -0.030985 0.013798 0.045756 -0.030908 0.013799 0.045738 -0.030942 0.013799 0.045738 -0.030942 0.013798 0.045755 -0.030909 0.0138 0.045727 -0.030962 0.0138 0.045714 -0.030985 0.0138 0.045727 -0.030962 0.013799 0.045738 -0.030942 0.013799 0.045738 -0.030942 0.013799 0.045738 -0.030942 0.013799 0.045738 -0.030941 0.013799 0.045733 -0.030951 0.013798 0.045754 -0.03091 0.013799 0.045733 -0.030951 0.013798 0.045754 -0.03091 0.013799 0.045733 -0.030951 0.013799 0.045733 -0.030951 0.0138 0.045727 -0.030962 0.013799 0.045733 -0.030951 0.013799 0.045733 -0.030951 0.013799 0.045738 -0.030941 0.013799 0.045738 -0.030941 0.013799 0.045738 -0.030941 0.013799 0.045738 -0.030941 0.013799 0.045738 -0.030941 0.013799 0.045738 -0.030941 0.013799 0.045738 -0.030941 0.013799 0.045738 -0.030941 0.013799 0.045738 -0.030941 0.013799 0.045738 -0.030941 0.013799 0.045738 -0.030941 0.013799 0.045738 -0.030941 0.013799 0.045738 -0.030941 0.013865 0.044614 -0.033046 0.022453 -0.041581 -0.05027 0.022453 -0.041581 -0.05027 0.03073 -0.057788 -0.033029 0.026608 -0.069052 0.001639 0.032662 -0.068117 0.001489 0.032242 -0.06696 -0.010632 0.026697 -0.064263 0.02553 0.032834 -0.066898 0.01361 0.025784 -0.050747 0.045784 0.032416 -0.057611 0.036006 0.024007 -0.030563 0.059317 0.031052 -0.040514 0.053148 0.021638 -0.006782 0.06407 0.028948 -0.018208 0.062425 0.016598 0.037091 0.045784 0.022701 0.037515 0.045421 0.023869 0.028168 0.053148 0.014695 0.050503 0.02553 0.020807 0.050863 0.025265 0.021667 0.045178 0.036006 0.013617 0.05517 0.001639 0.019735 0.055507 0.001489 0.020155 0.05435 0.01361 0.021189 -0.030857 -0.056039 0.020555 0.037291 -0.042444 0.014441 0.036865 -0.042506 0.020341 0.005332 0.06287 0.015236 0.027433 -0.05027 0.020341 0.005333 0.06287 -0.086626 -0.015713 -0.007684 -0.086385 -0.018078 -0.007918 -0.085408 -0.01442 -0.013549 -0.085049 -0.017938 -0.013897 -0.083611 -0.0131 -0.019258 -0.083137 -0.017738 -0.019717 -0.081251 -0.011767 -0.024754 -0.080667 -0.01748 -0.025319 -0.078351 -0.010432 -0.029985 -0.077663 -0.017166 -0.030652 -0.074939 -0.00911 -0.034902 -0.074153 -0.016799 -0.035662 -0.071047 -0.007812 -0.039455 -0.070172 -0.016383 -0.040303 -0.066715 -0.006552 -0.043602 -0.065758 -0.015921 -0.044529 -0.061982 -0.005341 -0.047302 -0.060953 -0.015418 -0.0483 -0.056895 -0.004191 -0.05052 -0.055803 -0.01488 -0.051578 -0.051502 -0.003113 -0.053226 -0.050359 -0.014311 -0.054334 -0.045856 -0.002118 -0.055392 -0.044672 -0.013716 -0.05654 -0.040011 -0.001214 -0.056998 -0.038797 -0.013102 -0.058174 -0.034024 -0.000412 -0.058028 -0.032792 -0.012474 -0.059222 -0.03515 0.011193 -0.054493 -0.041121 0.010222 -0.053513 -0.046939 0.009041 -0.051992 -0.052548 0.00766 -0.049943 -0.057893 0.006093 -0.047387 -0.062923 0.004355 -0.044348 -0.067589 0.002462 -0.040856 -0.071848 0.000433 -0.036943 -0.075657 -0.001712 -0.032648 -0.078979 -0.003954 -0.028012 -0.081784 -0.00627 -0.023079 -0.084044 -0.008638 -0.017898 -0.085737 -0.011035 -0.012518 -0.086847 -0.013439 -0.006991 -0.087038 -0.011341 -0.005865 -0.086022 -0.007914 -0.010843 -0.08442 -0.004523 -0.01569 -0.082247 -0.001201 -0.02036 -0.079525 0.00202 -0.024806 -0.07628 0.005109 -0.028988 -0.072542 0.008037 -0.032863 -0.068348 0.010774 -0.036396 -0.063739 0.013295 -0.039551 -0.058759 0.015576 -0.042299 -0.053455 0.017595 -0.044613 -0.047879 0.019331 -0.046471 -0.042084 0.020769 -0.047855 -0.036127 0.021894 -0.048751 -0.036918 0.03128 -0.041025 -0.042864 0.030019 -0.04024 -0.048639 0.028357 -0.039041 -0.054189 0.026308 -0.03744 -0.05946 0.023894 -0.035452 -0.0644 0.021138 -0.033096 -0.068963 0.018065 -0.030394 -0.073104 0.014706 -0.027373 -0.076784 0.011093 -0.024062 -0.079966 0.00726 -0.020493 -0.082622 0.003245 -0.0167 -0.084724 -0.000913 -0.012719 -0.086253 -0.005176 -0.00859 -0.087193 -0.009501 -0.004351 -0.087306 -0.007989 -0.002505 -0.08642 -0.002927 -0.005843 -0.084945 0.002052 -0.009099 -0.082894 0.006898 -0.01224 -0.080287 0.011565 -0.015237 -0.077149 0.016008 -0.018061 -0.073512 0.020185 -0.020684 -0.069408 0.024055 -0.023081 -0.064879 0.02758 -0.02523 -0.059968 0.030728 -0.027109 -0.054722 0.033467 -0.0287 -0.049191 0.035772 -0.029988 -0.043429 0.037619 -0.030961 -0.037492 0.038992 -0.03161 -0.037827 0.044731 -0.020868 -0.043759 0.043275 -0.020375 -0.049513 0.04129 -0.01966 -0.055033 0.038795 -0.018728 -0.060265 0.035814 -0.01759 -0.065159 0.032376 -0.016255 -0.069669 0.028513 -0.014738 -0.07375 0.024263 -0.013052 -0.077363 0.019667 -0.011213 -0.080474 0.014769 -0.00924 -0.083052 0.009616 -0.007152 -0.085073 0.004259 -0.004968 -0.086518 -0.001252 -0.00271 -0.087372 -0.006864 -0.000399 -0.087388 -0.006169 0.001886 -0.086542 -0.000218 0.00069 -0.085105 0.005623 -0.000486 -0.083092 0.011297 -0.001631 -0.08052 0.016749 -0.002734 -0.077416 0.021928 -0.003784 -0.073809 0.026783 -0.00477 -0.069733 0.031268 -0.005684 -0.065229 0.035339 -0.006517 -0.060339 0.038958 -0.007261 -0.05511 0.042088 -0.007908 -0.049593 0.044701 -0.008452 -0.043841 0.046771 -0.008889 -0.03791 0.048278 -0.009213 -0.037738 0.049497 0.002908 -0.043672 0.047972 0.003057 -0.049428 0.045873 0.003203 -0.05495 0.04322 0.003345 -0.060186 0.040038 0.003481 -0.065085 0.036357 0.00361 -0.0696 0.032215 0.003731 -0.073686 0.027649 0.003842 -0.077306 0.022705 0.003943 -0.080424 0.01743 0.004033 -0.08301 0.011874 0.00411 -0.085039 0.006091 0.004174 -0.086492 0.000138 0.004225 -0.087354 -0.00593 0.004262 -0.087272 -0.006156 0.006638 -0.086369 -0.0002 0.007761 -0.084878 0.005647 0.008835 -0.082811 0.011326 0.009852 -0.08019 0.016784 0.010799 -0.077038 0.021968 0.01167 -0.073388 0.026827 0.012454 -0.069273 0.031316 0.013146 -0.064734 0.035391 0.013737 -0.059814 0.039013 0.014222 -0.05456 0.042146 0.014597 -0.049024 0.044761 0.014858 -0.043258 0.046832 0.015003 -0.037318 0.04834 0.015029 -0.036665 0.044853 0.026684 -0.042615 0.043395 0.026489 -0.048396 0.041407 0.026065 -0.053954 0.038908 0.025417 -0.059235 0.035922 0.024551 -0.064189 0.032477 0.023474 -0.068766 0.028607 0.022199 -0.072924 0.024349 0.020736 -0.076622 0.019744 0.0191 -0.079825 0.014837 0.017306 -0.082502 0.009674 0.015372 -0.084627 0.004305 0.013317 -0.086179 -0.001217 0.01116 -0.087144 -0.00684 0.008923 -0.086975 -0.007954 0.011028 -0.085928 -0.002875 0.014294 -0.084296 0.00212 0.017448 -0.082095 0.006981 0.02046 -0.079345 0.011663 0.023303 -0.076074 0.016121 0.025947 -0.072313 0.02031 0.028368 -0.068098 0.024192 0.030542 -0.06347 0.027728 0.032449 -0.058474 0.030884 0.03407 -0.053156 0.033631 0.035389 -0.047569 0.035941 0.036394 -0.041767 0.037793 0.037075 -0.035805 0.039168 0.037426 -0.034771 0.031505 0.046841 -0.040748 0.030241 0.046354 -0.046575 0.028573 0.045447 -0.052196 0.026517 0.044129 -0.057557 0.024093 0.042413 -0.062607 0.021325 0.040315 -0.067295 0.018239 0.037855 -0.071579 0.014865 0.035057 -0.075415 0.011236 0.031949 -0.078768 0.007385 0.028558 -0.081605 0.003352 0.02492 -0.083898 -0.000827 0.021068 -0.085627 -0.00511 0.01704 -0.086773 -0.009457 0.012874 -0.086544 -0.011289 0.014389 -0.085286 -0.007837 0.019294 -0.083449 -0.004421 0.024039 -0.081052 -0.001076 0.02858 -0.078116 0.002167 0.032872 -0.074671 0.005277 0.036874 -0.070749 0.008224 0.040547 -0.066388 0.010979 0.043857 -0.06163 0.013516 0.046771 -0.056522 0.01581 0.04926 -0.051112 0.01784 0.051302 -0.045452 0.019585 0.052877 -0.039597 0.021029 0.053969 -0.033603 0.022158 0.054567 -0.032345 0.011486 0.060309 -0.038357 0.010511 0.059627 -0.044243 0.009323 0.058398 -0.049944 0.007932 0.056633 -0.055407 0.006353 0.054348 -0.06058 0.0046 0.051568 -0.065411 0.00269 0.048317 -0.069855 0.000641 0.044627 -0.073869 -0.001525 0.040534 -0.077414 -0.00379 0.036077 -0.080456 -0.006131 0.0313 -0.082966 -0.008525 0.026247 -0.084919 -0.01095 0.020968 -0.086297 -0.013381 0.015514 -0.086042 -0.015652 0.016207 -0.08454 -0.014329 0.022 -0.082466 -0.01298 0.027607 -0.079841 -0.011619 0.032974 -0.076689 -0.010258 0.038051 -0.073041 -0.008911 0.042788 -0.068932 -0.007591 0.047139 -0.064402 -0.00631 0.051063 -0.059494 -0.005081 0.054522 -0.054256 -0.003915 0.057482 -0.048738 -0.002824 0.059915 -0.042994 -0.001818 0.061797 -0.037077 -0.000907 0.063112 -0.031046 -0.0001 0.063844 -0.029756 -0.012156 0.065038 -0.035806 -0.012789 0.064288 -0.041753 -0.013411 0.062945 -0.047541 -0.014016 0.061023 -0.053113 -0.014599 0.05854 -0.058416 -0.015153 0.055519 -0.0634 -0.015674 0.05199 -0.068015 -0.016157 0.047987 -0.072218 -0.016597 0.043549 -0.075968 -0.016989 0.038717 -0.079229 -0.01733 0.03354 -0.08197 -0.017616 0.028066 -0.084164 -0.017846 0.022348 -0.085789 -0.018016 0.016441 -0.085548 -0.02038 0.016207 -0.083804 -0.021364 0.022 -0.081496 -0.022255 0.027607 -0.078646 -0.023043 0.032974 -0.075281 -0.023722 0.038051 -0.071433 -0.024286 0.042788 -0.06714 -0.024727 0.047139 -0.062443 -0.025043 0.051063 -0.057387 -0.025231 0.054522 -0.052021 -0.025288 0.057482 -0.046397 -0.025214 0.059915 -0.040568 -0.025009 0.061797 -0.034592 -0.024676 0.063112 -0.028524 -0.024218 0.063844 -0.027398 -0.035823 0.060309 -0.033482 -0.036113 0.059627 -0.039485 -0.036168 0.058398 -0.045351 -0.035987 0.056633 -0.051023 -0.035572 0.054348 -0.056446 -0.034926 0.051568 -0.061568 -0.034057 0.048317 -0.06634 -0.032973 0.044627 -0.070715 -0.031683 0.040534 -0.074652 -0.030201 0.036077 -0.078112 -0.02854 0.0313 -0.081063 -0.026717 0.026247 -0.083476 -0.024749 0.020968 -0.085327 -0.022655 0.015514 -0.085136 -0.024753 0.014389 -0.083191 -0.02787 0.019294 -0.080687 -0.030832 0.024039 -0.07765 -0.033609 0.02858 -0.074106 -0.036175 0.032872 -0.070092 -0.038505 0.036874 -0.065645 -0.040576 0.040547 -0.060809 -0.042369 0.043857 -0.05563 -0.043867 0.046771 -0.050157 -0.045055 0.04926 -0.044444 -0.045921 0.051302 -0.038546 -0.046457 0.052877 -0.032519 -0.046659 0.053969 -0.026421 -0.046524 0.054567 -0.02563 -0.05591 0.046841 -0.031739 -0.05591 0.046354 -0.037785 -0.055483 0.045447 -0.04371 -0.054635 0.044129 -0.049456 -0.053373 0.042413 -0.054969 -0.051709 0.040315 -0.060195 -0.04966 0.037855 -0.065084 -0.047245 0.035057 -0.069588 -0.044488 0.031948 -0.073665 -0.041415 0.028558 -0.077275 -0.038055 0.02492 -0.080383 -0.034441 0.021068 -0.08296 -0.030608 0.01704 -0.084981 -0.026593 0.012874 -0.084868 -0.028105 0.011028 -0.082793 -0.032858 0.014294 -0.080163 -0.037406 0.017448 -0.077003 -0.041708 0.02046 -0.073345 -0.04572 0.023302 -0.069222 -0.049404 0.025947 -0.064676 -0.052724 0.028368 -0.059749 -0.05565 0.030542 -0.05449 -0.058152 0.032449 -0.048948 -0.060206 0.03407 -0.043177 -0.061794 0.035389 -0.037233 -0.062898 0.036394 -0.031174 -0.063509 0.037075 -0.025056 -0.063621 0.037426 -0.024721 -0.069361 0.026684 -0.030844 -0.069166 0.026489 -0.036911 -0.068417 0.026065 -0.042866 -0.067122 0.025417 -0.048651 -0.065293 0.024551 -0.05421 -0.062947 0.023474 -0.059489 -0.060108 0.022199 -0.064438 -0.056803 0.020736 -0.069009 -0.053062 0.0191 -0.073158 -0.048924 0.017306 -0.076844 -0.044426 0.015372 -0.080034 -0.039613 0.013317 -0.082695 -0.034532 0.01116 -0.084802 -0.02923 0.008923 -0.084786 -0.029925 0.006638 -0.082671 -0.035566 0.007761 -0.080002 -0.040978 0.008835 -0.076805 -0.046106 0.009852 -0.073111 -0.050904 0.010799 -0.068956 -0.055324 0.01167 -0.064379 -0.059323 0.012454 -0.059424 -0.062863 0.013146 -0.05414 -0.065911 0.013737 -0.048577 -0.068436 0.014222 -0.042789 -0.070415 0.014597 -0.036832 -0.071828 0.014858 -0.030762 -0.072662 0.015002 -0.024638 -0.072908 0.015029 -0.02481 -0.074127 0.002908 -0.030931 -0.073863 0.003057 -0.036997 -0.073 0.003203 -0.042949 -0.071546 0.003345 -0.04873 -0.069516 0.003481 -0.054284 -0.066929 0.00361 -0.059558 -0.06381 0.003731 -0.064501 -0.060189 0.003842 -0.069065 -0.0561 0.003943 -0.073207 -0.051584 0.004033 -0.076887 -0.046684 0.00411 -0.080068 -0.041446 0.004174 -0.082721 -0.035922 0.004225 -0.08482 -0.030164 0.004262 -0.084902 -0.029937 0.001886 -0.082844 -0.035584 0.00069 -0.08023 -0.041001 -0.000486 -0.077086 -0.046136 -0.001631 -0.073442 -0.050938 -0.002734 -0.069333 -0.055363 -0.003784 -0.0648 -0.059367 -0.00477 -0.059884 -0.062912 -0.005684 -0.054635 -0.065963 -0.006517 -0.049102 -0.068491 -0.007261 -0.043339 -0.070472 -0.007908 -0.037401 -0.071887 -0.008452 -0.031345 -0.072723 -0.008889 -0.02523 -0.07297 -0.009213 -0.025883 -0.069482 -0.020868 -0.031988 -0.069285 -0.020375 -0.038028 -0.068534 -0.01966 -0.043945 -0.067235 -0.018728 -0.04968 -0.0654 -0.01759 -0.05518 -0.063049 -0.016255 -0.060391 -0.060202 -0.014738 -0.065263 -0.056889 -0.013052 -0.069749 -0.05314 -0.011213 -0.073806 -0.048991 -0.00924 -0.077395 -0.044484 -0.007152 -0.080481 -0.03966 -0.004968 -0.083034 -0.034567 -0.00271 -0.08503 -0.029254 -0.000399 -0.085199 -0.028139 -0.002505 -0.083285 -0.032909 -0.005843 -0.080811 -0.037474 -0.009099 -0.077802 -0.041791 -0.01224 -0.074286 -0.045818 -0.015237 -0.070297 -0.049516 -0.018061 -0.065874 -0.05285 -0.020684 -0.061059 -0.055787 -0.023081 -0.055899 -0.058299 -0.02523 -0.050442 -0.060363 -0.027109 -0.044743 -0.061957 -0.0287 -0.038855 -0.063068 -0.029988 -0.032836 -0.063683 -0.030961 -0.026743 -0.063798 -0.03161 -0.027777 -0.056135 -0.041025 -0.033855 -0.056131 -0.04024 -0.039849 -0.055699 -0.039041 -0.045703 -0.054843 -0.03744 -0.051359 -0.053572 -0.035452 -0.056762 -0.051897 -0.033096 -0.061862 -0.049835 -0.030394 -0.066609 -0.047405 -0.027373 -0.070956 -0.044631 -0.024062 -0.074863 -0.04154 -0.020493 -0.078292 -0.038161 -0.0167 -0.081209 -0.034528 -0.012719 -0.083586 -0.030674 -0.008589 -0.085401 -0.026637 -0.004351 -0.08563 -0.024805 -0.005865 -0.083927 -0.027947 -0.010843 -0.081658 -0.030933 -0.01569 -0.078845 -0.033734 -0.02036 -0.075515 -0.036322 -0.024806 -0.071701 -0.038673 -0.028988 -0.067439 -0.040764 -0.032863 -0.06277 -0.042574 -0.036396 -0.057738 -0.044088 -0.039551 -0.052394 -0.045289 -0.042299 -0.046787 -0.046166 -0.044613 -0.040973 -0.046711 -0.046471 -0.035006 -0.046919 -0.047855 -0.028945 -0.046788 -0.048751 -0.030203 -0.036116 -0.054493 -0.036246 -0.036402 -0.053513 -0.042182 -0.03645 -0.051992 -0.047955 -0.036259 -0.049943 -0.053509 -0.035831 -0.047387 -0.058789 -0.035171 -0.044348 -0.063747 -0.034285 -0.040855 -0.068332 -0.033181 -0.036943 -0.072503 -0.03187 -0.032648 -0.076218 -0.030364 -0.028012 -0.079441 -0.028679 -0.023079 -0.082142 -0.02683 -0.017898 -0.084294 -0.024835 -0.012518 -0.085877 -0.022713 -0.006991 -0.086132 -0.020441 -0.007684 -0.084673 -0.021455 -0.013549 -0.082641 -0.022374 -0.019258 -0.080056 -0.023191 -0.024754 -0.076943 -0.023896 -0.029985 -0.073331 -0.024484 -0.034901 -0.069255 -0.024949 -0.039455 -0.064756 -0.025285 -0.043602 -0.059875 -0.025491 -0.047302 -0.05466 -0.025564 -0.05052 -0.049161 -0.025503 -0.053226 -0.043431 -0.025308 -0.055392 -0.037526 -0.024983 -0.056998 -0.031502 -0.024529 -0.058028 0.024681 -0.006463 -0.060641 0.023449 0.005598 -0.059448 0.029516 0.006057 -0.058715 0.03073 -0.005831 -0.059891 0.035493 0.006389 -0.057401 0.036677 -0.005209 -0.058549 0.041321 0.006594 -0.055518 0.042465 -0.004604 -0.056626 0.046946 0.006668 -0.053085 0.048037 -0.004021 -0.054143 0.052312 0.006611 -0.050125 0.053341 -0.003466 -0.051122 0.057367 0.006424 -0.046666 0.058324 -0.002945 -0.047593 0.062064 0.006108 -0.042742 0.06294 -0.002463 -0.04359 0.066358 0.005666 -0.038391 0.067143 -0.002023 -0.039152 0.070205 0.005103 -0.033654 0.070893 -0.001631 -0.034321 0.07357 0.004424 -0.028578 0.074154 -0.00129 -0.029143 0.076421 0.003635 -0.02321 0.076894 -0.001003 -0.023669 0.078729 0.002744 -0.017603 0.079088 -0.000774 -0.017951 0.080472 0.001761 -0.011811 0.080714 -0.000604 -0.012045 0.080252 0.004036 -0.011117 0.0784 0.006129 -0.016572 0.075988 0.008097 -0.02185 0.073037 0.00992 -0.026903 0.069576 0.011581 -0.03168 0.06564 0.013063 -0.036137 0.061264 0.014353 -0.04023 0.056493 0.015438 -0.04392 0.051371 0.016307 -0.047171 0.045948 0.016952 -0.049952 0.040276 0.017367 -0.052236 0.03441 0.017548 -0.054001 0.028406 0.017493 -0.05523 0.027443 0.028039 -0.049572 0.03347 0.027838 -0.04848 0.039369 0.027301 -0.046906 0.045082 0.026435 -0.044864 0.050554 0.025248 -0.042374 0.055734 0.02375 -0.03946 0.06057 0.021957 -0.036151 0.065017 0.019885 -0.032477 0.069031 0.017555 -0.028475 0.072574 0.014989 -0.024183 0.075612 0.012212 -0.019643 0.078115 0.009251 -0.014897 0.08006 0.006133 -0.009992 0.079905 0.007973 -0.008477 0.077885 0.011989 -0.012643 0.075308 0.015822 -0.016671 0.072199 0.019435 -0.020523 0.068589 0.022795 -0.024162 0.064513 0.025869 -0.027552 0.060008 0.028626 -0.030661 0.055119 0.031041 -0.033458 0.049894 0.03309 -0.035918 0.044381 0.034753 -0.038016 0.038635 0.036015 -0.039733 0.03271 0.036864 -0.04105 0.026664 0.03729 -0.041957 0.026098 0.04489 -0.032678 0.032158 0.044279 -0.031997 0.038102 0.043174 -0.030992 0.043872 0.041587 -0.029673 0.049414 0.039532 -0.028052 0.054674 0.03703 -0.026145 0.0596 0.034105 -0.023971 0.064147 0.030784 -0.02155 0.068269 0.0271 -0.018906 0.071928 0.023088 -0.016064 0.075087 0.018787 -0.013051 0.077717 0.014238 -0.009897 0.079793 0.009485 -0.006632 0.079727 0.01061 -0.004526 0.07762 0.015912 -0.006764 0.074958 0.020994 -0.00892 0.071769 0.025807 -0.010976 0.068082 0.030304 -0.012909 0.063933 0.034443 -0.014703 0.059362 0.038183 -0.016339 0.054413 0.041489 -0.017802 0.049134 0.044328 -0.019078 0.043576 0.046673 -0.020154 0.037791 0.048502 -0.02102 0.031836 0.049797 -0.021669 0.025768 0.050546 -0.022092 0.019646 0.050741 -0.022287 0.019563 0.054288 -0.010632 0.025686 0.054042 -0.010606 0.031756 0.053208 -0.010461 0.037714 0.051795 -0.0102 0.043502 0.049817 -0.009825 0.049065 0.047291 -0.00934 0.054349 0.044244 -0.008749 0.059303 0.040703 -0.008058 0.06388 0.036704 -0.007273 0.068036 0.032284 -0.006403 0.07173 0.027487 -0.005455 0.074926 0.022358 -0.004439 0.077595 0.016947 -0.003364 0.079711 0.011306 -0.002241 0.079744 0.011545 0.000135 0.077645 0.017302 0.000172 0.074992 0.022827 0.000222 0.071811 0.028064 0.000287 0.068132 0.032965 0.000364 0.06399 0.037481 0.000454 0.059425 0.041569 0.000555 0.054482 0.04519 0.000666 0.049208 0.04831 0.000787 0.043654 0.050897 0.000916 0.037873 0.052927 0.001052 0.031921 0.05438 0.001194 0.025856 0.055243 0.00134 0.02627 0.054103 0.013285 0.032325 0.053268 0.012849 0.038263 0.051853 0.012305 0.044027 0.049872 0.011658 0.04956 0.047343 0.010914 0.054809 0.044292 0.010081 0.059724 0.040747 0.009167 0.064258 0.036744 0.00818 0.068366 0.032319 0.007131 0.07201 0.027516 0.006028 0.075154 0.022382 0.004883 0.077768 0.016965 0.003707 0.079827 0.011318 0.002511 0.079955 0.010634 0.004796 0.077958 0.015948 0.007107 0.075405 0.021041 0.009365 0.072319 0.025864 0.011549 0.068731 0.030372 0.013637 0.064674 0.03452 0.01561 0.060188 0.038269 0.017448 0.055316 0.041583 0.019134 0.050105 0.044429 0.020652 0.044605 0.046781 0.021986 0.038869 0.048615 0.023125 0.032953 0.049914 0.024056 0.026913 0.050666 0.024772 0.02776 0.045064 0.035358 0.03378 0.044448 0.034385 0.039667 0.043338 0.033097 0.045367 0.041743 0.031505 0.050823 0.03968 0.029626 0.055984 0.037167 0.027478 0.060799 0.03423 0.02508 0.065222 0.030897 0.022457 0.069211 0.027198 0.019634 0.072726 0.023172 0.016637 0.075736 0.018855 0.013496 0.078209 0.014289 0.01024 0.080123 0.00952 0.006902 0.080326 0.008017 0.008747 0.078511 0.012054 0.012986 0.076133 0.015908 0.017116 0.073216 0.019542 0.021097 0.069788 0.022921 0.02489 0.065881 0.026012 0.028459 0.061533 0.028785 0.03177 0.056787 0.031215 0.034791 0.051687 0.033277 0.037492 0.046283 0.034952 0.039849 0.040627 0.036224 0.041837 0.034774 0.03708 0.043438 0.028779 0.037511 0.044637 0.029931 0.0283 0.052252 0.035897 0.028092 0.050868 0.041712 0.027546 0.04901 0.047318 0.026669 0.046696 0.052663 0.025468 0.043948 0.057694 0.023955 0.040793 0.062363 0.022144 0.03726 0.066626 0.020053 0.033385 0.07044 0.017702 0.029203 0.07377 0.015114 0.024757 0.076582 0.012314 0.020087 0.078852 0.009328 0.01524 0.080555 0.006185 0.010262 0.080801 0.004093 0.011388 0.079218 0.006215 0.016915 0.077066 0.00821 0.022295 0.074365 0.010059 0.027476 0.071142 0.011745 0.032408 0.067427 0.01325 0.037044 0.063257 0.014562 0.04134 0.058671 0.015666 0.045252 0.053714 0.016552 0.048745 0.048433 0.017212 0.051784 0.042879 0.017639 0.05434 0.037107 0.01783 0.056389 0.03117 0.017782 0.05791 0.026426 0.00591 0.062425 0.03245 0.006363 0.061394 0.038356 0.006689 0.059788 0.044085 0.006883 0.057622 0.049584 0.006944 0.054917 0.054799 0.006871 0.051699 0.05968 0.006666 0.047999 0.06418 0.006329 0.043852 0.068255 0.005864 0.039298 0.071867 0.005277 0.034382 0.074981 0.004571 0.029151 0.077566 0.003755 0.023654 0.079597 0.002835 0.017946 0.081056 0.001822 0.012081 0.081309 -0.000542 0.012315 0.079974 -0.000681 0.018294 0.078062 -0.000881 0.024114 0.075592 -0.001139 0.029716 0.072587 -0.001454 0.035049 0.069078 -0.001821 0.040059 0.065097 -0.002237 0.0447 0.060682 -0.002699 0.048926 0.055877 -0.003201 0.052696 0.050727 -0.00374 0.055975 0.045283 -0.004309 0.058731 0.039596 -0.004904 0.060936 0.033722 -0.005518 0.062571 0.034936 -0.017405 0.061394 0.040781 -0.016502 0.059788 0.046427 -0.015507 0.057622 0.051819 -0.014429 0.054917 0.056906 -0.013279 0.051699 0.061639 -0.012068 0.047999 0.065972 -0.010807 0.043852 0.069863 -0.00951 0.039298 0.073275 -0.008187 0.034382 0.076175 -0.006853 0.029151 0.078535 -0.005519 0.023654 0.080333 -0.0042 0.017946 0.081551 -0.002906 0.012081 0.081771 -0.005181 0.011388 0.080661 -0.007584 0.016915 0.078968 -0.009982 0.022295 0.076709 -0.01235 0.027476 0.073904 -0.014666 0.032408 0.070581 -0.016907 0.037044 0.066772 -0.019053 0.04134 0.062514 -0.021082 0.045252 0.057847 -0.022974 0.048745 0.052817 -0.024713 0.051784 0.047472 -0.02628 0.05434 0.041864 -0.027661 0.056389 0.036046 -0.028842 0.05791 0.016776 -0.019481 0.062726 0.017902 -0.031085 0.05919 0.024007 -0.030563 0.059317 0.022875 -0.018902 0.06287 0.018879 -0.041786 0.053449 0.024989 -0.041316 0.053548 0.037009 -0.039388 0.052252 0.042803 -0.03795 0.050868 0.048379 -0.036214 0.04901 0.053683 -0.034196 0.046696 0.058664 -0.031915 0.043948 0.063273 -0.029394 0.040793 0.067466 -0.026656 0.03726 0.071204 -0.023729 0.033385 0.074449 -0.02064 0.029203 0.077172 -0.017419 0.024756 0.079344 -0.014097 0.020087 0.080947 -0.010706 0.01524 0.081963 -0.007279 0.010262 0.082118 -0.009119 0.008747 0.081177 -0.013444 0.012986 0.079648 -0.017706 0.017116 0.077546 -0.021865 0.021097 0.074891 -0.02588 0.02489 0.071708 -0.029712 0.028459 0.068028 -0.033325 0.03177 0.063887 -0.036685 0.034791 0.059324 -0.039757 0.037492 0.054384 -0.042514 0.039849 0.049114 -0.044928 0.041837 0.043564 -0.046976 0.043438 0.037788 -0.048639 0.044637 0.01967 -0.051173 0.045722 0.025784 -0.050747 0.045784 0.038354 -0.056238 0.035358 0.044116 -0.054391 0.034385 0.049646 -0.052087 0.033097 0.054893 -0.049347 0.031505 0.059804 -0.0462 0.029626 0.064333 -0.042674 0.027478 0.068436 -0.038804 0.02508 0.072074 -0.034628 0.022457 0.075211 -0.030185 0.019634 0.077818 -0.025517 0.016637 0.079869 -0.020671 0.013496 0.081345 -0.015693 0.01024 0.08223 -0.010631 0.006902 0.082296 -0.011756 0.004796 0.081442 -0.017367 0.007107 0.079998 -0.022878 0.009365 0.077977 -0.028236 0.011549 0.075398 -0.033389 0.013637 0.072287 -0.038286 0.01561 0.068674 -0.042882 0.017448 0.064593 -0.047132 0.019134 0.060084 -0.050995 0.020652 0.055189 -0.054434 0.021986 0.049957 -0.057415 0.023125 0.044438 -0.05991 0.024056 0.038684 -0.061895 0.024772 0.038766 -0.065391 0.013285 0.044518 -0.063321 0.012849 0.050034 -0.060708 0.012305 0.055263 -0.057577 0.011658 0.060153 -0.053959 0.010914 0.064658 -0.049888 0.010081 0.068733 -0.045403 0.009167 0.07234 -0.040548 0.00818 0.075445 -0.035369 0.007131 0.078016 -0.029916 0.006028 0.08003 -0.024242 0.004883 0.081467 -0.018402 0.003707 0.082312 -0.012451 0.002511 0.082279 -0.01269 0.000135 0.081416 -0.018757 0.000172 0.079964 -0.024711 0.000222 0.077935 -0.030494 0.000287 0.075349 -0.036049 0.000364 0.072231 -0.041325 0.000454 0.068611 -0.046269 0.000555 0.064524 -0.050834 0.000666 0.06001 -0.054977 0.000787 0.055111 -0.058657 0.000916 0.049875 -0.061839 0.001052 0.044352 -0.064493 0.001194 0.038596 -0.066592 0.00134 0.038182 -0.065452 -0.010606 0.043948 -0.06338 -0.010461 0.049485 -0.060765 -0.0102 0.054738 -0.057632 -0.009825 0.059658 -0.054011 -0.00934 0.064198 -0.049936 -0.008749 0.068312 -0.045447 -0.008058 0.071963 -0.040587 -0.007273 0.075114 -0.035403 -0.006403 0.077736 -0.029946 -0.005455 0.079802 -0.024266 -0.004439 0.081294 -0.01842 -0.003364 0.082196 -0.012463 -0.002241 0.082068 -0.011779 -0.004526 0.081103 -0.017403 -0.006764 0.079551 -0.022925 -0.00892 0.077426 -0.028294 -0.010976 0.07475 -0.033456 -0.012909 0.071547 -0.038364 -0.014703 0.067849 -0.042969 -0.016339 0.063691 -0.047227 -0.017802 0.059113 -0.051097 -0.019078 0.05416 -0.054541 -0.020154 0.048879 -0.057528 -0.02102 0.043321 -0.060027 -0.021669 0.037539 -0.062015 -0.022092 0.018558 -0.05906 -0.032728 0.024666 -0.058673 -0.033046 0.036692 -0.056412 -0.032678 0.042494 -0.054561 -0.031997 0.048081 -0.05225 -0.030992 0.053398 -0.049504 -0.029673 0.058395 -0.046347 -0.028052 0.063023 -0.042811 -0.026145 0.067238 -0.03893 -0.023971 0.070999 -0.03474 -0.02155 0.07427 -0.030283 -0.018906 0.077019 -0.025601 -0.016064 0.079221 -0.020739 -0.013051 0.080853 -0.015745 -0.009897 0.0819 -0.010665 -0.006632 0.081697 -0.009163 -0.008477 0.080551 -0.013509 -0.012643 0.078823 -0.017792 -0.016671 0.076529 -0.021971 -0.020523 0.073693 -0.026005 -0.024162 0.07034 -0.029855 -0.027552 0.066503 -0.033485 -0.030661 0.06222 -0.036859 -0.033458 0.057531 -0.039945 -0.035918 0.052482 -0.042713 -0.038016 0.047121 -0.045136 -0.039733 0.0415 -0.047192 -0.04105 0.035673 -0.04886 -0.041957 0.017524 -0.051397 -0.042143 0.023627 -0.050973 -0.042506 0.028528 -0.040777 -0.050171 0.034521 -0.039648 -0.049572 0.040376 -0.038204 -0.04848 0.046036 -0.036459 -0.046906 0.051447 -0.03443 -0.044864 0.056555 -0.032135 -0.042374 0.061312 -0.029599 -0.03946 0.065673 -0.026844 -0.036151 0.069595 -0.023897 -0.032477 0.07304 -0.020787 -0.028475 0.075976 -0.017544 -0.024183 0.078374 -0.014198 -0.019643 0.08021 -0.010783 -0.014897 0.081468 -0.007331 -0.009992 0.081222 -0.005239 -0.011117 0.079843 -0.00767 -0.016572 0.07789 -0.010095 -0.02185 0.07538 -0.012489 -0.026903 0.072338 -0.014829 -0.03168 0.068793 -0.017094 -0.036137 0.064779 -0.019261 -0.04023 0.060335 -0.021309 -0.04392 0.055504 -0.023219 -0.047171 0.050332 -0.024972 -0.049952 0.044869 -0.026552 -0.052236 0.039167 -0.027943 -0.054001 0.033282 -0.029131 -0.05523 0.025971 -0.018519 -0.059448 0.032002 -0.017712 -0.058715 0.037918 -0.016801 -0.057401 0.043663 -0.015796 -0.055518 0.049181 -0.014705 -0.053085 0.054419 -0.013539 -0.050125 0.059327 -0.01231 -0.046666 0.063857 -0.011029 -0.042742 0.067965 -0.009708 -0.038391 0.071613 -0.008361 -0.033654 0.074765 -0.007 -0.028578 0.077391 -0.005639 -0.02321 0.079465 -0.00429 -0.017603 0.080967 -0.002967 -0.011811 0.013528 0.050381 -0.022252 0.018587 -0.007101 -0.060792</float_array>
                    <technique_common>
                        <accessor count="1325" source="#shape0-lib-positions-array" stride="3">
                            <param name="X" type="float"/>
                            <param name="Y" type="float"/>
                            <param name="Z" type="float"/>
                        </accessor>
                    </technique_common>
                </source>
                <vertices id="shape0-lib-vertices">
                    <input semantic="POSITION" source="#shape0-lib-positions"/>
                </vertices>
                <triangles count="2656">
                    <input offset="0" semantic="VERTEX" source="#shape0-lib-vertices"/>
                    <p>0 1 2 0 3 1 0 4 3 0 5 4 0 6 5 0 7 6 0 8 7 0 9 8 0 10 9 0 11 10 0 12 11 0 13 12 0 14 13 0 15 14 0 16 15 0 17 16 0 18 17 0 19 18 0 20 19 0 21 20 0 22 21 0 23 22 0 24 23 0 25 24 0 26 25 0 27 26 0 28 27 0 29 28 0 30 29 0 31 30 0 32 31 0 2 32 33 34 35 33 36 37 34 33 37 38 39 40 38 40 41 38 42 43 39 38 43 44 41 45 46 44 45 46 45 47 46 48 49 44 46 49 50 47 51 52 50 51 52 51 53 52 54 55 50 52 55 56 53 57 58 56 57 58 57 59 58 60 61 56 58 61 62 59 63 62 63 64 65 66 62 67 64 68 69 70 65 71 72 73 74 71 73 74 75 76 71 74 76 77 78 79 80 77 79 80 81 82 77 80 82 83 84 85 86 83 85 86 87 88 83 86 88 89 90 91 92 89 91 92 93 94 89 92 94 95 96 97 95 98 99 96 95 99 100 101 102 100 103 104 101 100 104 105 106 107 105 108 109 106 105 109 110 111 112 110 113 114 111 110 114 115 116 117 115 118 119 116 115 119 120 121 122 120 43 36 121 120 36 123 124 125 123 124 126 123 104 98 124 123 98 127 128 129 127 128 130 127 109 103 128 127 103 131 132 133 131 132 134 131 114 108 132 131 108 135 136 137 136 135 138 136 119 113 135 136 113 139 140 141 139 37 142 140 139 142 143 120 122 143 43 120 144 145 35 49 42 146 147 148 149 148 147 40 39 43 147 150 146 41 151 152 47 151 55 48 152 151 48 153 47 50 50 55 153 154 155 53 154 61 54 155 154 54 156 53 56 56 61 156 157 158 59 157 66 60 158 157 60 159 62 64 160 68 72 161 73 78 162 79 84 163 85 90 164 165 166 165 164 99 167 168 101 101 167 169 101 104 167 170 171 106 106 170 172 106 109 170 173 174 111 111 173 175 111 114 173 176 177 178 177 176 116 116 177 179 116 119 177 33 35 180 180 36 33 95 97 181 100 102 182 105 107 183 184 112 137 110 112 184 185 117 186 140 142 187 187 140 188 115 117 188 188 118 115 189 139 141 189 37 139 145 35 34 147 40 39 147 190 191 150 49 146 192 193 96 96 192 194 96 99 192 195 196 197 195 104 196 198 199 200 198 109 199 201 202 203 201 114 202 204 205 178 204 119 205 181 98 95 182 103 100 183 108 105 184 113 110 206 117 185 185 118 206 188 206 118 188 179 206 145 207 144 145 208 207 144 145 34 144 209 208 145 144 208 206 188 117 34 37 210 145 210 37 39 148 147 209 189 141 37 189 209 122 211 143 143 211 43 41 146 38 38 146 42 212 160 72 70 160 76 76 160 212 72 71 212 212 71 76 213 161 78 75 161 82 82 161 213 78 77 213 213 77 82 214 162 84 81 162 88 88 162 214 84 83 214 214 83 88 215 163 90 87 163 94 94 163 215 90 89 215 215 89 94 165 216 166 93 216 99 99 216 165 197 196 123 123 196 104 200 199 127 127 199 109 195 167 104 203 202 131 131 202 114 198 170 109 178 205 136 136 205 119 201 173 114 178 177 204 204 177 119 181 124 98 182 128 103 183 132 108 135 184 137 113 184 135 41 44 150 150 44 49 152 46 47 48 46 152 153 151 47 55 151 153 155 52 53 54 52 155 156 154 53 61 154 156 158 58 59 60 58 158 62 157 59 66 157 62 160 67 68 161 74 73 75 74 161 162 80 79 81 80 162 163 86 85 87 86 163 93 92 216 164 192 99 141 144 209 209 144 37 67 69 64 69 159 64 62 159 65 159 69 65 36 180 121 217 218 219 220 218 217 221 218 220 222 218 221 223 218 222 224 218 223 225 218 224 226 218 225 227 218 226 228 218 227 229 218 228 230 218 229 231 218 230 232 218 231 233 218 232 234 218 233 235 218 234 236 218 235 237 218 236 238 218 237 239 218 238 240 218 239 241 218 240 242 218 241 243 218 242 244 218 243 245 246 247 248 218 244 249 218 248 250 218 249 251 218 250 252 253 254 255 218 251 219 218 255 256 257 258 259 260 178 260 176 178 259 260 261 262 263 264 264 263 265 266 267 265 266 268 267 269 270 271 269 272 270 273 274 275 273 276 274 277 278 279 277 280 278 281 282 193 281 282 283 284 281 283 285 286 176 285 176 287 288 289 290 289 288 291 292 293 149 292 294 293 295 296 297 298 299 300 301 302 303 304 271 305 304 305 306 307 275 308 307 308 309 310 279 311 310 311 312 313 314 315 313 315 316 317 318 319 317 282 318 320 193 319 321 168 322 323 171 324 325 174 326 327 328 265 328 329 265 260 330 261 331 332 333 334 335 257 288 290 336 337 297 296 337 338 297 339 340 296 339 341 340 342 296 339 343 300 299 343 344 300 345 346 299 345 347 346 348 299 345 349 350 302 349 351 350 352 302 349 353 125 193 353 354 125 355 193 353 356 129 168 356 357 129 358 168 356 359 133 171 359 360 133 361 171 359 362 137 174 362 363 137 364 174 362 363 365 137 366 367 368 330 260 178 369 137 370 370 137 365 370 261 369 365 261 370 371 286 367 330 365 261 372 286 367 373 374 186 366 368 373 375 376 371 376 371 367 377 375 376 378 376 379 380 381 377 376 367 381 378 376 381 378 375 367 378 375 376 380 377 176 377 375 380 378 375 286 378 381 367 378 377 381 378 375 377 369 370 178 376 286 371 376 378 286 381 379 376 381 378 379 376 286 371 382 376 371 382 381 376 375 176 371 383 384 381 383 117 384 382 383 381 377 375 176 378 385 286 378 286 376 385 378 376 176 378 385 381 371 376 386 378 381 384 386 381 380 387 375 380 378 387 386 387 378 386 375 387 388 376 381 380 389 176 390 376 381 380 391 378 377 380 378 380 389 378 380 176 391 378 176 286 378 385 176 392 393 376 392 376 378 381 375 371 381 394 375 395 376 388 396 376 390 396 393 376 389 397 378 398 381 378 391 398 378 390 381 398 399 375 394 399 380 375 395 399 394 397 389 400 378 395 388 401 378 388 397 400 378 402 398 391 378 396 390 403 378 390 378 390 398 402 378 398 380 377 404 380 404 378 405 378 380 378 393 392 406 378 380 406 392 378 407 408 380 407 393 396 408 407 396 378 408 396 378 380 408 407 378 393 407 380 378 409 380 399 378 380 409 378 409 399 395 378 399 377 176 380 367 410 372 267 268 290 290 268 336 411 337 296 412 337 411 340 343 299 341 343 340 344 343 413 346 414 302 347 414 346 415 414 416 351 417 350 306 417 418 309 419 420 312 421 422 316 423 424 125 425 168 354 425 125 426 425 427 129 428 171 357 428 129 429 428 430 133 431 174 360 431 133 432 431 433 290 289 434 434 289 291 414 303 302 415 303 414 306 305 417 419 308 275 309 308 419 421 311 279 312 311 421 423 315 314 316 315 423 425 322 168 426 322 425 428 324 171 429 324 428 431 326 174 432 326 431 435 436 368 436 256 258 435 256 436 271 304 269 275 307 273 279 310 277 314 313 437 265 329 266 295 342 296 298 348 299 301 352 302 320 355 193 321 358 168 323 361 171 325 364 174 258 438 35 258 35 145 438 149 122 438 122 121 149 264 40 149 40 147 264 265 41 264 41 40 265 267 45 265 45 41 267 290 47 267 47 45 290 411 51 290 51 47 411 296 53 411 53 51 296 340 57 296 57 53 340 299 59 340 59 57 299 346 63 299 63 59 346 302 64 346 64 63 302 350 68 302 68 64 350 271 72 350 72 68 271 270 73 271 73 72 270 275 78 270 78 73 275 274 79 275 79 78 274 279 84 274 84 79 279 278 85 279 85 84 278 314 90 278 90 85 314 439 91 314 91 90 439 193 166 439 166 91 193 125 97 193 97 96 125 168 197 125 197 123 168 129 102 168 102 101 129 171 200 129 200 127 171 133 107 171 107 106 133 174 203 133 203 131 174 137 112 174 112 111 137 369 178 137 178 136 176 377 117 176 117 116 186 258 141 186 141 140 2 1 440 2 440 441 441 440 442 441 442 443 443 442 444 443 444 445 445 444 446 445 446 447 447 446 448 447 448 449 449 448 450 449 450 451 451 450 452 451 452 453 453 452 454 453 454 455 455 454 456 455 456 457 457 456 458 457 458 459 459 458 460 459 460 461 461 460 462 461 462 463 463 462 464 463 464 465 465 464 466 465 466 467 467 466 43 467 43 42 466 468 36 466 36 43 464 469 468 464 468 466 462 470 469 462 469 464 460 471 470 460 470 462 458 472 471 458 471 460 456 473 472 456 472 458 454 474 473 454 473 456 452 475 474 452 474 454 450 476 475 450 475 452 448 477 476 448 476 450 446 478 477 446 477 448 444 479 478 444 478 446 442 480 479 442 479 444 440 481 480 440 480 442 1 3 481 1 481 440 3 4 482 3 482 481 481 482 483 481 483 480 480 483 484 480 484 479 479 484 485 479 485 478 478 485 486 478 486 477 477 486 487 477 487 476 476 487 488 476 488 475 475 488 489 475 489 474 474 489 490 474 490 473 473 490 491 473 491 472 472 491 492 472 492 471 471 492 493 471 493 470 470 493 494 470 494 469 469 494 495 469 495 468 468 495 37 468 37 36 495 496 142 495 142 37 494 497 496 494 496 495 493 498 497 493 497 494 492 499 498 492 498 493 491 500 499 491 499 492 490 501 500 490 500 491 489 502 501 489 501 490 488 503 502 488 502 489 487 504 503 487 503 488 486 505 504 486 504 487 485 506 505 485 505 486 484 507 506 484 506 485 483 508 507 483 507 484 482 509 508 482 508 483 4 5 509 4 509 482 5 6 510 5 510 509 509 510 511 509 511 508 508 511 512 508 512 507 507 512 513 507 513 506 506 513 514 506 514 505 505 514 515 505 515 504 504 515 516 504 516 503 503 516 517 503 517 502 502 517 518 502 518 501 501 518 519 501 519 500 500 519 520 500 520 499 499 520 521 499 521 498 498 521 522 498 522 497 497 522 523 497 523 496 496 523 118 496 118 142 523 524 119 523 119 118 522 525 524 522 524 523 521 526 525 521 525 522 520 527 526 520 526 521 519 528 527 519 527 520 518 529 528 518 528 519 517 530 529 517 529 518 516 531 530 516 530 517 515 532 531 515 531 516 514 533 532 514 532 515 513 534 533 513 533 514 512 535 534 512 534 513 511 536 535 511 535 512 510 537 536 510 536 511 6 7 537 6 537 510 7 8 538 7 538 537 537 538 539 537 539 536 536 539 540 536 540 535 535 540 541 535 541 534 534 541 542 534 542 533 533 542 543 533 543 532 532 543 544 532 544 531 531 544 545 531 545 530 530 545 546 530 546 529 529 546 547 529 547 528 528 547 548 528 548 527 527 548 549 527 549 526 526 549 550 526 550 525 525 550 551 525 551 524 524 551 113 524 113 119 551 552 114 551 114 113 550 553 552 550 552 551 549 554 553 549 553 550 548 555 554 548 554 549 547 556 555 547 555 548 546 557 556 546 556 547 545 558 557 545 557 546 544 559 558 544 558 545 543 560 559 543 559 544 542 561 560 542 560 543 541 562 561 541 561 542 540 563 562 540 562 541 539 564 563 539 563 540 538 565 564 538 564 539 8 9 565 8 565 538 9 10 566 9 566 565 565 566 567 565 567 564 564 567 568 564 568 563 563 568 569 563 569 562 562 569 570 562 570 561 561 570 571 561 571 560 560 571 572 560 572 559 559 572 573 559 573 558 558 573 574 558 574 557 557 574 575 557 575 556 556 575 576 556 576 555 555 576 577 555 577 554 554 577 578 554 578 553 553 578 579 553 579 552 552 579 108 552 108 114 579 580 109 579 109 108 578 581 580 578 580 579 577 582 581 577 581 578 576 583 582 576 582 577 575 584 583 575 583 576 574 585 584 574 584 575 573 586 585 573 585 574 572 587 586 572 586 573 571 588 587 571 587 572 570 589 588 570 588 571 569 590 589 569 589 570 568 591 590 568 590 569 567 592 591 567 591 568 566 593 592 566 592 567 10 11 593 10 593 566 11 12 594 11 594 593 593 594 595 593 595 592 592 595 596 592 596 591 591 596 597 591 597 590 590 597 598 590 598 589 589 598 599 589 599 588 588 599 600 588 600 587 587 600 601 587 601 586 586 601 602 586 602 585 585 602 603 585 603 584 584 603 604 584 604 583 583 604 605 583 605 582 582 605 606 582 606 581 581 606 607 581 607 580 580 607 103 580 103 109 607 608 104 607 104 103 606 609 608 606 608 607 605 610 609 605 609 606 604 611 610 604 610 605 603 612 611 603 611 604 602 613 612 602 612 603 601 614 613 601 613 602 600 615 614 600 614 601 599 616 615 599 615 600 598 617 616 598 616 599 597 618 617 597 617 598 596 619 618 596 618 597 595 620 619 595 619 596 594 621 620 594 620 595 12 13 621 12 621 594 13 14 622 13 622 621 621 622 623 621 623 620 620 623 624 620 624 619 619 624 625 619 625 618 618 625 626 618 626 617 617 626 627 617 627 616 616 627 628 616 628 615 615 628 629 615 629 614 614 629 630 614 630 613 613 630 631 613 631 612 612 631 632 612 632 611 611 632 633 611 633 610 610 633 634 610 634 609 609 634 635 609 635 608 608 635 98 608 98 104 635 636 99 635 99 98 634 637 636 634 636 635 633 638 637 633 637 634 632 639 638 632 638 633 631 640 639 631 639 632 630 641 640 630 640 631 629 642 641 629 641 630 628 643 642 628 642 629 627 644 643 627 643 628 626 645 644 626 644 627 625 646 645 625 645 626 624 647 646 624 646 625 623 648 647 623 647 624 622 649 648 622 648 623 14 15 649 14 649 622 15 16 650 15 650 649 649 650 651 649 651 648 648 651 652 648 652 647 647 652 653 647 653 646 646 653 654 646 654 645 645 654 655 645 655 644 644 655 656 644 656 643 643 656 657 643 657 642 642 657 658 642 658 641 641 658 659 641 659 640 640 659 660 640 660 639 639 660 661 639 661 638 638 661 662 638 662 637 637 662 663 637 663 636 636 663 93 636 93 99 663 664 94 663 94 93 662 665 664 662 664 663 661 666 665 661 665 662 660 667 666 660 666 661 659 668 667 659 667 660 658 669 668 658 668 659 657 670 669 657 669 658 656 671 670 656 670 657 655 672 671 655 671 656 654 673 672 654 672 655 653 674 673 653 673 654 652 675 674 652 674 653 651 676 675 651 675 652 650 677 676 650 676 651 16 17 677 16 677 650 17 18 678 17 678 677 677 678 679 677 679 676 676 679 680 676 680 675 675 680 681 675 681 674 674 681 682 674 682 673 673 682 683 673 683 672 672 683 684 672 684 671 671 684 685 671 685 670 670 685 686 670 686 669 669 686 687 669 687 668 668 687 688 668 688 667 667 688 689 667 689 666 666 689 690 666 690 665 665 690 691 665 691 664 664 691 87 664 87 94 691 692 88 691 88 87 690 693 692 690 692 691 689 694 693 689 693 690 688 695 694 688 694 689 687 696 695 687 695 688 686 697 696 686 696 687 685 698 697 685 697 686 684 699 698 684 698 685 683 700 699 683 699 684 682 701 700 682 700 683 681 702 701 681 701 682 680 703 702 680 702 681 679 704 703 679 703 680 678 705 704 678 704 679 18 19 705 18 705 678 19 20 706 19 706 705 705 706 707 705 707 704 704 707 708 704 708 703 703 708 709 703 709 702 702 709 710 702 710 701 701 710 711 701 711 700 700 711 712 700 712 699 699 712 713 699 713 698 698 713 714 698 714 697 697 714 715 697 715 696 696 715 716 696 716 695 695 716 717 695 717 694 694 717 718 694 718 693 693 718 719 693 719 692 692 719 81 692 81 88 719 720 82 719 82 81 718 721 720 718 720 719 717 722 721 717 721 718 716 723 722 716 722 717 715 724 723 715 723 716 714 725 724 714 724 715 713 726 725 713 725 714 712 727 726 712 726 713 711 728 727 711 727 712 710 729 728 710 728 711 709 730 729 709 729 710 708 731 730 708 730 709 707 732 731 707 731 708 706 733 732 706 732 707 20 21 733 20 733 706 21 22 734 21 734 733 733 734 735 733 735 732 732 735 736 732 736 731 731 736 737 731 737 730 730 737 738 730 738 729 729 738 739 729 739 728 728 739 740 728 740 727 727 740 741 727 741 726 726 741 742 726 742 725 725 742 743 725 743 724 724 743 744 724 744 723 723 744 745 723 745 722 722 745 746 722 746 721 721 746 747 721 747 720 720 747 75 720 75 82 747 748 76 747 76 75 746 749 748 746 748 747 745 750 749 745 749 746 744 751 750 744 750 745 743 752 751 743 751 744 742 753 752 742 752 743 741 754 753 741 753 742 740 755 754 740 754 741 739 756 755 739 755 740 738 757 756 738 756 739 737 758 757 737 757 738 736 759 758 736 758 737 735 760 759 735 759 736 734 761 760 734 760 735 22 23 761 22 761 734 23 24 762 23 762 761 761 762 763 761 763 760 760 763 764 760 764 759 759 764 765 759 765 758 758 765 766 758 766 757 757 766 767 757 767 756 756 767 768 756 768 755 755 768 769 755 769 754 754 769 770 754 770 753 753 770 771 753 771 752 752 771 772 752 772 751 751 772 773 751 773 750 750 773 774 750 774 749 749 774 775 749 775 748 748 775 70 748 70 76 775 776 65 775 65 70 774 777 776 774 776 775 773 778 777 773 777 774 772 779 778 772 778 773 771 780 779 771 779 772 770 781 780 770 780 771 769 782 781 769 781 770 768 783 782 768 782 769 767 784 783 767 783 768 766 785 784 766 784 767 765 786 785 765 785 766 764 787 786 764 786 765 763 788 787 763 787 764 762 789 788 762 788 763 24 25 789 24 789 762 25 26 790 25 790 789 789 790 791 789 791 788 788 791 792 788 792 787 787 792 793 787 793 786 786 793 794 786 794 785 785 794 795 785 795 784 784 795 796 784 796 783 783 796 797 783 797 782 782 797 798 782 798 781 781 798 799 781 799 780 780 799 800 780 800 779 779 800 801 779 801 778 778 801 802 778 802 777 777 802 803 777 803 776 776 803 66 776 66 65 803 804 60 803 60 66 802 805 804 802 804 803 801 806 805 801 805 802 800 807 806 800 806 801 799 808 807 799 807 800 798 809 808 798 808 799 797 810 809 797 809 798 796 811 810 796 810 797 795 812 811 795 811 796 794 813 812 794 812 795 793 814 813 793 813 794 792 815 814 792 814 793 791 816 815 791 815 792 790 817 816 790 816 791 26 27 817 26 817 790 27 28 818 27 818 817 817 818 819 817 819 816 816 819 820 816 820 815 815 820 821 815 821 814 814 821 822 814 822 813 813 822 823 813 823 812 812 823 824 812 824 811 811 824 825 811 825 810 810 825 826 810 826 809 809 826 827 809 827 808 808 827 828 808 828 807 807 828 829 807 829 806 806 829 830 806 830 805 805 830 831 805 831 804 804 831 61 804 61 60 831 832 54 831 54 61 830 833 832 830 832 831 829 834 833 829 833 830 828 835 834 828 834 829 827 836 835 827 835 828 826 837 836 826 836 827 825 838 837 825 837 826 824 839 838 824 838 825 823 840 839 823 839 824 822 841 840 822 840 823 821 842 841 821 841 822 820 843 842 820 842 821 819 844 843 819 843 820 818 845 844 818 844 819 28 29 845 28 845 818 29 30 846 29 846 845 845 846 847 845 847 844 844 847 848 844 848 843 843 848 849 843 849 842 842 849 850 842 850 841 841 850 851 841 851 840 840 851 852 840 852 839 839 852 853 839 853 838 838 853 854 838 854 837 837 854 855 837 855 836 836 855 856 836 856 835 835 856 857 835 857 834 834 857 858 834 858 833 833 858 859 833 859 832 832 859 55 832 55 54 859 860 48 859 48 55 858 861 860 858 860 859 857 862 861 857 861 858 856 863 862 856 862 857 855 864 863 855 863 856 854 865 864 854 864 855 853 866 865 853 865 854 852 867 866 852 866 853 851 868 867 851 867 852 850 869 868 850 868 851 849 870 869 849 869 850 848 871 870 848 870 849 847 872 871 847 871 848 846 873 872 846 872 847 30 31 873 30 873 846 31 32 874 31 874 873 873 874 875 873 875 872 872 875 876 872 876 871 871 876 877 871 877 870 870 877 878 870 878 869 869 878 879 869 879 868 868 879 880 868 880 867 867 880 881 867 881 866 866 881 882 866 882 865 865 882 883 865 883 864 864 883 884 864 884 863 863 884 885 863 885 862 862 885 886 862 886 861 861 886 887 861 887 860 860 887 49 860 49 48 887 467 42 887 42 49 886 465 467 886 467 887 885 463 465 885 465 886 884 461 463 884 463 885 883 459 461 883 461 884 882 457 459 882 459 883 881 455 457 881 457 882 880 453 455 880 455 881 879 451 453 879 453 880 878 449 451 878 451 879 877 447 449 877 449 878 876 445 447 876 447 877 875 443 445 875 445 876 874 441 443 874 443 875 32 2 441 32 441 874 67 160 70 67 70 69 124 181 97 124 97 125 128 182 102 128 102 129 132 183 107 132 107 133 144 141 258 144 258 145 211 122 149 211 149 148 216 92 91 216 91 166 164 166 193 164 193 192 167 195 197 167 197 168 170 198 200 170 200 171 173 201 203 173 203 174 187 185 186 187 186 140 187 142 118 187 118 185 148 147 43 148 43 211 121 180 35 121 35 438 888 889 890 888 890 891 891 890 892 891 892 893 893 892 894 893 894 895 895 894 896 895 896 897 897 896 898 897 898 899 899 898 900 899 900 901 901 900 902 901 902 903 903 902 904 903 904 905 905 904 906 905 906 907 907 906 908 907 908 909 909 908 910 909 910 911 911 910 912 911 912 913 913 912 914 913 914 915 915 914 217 915 217 219 914 916 220 914 220 217 912 917 916 912 916 914 910 918 917 910 917 912 908 919 918 908 918 910 906 920 919 906 919 908 904 921 920 904 920 906 902 922 921 902 921 904 900 923 922 900 922 902 898 924 923 898 923 900 896 925 924 896 924 898 894 926 925 894 925 896 892 927 926 892 926 894 890 928 927 890 927 892 889 294 928 889 928 890 294 332 929 294 929 928 928 929 930 928 930 927 927 930 931 927 931 926 926 931 932 926 932 925 925 932 933 925 933 924 924 933 934 924 934 923 923 934 935 923 935 922 922 935 936 922 936 921 921 936 937 921 937 920 920 937 938 920 938 919 919 938 939 919 939 918 918 939 940 918 940 917 917 940 941 917 941 916 916 941 221 916 221 220 941 942 222 941 222 221 940 943 942 940 942 941 939 944 943 939 943 940 938 945 944 938 944 939 937 946 945 937 945 938 936 947 946 936 946 937 935 948 947 935 947 936 934 949 948 934 948 935 933 950 949 933 949 934 932 951 950 932 950 933 931 952 951 931 951 932 930 953 952 930 952 931 929 954 953 929 953 930 332 435 954 332 954 929 435 368 955 435 955 954 954 955 956 954 956 953 953 956 957 953 957 952 952 957 958 952 958 951 951 958 959 951 959 950 950 959 960 950 960 949 949 960 961 949 961 948 948 961 962 948 962 947 947 962 963 947 963 946 946 963 964 946 964 945 945 964 965 945 965 944 944 965 966 944 966 943 943 966 967 943 967 942 942 967 223 942 223 222 967 968 224 967 224 223 966 969 968 966 968 967 965 970 969 965 969 966 964 971 970 964 970 965 963 972 971 963 971 964 962 973 972 962 972 963 961 974 973 961 973 962 960 975 974 960 974 961 959 976 975 959 975 960 958 977 976 958 976 959 957 978 977 957 977 958 956 979 978 956 978 957 955 980 979 955 979 956 368 981 980 368 980 955 367 286 981 367 981 368 261 365 982 261 982 981 981 982 983 981 983 980 980 983 984 980 984 979 979 984 985 979 985 978 978 985 986 978 986 977 977 986 987 977 987 976 976 987 988 976 988 975 975 988 989 975 989 974 974 989 990 974 990 973 973 990 991 973 991 972 972 991 992 972 992 971 971 992 993 971 993 970 970 993 994 970 994 969 969 994 995 969 995 968 968 995 225 968 225 224 995 996 226 995 226 225 994 997 996 994 996 995 993 998 997 993 997 994 992 999 998 992 998 993 991 1000 999 991 999 992 990 1001 1000 990 1000 991 989 1002 1001 989 1001 990 988 1003 1002 988 1002 989 987 1004 1003 987 1003 988 986 1005 1004 986 1004 987 985 1006 1005 985 1005 986 984 1007 1006 984 1006 985 983 1008 1007 983 1007 984 982 432 1008 982 1008 983 432 433 1009 432 1009 1008 1008 1009 1010 1008 1010 1007 1007 1010 1011 1007 1011 1006 1006 1011 1012 1006 1012 1005 1005 1012 1013 1005 1013 1004 1004 1013 1014 1004 1014 1003 1003 1014 1015 1003 1015 1002 1002 1015 1016 1002 1016 1001 1001 1016 1017 1001 1017 1000 1000 1017 1018 1000 1018 999 999 1018 1019 999 1019 998 998 1019 1020 998 1020 997 997 1020 1021 997 1021 996 996 1021 227 996 227 226 1021 1022 228 1021 228 227 1020 1023 1022 1020 1022 1021 1019 1024 1023 1019 1023 1020 1018 1025 1024 1018 1024 1019 1017 1026 1025 1017 1025 1018 1016 1027 1026 1016 1026 1017 1015 1028 1027 1015 1027 1016 1014 1029 1028 1014 1028 1015 1013 1030 1029 1013 1029 1014 1012 1031 1030 1012 1030 1013 1011 1032 1031 1011 1031 1012 1010 1033 1032 1010 1032 1011 1009 1034 1033 1009 1033 1010 433 429 1034 433 1034 1009 429 430 1035 429 1035 1034 1034 1035 1036 1034 1036 1033 1033 1036 1037 1033 1037 1032 1032 1037 1038 1032 1038 1031 1031 1038 1039 1031 1039 1030 1030 1039 1040 1030 1040 1029 1029 1040 1041 1029 1041 1028 1028 1041 1042 1028 1042 1027 1027 1042 1043 1027 1043 1026 1026 1043 1044 1026 1044 1025 1025 1044 1045 1025 1045 1024 1024 1045 1046 1024 1046 1023 1023 1046 1047 1023 1047 1022 1022 1047 229 1022 229 228 1047 1048 230 1047 230 229 1046 1049 1048 1046 1048 1047 1045 1050 1049 1045 1049 1046 1044 1051 1050 1044 1050 1045 1043 1052 1051 1043 1051 1044 1042 1053 1052 1042 1052 1043 1041 1054 1053 1041 1053 1042 1040 1055 1054 1040 1054 1041 1039 1056 1055 1039 1055 1040 1038 1057 1056 1038 1056 1039 1037 1058 1057 1037 1057 1038 1036 1059 1058 1036 1058 1037 1035 1060 1059 1035 1059 1036 430 426 1060 430 1060 1035 426 427 1061 426 1061 1060 1060 1061 1062 1060 1062 1059 1059 1062 1063 1059 1063 1058 1058 1063 1064 1058 1064 1057 1057 1064 1065 1057 1065 1056 1056 1065 1066 1056 1066 1055 1055 1066 1067 1055 1067 1054 1054 1067 1068 1054 1068 1053 1053 1068 1069 1053 1069 1052 1052 1069 1070 1052 1070 1051 1051 1070 1071 1051 1071 1050 1050 1071 1072 1050 1072 1049 1049 1072 1073 1049 1073 1048 1048 1073 231 1048 231 230 1073 1074 232 1073 232 231 1072 1075 1074 1072 1074 1073 1071 1076 1075 1071 1075 1072 1070 1077 1076 1070 1076 1071 1069 1078 1077 1069 1077 1070 1068 1079 1078 1068 1078 1069 1067 1080 1079 1067 1079 1068 1066 1081 1080 1066 1080 1067 1065 1082 1081 1065 1081 1066 1064 1083 1082 1064 1082 1065 1063 1084 1083 1063 1083 1064 1062 1085 1084 1062 1084 1063 1061 1086 1085 1061 1085 1062 427 318 1086 427 1086 1061 318 1087 1088 318 1088 1086 1086 1088 1089 1086 1089 1085 1085 1089 1090 1085 1090 1084 1084 1090 1091 1084 1091 1083 1083 1091 1092 1083 1092 1082 1082 1092 1093 1082 1093 1081 1081 1093 1094 1081 1094 1080 1080 1094 1095 1080 1095 1079 1079 1095 1096 1079 1096 1078 1078 1096 1097 1078 1097 1077 1077 1097 1098 1077 1098 1076 1076 1098 1099 1076 1099 1075 1075 1099 1100 1075 1100 1074 1074 1100 233 1074 233 232 1100 1101 234 1100 234 233 1099 1102 1101 1099 1101 1100 1098 1103 1102 1098 1102 1099 1097 1104 1103 1097 1103 1098 1096 1105 1104 1096 1104 1097 1095 1106 1105 1095 1105 1096 1094 1107 1106 1094 1106 1095 1093 1108 1107 1093 1107 1094 1092 1109 1108 1092 1108 1093 1091 1110 1109 1091 1109 1092 1090 1111 1110 1090 1110 1091 1089 1112 1111 1089 1111 1090 1088 1113 1112 1088 1112 1089 1087 316 1113 1087 1113 1088 316 424 1114 316 1114 1113 1113 1114 1115 1113 1115 1112 1112 1115 1116 1112 1116 1111 1111 1116 1117 1111 1117 1110 1110 1117 1118 1110 1118 1109 1109 1118 1119 1109 1119 1108 1108 1119 1120 1108 1120 1107 1107 1120 1121 1107 1121 1106 1106 1121 1122 1106 1122 1105 1105 1122 1123 1105 1123 1104 1104 1123 1124 1104 1124 1103 1103 1124 1125 1103 1125 1102 1102 1125 1126 1102 1126 1101 1101 1126 235 1101 235 234 1126 1127 236 1126 236 235 1125 1128 1127 1125 1127 1126 1124 1129 1128 1124 1128 1125 1123 1130 1129 1123 1129 1124 1122 1131 1130 1122 1130 1123 1121 1132 1131 1121 1131 1122 1120 1133 1132 1120 1132 1121 1119 1134 1133 1119 1133 1120 1118 1135 1134 1118 1134 1119 1117 1136 1135 1117 1135 1118 1116 1137 1136 1116 1136 1117 1115 1138 1137 1115 1137 1116 1114 1139 1138 1114 1138 1115 424 312 1139 424 1139 1114 1140 1141 1142 1140 1142 1143 1141 1144 1145 1141 1145 1142 312 422 1146 312 1146 1139 1139 1146 1147 1139 1147 1138 1138 1147 1148 1138 1148 1137 1137 1148 1149 1137 1149 1136 1136 1149 1150 1136 1150 1135 1135 1150 1151 1135 1151 1134 1134 1151 1152 1134 1152 1133 1133 1152 1153 1133 1153 1132 1132 1153 1154 1132 1154 1131 1131 1154 1155 1131 1155 1130 1130 1155 1156 1130 1156 1129 1129 1156 1157 1129 1157 1128 1128 1157 1158 1128 1158 1127 1127 1158 237 1127 237 236 1158 1159 238 1158 238 237 1157 1160 1159 1157 1159 1158 1156 1161 1160 1156 1160 1157 1155 1162 1161 1155 1161 1156 1154 1163 1162 1154 1162 1155 1153 1164 1163 1153 1163 1154 1152 1165 1164 1152 1164 1153 1151 1166 1165 1151 1165 1152 1150 1167 1166 1150 1166 1151 1149 1168 1167 1149 1167 1150 1148 1169 1168 1148 1168 1149 1147 1170 1169 1147 1169 1148 1146 1171 1170 1146 1170 1147 422 309 1171 422 1171 1146 1144 1172 1173 1144 1173 1145 309 420 1174 309 1174 1171 1171 1174 1175 1171 1175 1170 1170 1175 1176 1170 1176 1169 1169 1176 1177 1169 1177 1168 1168 1177 1178 1168 1178 1167 1167 1178 1179 1167 1179 1166 1166 1179 1180 1166 1180 1165 1165 1180 1181 1165 1181 1164 1164 1181 1182 1164 1182 1163 1163 1182 1183 1163 1183 1162 1162 1183 1184 1162 1184 1161 1161 1184 1185 1161 1185 1160 1160 1185 1186 1160 1186 1159 1159 1186 239 1159 239 238 1186 1187 240 1186 240 239 1185 1188 1187 1185 1187 1186 1184 1189 1188 1184 1188 1185 1183 1190 1189 1183 1189 1184 1182 1191 1190 1182 1190 1183 1181 1192 1191 1181 1191 1182 1180 1193 1192 1180 1192 1181 1179 1194 1193 1179 1193 1180 1178 1195 1194 1178 1194 1179 1177 1196 1195 1177 1195 1178 1176 1197 1196 1176 1196 1177 1175 1198 1197 1175 1197 1176 1174 1199 1198 1174 1198 1175 420 306 1199 420 1199 1174 306 418 1200 306 1200 1199 1199 1200 1201 1199 1201 1198 1198 1201 1202 1198 1202 1197 1197 1202 1203 1197 1203 1196 1196 1203 1204 1196 1204 1195 1195 1204 1205 1195 1205 1194 1194 1205 1206 1194 1206 1193 1193 1206 1207 1193 1207 1192 1192 1207 1208 1192 1208 1191 1191 1208 1209 1191 1209 1190 1190 1209 1210 1190 1210 1189 1189 1210 1211 1189 1211 1188 1188 1211 1212 1188 1212 1187 1187 1212 241 1187 241 240 1212 1213 242 1212 242 241 1211 1214 1213 1211 1213 1212 1210 1215 1214 1210 1214 1211 1209 1216 1215 1209 1215 1210 1208 1217 1216 1208 1216 1209 1207 1218 1217 1207 1217 1208 1206 1219 1218 1206 1218 1207 1205 1220 1219 1205 1219 1206 1204 1221 1220 1204 1220 1205 1203 1222 1221 1203 1221 1204 1202 1223 1222 1202 1222 1203 1201 1224 1223 1201 1223 1202 1200 1225 1224 1200 1224 1201 418 415 1225 418 1225 1200 415 416 1226 415 1226 1225 1225 1226 1227 1225 1227 1224 1224 1227 1228 1224 1228 1223 1223 1228 1229 1223 1229 1222 1222 1229 1230 1222 1230 1221 1221 1230 1231 1221 1231 1220 1220 1231 1232 1220 1232 1219 1219 1232 1233 1219 1233 1218 1218 1233 1234 1218 1234 1217 1217 1234 1235 1217 1235 1216 1216 1235 1236 1216 1236 1215 1215 1236 1237 1215 1237 1214 1214 1237 1238 1214 1238 1213 1213 1238 243 1213 243 242 1238 1239 244 1238 244 243 1237 1240 1239 1237 1239 1238 1236 1241 1240 1236 1240 1237 1235 1242 1241 1235 1241 1236 1234 1243 1242 1234 1242 1235 1233 1244 1243 1233 1243 1234 1232 1245 1244 1232 1244 1233 1231 1246 1245 1231 1245 1232 1230 1247 1246 1230 1246 1231 1229 1248 1247 1229 1247 1230 1228 1249 1248 1228 1248 1229 1227 1250 1249 1227 1249 1228 1226 1251 1250 1226 1250 1227 416 344 1251 416 1251 1226 246 1252 1253 246 1253 247 344 413 1254 344 1254 1251 1251 1254 1255 1251 1255 1250 1250 1255 1256 1250 1256 1249 1249 1256 1257 1249 1257 1248 1248 1257 1258 1248 1258 1247 1247 1258 1259 1247 1259 1246 1246 1259 1260 1246 1260 1245 1245 1260 1261 1245 1261 1244 1244 1261 1262 1244 1262 1243 1243 1262 1263 1243 1263 1242 1242 1263 1264 1242 1264 1241 1241 1264 1265 1241 1265 1240 1240 1265 1266 1240 1266 1239 1239 1266 248 1239 248 244 1266 1267 249 1266 249 248 1265 1268 1267 1265 1267 1266 1264 1269 1268 1264 1268 1265 1263 1270 1269 1263 1269 1264 1262 1271 1270 1262 1270 1263 1261 1272 1271 1261 1271 1262 1260 1273 1272 1260 1272 1261 1259 1274 1273 1259 1273 1260 1258 1275 1274 1258 1274 1259 1257 1276 1275 1257 1275 1258 1256 1277 1276 1256 1276 1257 1255 1278 1277 1255 1277 1256 1254 1279 1278 1254 1278 1255 413 338 1279 413 1279 1254 1252 1280 1281 1252 1281 1253 1280 253 252 1280 252 1281 338 1282 1283 338 1283 1279 1279 1283 1284 1279 1284 1278 1278 1284 1285 1278 1285 1277 1277 1285 1286 1277 1286 1276 1276 1286 1287 1276 1287 1275 1275 1287 1288 1275 1288 1274 1274 1288 1289 1274 1289 1273 1273 1289 1290 1273 1290 1272 1272 1290 1291 1272 1291 1271 1271 1291 1292 1271 1292 1270 1270 1292 1293 1270 1293 1269 1269 1293 1294 1269 1294 1268 1268 1294 1295 1268 1295 1267 1267 1295 250 1267 250 249 1295 1296 251 1295 251 250 1294 1297 1296 1294 1296 1295 1293 1298 1297 1293 1297 1294 1292 1299 1298 1292 1298 1293 1291 1300 1299 1291 1299 1292 1290 1301 1300 1290 1300 1291 1289 1302 1301 1289 1301 1290 1288 1303 1302 1288 1302 1289 1287 1304 1303 1287 1303 1288 1286 1305 1304 1286 1304 1287 1285 1306 1305 1285 1305 1286 1284 1307 1306 1284 1306 1285 1283 1308 1307 1283 1307 1284 1282 291 1308 1282 1308 1283 291 1309 1310 291 1310 1308 1308 1310 1311 1308 1311 1307 1307 1311 1312 1307 1312 1306 1306 1312 1313 1306 1313 1305 1305 1313 1314 1305 1314 1304 1304 1314 1315 1304 1315 1303 1303 1315 1316 1303 1316 1302 1302 1316 1317 1302 1317 1301 1301 1317 1318 1301 1318 1300 1300 1318 1319 1300 1319 1299 1299 1319 1320 1299 1320 1298 1298 1320 1321 1298 1321 1297 1297 1321 1322 1297 1322 1296 1296 1322 255 1296 255 251 1322 915 219 1322 219 255 1321 913 915 1321 915 1322 1320 911 913 1320 913 1321 1319 909 911 1319 911 1320 1318 907 909 1318 909 1319 1317 905 907 1317 907 1318 1316 903 905 1316 905 1317 1315 901 903 1315 903 1316 1314 899 901 1314 901 1315 1313 897 899 1313 899 1314 1312 895 897 1312 897 1313 1311 893 895 1311 895 1312 1310 891 893 1310 893 1311 1309 888 891 1309 891 1310 257 334 438 257 438 258 257 256 435 257 435 334 259 1323 176 259 176 260 333 292 149 333 149 438 262 264 149 262 149 293 263 262 889 263 889 1324 262 293 294 262 294 889 268 266 1309 268 1309 291 266 329 888 266 888 1309 290 434 412 290 412 411 412 434 291 412 291 1282 341 339 413 341 413 343 339 342 338 339 338 413 347 345 416 347 416 414 345 348 344 345 344 416 351 349 418 351 418 417 349 352 415 349 415 418 272 269 420 272 420 419 269 304 306 269 306 420 276 273 422 276 422 421 273 307 309 273 309 422 280 277 424 280 424 423 277 310 312 277 312 424 437 284 439 437 439 314 284 437 1087 284 1087 281 437 313 316 437 316 1087 439 284 281 439 281 193 281 1087 318 281 318 282 354 353 427 354 427 425 353 355 318 353 318 427 357 356 430 357 430 428 356 358 426 356 426 430 360 359 433 360 433 431 359 361 429 359 429 433 363 362 982 363 982 365 362 364 432 362 432 982 285 287 981 285 981 286 374 436 258 374 258 186 292 333 332 292 332 294 295 297 338 295 338 342 298 300 344 298 344 348 301 303 415 301 415 352 317 319 193 317 193 282 317 319 283 317 283 282 320 319 318 320 318 355 321 322 426 321 426 358 323 324 429 323 429 361 325 326 432 325 432 364 1324 327 265 1324 265 263 888 329 328 888 328 327 438 334 331 438 331 333 334 435 332 334 332 331 291 288 336 291 336 268 1323 259 261 1323 261 981 366 373 410 366 410 367 368 436 374 368 374 373 380 375 378 380 378 381 365 330 178 365 178 370 286 371 117 286 117 372 410 366 373 410 373 186 117 383 382 117 382 371 384 117 375 384 375 386 395 394 381 395 381 376 404 405 380 404 380 377 405 404 378 405 378 393 117 372 410 117 410 186 337 412 1282 337 1282 338 417 305 271 417 271 350 270 272 419 270 419 275 274 276 421 274 421 279 278 280 423 278 423 314 287 1323 981 176 1323 287 327 889 888 375 117 377 381 378 388 380 378 400 380 400 389 380 378 402 380 402 391</p>
                </triangles>
            </mesh>
        </geometry>
    </library_geometries>
    <library_visual_scenes>
        <visual_scene id="VisualSceneNode" name="VisualScene">
            <node id="node" name="node">
                <instance_geometry url="#shape0-lib">
                    <bind_material>
                        <technique_common/>
                    </bind_material>
                </instance_geometry>
            </node>
        </visual_scene>
    </library_visual_scenes>
    <scene>
        <instance_visual_scene url="#VisualSceneNode"/>
    </scene>
</COLLADA>
