<?xml version="1.0" encoding="UTF-8"?>
<COLLADA xmlns="http://www.collada.org/2005/11/COLLADASchema" version="1.4.1">
    <asset>
        <contributor>
            <author>VCGLab</author>
            <authoring_tool>VCGLib | MeshLab</authoring_tool>
        </contributor>
        <up_axis>Y_UP</up_axis>
        <created>Mon Mar 12 16:59:11 2012</created>
        <modified>Mon Mar 12 16:59:11 2012</modified>
    </asset>
    <library_images/>
    <library_materials/>
    <library_effects/>
    <library_geometries>
        <geometry id="shape0-lib" name="shape0">
            <mesh>
                <source id="shape0-lib-positions" name="position">
                    <float_array id="shape0-lib-positions-array" count="3831">-0.020049 -0.01951 -0.047916 -0.018664 -0.01861 -0.050253 -0.018508 -0.019147 -0.050301 -0.018868 -0.018107 -0.050114 -0.019113 -0.017657 -0.049887 -0.019389 -0.017278 -0.049581 -0.019686 -0.016982 -0.049209 -0.019993 -0.016783 -0.048785 -0.020297 -0.016688 -0.048324 -0.020587 -0.0167 -0.047845 -0.020852 -0.016819 -0.047366 -0.021082 -0.01704 -0.046905 -0.021268 -0.017355 -0.04648 -0.021402 -0.017752 -0.046108 -0.021479 -0.018215 -0.045803 -0.021497 -0.018727 -0.045576 -0.021455 -0.019268 -0.045436 -0.021355 -0.019817 -0.045389 -0.0212 -0.020354 -0.045436 -0.020996 -0.020857 -0.045576 -0.020751 -0.021307 -0.045803 -0.020474 -0.021686 -0.046108 -0.020177 -0.021982 -0.04648 -0.01987 -0.022181 -0.046905 -0.019566 -0.022276 -0.047366 -0.019276 -0.022264 -0.047845 -0.019011 -0.022145 -0.048324 -0.018781 -0.021924 -0.048785 -0.018596 -0.021609 -0.049209 -0.018462 -0.021212 -0.049581 -0.018384 -0.020749 -0.049887 -0.018366 -0.020237 -0.050114 -0.018408 -0.019696 -0.050253 0.012696 0.004854 -0.053833 0.012696 0.004854 -0.053833 0.012696 0.004854 -0.053833 0.015194 0.000263 -0.056148 0.012696 0.004854 -0.053833 0.017275 -0.004867 -0.057574 0.017275 -0.004867 -0.057574 0.017275 -0.004867 -0.057574 0.01886 -0.010338 -0.058056 0.01886 -0.010338 -0.058056 0.017275 -0.004866 -0.057574 0.019886 -0.015941 -0.057574 0.019886 -0.015941 -0.057574 0.019886 -0.015941 -0.057574 0.020315 -0.021461 -0.056148 0.020315 -0.021461 -0.056148 0.019886 -0.015941 -0.057574 0.02013 -0.026684 -0.053833 0.02013 -0.026684 -0.053833 0.02013 -0.026684 -0.053833 0.019338 -0.031411 -0.050717 0.019338 -0.031411 -0.050717 0.02013 -0.026684 -0.053833 0.01797 -0.03546 -0.046919 0.01797 -0.03546 -0.046919 0.01797 -0.03546 -0.046919 0.016078 -0.038674 -0.042587 0.016078 -0.038674 -0.042587 0.01797 -0.03546 -0.046919 0.01103 -0.042145 -0.032999 0.01103 -0.042145 -0.032999 0.008069 -0.042267 -0.02811 0.008069 -0.042267 -0.02811 0.008069 -0.042267 -0.02811 0.01103 -0.042145 -0.032999 0.001836 -0.039263 -0.019078 0.004964 -0.041294 -0.02341 0.001836 -0.039263 -0.019078 0.001836 -0.039263 -0.019078 0.004964 -0.041294 -0.02341 -0.001197 -0.036251 -0.01528 -0.001197 -0.036251 -0.01528 -0.004016 -0.032376 -0.012164 -0.004016 -0.032376 -0.012164 -0.004016 -0.032376 -0.012164 -0.001197 -0.036251 -0.01528 -0.006515 -0.027785 -0.009849 -0.006515 -0.027785 -0.009849 -0.008596 -0.022655 -0.008423 -0.008596 -0.022655 -0.008423 -0.008596 -0.022655 -0.008423 -0.006515 -0.027785 -0.009849 -0.01018 -0.017183 -0.007941 -0.01018 -0.017184 -0.007941 -0.011207 -0.01158 -0.008423 -0.011207 -0.01158 -0.008423 -0.011207 -0.01158 -0.008423 -0.01018 -0.017183 -0.007941 -0.011636 -0.006061 -0.009849 -0.011636 -0.006061 -0.009849 -0.01145 -0.000838 -0.012164 -0.01145 -0.000838 -0.012164 -0.01145 -0.000837 -0.012164 -0.011636 -0.006061 -0.009849 -0.00929 0.007938 -0.019077 -0.010424 0.004583 -0.015931 -0.00929 0.007938 -0.019077 -0.005055 0.01341 -0.02811 -0.006751 0.011776 -0.024707 -0.005055 0.01341 -0.02811 0.00061 0.014745 -0.037887 -0.001399 0.014662 -0.034571 0.00061 0.014745 -0.037887 0.006843 0.011741 -0.046919 0.004837 0.013043 -0.044142 0.006843 0.011741 -0.046919 0.015194 0.000263 -0.056148 0.015194 0.000263 -0.056148 0.015194 0.000263 -0.056148 -0.01145 -0.000837 -0.012164 -0.011371 -0.000364 -0.012477 0.00721 0.003561 -0.00075 -0.008984 -0.000336 -0.010802 -0.010659 0.003889 -0.01528 -0.00929 0.007938 -0.019077 -0.008856 0.008676 -0.020073 0.00937 0.012337 -0.007663 -0.006834 0.008397 -0.017682 -0.007398 0.011153 -0.02341 -0.00929 0.007938 -0.019078 -0.005055 0.01341 -0.02811 -0.00423 0.01378 -0.029602 0.013605 0.017809 -0.016696 -0.002619 0.013843 -0.026671 -0.002351 0.014623 -0.032998 -0.005055 0.01341 -0.02811 0.000611 0.014745 -0.037887 0.001707 0.014402 -0.039547 0.019271 0.019144 -0.026473 0.003019 0.015172 -0.036401 0.003715 0.013772 -0.042587 0.00061 0.014745 -0.037887 0.009876 0.00873 -0.050717 0.009876 0.00873 -0.050717 0.009876 0.00873 -0.050717 0.009876 0.00873 -0.050717 0.015194 0.000263 -0.056148 0.012696 0.004854 -0.053833 0.01886 -0.010338 -0.058056 0.017276 -0.004866 -0.057574 0.019604 -0.004346 -0.055994 0.01886 -0.010338 -0.058056 0.020315 -0.021461 -0.056148 0.020315 -0.021461 -0.056148 0.02013 -0.026684 -0.053833 0.019338 -0.031411 -0.050717 0.019338 -0.031411 -0.050717 0.01797 -0.03546 -0.046919 0.016078 -0.038674 -0.042587 0.016078 -0.038674 -0.042587 0.013734 -0.040931 -0.037887 0.013734 -0.040931 -0.037887 0.013734 -0.040931 -0.037887 0.013734 -0.040931 -0.037887 0.01103 -0.042145 -0.032999 0.008069 -0.042267 -0.02811 0.004964 -0.041294 -0.02341 0.001836 -0.039263 -0.019078 0.00106 -0.038492 -0.018106 -0.004016 -0.032376 -0.012164 -0.004901 -0.03075 -0.011344 -0.008596 -0.022655 -0.008423 -0.009273 -0.020318 -0.008217 -0.011207 -0.01158 -0.008423 -0.011406 -0.009013 -0.009086 -0.010416 0.004607 -0.015954 0.008002 0.008288 -0.003866 -0.010658 0.003889 -0.01528 -0.010659 0.003889 -0.01528 -0.008196 0.004368 -0.013904 -0.006741 0.011786 -0.024728 0.011262 0.015551 -0.011995 -0.007398 0.011153 -0.023409 -0.007398 0.011153 -0.023409 -0.004951 0.011596 -0.021994 -0.001387 0.014663 -0.03459 -0.001762 0.014045 -0.039326 0.016309 0.019022 -0.021584 -0.002351 0.014623 -0.032998 -0.002351 0.014623 -0.032998 7.2e-05 0.01505 -0.031536 0.004848 0.013037 -0.044156 0.006844 0.011741 -0.046919 0.004441 0.011055 -0.048315 0.022375 0.018171 -0.031173 0.003715 0.013772 -0.042587 0.003715 0.013772 -0.042587 0.006108 0.014203 -0.041079 0.014317 0.001874 -0.055336 0.015194 0.000263 -0.056148 0.015046 0.005328 -0.05227 -0.01145 -0.000837 -0.012164 -0.01145 -0.000837 -0.012164 -0.009168 -0.005535 -0.008498 -0.00929 0.007938 -0.019078 -0.005055 0.01341 -0.02811 0.00061 0.014745 -0.037887 0.006844 0.011741 -0.046919 0.025504 0.01614 -0.035505 0.009876 0.00873 -0.050716 0.006843 0.011741 -0.046919 0.009876 0.00873 -0.050717 0.016492 -0.002935 -0.057037 0.01631 -0.002487 -0.056913 -0.001197 -0.036251 -0.015281 -0.006515 -0.027785 -0.009849 -0.01018 -0.017184 -0.007941 -0.011635 -0.006061 -0.009849 -0.010659 0.003889 -0.01528 -0.010659 0.003889 -0.01528 -0.007398 0.011153 -0.02341 -0.007398 0.011153 -0.023409 -0.010417 0.004604 -0.01595 -0.002351 0.014623 -0.032998 -0.002351 0.014623 -0.032998 -0.006744 0.011783 -0.024722 0.003715 0.013772 -0.042587 0.003715 0.013772 -0.042587 -0.001392 0.014663 -0.034582 0.004843 0.01304 -0.04415 0.011852 0.006014 -0.0529 0.011649 0.006292 -0.052676 -0.011615 0.00727 -0.020607 -0.0074 0.012716 -0.029596 0.004964 -0.041294 -0.02341 0.033854 0.004662 -0.044734 0.048539 -0.002769 -0.009147 0.047389 -0.003613 -0.006666 0.048694 -0.003305 -0.009194 0.048335 -0.002266 -0.009007 0.04809 -0.001816 -0.00878 0.047814 -0.001437 -0.008475 0.047517 -0.001141 -0.008103 0.04721 -0.000942 -0.007678 0.046906 -0.000847 -0.007217 0.046615 -0.000859 -0.006738 0.04635 -0.000978 -0.006259 0.046121 -0.001199 -0.005798 0.045935 -0.001514 -0.005374 0.045801 -0.001911 -0.005002 0.045724 -0.002374 -0.004696 0.045705 -0.002886 -0.004469 0.045747 -0.003427 -0.004329 0.045848 -0.003976 -0.004282 0.046003 -0.004513 -0.004329 0.046207 -0.005016 -0.004469 0.046452 -0.005466 -0.004696 0.046729 -0.005845 -0.005002 0.047026 -0.006141 -0.005374 0.047332 -0.00634 -0.005798 0.047637 -0.006435 -0.006259 0.047927 -0.006423 -0.006738 0.048192 -0.006304 -0.007217 0.048422 -0.006083 -0.007678 0.048607 -0.005768 -0.008103 0.048741 -0.005371 -0.008475 0.048819 -0.004908 -0.00878 0.048837 -0.004396 -0.009007 0.048795 -0.003855 -0.009147 0.03752 -0.00594 -0.046641 0.032998 -0.010764 -0.037389 0.03752 -0.00594 -0.046641 0.028536 0.013128 -0.039302 0.028536 0.013128 -0.039302 0.028536 0.013128 -0.039302 0.031356 0.009253 -0.042419 0.037998 -0.027012 -0.039302 0.037998 -0.027012 -0.039302 0.037998 -0.027012 -0.039302 0.03663 -0.031061 -0.035505 0.035936 -0.000468 -0.04616 0.035936 -0.000468 -0.04616 0.033854 0.004662 -0.044734 0.038546 -0.011543 -0.04616 0.038546 -0.011543 -0.04616 0.038546 -0.011543 -0.04616 0.038975 -0.017062 -0.044734 0.038975 -0.017062 -0.044734 0.034738 -0.034276 -0.031173 0.034738 -0.034276 -0.031173 0.032395 -0.036533 -0.026473 0.032395 -0.036533 -0.026473 0.032395 -0.036533 -0.026473 0.026729 -0.037868 -0.016696 0.026729 -0.037868 -0.016696 0.029691 -0.037746 -0.021584 0.026729 -0.037868 -0.016696 0.00721 0.003561 -0.00075 0.007025 -0.001662 0.001565 0.00721 0.003561 -0.00075 0.00937 0.012337 -0.007663 0.00937 0.012337 -0.007663 0.013605 0.017808 -0.016696 0.013605 0.017808 -0.016696 0.019271 0.019144 -0.026473 0.019271 0.019144 -0.026473 0.022375 0.018171 -0.031173 0.025026 0.01645 -0.034843 0.022375 0.018171 -0.031173 0.023625 -0.036895 -0.011995 0.023625 -0.036895 -0.011995 0.023625 -0.036895 -0.011995 0.023625 -0.036895 -0.011995 0.038975 -0.017062 -0.044734 0.038975 -0.017062 -0.044734 0.034738 -0.034276 -0.031173 0.034738 -0.034276 -0.031173 0.037072 -0.033592 -0.029665 0.029691 -0.037746 -0.021584 0.029691 -0.037746 -0.021584 0.029691 -0.037746 -0.021584 0.029691 -0.037746 -0.021584 0.032049 -0.037046 -0.020122 0.017464 -0.031853 -0.003866 0.017464 -0.031853 -0.003866 0.017464 -0.031853 -0.003866 0.014644 -0.027977 -0.00075 0.012146 -0.023386 0.001565 0.012146 -0.023386 0.001565 0.012146 -0.023386 0.001565 0.00848 -0.012785 0.003473 0.00848 -0.012785 0.003473 0.00848 -0.012785 0.003473 0.007025 -0.001662 0.001565 0.007025 -0.001662 0.001565 0.009492 -0.001136 0.002916 0.008002 0.008288 -0.003866 0.008002 0.008288 -0.003866 0.010465 0.008766 -0.002489 0.011262 0.015551 -0.011996 0.011262 0.015551 -0.011996 0.013709 0.015995 -0.010579 0.016309 0.019022 -0.021584 0.016309 0.019022 -0.021584 0.03752 -0.00594 -0.046641 0.03752 -0.00594 -0.046641 0.038264 5.3e-05 -0.044579 0.039841 -0.005393 -0.045059 0.019271 0.019144 -0.026473 0.025504 0.01614 -0.035505 0.02503 0.016447 -0.03485 0.025504 0.01614 -0.035505 0.036193 0.005158 -0.04316 0.038546 -0.011543 -0.04616 0.038975 -0.017062 -0.044734 0.037998 -0.027012 -0.039302 0.03879 -0.022286 -0.042419 0.03879 -0.022286 -0.042419 0.03663 -0.031061 -0.035505 0.03663 -0.031061 -0.035505 0.038955 -0.030393 -0.033976 0.03663 -0.031061 -0.035505 0.034738 -0.034276 -0.031173 0.020496 -0.034864 -0.007663 0.020496 -0.034864 -0.007663 0.020496 -0.034864 -0.007663 0.020496 -0.034864 -0.007663 0.014644 -0.027977 -0.00075 0.014644 -0.027977 -0.00075 0.014644 -0.027977 -0.00075 0.014644 -0.027977 -0.00075 0.010064 -0.018256 0.002991 0.010064 -0.018256 0.002991 0.010064 -0.018256 0.002991 0.010064 -0.018256 0.002991 0.007454 -0.007182 0.002991 0.007454 -0.007182 0.002991 0.007454 -0.007182 0.002991 0.007454 -0.007182 0.002991 0.025504 0.01614 -0.035505 0.027882 0.01658 -0.033976 0.02499 0.016473 -0.034794 0.03879 -0.022286 -0.042419 0.019271 0.019144 -0.026473 0.024769 0.018602 -0.029665 0.031356 0.009253 -0.042419 0.031356 0.009253 -0.042419 0.033706 0.009727 -0.040856 0.037998 -0.027012 -0.039302 0.037998 -0.027012 -0.039302 0.015103 -0.028608 -0.001257 0.019881 -0.031181 -0.002489 0.025504 0.01614 -0.035505 0.025504 0.01614 -0.035505 0.024985 0.016476 -0.034788 0.025504 0.01614 -0.035505 0.03474 -0.035839 -0.024987 0.017464 -0.031853 -0.003866 0.022899 -0.034178 -0.006268 0.012146 -0.023386 0.001565 0.014588 -0.022755 0.002916 0.017075 -0.027324 0.000612 0.00848 -0.012785 0.003473 0.01094 -0.012205 0.004814 0.012517 -0.01765 0.004335 0.007025 -0.001662 0.001565 0.009919 -0.006629 0.004335 0.008002 0.008288 -0.003866 0.009676 0.004062 0.000612 0.011262 0.015551 -0.011995 0.011826 0.012796 -0.006268 0.018732 0.019448 -0.020122 0.016309 0.019022 -0.021584 0.016041 0.018241 -0.015257 0.022375 0.018171 -0.031173 0.021679 0.01957 -0.024987 0.023625 -0.036895 -0.011995 -0.017057 -0.017664 -0.052424 -0.016748 -0.018732 -0.052518 -0.015244 -0.01668 -0.054408 -0.014784 -0.018269 -0.054548 -0.013242 -0.015668 -0.056186 -0.012636 -0.017762 -0.05637 -0.011071 -0.014638 -0.05774 -0.010325 -0.017217 -0.057967 -0.008752 -0.013599 -0.059056 -0.007872 -0.016639 -0.059323 -0.006307 -0.012562 -0.060121 -0.005302 -0.016033 -0.060426 -0.003759 -0.011537 -0.060925 -0.002639 -0.015406 -0.061265 -0.001133 -0.010532 -0.06146 9.2e-05 -0.014762 -0.061832 0.001546 -0.009559 -0.06172 0.002863 -0.014109 -0.062121 0.004251 -0.008627 -0.061705 0.005648 -0.013452 -0.062129 0.006958 -0.007744 -0.061412 0.008421 -0.012799 -0.061857 0.009639 -0.006918 -0.060846 0.011155 -0.012154 -0.061307 0.012269 -0.006159 -0.060012 0.013823 -0.011525 -0.060484 0.014823 -0.005473 -0.058918 0.016399 -0.010918 -0.059397 0.012751 -0.000368 -0.057499 0.010227 -0.001128 -0.058614 0.007647 -0.002009 -0.059482 0.005035 -0.003004 -0.060095 0.002416 -0.004103 -0.060447 -0.000185 -0.005294 -0.060535 -0.002742 -0.006567 -0.060357 -0.005231 -0.007909 -0.059916 -0.007627 -0.009308 -0.059216 -0.009908 -0.010749 -0.058264 -0.012053 -0.01222 -0.057068 -0.014039 -0.013705 -0.05564 -0.015848 -0.015191 -0.053994 -0.017463 -0.016663 -0.052146 -0.01795 -0.015768 -0.051694 -0.016573 -0.013859 -0.053322 -0.014995 -0.011948 -0.054754 -0.01323 -0.010056 -0.055976 -0.011297 -0.008199 -0.056977 -0.009212 -0.006396 -0.057747 -0.006997 -0.004663 -0.058279 -0.004673 -0.003018 -0.058567 -0.002262 -0.001477 -0.05861 0.000212 -5.4e-05 -0.058405 0.002726 0.001237 -0.057956 0.005256 0.002384 -0.057266 0.007777 0.003375 -0.056343 0.010265 0.004201 -0.055195 0.007459 0.008058 -0.052093 0.005012 0.007176 -0.053286 0.002558 0.006093 -0.054284 0.000121 0.004818 -0.055077 -0.002275 0.003364 -0.055657 -0.004607 0.001746 -0.056019 -0.006853 -2.2e-05 -0.056159 -0.008991 -0.001923 -0.056076 -0.011001 -0.003937 -0.05577 -0.012863 -0.006046 -0.055246 -0.014559 -0.008229 -0.054507 -0.016074 -0.010465 -0.053561 -0.017392 -0.012733 -0.052417 -0.0185 -0.015012 -0.051086 -0.019092 -0.014424 -0.050346 -0.018272 -0.011859 -0.051315 -0.017234 -0.009313 -0.052108 -0.015989 -0.006809 -0.052717 -0.014548 -0.004373 -0.053136 -0.012925 -0.002027 -0.053362 -0.011135 0.000207 -0.053391 -0.009197 0.002305 -0.053223 -0.007128 0.004249 -0.052861 -0.004949 0.00602 -0.052308 -0.00268 0.0076 -0.051569 -0.000344 0.008974 -0.050651 0.002037 0.010129 -0.049562 0.001327 0.013076 -0.044003 -0.001031 0.012122 -0.045314 -0.003338 0.010918 -0.046505 -0.005571 0.009476 -0.047566 -0.007708 0.007811 -0.048487 -0.009729 0.005938 -0.049259 -0.011615 0.003875 -0.049875 -0.013348 0.001643 -0.050328 -0.014909 -0.000738 -0.050613 -0.016286 -0.003244 -0.05073 -0.017464 -0.005852 -0.050675 -0.018432 -0.008536 -0.05045 -0.01918 -0.01127 -0.050058 -0.019702 -0.014028 -0.049501 -0.020308 -0.013838 -0.048584 -0.020081 -0.010987 -0.048693 -0.01962 -0.008163 -0.048652 -0.018927 -0.005393 -0.048459 -0.018011 -0.002704 -0.048118 -0.016879 -0.000121 -0.047631 -0.015543 0.002331 -0.047004 -0.014015 0.004628 -0.046241 -0.012311 0.006747 -0.045351 -0.010446 0.008669 -0.044342 -0.008439 0.010375 -0.043224 -0.006309 0.011849 -0.042007 -0.004076 0.013076 -0.040703 -0.004709 0.013923 -0.034461 -0.00698 0.012956 -0.035909 -0.009143 0.011732 -0.037329 -0.011175 0.010262 -0.038707 -0.013058 0.008561 -0.040031 -0.014773 0.006646 -0.041286 -0.016304 0.004533 -0.042462 -0.017637 0.002244 -0.043547 -0.018758 -0.000198 -0.04453 -0.019656 -0.002772 -0.045402 -0.020323 -0.005451 -0.046155 -0.020753 -0.00821 -0.046781 -0.020941 -0.011023 -0.047274 -0.020886 -0.013862 -0.04763 -0.021413 -0.014099 -0.046676 -0.021726 -0.011375 -0.045855 -0.021788 -0.008674 -0.04491 -0.021598 -0.006023 -0.043851 -0.021158 -0.003446 -0.042687 -0.020473 -0.000968 -0.041429 -0.019549 0.001387 -0.040091 -0.018395 0.003595 -0.038684 -0.017021 0.005637 -0.037222 -0.015443 0.007492 -0.03572 -0.013673 0.009142 -0.034191 -0.01173 0.010571 -0.032651 -0.009633 0.011766 -0.031114 -0.009732 0.010469 -0.024918 -0.011931 0.009552 -0.026504 -0.013972 0.008411 -0.028153 -0.015838 0.007056 -0.029848 -0.017509 0.005501 -0.031574 -0.01897 0.00376 -0.033314 -0.020206 0.00185 -0.03505 -0.021206 -0.000209 -0.036767 -0.02196 -0.0024 -0.038447 -0.02246 -0.0047 -0.040075 -0.022702 -0.007087 -0.041635 -0.022684 -0.009538 -0.043111 -0.022406 -0.01203 -0.044491 -0.02187 -0.014539 -0.045759 -0.022239 -0.015166 -0.044914 -0.022955 -0.012963 -0.043233 -0.023409 -0.010768 -0.041454 -0.023594 -0.008602 -0.039593 -0.023511 -0.006486 -0.037668 -0.02316 -0.004439 -0.035699 -0.022544 -0.002483 -0.033704 -0.021668 -0.000635 -0.031701 -0.020543 0.001087 -0.029712 -0.019178 0.002666 -0.027754 -0.017586 0.004086 -0.025846 -0.015783 0.005335 -0.024007 -0.013786 0.006399 -0.022255 -0.012977 0.003241 -0.016828 -0.015128 0.002429 -0.018531 -0.017092 0.001461 -0.020374 -0.01885 0.000346 -0.022338 -0.020384 -0.000905 -0.024405 -0.021681 -0.002279 -0.026554 -0.022726 -0.003764 -0.028766 -0.023511 -0.005345 -0.031019 -0.024028 -0.007008 -0.03329 -0.024271 -0.008735 -0.035559 -0.024239 -0.010511 -0.037803 -0.023932 -0.012318 -0.040001 -0.023353 -0.014139 -0.042131 -0.022506 -0.015956 -0.044173 -0.022661 -0.016878 -0.043565 -0.023582 -0.015511 -0.041226 -0.024235 -0.014127 -0.038808 -0.024613 -0.012739 -0.036334 -0.024711 -0.011361 -0.033828 -0.02453 -0.010006 -0.031313 -0.024071 -0.008688 -0.028815 -0.023338 -0.007418 -0.026357 -0.022339 -0.006209 -0.023963 -0.021083 -0.005073 -0.021657 -0.019582 -0.004021 -0.019459 -0.01785 -0.003063 -0.017392 -0.015905 -0.002207 -0.015475 -0.013765 -0.001463 -0.013727 -0.013949 -0.006661 -0.011422 -0.016087 -0.00733 -0.013204 -0.018027 -0.008061 -0.015176 -0.019753 -0.008847 -0.01732 -0.021246 -0.00968 -0.019615 -0.022493 -0.010553 -0.022038 -0.023481 -0.011456 -0.024567 -0.024202 -0.012381 -0.027178 -0.024648 -0.01332 -0.029844 -0.024814 -0.014263 -0.032541 -0.0247 -0.015201 -0.035242 -0.024306 -0.016125 -0.037922 -0.023636 -0.017027 -0.040554 -0.022697 -0.017897 -0.043114 -0.022613 -0.018974 -0.042835 -0.023512 -0.018629 -0.04014 -0.024142 -0.018238 -0.037376 -0.024498 -0.017803 -0.03457 -0.024576 -0.017329 -0.031749 -0.024376 -0.016821 -0.02894 -0.023899 -0.016284 -0.02617 -0.02315 -0.015722 -0.023465 -0.022136 -0.015142 -0.020853 -0.020868 -0.014548 -0.018357 -0.019356 -0.013946 -0.016002 -0.017617 -0.013343 -0.013812 -0.015666 -0.012744 -0.011805 -0.013522 -0.012154 -0.010003 -0.012501 -0.01773 -0.009524 -0.014659 -0.018239 -0.011333 -0.016635 -0.018705 -0.013351 -0.018408 -0.019123 -0.015558 -0.019963 -0.019489 -0.017932 -0.021283 -0.019801 -0.020452 -0.022357 -0.020054 -0.023093 -0.023173 -0.020246 -0.025829 -0.023724 -0.020376 -0.028634 -0.024006 -0.020442 -0.031481 -0.024014 -0.020444 -0.034343 -0.023749 -0.020382 -0.037192 -0.023214 -0.020256 -0.04 -0.022413 -0.020067 -0.042741 -0.022104 -0.021134 -0.042835 -0.022754 -0.021844 -0.04014 -0.023143 -0.022476 -0.037376 -0.023267 -0.023024 -0.03457 -0.023126 -0.023482 -0.031749 -0.022719 -0.023847 -0.02894 -0.022053 -0.024115 -0.02617 -0.021132 -0.024283 -0.023465 -0.019966 -0.02435 -0.020853 -0.018565 -0.024315 -0.018357 -0.016945 -0.024178 -0.016002 -0.015119 -0.023941 -0.013812 -0.013106 -0.023606 -0.011805 -0.010924 -0.023176 -0.010003 -0.008853 -0.028281 -0.011422 -0.011064 -0.028637 -0.013204 -0.013127 -0.02885 -0.015176 -0.015022 -0.028917 -0.01732 -0.01673 -0.028839 -0.019615 -0.018235 -0.028615 -0.022038 -0.019523 -0.028249 -0.024567 -0.020581 -0.027742 -0.027178 -0.021399 -0.027102 -0.029844 -0.021969 -0.026332 -0.032541 -0.022286 -0.025442 -0.035242 -0.022346 -0.024439 -0.037922 -0.02215 -0.023333 -0.040554 -0.021698 -0.022135 -0.043114 -0.021211 -0.023031 -0.043565 -0.021424 -0.024666 -0.041226 -0.02139 -0.026196 -0.038808 -0.021108 -0.027606 -0.036334 -0.020581 -0.028883 -0.033828 -0.019814 -0.030014 -0.031313 -0.018814 -0.030989 -0.028815 -0.017592 -0.031797 -0.026357 -0.016158 -0.032433 -0.023963 -0.014526 -0.032888 -0.021657 -0.012713 -0.033159 -0.019459 -0.010736 -0.033243 -0.017392 -0.008614 -0.03314 -0.015475 -0.006366 -0.03285 -0.013727 -0.00356 -0.036707 -0.016828 -0.005848 -0.036941 -0.018531 -0.008038 -0.036952 -0.020374 -0.010108 -0.036739 -0.022338 -0.01204 -0.036306 -0.024405 -0.013813 -0.035655 -0.026554 -0.015412 -0.034793 -0.028766 -0.01682 -0.033729 -0.031019 -0.018025 -0.032473 -0.03329 -0.019015 -0.031036 -0.035559 -0.019779 -0.029433 -0.037803 -0.020311 -0.027679 -0.040001 -0.020606 -0.025791 -0.042131 -0.02066 -0.023787 -0.044173 -0.020069 -0.024374 -0.044914 -0.019726 -0.026665 -0.043233 -0.019151 -0.028831 -0.041454 -0.01835 -0.030852 -0.039593 -0.01733 -0.032709 -0.037668 -0.016101 -0.034383 -0.035699 -0.014676 -0.035858 -0.033704 -0.013068 -0.037121 -0.031701 -0.011292 -0.038159 -0.029712 -0.009365 -0.038961 -0.027754 -0.007307 -0.039521 -0.025846 -0.005136 -0.039833 -0.024007 -0.002874 -0.039894 -0.022255 -0.000543 -0.039703 -0.020607 0.002571 -0.041725 -0.024918 0.000194 -0.041886 -0.026504 -0.002142 -0.041777 -0.028153 -0.004416 -0.041398 -0.029848 -0.006606 -0.040753 -0.031574 -0.008691 -0.039848 -0.033314 -0.010649 -0.038691 -0.03505 -0.012464 -0.037295 -0.036767 -0.014117 -0.035671 -0.038447 -0.015592 -0.033837 -0.040075 -0.016875 -0.03181 -0.041635 -0.017953 -0.029608 -0.043111 -0.018818 -0.027255 -0.044491 -0.019459 -0.024771 -0.045759 -0.018853 -0.02496 -0.046676 -0.017916 -0.027537 -0.045855 -0.016765 -0.029981 -0.04491 -0.015411 -0.032269 -0.043851 -0.013867 -0.034378 -0.042687 -0.012147 -0.036289 -0.041429 -0.010269 -0.037983 -0.040091 -0.00825 -0.039443 -0.038684 -0.006109 -0.040657 -0.037222 -0.003868 -0.041611 -0.03572 -0.001548 -0.042297 -0.034191 0.000829 -0.042708 -0.032651 0.003239 -0.042841 -0.031114 0.005661 -0.042693 -0.029596 0.008608 -0.042571 -0.034461 0.006144 -0.042721 -0.035909 0.003663 -0.042591 -0.037329 0.001188 -0.042184 -0.038707 -0.001256 -0.041503 -0.040031 -0.003647 -0.040555 -0.041287 -0.00596 -0.039349 -0.042462 -0.008175 -0.037896 -0.043547 -0.010269 -0.036211 -0.04453 -0.012222 -0.03431 -0.045402 -0.014015 -0.032211 -0.046155 -0.015632 -0.029934 -0.046781 -0.017057 -0.027502 -0.047274 -0.018275 -0.024937 -0.04763 -0.017748 -0.0247 -0.048584 -0.016272 -0.027149 -0.048693 -0.014597 -0.02947 -0.048652 -0.012741 -0.031639 -0.048459 -0.010719 -0.033636 -0.048118 -0.008553 -0.035442 -0.047631 -0.006263 -0.037038 -0.047004 -0.00387 -0.038411 -0.046241 -0.001399 -0.039546 -0.045351 0.001128 -0.040433 -0.044342 0.003686 -0.041063 -0.043224 0.00625 -0.04143 -0.042007 0.008796 -0.041531 -0.040703 0.011299 -0.041364 -0.039326 0.013631 -0.039118 -0.044003 0.011094 -0.039317 -0.045314 0.008492 -0.03927 -0.046505 0.005851 -0.038978 -0.047566 0.003195 -0.038442 -0.048487 0.00055 -0.037669 -0.049259 -0.002059 -0.036666 -0.049875 -0.004606 -0.035442 -0.050328 -0.007067 -0.03401 -0.050613 -0.009418 -0.032382 -0.05073 -0.011636 -0.030575 -0.050675 -0.013701 -0.028606 -0.05045 -0.015592 -0.026494 -0.050058 -0.01729 -0.02426 -0.049501 -0.016921 -0.023632 -0.050346 -0.015042 -0.025561 -0.051315 -0.012977 -0.027376 -0.052108 -0.010744 -0.02906 -0.052717 -0.008366 -0.030596 -0.053136 -0.005866 -0.03197 -0.053362 -0.003268 -0.033169 -0.053391 -0.000596 -0.034181 -0.053223 0.002123 -0.034997 -0.052861 0.004863 -0.035607 -0.052308 0.007599 -0.036008 -0.051569 0.010303 -0.036194 -0.050651 0.01295 -0.036164 -0.049562 0.015513 -0.035919 -0.048315 0.016875 -0.031889 -0.052093 0.014292 -0.032193 -0.053286 0.011612 -0.03232 -0.054284 0.008863 -0.032267 -0.055077 0.00607 -0.032037 -0.055657 0.003261 -0.03163 -0.056019 0.000461 -0.031052 -0.056159 -0.0023 -0.030306 -0.056076 -0.004998 -0.029402 -0.05577 -0.007606 -0.028347 -0.055246 -0.010099 -0.027151 -0.054507 -0.012453 -0.025827 -0.053561 -0.014645 -0.024386 -0.052417 -0.016654 -0.022843 -0.051086 -0.0165 -0.02192 -0.051694 -0.014415 -0.023014 -0.053322 -0.01215 -0.024018 -0.054754 -0.009726 -0.024923 -0.055976 -0.007166 -0.025721 -0.056977 -0.004496 -0.026403 -0.057747 -0.00174 -0.026964 -0.058279 0.001074 -0.027398 -0.058567 0.003919 -0.0277 -0.05861 0.006769 -0.027868 -0.058405 0.009595 -0.0279 -0.057956 0.01237 -0.027796 -0.057266 0.015068 -0.027557 -0.056343 0.017663 -0.027185 -0.055195 0.017847 -0.021987 -0.057499 0.01525 -0.022434 -0.058614 0.012547 -0.022798 -0.059482 0.009766 -0.023075 -0.060095 0.006932 -0.023261 -0.060447 0.004073 -0.023357 -0.060535 0.001217 -0.02336 -0.060357 -0.00161 -0.023271 -0.059916 -0.004379 -0.023089 -0.059216 -0.007063 -0.022819 -0.058264 -0.009639 -0.022461 -0.057068 -0.012079 -0.022019 -0.05564 -0.014362 -0.021497 -0.053994 -0.016464 -0.020901 -0.052146 -0.016547 -0.019825 -0.052424 -0.014486 -0.019895 -0.054408 -0.012243 -0.019907 -0.056186 -0.009841 -0.019859 -0.05774 -0.007302 -0.019752 -0.059056 -0.004651 -0.019588 -0.060121 -0.001913 -0.019368 -0.060925 0.000885 -0.019093 -0.06146 0.003716 -0.018768 -0.06172 0.006554 -0.018394 -0.061705 0.009369 -0.017975 -0.061412 0.012137 -0.017516 -0.060846 0.014829 -0.017021 -0.060012 0.017421 -0.016494 -0.058918 0.040445 0.000483 -0.042777 0.041999 -0.004884 -0.04325 0.042458 0.000818 -0.040771 0.043974 -0.004418 -0.041232 0.044284 0.001055 -0.03858 0.045748 -0.004 -0.039025 0.045905 0.001192 -0.036226 0.047302 -0.003634 -0.03665 0.047305 0.001227 -0.03373 0.048623 -0.003322 -0.034131 0.048472 0.00116 -0.031118 0.049696 -0.003069 -0.03149 0.049392 0.000992 -0.028413 0.050513 -0.002877 -0.028754 0.050059 0.000724 -0.025643 0.051064 -0.002747 -0.025949 0.050465 0.000359 -0.022834 0.051345 -0.002681 -0.023102 0.050607 -9.9e-05 -0.020013 0.051354 -0.002679 -0.02024 0.050483 -0.000647 -0.017207 0.051089 -0.002741 -0.017391 0.050094 -0.001279 -0.014443 0.050553 -0.002867 -0.014582 0.049444 -0.001989 -0.011748 0.049753 -0.003056 -0.011841 0.049038 -0.000988 -0.011469 0.049489 0.00021 -0.014029 0.049686 0.001316 -0.016661 0.049626 0.002319 -0.019341 0.049309 0.003209 -0.022042 0.048739 0.003979 -0.024739 0.047921 0.004619 -0.027405 0.046863 0.005126 -0.030016 0.045575 0.005492 -0.032545 0.044069 0.005716 -0.034968 0.042361 0.005794 -0.037263 0.040467 0.005727 -0.039407 0.038404 0.005514 -0.041379 0.035953 0.010017 -0.039108 0.038076 0.01012 -0.037191 0.040053 0.010036 -0.035124 0.041866 0.009765 -0.032926 0.043497 0.00931 -0.030619 0.044931 0.008674 -0.028226 0.046154 0.007866 -0.025768 0.047154 0.006891 -0.02327 0.047921 0.00576 -0.020755 0.048448 0.004483 -0.018249 0.04873 0.003073 -0.015775 0.048764 0.001543 -0.013357 0.04855 -9.2e-05 -0.011018 0.048 0.000664 -0.01041 0.047946 0.002668 -0.012452 0.047651 0.004556 -0.014582 0.047119 0.00631 -0.01678 0.046354 0.007913 -0.019024 0.045365 0.00935 -0.021293 0.04416 0.010606 -0.023564 0.042752 0.01167 -0.025817 0.041153 0.012532 -0.028028 0.039379 0.013183 -0.030178 0.037448 0.013616 -0.032245 0.035378 0.013829 -0.034209 0.033188 0.013818 -0.036052 0.0309 0.013584 -0.037755 0.030214 0.016771 -0.032328 0.032476 0.01671 -0.030575 0.034646 0.016398 -0.028737 0.036705 0.015838 -0.026829 0.038632 0.015036 -0.024871 0.040408 0.013998 -0.022882 0.042016 0.012735 -0.020879 0.043441 0.01126 -0.018884 0.04467 0.009586 -0.016915 0.045689 0.007729 -0.01499 0.04649 0.005708 -0.013129 0.047065 0.003542 -0.01135 0.047409 0.001251 -0.009669 0.046798 0.001648 -0.008824 0.046157 0.004132 -0.010092 0.045293 0.006486 -0.011471 0.044214 0.008687 -0.012948 0.042931 0.010714 -0.014508 0.041456 0.012549 -0.016136 0.039804 0.014172 -0.017816 0.037989 0.015568 -0.019533 0.03603 0.016725 -0.021269 0.033946 0.01763 -0.023009 0.031756 0.018275 -0.024735 0.029482 0.018654 -0.02643 0.027145 0.018763 -0.028079 0.0241 0.019718 -0.023469 0.026511 0.019585 -0.021932 0.028888 0.019174 -0.020392 0.031208 0.018488 -0.018863 0.033449 0.017534 -0.017361 0.035589 0.01632 -0.015899 0.037608 0.01486 -0.014492 0.039487 0.013166 -0.013154 0.041207 0.011255 -0.011896 0.042751 0.009146 -0.010732 0.044105 0.006858 -0.009673 0.045256 0.004414 -0.008728 0.046193 0.001838 -0.007907 0.045615 0.001814 -0.006953 0.044396 0.004379 -0.007309 0.042972 0.006811 -0.007802 0.041355 0.009088 -0.008428 0.039561 0.011187 -0.009181 0.037608 0.013088 -0.010053 0.035514 0.014773 -0.011036 0.0333 0.016226 -0.012121 0.030987 0.017432 -0.013296 0.028596 0.01838 -0.014552 0.026152 0.019061 -0.015876 0.023677 0.019468 -0.017254 0.021196 0.019598 -0.018674 0.018544 0.018408 -0.01388 0.021089 0.018307 -0.012576 0.023653 0.01794 -0.011359 0.026211 0.01731 -0.010241 0.028738 0.016423 -0.009232 0.03121 0.015288 -0.008342 0.033602 0.013915 -0.007579 0.035893 0.012319 -0.006951 0.038059 0.010513 -0.006465 0.04008 0.008516 -0.006124 0.041937 0.006347 -0.005931 0.043611 0.004026 -0.00589 0.045087 0.001577 -0.005999 0.04463 0.001137 -0.005082 0.042931 0.003371 -0.004525 0.04104 0.005483 -0.004132 0.038976 0.007452 -0.003908 0.036757 0.009259 -0.003853 0.034406 0.010887 -0.003969 0.031945 0.012319 -0.004255 0.029398 0.013543 -0.004708 0.02679 0.014546 -0.005324 0.024145 0.015319 -0.006095 0.021489 0.015855 -0.007017 0.018847 0.016147 -0.008078 0.016246 0.016194 -0.009269 0.01439 0.013041 -0.005021 0.017037 0.013071 -0.003932 0.019741 0.012885 -0.003014 0.022476 0.012484 -0.002275 0.025217 0.011874 -0.001722 0.027936 0.011058 -0.001359 0.030608 0.010046 -0.001192 0.033206 0.008847 -0.001221 0.035706 0.007473 -0.001446 0.038084 0.005937 -0.001866 0.040316 0.004253 -0.002475 0.042382 0.002438 -0.003268 0.044261 0.000509 -0.004237 0.043994 -0.00028 -0.003496 0.041985 0.001263 -0.002165 0.039793 0.002704 -0.001022 0.037439 0.004028 -7.6e-05 0.034946 0.005224 0.000663 0.032338 0.006279 0.001188 0.02964 0.007183 0.001493 0.026878 0.007929 0.001576 0.024079 0.008507 0.001436 0.02127 0.008914 0.001074 0.018477 0.009144 0.000494 0.015727 0.009197 -0.000299 0.013048 0.00907 -0.001296 0.012271 0.004434 0.00176 0.014969 0.004673 0.002683 0.017745 0.004777 0.003373 0.020571 0.004745 0.003822 0.023421 0.004577 0.004027 0.026266 0.004275 0.003985 0.02908 0.003841 0.003696 0.031836 0.00328 0.003164 0.034506 0.002598 0.002394 0.037066 0.0018 0.001393 0.03949 0.000895 0.000171 0.041755 -0.000109 -0.001261 0.04384 -0.001203 -0.002888 0.043803 -0.002222 -0.002437 0.041701 -0.001626 -0.000589 0.039419 -0.001104 0.001057 0.036978 -0.000662 0.002485 0.034403 -0.000304 0.003681 0.031718 -3.3e-05 0.004633 0.028949 0.000148 0.005334 0.026123 0.000237 0.005774 0.023267 0.000234 0.005952 0.020408 0.000139 0.005864 0.017574 -4.8e-05 0.005512 0.014792 -0.000325 0.004899 0.01209 -0.000689 0.004031 0.01251 -0.006102 0.005429 0.015203 -0.005607 0.006263 0.01797 -0.005148 0.006829 0.020786 -0.004729 0.007122 0.023623 -0.004355 0.007137 0.026455 -0.00403 0.006877 0.029252 -0.003755 0.006342 0.03199 -0.003535 0.005538 0.034641 -0.003371 0.004473 0.03718 -0.003264 0.003157 0.039583 -0.003216 0.001603 0.041826 -0.003228 -0.000175 0.043887 -0.003298 -0.002159 0.044087 -0.004391 -0.002065 0.042124 -0.004854 -3.5e-05 0.039976 -0.005361 0.001787 0.037664 -0.005906 0.003384 0.035212 -0.006484 0.00474 0.032641 -0.00709 0.005843 0.029978 -0.007717 0.006682 0.027248 -0.008361 0.007249 0.024477 -0.009014 0.007538 0.021691 -0.009671 0.007546 0.018918 -0.010324 0.007274 0.016185 -0.010969 0.006724 0.013517 -0.011598 0.005902 0.015071 -0.016964 0.005429 0.017701 -0.016205 0.006263 0.020382 -0.015379 0.006829 0.023088 -0.014496 0.007122 0.025794 -0.013564 0.007137 0.028473 -0.012591 0.006877 0.031098 -0.011586 0.006342 0.033646 -0.010561 0.005538 0.036092 -0.009524 0.004473 0.038411 -0.008485 0.003157 0.040582 -0.007455 0.001603 0.042583 -0.006443 -0.000175 0.044396 -0.005459 -0.002159 0.044802 -0.00646 -0.002437 0.043188 -0.007932 -0.000589 0.041378 -0.009418 0.001057 0.039392 -0.010903 0.002485 0.037248 -0.012374 0.003681 0.034967 -0.013815 0.004633 0.03257 -0.015214 0.005334 0.030081 -0.016556 0.005774 0.027525 -0.017829 0.005952 0.024924 -0.01902 0.005864 0.022305 -0.020119 0.005512 0.019693 -0.021114 0.004899 0.017112 -0.021995 0.004031 0.019563 -0.026498 0.00176 0.022084 -0.025507 0.002683 0.024613 -0.02436 0.003373 0.027128 -0.023069 0.003822 0.029602 -0.021646 0.004027 0.032013 -0.020105 0.003985 0.034337 -0.01846 0.003696 0.036552 -0.016727 0.003164 0.038636 -0.014924 0.002394 0.04057 -0.013067 0.001393 0.042335 -0.011175 0.000171 0.043913 -0.009264 -0.001261 0.04529 -0.007355 -0.002889 0.04584 -0.008111 -0.003496 0.044731 -0.01039 -0.002165 0.043414 -0.012658 -0.001022 0.041899 -0.014894 -7.6e-05 0.040203 -0.017077 0.000663 0.038341 -0.019186 0.001188 0.036331 -0.0212 0.001493 0.034192 -0.023101 0.001576 0.031946 -0.024868 0.001436 0.029614 -0.026487 0.001074 0.027218 -0.027941 0.000494 0.024782 -0.029215 -0.000299 0.022328 -0.030299 -0.001296 0.025302 -0.033252 -0.005021 0.027684 -0.032097 -0.003932 0.03002 -0.030723 -0.003014 0.032289 -0.029143 -0.002275 0.034468 -0.027372 -0.001722 0.036537 -0.025428 -0.001359 0.038475 -0.02333 -0.001192 0.040264 -0.021096 -0.001221 0.041887 -0.01875 -0.001446 0.043329 -0.016314 -0.001866 0.044574 -0.01381 -0.002475 0.045612 -0.011264 -0.003268 0.046432 -0.008699 -0.004237 0.047042 -0.009095 -0.005082 0.04652 -0.011853 -0.004525 0.045771 -0.014587 -0.004132 0.044803 -0.017271 -0.003908 0.043626 -0.019879 -0.003853 0.042249 -0.022385 -0.003969 0.040687 -0.024766 -0.004255 0.038955 -0.026998 -0.004708 0.037069 -0.029061 -0.005324 0.035048 -0.030934 -0.006095 0.03291 -0.032599 -0.007017 0.030678 -0.034041 -0.008078 0.028371 -0.035245 -0.009269 0.026012 -0.036199 -0.010579 0.029102 -0.037168 -0.015257 0.031416 -0.036199 -0.01388 0.033648 -0.034972 -0.012576 0.035779 -0.033498 -0.011359 0.037786 -0.031792 -0.010241 0.03965 -0.02987 -0.009232 0.041355 -0.027751 -0.008342 0.042882 -0.025454 -0.007579 0.044219 -0.023002 -0.006951 0.04535 -0.020419 -0.006465 0.046267 -0.01773 -0.006124 0.046959 -0.01496 -0.005931 0.047421 -0.012136 -0.00589 0.047648 -0.009285 -0.005999 0.048225 -0.009261 -0.006953 0.048281 -0.0121 -0.007309 0.048093 -0.014913 -0.007802 0.047663 -0.017672 -0.008428 0.046996 -0.020351 -0.009181 0.046097 -0.022925 -0.010053 0.044976 -0.025367 -0.011036 0.043644 -0.027656 -0.012121 0.042113 -0.029769 -0.013296 0.040397 -0.031684 -0.014552 0.038514 -0.033385 -0.015876 0.036482 -0.034855 -0.017254 0.03432 -0.036079 -0.018674 0.036972 -0.034889 -0.023469 0.03907 -0.033694 -0.021932 0.041013 -0.032265 -0.020392 0.042782 -0.030615 -0.018863 0.044361 -0.02876 -0.017361 0.045734 -0.026718 -0.015899 0.046889 -0.02451 -0.014492 0.047813 -0.022155 -0.013154 0.048498 -0.019677 -0.011896 0.048938 -0.0171 -0.010732 0.049127 -0.014449 -0.009673 0.049066 -0.011748 -0.008728 0.048753 -0.009024 -0.007907 0.04921 -0.008584 -0.008824 0.049746 -0.011093 -0.010092 0.050024 -0.013585 -0.011471 0.050042 -0.016036 -0.012948 0.0498 -0.018423 -0.014508 0.049299 -0.020723 -0.016136 0.048545 -0.022914 -0.017816 0.047546 -0.024973 -0.019533 0.046309 -0.026883 -0.021269 0.044849 -0.028624 -0.023009 0.043178 -0.030179 -0.024735 0.041312 -0.031534 -0.02643 0.03927 -0.032675 -0.028079 0.041126 -0.029522 -0.032328 0.043123 -0.028458 -0.030575 0.044926 -0.027209 -0.028737 0.046517 -0.025789 -0.026829 0.047883 -0.02421 -0.024871 0.049008 -0.022488 -0.022882 0.049883 -0.02064 -0.020879 0.050499 -0.018684 -0.018884 0.050851 -0.016637 -0.016915 0.050934 -0.014521 -0.01499 0.050748 -0.012355 -0.013129 0.050295 -0.01016 -0.01135 0.049579 -0.007957 -0.009669 0.049846 -0.007167 -0.01041 0.050692 -0.008984 -0.012452 0.051272 -0.010805 -0.014582 0.051579 -0.012612 -0.01678 0.051611 -0.014388 -0.019024 0.051367 -0.016115 -0.021293 0.050851 -0.017778 -0.023564 0.050066 -0.019359 -0.025817 0.04902 -0.020844 -0.028028 0.047724 -0.022218 -0.030178 0.04619 -0.023469 -0.032245 0.044432 -0.024584 -0.034209 0.042468 -0.025552 -0.036052 0.040316 -0.026364 -0.037755 0.041105 -0.02166 -0.040856 0.043245 -0.020916 -0.039108 0.04519 -0.02006 -0.037191 0.046921 -0.019102 -0.035124 0.048422 -0.01805 -0.032926 0.049679 -0.016914 -0.030619 0.050678 -0.015705 -0.028226 0.051411 -0.014435 -0.025768 0.05187 -0.013117 -0.02327 0.052051 -0.011762 -0.020755 0.051952 -0.010384 -0.018249 0.051575 -0.008996 -0.015775 0.050922 -0.007612 -0.013357 0.050001 -0.006245 -0.011018 0.050037 -0.005226 -0.011469 0.050976 -0.006096 -0.014029 0.051646 -0.006998 -0.016661 0.05204 -0.007922 -0.019341 0.052154 -0.00886 -0.022042 0.051987 -0.009803 -0.024739 0.051542 -0.010742 -0.027405 0.050821 -0.011667 -0.030015 0.049832 -0.01257 -0.032545 0.048586 -0.013443 -0.034968 0.047092 -0.014276 -0.037263 0.045367 -0.015062 -0.039407 0.043426 -0.015793 -0.041379 0.041289 -0.016461 -0.04316 0.040862 -0.010969 -0.044579 0.043006 -0.010379 -0.042777 0.044957 -0.00978 -0.040771 0.046696 -0.009177 -0.03858 0.048207 -0.008575 -0.036226 0.049476 -0.007981 -0.03373 0.050489 -0.007401 -0.031118 0.051238 -0.006839 -0.028413 0.051715 -0.006302 -0.025643 0.051916 -0.005794 -0.022834 0.051837 -0.00532 -0.020013 0.051482 -0.004885 -0.017207 0.050851 -0.004494 -0.014443 0.049953 -0.004149 -0.011748</float_array>
                    <technique_common>
                        <accessor count="1277" source="#shape0-lib-positions-array" stride="3">
                            <param name="X" type="float"/>
                            <param name="Y" type="float"/>
                            <param name="Z" type="float"/>
                        </accessor>
                    </technique_common>
                </source>
                <vertices id="shape0-lib-vertices">
                    <input semantic="POSITION" source="#shape0-lib-positions"/>
                </vertices>
                <triangles count="2561">
                    <input offset="0" semantic="VERTEX" source="#shape0-lib-vertices"/>
                    <p>0 1 2 0 3 1 0 4 3 0 5 4 0 6 5 0 7 6 0 8 7 0 9 8 0 10 9 0 11 10 0 12 11 0 13 12 0 14 13 0 15 14 0 16 15 0 17 16 0 18 17 0 19 18 0 20 19 0 21 20 0 22 21 0 23 22 0 24 23 0 25 24 0 26 25 0 27 26 0 28 27 0 29 28 0 30 29 0 31 30 0 32 31 0 2 32 33 34 35 33 36 37 34 33 37 38 39 40 38 40 41 38 42 43 39 38 43 44 41 45 46 44 45 46 45 47 46 48 49 44 46 49 50 47 51 52 50 51 52 51 53 52 54 55 50 52 55 56 53 57 58 56 57 58 57 59 58 60 61 56 58 61 62 63 64 65 62 64 65 66 67 62 65 67 68 69 70 68 71 72 69 68 72 73 74 75 76 73 75 76 77 78 73 76 78 79 80 81 82 79 81 82 83 84 79 82 84 85 86 87 88 85 87 88 89 90 85 88 90 91 92 93 94 91 93 94 95 96 91 94 96 97 98 99 100 101 102 103 104 105 106 107 108 109 110 111 109 43 36 110 109 36 112 113 114 113 112 115 113 116 95 112 113 95 117 118 119 118 117 120 118 121 122 117 118 122 123 124 125 124 123 126 124 127 128 123 124 128 129 130 131 130 129 132 130 133 134 129 130 134 135 136 137 135 37 138 136 135 138 139 109 111 139 43 109 34 140 35 34 37 140 49 42 141 39 142 40 39 142 143 39 43 142 144 141 41 145 146 47 145 55 48 146 145 48 147 47 50 50 55 147 148 149 53 148 61 54 149 148 54 150 53 56 56 61 150 151 152 59 151 60 152 153 154 63 153 155 154 153 63 155 155 153 156 67 156 153 157 153 63 157 67 153 158 64 159 160 161 70 160 70 74 161 160 74 161 78 71 160 161 71 162 163 75 162 75 80 163 162 80 163 84 77 162 163 77 164 165 81 164 81 86 165 164 86 165 90 83 164 165 83 166 167 87 166 87 92 167 166 92 167 96 89 166 167 89 97 122 168 169 170 171 170 169 98 98 170 172 98 116 170 100 128 173 174 175 176 175 174 101 101 175 177 101 121 175 178 134 179 103 134 178 180 181 182 181 180 104 104 181 183 104 127 181 184 185 186 106 185 184 187 188 189 188 187 107 107 188 190 107 133 188 33 35 191 192 191 193 110 36 192 194 93 114 195 194 114 94 93 194 194 95 94 194 195 95 112 195 196 112 95 195 197 99 119 97 99 197 197 122 97 198 102 125 100 102 198 198 128 100 199 105 131 103 105 199 200 108 201 202 138 185 200 202 185 136 138 202 202 136 203 106 108 203 203 185 106 204 135 137 204 37 135 205 206 110 205 43 206 144 49 141 207 161 74 161 207 78 208 163 80 163 208 84 209 165 86 165 209 90 210 167 92 167 210 96 211 212 171 211 116 212 213 214 176 213 121 214 215 98 169 168 215 169 215 99 98 215 168 99 98 215 116 98 97 215 215 168 116 215 97 168 216 217 182 216 127 217 218 101 174 173 218 174 218 102 101 218 173 102 101 218 121 101 100 218 218 173 121 218 100 173 219 220 189 219 133 220 221 104 180 178 221 180 221 105 104 221 178 105 104 221 127 104 103 221 221 178 127 221 103 178 222 107 187 184 222 187 222 108 107 222 184 108 107 222 133 107 106 222 222 184 133 222 106 184 192 191 35 191 36 33 191 192 36 112 195 114 199 134 103 137 223 224 224 223 37 224 136 223 98 215 225 101 218 226 221 178 179 104 221 179 222 184 186 107 222 186 154 155 59 59 155 151 224 204 137 37 204 224 111 206 139 139 206 43 41 141 38 38 141 42 59 152 58 58 152 60 227 158 159 66 158 72 72 158 227 227 69 72 74 73 207 207 73 78 80 79 208 208 79 84 86 85 209 209 85 90 92 91 210 210 91 96 171 212 113 113 212 116 176 214 118 118 214 121 171 170 211 211 170 116 182 217 124 124 217 127 176 175 213 213 175 121 189 220 130 130 220 133 182 181 216 216 181 127 189 188 219 219 188 133 117 197 119 122 197 117 123 198 125 128 198 123 129 199 131 134 199 129 142 205 228 43 205 142 41 44 144 144 44 49 146 46 47 48 46 146 147 145 47 55 145 147 149 52 53 54 52 149 150 148 53 61 148 150 62 157 63 67 157 62 158 65 64 66 65 158 160 68 70 71 68 160 162 76 75 77 76 162 164 82 81 83 82 164 166 88 87 89 88 166 108 200 203 203 200 185 37 223 140 218 173 226 173 128 226 229 230 231 232 230 229 233 230 232 234 230 233 235 230 234 236 230 235 237 230 236 238 230 237 239 230 238 240 230 239 241 230 240 242 230 241 243 230 242 244 230 243 245 230 244 246 230 245 247 230 246 248 230 247 249 230 248 250 230 249 251 230 250 252 230 251 253 230 252 254 230 253 255 230 254 256 230 255 257 230 256 258 230 257 259 230 258 260 230 259 261 230 260 231 230 261 262 263 264 265 266 267 267 266 268 269 270 271 271 270 272 273 274 41 273 264 41 273 274 264 275 274 228 276 277 264 278 279 280 281 282 272 283 284 282 283 285 284 286 287 288 286 289 287 290 114 291 290 292 114 293 119 169 293 294 119 295 125 174 295 296 125 297 131 180 297 298 131 299 300 187 299 187 301 302 303 304 305 302 304 302 303 305 306 280 307 308 282 309 308 309 310 311 312 288 313 311 288 314 288 312 314 312 315 316 317 318 316 319 318 320 321 322 323 324 325 326 291 327 326 327 328 329 169 330 329 330 331 332 174 333 332 333 334 335 180 336 337 338 339 338 340 262 297 131 105 341 297 105 297 341 180 342 343 108 342 343 344 274 275 345 276 278 264 276 277 278 346 264 263 346 276 264 278 277 279 347 307 280 347 280 279 348 349 350 281 272 351 351 352 353 351 281 354 355 309 282 355 310 309 356 357 304 356 358 357 359 304 356 360 361 317 360 362 361 363 317 360 364 365 321 364 366 365 367 321 364 368 369 324 368 370 369 371 324 368 372 344 373 374 187 300 280 306 375 376 180 335 376 297 180 338 262 264 337 338 264 352 351 272 376 297 105 343 300 377 343 344 300 300 187 343 378 379 268 378 380 379 381 269 271 381 271 382 363 383 317 316 383 319 383 384 363 385 386 201 385 373 386 372 373 385 374 300 344 383 317 316 387 374 108 374 344 387 374 387 187 344 388 342 282 281 355 355 281 310 315 313 389 357 390 317 358 390 357 384 390 391 361 392 321 362 392 361 393 392 394 365 395 324 366 395 365 396 395 397 369 398 291 370 398 369 328 398 399 331 400 401 334 402 403 404 405 406 377 407 408 409 305 304 390 318 317 384 318 390 392 322 321 393 322 392 395 325 324 396 325 395 398 327 291 328 327 398 400 330 169 331 330 400 402 333 174 334 333 402 405 336 180 404 336 405 407 301 187 377 301 407 270 352 272 270 352 354 268 266 378 378 266 380 282 308 283 288 314 286 291 326 290 169 329 293 174 332 295 273 337 264 339 337 273 303 359 304 320 367 321 323 371 324 267 268 35 267 35 140 268 228 111 268 111 110 228 274 40 228 40 142 264 278 45 264 45 41 278 280 47 278 47 45 280 349 51 280 51 47 349 271 53 349 53 51 271 272 57 271 57 53 272 282 59 272 59 57 282 284 154 282 154 59 284 288 63 284 63 154 288 287 64 288 64 63 287 304 159 287 159 64 304 357 70 304 70 159 357 317 74 357 74 70 317 361 75 317 75 74 361 321 80 361 80 75 321 365 81 321 81 80 365 324 86 365 86 81 324 369 87 324 87 86 369 291 92 369 92 87 291 114 93 291 93 92 114 169 171 114 171 113 169 119 99 169 99 168 119 174 176 119 176 118 174 125 102 174 102 173 125 180 182 125 182 124 180 376 105 180 105 178 131 187 189 131 189 130 187 387 108 187 108 184 201 267 137 201 137 136 2 1 410 2 410 411 411 410 412 411 412 413 413 412 414 413 414 415 415 414 416 415 416 417 417 416 418 417 418 419 419 418 420 419 420 421 421 420 422 421 422 423 423 422 424 423 424 425 425 424 426 425 426 427 427 426 428 427 428 429 429 428 430 429 430 431 431 430 432 431 432 433 433 432 434 433 434 435 435 434 436 435 436 437 437 436 43 437 43 42 436 438 36 436 36 43 434 439 438 434 438 436 432 440 439 432 439 434 430 441 440 430 440 432 428 442 441 428 441 430 426 443 442 426 442 428 424 444 443 424 443 426 422 445 444 422 444 424 420 446 445 420 445 422 418 447 446 418 446 420 416 448 447 416 447 418 414 449 448 414 448 416 412 450 449 412 449 414 410 451 450 410 450 412 1 3 451 1 451 410 3 4 452 3 452 451 451 452 453 451 453 450 450 453 454 450 454 449 449 454 455 449 455 448 448 455 456 448 456 447 447 456 457 447 457 446 446 457 458 446 458 445 445 458 459 445 459 444 444 459 460 444 460 443 443 460 461 443 461 442 442 461 462 442 462 441 441 462 463 441 463 440 440 463 464 440 464 439 439 464 465 439 465 438 438 465 37 438 37 36 465 466 138 465 138 37 464 467 466 464 466 465 463 468 467 463 467 464 462 469 468 462 468 463 461 470 469 461 469 462 460 471 470 460 470 461 459 472 471 459 471 460 458 473 472 458 472 459 457 474 473 457 473 458 456 475 474 456 474 457 455 476 475 455 475 456 454 477 476 454 476 455 453 478 477 453 477 454 452 479 478 452 478 453 4 5 479 4 479 452 5 6 480 5 480 479 479 480 481 479 481 478 478 481 482 478 482 477 477 482 483 477 483 476 476 483 484 476 484 475 475 484 485 475 485 474 474 485 486 474 486 473 473 486 487 473 487 472 472 487 488 472 488 471 471 488 489 471 489 470 470 489 490 470 490 469 469 490 491 469 491 468 468 491 492 468 492 467 467 492 186 467 186 466 466 186 185 466 185 138 186 493 133 186 133 107 492 494 493 492 493 186 491 495 494 491 494 492 490 496 495 490 495 491 489 497 496 489 496 490 488 498 497 488 497 489 487 499 498 487 498 488 486 500 499 486 499 487 485 501 500 485 500 486 484 502 501 484 501 485 483 503 502 483 502 484 482 504 503 482 503 483 481 505 504 481 504 482 480 506 505 480 505 481 6 7 506 6 506 480 7 8 507 7 507 506 506 507 508 506 508 505 505 508 509 505 509 504 504 509 510 504 510 503 503 510 511 503 511 502 502 511 512 502 512 501 501 512 513 501 513 500 500 513 514 500 514 499 499 514 515 499 515 498 498 515 516 498 516 497 497 516 517 497 517 496 496 517 518 496 518 495 495 518 519 495 519 494 494 519 179 494 179 493 493 179 134 493 134 133 179 520 127 179 127 104 519 521 520 519 520 179 518 522 521 518 521 519 517 523 522 517 522 518 516 524 523 516 523 517 515 525 524 515 524 516 514 526 525 514 525 515 513 527 526 513 526 514 512 528 527 512 527 513 511 529 528 511 528 512 510 530 529 510 529 511 509 531 530 509 530 510 508 532 531 508 531 509 507 533 532 507 532 508 8 9 533 8 533 507 9 10 534 9 534 533 533 534 535 533 535 532 532 535 536 532 536 531 531 536 537 531 537 530 530 537 538 530 538 529 529 538 539 529 539 528 528 539 540 528 540 527 527 540 541 527 541 526 526 541 542 526 542 525 525 542 543 525 543 524 524 543 544 524 544 523 523 544 545 523 545 522 522 545 546 522 546 521 521 546 226 521 226 520 520 226 128 520 128 127 226 547 121 226 121 101 546 548 547 546 547 226 545 549 548 545 548 546 544 550 549 544 549 545 543 551 550 543 550 544 542 552 551 542 551 543 541 553 552 541 552 542 540 554 553 540 553 541 539 555 554 539 554 540 538 556 555 538 555 539 537 557 556 537 556 538 536 558 557 536 557 537 535 559 558 535 558 536 534 560 559 534 559 535 10 11 560 10 560 534 11 12 561 11 561 560 560 561 562 560 562 559 559 562 563 559 563 558 558 563 564 558 564 557 557 564 565 557 565 556 556 565 566 556 566 555 555 566 567 555 567 554 554 567 568 554 568 553 553 568 569 553 569 552 552 569 570 552 570 551 551 570 571 551 571 550 550 571 572 550 572 549 549 572 573 549 573 548 548 573 225 548 225 547 547 225 122 547 122 121 225 574 116 225 116 98 573 575 574 573 574 225 572 576 575 572 575 573 571 577 576 571 576 572 570 578 577 570 577 571 569 579 578 569 578 570 568 580 579 568 579 569 567 581 580 567 580 568 566 582 581 566 581 567 565 583 582 565 582 566 564 584 583 564 583 565 563 585 584 563 584 564 562 586 585 562 585 563 561 587 586 561 586 562 12 13 587 12 587 561 13 14 588 13 588 587 587 588 589 587 589 586 586 589 590 586 590 585 585 590 591 585 591 584 584 591 592 584 592 583 583 592 593 583 593 582 582 593 594 582 594 581 581 594 595 581 595 580 580 595 596 580 596 579 579 596 597 579 597 578 578 597 598 578 598 577 577 598 599 577 599 576 576 599 600 576 600 575 575 600 601 575 601 574 574 601 95 574 95 116 601 602 96 601 96 95 600 603 602 600 602 601 599 604 603 599 603 600 598 605 604 598 604 599 597 606 605 597 605 598 596 607 606 596 606 597 595 608 607 595 607 596 594 609 608 594 608 595 593 610 609 593 609 594 592 611 610 592 610 593 591 612 611 591 611 592 590 613 612 590 612 591 589 614 613 589 613 590 588 615 614 588 614 589 14 15 615 14 615 588 15 16 616 15 616 615 615 616 617 615 617 614 614 617 618 614 618 613 613 618 619 613 619 612 612 619 620 612 620 611 611 620 621 611 621 610 610 621 622 610 622 609 609 622 623 609 623 608 608 623 624 608 624 607 607 624 625 607 625 606 606 625 626 606 626 605 605 626 627 605 627 604 604 627 628 604 628 603 603 628 629 603 629 602 602 629 89 602 89 96 629 630 90 629 90 89 628 631 630 628 630 629 627 632 631 627 631 628 626 633 632 626 632 627 625 634 633 625 633 626 624 635 634 624 634 625 623 636 635 623 635 624 622 637 636 622 636 623 621 638 637 621 637 622 620 639 638 620 638 621 619 640 639 619 639 620 618 641 640 618 640 619 617 642 641 617 641 618 616 643 642 616 642 617 16 17 643 16 643 616 17 18 644 17 644 643 643 644 645 643 645 642 642 645 646 642 646 641 641 646 647 641 647 640 640 647 648 640 648 639 639 648 649 639 649 638 638 649 650 638 650 637 637 650 651 637 651 636 636 651 652 636 652 635 635 652 653 635 653 634 634 653 654 634 654 633 633 654 655 633 655 632 632 655 656 632 656 631 631 656 657 631 657 630 630 657 83 630 83 90 657 658 84 657 84 83 656 659 658 656 658 657 655 660 659 655 659 656 654 661 660 654 660 655 653 662 661 653 661 654 652 663 662 652 662 653 651 664 663 651 663 652 650 665 664 650 664 651 649 666 665 649 665 650 648 667 666 648 666 649 647 668 667 647 667 648 646 669 668 646 668 647 645 670 669 645 669 646 644 671 670 644 670 645 18 19 671 18 671 644 19 20 672 19 672 671 671 672 673 671 673 670 670 673 674 670 674 669 669 674 675 669 675 668 668 675 676 668 676 667 667 676 677 667 677 666 666 677 678 666 678 665 665 678 679 665 679 664 664 679 680 664 680 663 663 680 681 663 681 662 662 681 682 662 682 661 661 682 683 661 683 660 660 683 684 660 684 659 659 684 685 659 685 658 658 685 77 658 77 84 685 686 78 685 78 77 684 687 686 684 686 685 683 688 687 683 687 684 682 689 688 682 688 683 681 690 689 681 689 682 680 691 690 680 690 681 679 692 691 679 691 680 678 693 692 678 692 679 677 694 693 677 693 678 676 695 694 676 694 677 675 696 695 675 695 676 674 697 696 674 696 675 673 698 697 673 697 674 672 699 698 672 698 673 20 21 699 20 699 672 21 22 700 21 700 699 699 700 701 699 701 698 698 701 702 698 702 697 697 702 703 697 703 696 696 703 704 696 704 695 695 704 705 695 705 694 694 705 706 694 706 693 693 706 707 693 707 692 692 707 708 692 708 691 691 708 709 691 709 690 690 709 710 690 710 689 689 710 711 689 711 688 688 711 712 688 712 687 687 712 713 687 713 686 686 713 71 686 71 78 713 714 72 713 72 71 712 715 714 712 714 713 711 716 715 711 715 712 710 717 716 710 716 711 709 718 717 709 717 710 708 719 718 708 718 709 707 720 719 707 719 708 706 721 720 706 720 707 705 722 721 705 721 706 704 723 722 704 722 705 703 724 723 703 723 704 702 725 724 702 724 703 701 726 725 701 725 702 700 727 726 700 726 701 22 23 727 22 727 700 23 24 728 23 728 727 727 728 729 727 729 726 726 729 730 726 730 725 725 730 731 725 731 724 724 731 732 724 732 723 723 732 733 723 733 722 722 733 734 722 734 721 721 734 735 721 735 720 720 735 736 720 736 719 719 736 737 719 737 718 718 737 738 718 738 717 717 738 739 717 739 716 716 739 740 716 740 715 715 740 741 715 741 714 714 741 66 714 66 72 741 742 67 741 67 66 740 743 742 740 742 741 739 744 743 739 743 740 738 745 744 738 744 739 737 746 745 737 745 738 736 747 746 736 746 737 735 748 747 735 747 736 734 749 748 734 748 735 733 750 749 733 749 734 732 751 750 732 750 733 731 752 751 731 751 732 730 753 752 730 752 731 729 754 753 729 753 730 728 755 754 728 754 729 24 25 755 24 755 728 25 26 756 25 756 755 755 756 757 755 757 754 754 757 758 754 758 753 753 758 759 753 759 752 752 759 760 752 760 751 751 760 761 751 761 750 750 761 762 750 762 749 749 762 763 749 763 748 748 763 764 748 764 747 747 764 765 747 765 746 746 765 766 746 766 745 745 766 767 745 767 744 744 767 768 744 768 743 743 768 769 743 769 742 742 769 156 742 156 67 769 770 60 769 60 156 768 771 770 768 770 769 767 772 771 767 771 768 766 773 772 766 772 767 765 774 773 765 773 766 764 775 774 764 774 765 763 776 775 763 775 764 762 777 776 762 776 763 761 778 777 761 777 762 760 779 778 760 778 761 759 780 779 759 779 760 758 781 780 758 780 759 757 782 781 757 781 758 756 783 782 756 782 757 26 27 783 26 783 756 27 28 784 27 784 783 783 784 785 783 785 782 782 785 786 782 786 781 781 786 787 781 787 780 780 787 788 780 788 779 779 788 789 779 789 778 778 789 790 778 790 777 777 790 791 777 791 776 776 791 792 776 792 775 775 792 793 775 793 774 774 793 794 774 794 773 773 794 795 773 795 772 772 795 796 772 796 771 771 796 797 771 797 770 770 797 61 770 61 60 797 798 54 797 54 61 796 799 798 796 798 797 795 800 799 795 799 796 794 801 800 794 800 795 793 802 801 793 801 794 792 803 802 792 802 793 791 804 803 791 803 792 790 805 804 790 804 791 789 806 805 789 805 790 788 807 806 788 806 789 787 808 807 787 807 788 786 809 808 786 808 787 785 810 809 785 809 786 784 811 810 784 810 785 28 29 811 28 811 784 29 30 812 29 812 811 811 812 813 811 813 810 810 813 814 810 814 809 809 814 815 809 815 808 808 815 816 808 816 807 807 816 817 807 817 806 806 817 818 806 818 805 805 818 819 805 819 804 804 819 820 804 820 803 803 820 821 803 821 802 802 821 822 802 822 801 801 822 823 801 823 800 800 823 824 800 824 799 799 824 825 799 825 798 798 825 55 798 55 54 825 826 48 825 48 55 824 827 826 824 826 825 823 828 827 823 827 824 822 829 828 822 828 823 821 830 829 821 829 822 820 831 830 820 830 821 819 832 831 819 831 820 818 833 832 818 832 819 817 834 833 817 833 818 816 835 834 816 834 817 815 836 835 815 835 816 814 837 836 814 836 815 813 838 837 813 837 814 812 839 838 812 838 813 30 31 839 30 839 812 31 32 840 31 840 839 839 840 841 839 841 838 838 841 842 838 842 837 837 842 843 837 843 836 836 843 844 836 844 835 835 844 845 835 845 834 834 845 846 834 846 833 833 846 847 833 847 832 832 847 848 832 848 831 831 848 849 831 849 830 830 849 850 830 850 829 829 850 851 829 851 828 828 851 852 828 852 827 827 852 853 827 853 826 826 853 49 826 49 48 853 437 42 853 42 49 852 435 437 852 437 853 851 433 435 851 435 852 850 431 433 850 433 851 849 429 431 849 431 850 848 427 429 848 429 849 847 425 427 847 427 848 846 423 425 846 425 847 845 421 423 845 423 846 844 419 421 844 421 845 843 417 419 843 419 844 842 415 417 842 417 843 841 413 415 841 415 842 840 411 413 840 413 841 32 2 411 32 411 840 69 227 159 69 159 70 110 192 35 110 35 268 140 223 137 140 137 267 206 111 228 206 228 205 168 122 225 168 225 215 202 200 201 202 201 136 60 151 155 60 155 156 340 339 854 340 854 855 855 854 856 855 856 857 857 856 858 857 858 859 859 858 860 859 860 861 861 860 862 861 862 863 863 862 864 863 864 865 865 864 866 865 866 867 867 866 868 867 868 869 869 868 870 869 870 871 871 870 872 871 872 873 873 872 874 873 874 875 875 874 876 875 876 877 877 876 878 877 878 879 879 878 229 879 229 231 878 880 232 878 232 229 876 881 880 876 880 878 874 882 881 874 881 876 872 883 882 872 882 874 870 884 883 870 883 872 868 885 884 868 884 870 866 886 885 866 885 868 864 887 886 864 886 866 862 888 887 862 887 864 860 889 888 860 888 862 858 890 889 858 889 860 856 891 890 856 890 858 854 892 891 854 891 856 339 345 892 339 892 854 273 274 345 273 345 339 345 380 893 345 893 892 892 893 894 892 894 891 891 894 895 891 895 890 890 895 896 890 896 889 889 896 897 889 897 888 888 897 898 888 898 887 887 898 899 887 899 886 886 899 900 886 900 885 885 900 901 885 901 884 884 901 902 884 902 883 883 902 903 883 903 882 882 903 904 882 904 881 881 904 905 881 905 880 880 905 233 880 233 232 905 906 234 905 234 233 904 907 906 904 906 905 903 908 907 903 907 904 902 909 908 902 908 903 901 910 909 901 909 902 900 911 910 900 910 901 899 912 911 899 911 900 898 913 912 898 912 899 897 914 913 897 913 898 896 915 914 896 914 897 895 916 915 895 915 896 894 917 916 894 916 895 893 918 917 893 917 894 380 919 918 380 918 893 919 373 920 919 920 918 918 920 921 918 921 917 917 921 922 917 922 916 916 922 923 916 923 915 915 923 924 915 924 914 914 924 925 914 925 913 913 925 926 913 926 912 912 926 927 912 927 911 911 927 928 911 928 910 910 928 929 910 929 909 909 929 930 909 930 908 908 930 931 908 931 907 907 931 932 907 932 906 906 932 235 906 235 234 932 933 236 932 236 235 931 934 933 931 933 932 930 935 934 930 934 931 929 936 935 929 935 930 928 937 936 928 936 929 927 938 937 927 937 928 926 939 938 926 938 927 925 940 939 925 939 926 924 941 940 924 940 925 923 942 941 923 941 924 922 943 942 922 942 923 921 944 943 921 943 922 920 945 944 920 944 921 373 377 945 373 945 920 344 343 377 344 377 373 377 408 946 377 946 945 945 946 947 945 947 944 944 947 948 944 948 943 943 948 949 943 949 942 942 949 950 942 950 941 941 950 951 941 951 940 940 951 952 940 952 939 939 952 953 939 953 938 938 953 954 938 954 937 937 954 955 937 955 936 936 955 956 936 956 935 935 956 957 935 957 934 934 957 958 934 958 933 933 958 237 933 237 236 958 959 238 958 238 237 957 960 959 957 959 958 956 961 960 956 960 957 955 962 961 955 961 956 954 963 962 954 962 955 953 964 963 953 963 954 952 965 964 952 964 953 951 966 965 951 965 952 950 967 966 950 966 951 949 968 967 949 967 950 948 969 968 948 968 949 947 970 969 947 969 948 946 971 970 946 970 947 408 404 971 408 971 946 404 406 972 404 972 971 971 972 973 971 973 970 970 973 974 970 974 969 969 974 975 969 975 968 968 975 976 968 976 967 967 976 977 967 977 966 966 977 978 966 978 965 965 978 979 965 979 964 964 979 980 964 980 963 963 980 981 963 981 962 962 981 982 962 982 961 961 982 983 961 983 960 960 983 984 960 984 959 959 984 239 959 239 238 984 985 240 984 240 239 983 986 985 983 985 984 982 987 986 982 986 983 981 988 987 981 987 982 980 989 988 980 988 981 979 990 989 979 989 980 978 991 990 978 990 979 977 992 991 977 991 978 976 993 992 976 992 977 975 994 993 975 993 976 974 995 994 974 994 975 973 996 995 973 995 974 972 997 996 972 996 973 406 334 997 406 997 972 334 403 998 334 998 997 997 998 999 997 999 996 996 999 1000 996 1000 995 995 1000 1001 995 1001 994 994 1001 1002 994 1002 993 993 1002 1003 993 1003 992 992 1003 1004 992 1004 991 991 1004 1005 991 1005 990 990 1005 1006 990 1006 989 989 1006 1007 989 1007 988 988 1007 1008 988 1008 987 987 1008 1009 987 1009 986 986 1009 1010 986 1010 985 985 1010 241 985 241 240 1010 1011 242 1010 242 241 1009 1012 1011 1009 1011 1010 1008 1013 1012 1008 1012 1009 1007 1014 1013 1007 1013 1008 1006 1015 1014 1006 1014 1007 1005 1016 1015 1005 1015 1006 1004 1017 1016 1004 1016 1005 1003 1018 1017 1003 1017 1004 1002 1019 1018 1002 1018 1003 1001 1020 1019 1001 1019 1002 1000 1021 1020 1000 1020 1001 999 1022 1021 999 1021 1000 998 1023 1022 998 1022 999 403 331 1023 403 1023 998 331 401 1024 331 1024 1023 1023 1024 1025 1023 1025 1022 1022 1025 1026 1022 1026 1021 1021 1026 1027 1021 1027 1020 1020 1027 1028 1020 1028 1019 1019 1028 1029 1019 1029 1018 1018 1029 1030 1018 1030 1017 1017 1030 1031 1017 1031 1016 1016 1031 1032 1016 1032 1015 1015 1032 1033 1015 1033 1014 1014 1033 1034 1014 1034 1013 1013 1034 1035 1013 1035 1012 1012 1035 1036 1012 1036 1011 1011 1036 243 1011 243 242 1036 1037 244 1036 244 243 1035 1038 1037 1035 1037 1036 1034 1039 1038 1034 1038 1035 1033 1040 1039 1033 1039 1034 1032 1041 1040 1032 1040 1033 1031 1042 1041 1031 1041 1032 1030 1043 1042 1030 1042 1031 1029 1044 1043 1029 1043 1030 1028 1045 1044 1028 1044 1029 1027 1046 1045 1027 1045 1028 1026 1047 1046 1026 1046 1027 1025 1048 1047 1025 1047 1026 1024 1049 1048 1024 1048 1025 401 328 1049 401 1049 1024 328 399 1050 328 1050 1049 1049 1050 1051 1049 1051 1048 1048 1051 1052 1048 1052 1047 1047 1052 1053 1047 1053 1046 1046 1053 1054 1046 1054 1045 1045 1054 1055 1045 1055 1044 1044 1055 1056 1044 1056 1043 1043 1056 1057 1043 1057 1042 1042 1057 1058 1042 1058 1041 1041 1058 1059 1041 1059 1040 1040 1059 1060 1040 1060 1039 1039 1060 1061 1039 1061 1038 1038 1061 1062 1038 1062 1037 1037 1062 245 1037 245 244 1062 1063 246 1062 246 245 1061 1064 1063 1061 1063 1062 1060 1065 1064 1060 1064 1061 1059 1066 1065 1059 1065 1060 1058 1067 1066 1058 1066 1059 1057 1068 1067 1057 1067 1058 1056 1069 1068 1056 1068 1057 1055 1070 1069 1055 1069 1056 1054 1071 1070 1054 1070 1055 1053 1072 1071 1053 1071 1054 1052 1073 1072 1052 1072 1053 1051 1074 1073 1051 1073 1052 1050 1075 1074 1050 1074 1051 399 396 1075 399 1075 1050 396 397 1076 396 1076 1075 1075 1076 1077 1075 1077 1074 1074 1077 1078 1074 1078 1073 1073 1078 1079 1073 1079 1072 1072 1079 1080 1072 1080 1071 1071 1080 1081 1071 1081 1070 1070 1081 1082 1070 1082 1069 1069 1082 1083 1069 1083 1068 1068 1083 1084 1068 1084 1067 1067 1084 1085 1067 1085 1066 1066 1085 1086 1066 1086 1065 1065 1086 1087 1065 1087 1064 1064 1087 1088 1064 1088 1063 1063 1088 247 1063 247 246 1088 1089 248 1088 248 247 1087 1090 1089 1087 1089 1088 1086 1091 1090 1086 1090 1087 1085 1092 1091 1085 1091 1086 1084 1093 1092 1084 1092 1085 1083 1094 1093 1083 1093 1084 1082 1095 1094 1082 1094 1083 1081 1096 1095 1081 1095 1082 1080 1097 1096 1080 1096 1081 1079 1098 1097 1079 1097 1080 1078 1099 1098 1078 1098 1079 1077 1100 1099 1077 1099 1078 1076 1101 1100 1076 1100 1077 397 393 1101 397 1101 1076 393 394 1102 393 1102 1101 1101 1102 1103 1101 1103 1100 1100 1103 1104 1100 1104 1099 1099 1104 1105 1099 1105 1098 1098 1105 1106 1098 1106 1097 1097 1106 1107 1097 1107 1096 1096 1107 1108 1096 1108 1095 1095 1108 1109 1095 1109 1094 1094 1109 1110 1094 1110 1093 1093 1110 1111 1093 1111 1092 1092 1111 1112 1092 1112 1091 1091 1112 1113 1091 1113 1090 1090 1113 1114 1090 1114 1089 1089 1114 249 1089 249 248 1114 1115 250 1114 250 249 1113 1116 1115 1113 1115 1114 1112 1117 1116 1112 1116 1113 1111 1118 1117 1111 1117 1112 1110 1119 1118 1110 1118 1111 1109 1120 1119 1109 1119 1110 1108 1121 1120 1108 1120 1109 1107 1122 1121 1107 1121 1108 1106 1123 1122 1106 1122 1107 1105 1124 1123 1105 1123 1106 1104 1125 1124 1104 1124 1105 1103 1126 1125 1103 1125 1104 1102 1127 1126 1102 1126 1103 394 384 1127 394 1127 1102 384 391 1128 384 1128 1127 1127 1128 1129 1127 1129 1126 1126 1129 1130 1126 1130 1125 1125 1130 1131 1125 1131 1124 1124 1131 1132 1124 1132 1123 1123 1132 1133 1123 1133 1122 1122 1133 1134 1122 1134 1121 1121 1134 1135 1121 1135 1120 1120 1135 1136 1120 1136 1119 1119 1136 1137 1119 1137 1118 1118 1137 1138 1118 1138 1117 1117 1138 1139 1117 1139 1116 1116 1139 1140 1116 1140 1115 1115 1140 251 1115 251 250 1140 1141 252 1140 252 251 1139 1142 1141 1139 1141 1140 1138 1143 1142 1138 1142 1139 1137 1144 1143 1137 1143 1138 1136 1145 1144 1136 1144 1137 1135 1146 1145 1135 1145 1136 1134 1147 1146 1134 1146 1135 1133 1148 1147 1133 1147 1134 1132 1149 1148 1132 1148 1133 1131 1150 1149 1131 1149 1132 1130 1151 1150 1130 1150 1131 1129 1152 1151 1129 1151 1130 1128 1153 1152 1128 1152 1129 391 1154 1153 391 1153 1128 1154 1155 1156 1154 1156 1153 1153 1156 1157 1153 1157 1152 1152 1157 1158 1152 1158 1151 1151 1158 1159 1151 1159 1150 1150 1159 1160 1150 1160 1149 1149 1160 1161 1149 1161 1148 1148 1161 1162 1148 1162 1147 1147 1162 1163 1147 1163 1146 1146 1163 1164 1146 1164 1145 1145 1164 1165 1145 1165 1144 1144 1165 1166 1144 1166 1143 1143 1166 1167 1143 1167 1142 1142 1167 1168 1142 1168 1141 1141 1168 253 1141 253 252 1168 1169 254 1168 254 253 1167 1170 1169 1167 1169 1168 1166 1171 1170 1166 1170 1167 1165 1172 1171 1165 1171 1166 1164 1173 1172 1164 1172 1165 1163 1174 1173 1163 1173 1164 1162 1175 1174 1162 1174 1163 1161 1176 1175 1161 1175 1162 1160 1177 1176 1160 1176 1161 1159 1178 1177 1159 1177 1160 1158 1179 1178 1158 1178 1159 1157 1180 1179 1157 1179 1158 1156 1181 1180 1156 1180 1157 1155 315 1181 1155 1181 1156 315 389 1182 315 1182 1181 1181 1182 1183 1181 1183 1180 1180 1183 1184 1180 1184 1179 1179 1184 1185 1179 1185 1178 1178 1185 1186 1178 1186 1177 1177 1186 1187 1177 1187 1176 1176 1187 1188 1176 1188 1175 1175 1188 1189 1175 1189 1174 1174 1189 1190 1174 1190 1173 1173 1190 1191 1173 1191 1172 1172 1191 1192 1172 1192 1171 1171 1192 1193 1171 1193 1170 1170 1193 1194 1170 1194 1169 1169 1194 255 1169 255 254 1194 1195 256 1194 256 255 1193 1196 1195 1193 1195 1194 1192 1197 1196 1192 1196 1193 1191 1198 1197 1191 1197 1192 1190 1199 1198 1190 1198 1191 1189 1200 1199 1189 1199 1190 1188 1201 1200 1188 1200 1189 1187 1202 1201 1187 1201 1188 1186 1203 1202 1186 1202 1187 1185 1204 1203 1185 1203 1186 1184 1205 1204 1184 1204 1185 1183 1206 1205 1183 1205 1184 1182 1207 1206 1182 1206 1183 389 310 1207 389 1207 1182 310 353 1208 310 1208 1207 1207 1208 1209 1207 1209 1206 1206 1209 1210 1206 1210 1205 1205 1210 1211 1205 1211 1204 1204 1211 1212 1204 1212 1203 1203 1212 1213 1203 1213 1202 1202 1213 1214 1202 1214 1201 1201 1214 1215 1201 1215 1200 1200 1215 1216 1200 1216 1199 1199 1216 1217 1199 1217 1198 1198 1217 1218 1198 1218 1197 1197 1218 1219 1197 1219 1196 1196 1219 1220 1196 1220 1195 1195 1220 257 1195 257 256 1220 1221 258 1220 258 257 1219 1222 1221 1219 1221 1220 1218 1223 1222 1218 1222 1219 1217 1224 1223 1217 1223 1218 1216 1225 1224 1216 1224 1217 1215 1226 1225 1215 1225 1216 1214 1227 1226 1214 1226 1215 1213 1228 1227 1213 1227 1214 1212 1229 1228 1212 1228 1213 1211 1230 1229 1211 1229 1212 1210 1231 1230 1210 1230 1211 1209 1232 1231 1209 1231 1210 1208 1233 1232 1208 1232 1209 353 1234 1233 353 1233 1208 1234 1235 1236 1234 1236 1233 1233 1236 1237 1233 1237 1232 1232 1237 1238 1232 1238 1231 1231 1238 1239 1231 1239 1230 1230 1239 1240 1230 1240 1229 1229 1240 1241 1229 1241 1228 1228 1241 1242 1228 1242 1227 1227 1242 1243 1227 1243 1226 1226 1243 1244 1226 1244 1225 1225 1244 1245 1225 1245 1224 1224 1245 1246 1224 1246 1223 1223 1246 1247 1223 1247 1222 1222 1247 1248 1222 1248 1221 1221 1248 259 1221 259 258 1248 1249 260 1248 260 259 1247 1250 1249 1247 1249 1248 1246 1251 1250 1246 1250 1247 1245 1252 1251 1245 1251 1246 1244 1253 1252 1244 1252 1245 1243 1254 1253 1243 1253 1244 1242 1255 1254 1242 1254 1243 1241 1256 1255 1241 1255 1242 1240 1257 1256 1240 1256 1241 1239 1258 1257 1239 1257 1240 1238 1259 1258 1238 1258 1239 1237 1260 1259 1237 1259 1238 1236 1261 1260 1236 1260 1237 1235 1262 1261 1235 1261 1236 1262 1263 1264 1262 1264 1261 1261 1264 1265 1261 1265 1260 1260 1265 1266 1260 1266 1259 1259 1266 1267 1259 1267 1258 1258 1267 1268 1258 1268 1257 1257 1268 1269 1257 1269 1256 1256 1269 1270 1256 1270 1255 1255 1270 1271 1255 1271 1254 1254 1271 1272 1254 1272 1253 1253 1272 1273 1253 1273 1252 1252 1273 1274 1252 1274 1251 1251 1274 1275 1251 1275 1250 1250 1275 1276 1250 1276 1249 1249 1276 261 1249 261 260 1276 879 231 1276 231 261 1275 877 879 1275 879 1276 1274 875 877 1274 877 1275 1273 873 875 1273 875 1274 1272 871 873 1272 873 1273 1271 869 871 1271 871 1272 1270 867 869 1270 869 1271 1269 865 867 1269 867 1270 1268 863 865 1268 865 1269 1267 861 863 1267 863 1268 1266 859 861 1266 861 1267 1265 857 859 1265 859 1266 1264 855 857 1264 857 1265 1263 340 855 1263 855 1264 266 265 919 266 919 380 265 386 373 265 373 919 273 41 40 273 40 274 379 275 228 379 228 268 276 346 340 276 340 1263 280 375 350 280 350 349 348 382 271 348 271 349 281 351 353 281 353 310 285 283 389 285 389 313 283 308 310 283 310 389 286 314 315 286 315 1155 358 356 391 358 391 390 356 359 1154 356 1154 391 362 360 394 362 394 392 360 363 384 360 384 394 366 364 397 366 397 395 364 367 393 364 393 397 370 368 399 370 399 398 368 371 396 368 396 399 292 290 401 292 401 400 290 326 328 290 328 401 294 293 403 294 403 402 293 329 331 293 331 403 296 295 406 296 406 405 295 332 334 295 334 406 298 297 408 298 408 407 297 376 404 297 404 408 299 301 377 299 377 300 386 265 267 386 267 201 1154 302 305 1154 305 409 303 302 1154 303 1154 359 275 379 380 275 380 345 316 318 384 316 384 383 320 322 393 320 393 367 323 325 396 323 396 371 335 336 404 335 404 376 337 339 340 337 340 338 372 385 388 372 388 344 300 343 108 300 108 374 388 372 385 388 385 201 108 342 388 108 388 201 284 285 313 284 313 288 287 289 409 287 409 304 409 289 1155 409 1155 1154 114 292 400 114 400 169 119 294 402 119 402 174 125 296 405 125 405 180 131 298 407 131 407 187</p>
                </triangles>
            </mesh>
        </geometry>
    </library_geometries>
    <library_visual_scenes>
        <visual_scene id="VisualSceneNode" name="VisualScene">
            <node id="node" name="node">
                <instance_geometry url="#shape0-lib">
                    <bind_material>
                        <technique_common/>
                    </bind_material>
                </instance_geometry>
            </node>
        </visual_scene>
    </library_visual_scenes>
    <scene>
        <instance_visual_scene url="#VisualSceneNode"/>
    </scene>
</COLLADA>
