\relax 
\ifx\hyper@anchor\@undefined
\global \let \oldcontentsline\contentsline
\gdef \contentsline#1#2#3#4{\oldcontentsline{#1}{#2}{#3}}
\global \let \oldnewlabel\newlabel
\gdef \newlabel#1#2{\newlabelxx{#1}#2}
\gdef \newlabelxx#1#2#3#4#5#6{\oldnewlabel{#1}{{#2}{#3}}}
\AtEndDocument{\let \contentsline\oldcontentsline
\let \newlabel\oldnewlabel}
\else
\global \let \hyper@last\relax 
\fi

\@writefile{toc}{\contentsline {section}{\numberline {1}Introduction}{3}{section.1}}
\newlabel{INTRODUCTION}{{1}{3}{Introduction\relax }{section.1}{}}
\@writefile{toc}{\contentsline {subsection}{\numberline {1.1}Document Structure}{3}{subsection.1.1}}
\@writefile{toc}{\contentsline {subsection}{\numberline {1.2}The EXOTica Library}{3}{subsection.1.2}}
\@writefile{toc}{\contentsline {section}{\numberline {2}Setup}{5}{section.2}}
\newlabel{SETUP}{{2}{5}{Setup\relax }{section.2}{}}
\@writefile{toc}{\contentsline {subsection}{\numberline {2.1}Package Organisation}{5}{subsection.2.1}}
\@writefile{toc}{\contentsline {subsection}{\numberline {2.2}Pre-requisites}{5}{subsection.2.2}}
\@writefile{toc}{\contentsline {subsection}{\numberline {2.3}Installation}{5}{subsection.2.3}}
\@writefile{toc}{\contentsline {section}{\numberline {3}Introductory Optimisation Theory}{6}{section.3}}
\newlabel{OPTIMISATION_THEORY}{{3}{6}{Introductory Optimisation Theory\relax }{section.3}{}}
\@writefile{toc}{\contentsline {subsection}{\numberline {3.1}Notation}{6}{subsection.3.1}}
\@writefile{lof}{\contentsline {figure}{\numberline {1}{\ignorespaces Problem description within EXOTica\relax }}{6}{figure.caption.2}}
\providecommand*\caption@xref[2]{\@setref\relax\@undefined{#1}}
\newlabel{FIG_PROBLEM_DESCRIPTION}{{1}{6}{Problem description within EXOTica\relax \relax }{figure.caption.2}{}}
\newlabel{EQ_STATE_TRANSITION_DEFINITION}{{1}{7}{Notation\relax }{equation.3.1}{}}
\newlabel{EQ_PHI_DEFINITION}{{2}{7}{Notation\relax }{equation.3.2}{}}
\@writefile{toc}{\contentsline {subsection}{\numberline {3.2}Components}{7}{subsection.3.2}}
\newlabel{EQ_ERROR_FUNCTION}{{3}{7}{Error Definition\relax }{equation.3.3}{}}
\newlabel{EQ_EQUALITY_CONSTRAINT}{{4}{8}{Constraints\relax }{equation.3.4}{}}
\newlabel{EQ_INEQUALITY_CONSTRAINT}{{5}{8}{Constraints\relax }{equation.3.5}{}}
\@writefile{toc}{\contentsline {subsection}{\numberline {3.3}Cost Functions}{8}{subsection.3.3}}
\newlabel{EQ_WEIGHTED_COST}{{6}{8}{Weighted Optimisation\relax }{equation.3.6}{}}
\@writefile{toc}{\contentsline {section}{\numberline {4}Solving Optimisation Problems}{10}{section.4}}
\newlabel{USING_THE_LIBRARY}{{4}{10}{Solving Optimisation Problems\relax }{section.4}{}}
\@writefile{toc}{\contentsline {subsection}{\numberline {4.1}Architectural Overview}{10}{subsection.4.1}}
\@writefile{lof}{\contentsline {figure}{\numberline {2}{\ignorespaces Architecture of the EXOTica library\relax }}{10}{figure.caption.8}}
\newlabel{FIG_EXOTICA_ARCHITECTURE}{{2}{10}{Architecture of the EXOTica library\relax \relax }{figure.caption.8}{}}
\@writefile{toc}{\contentsline {subsection}{\numberline {4.2}Boiler-Plate}{11}{subsection.4.2}}
\@writefile{toc}{\contentsline {subsection}{\numberline {4.3}Initialisation}{11}{subsection.4.3}}
\newlabel{LISTING_XML_SIMPLIFIED}{{1}{12}{Example XML-Specification\relax }{lstlisting.1}{}}
\@writefile{lol}{\contentsline {lstlisting}{\numberline {1}Example XML-Specification}{12}{lstlisting.1}}
\@writefile{toc}{\contentsline {subsection}{\numberline {4.4}Solving the Optimisation Problem}{14}{subsection.4.4}}
\gdef \LT@i {\LT@entry 
    {1}{97.35826pt}\LT@entry 
    {1}{296.52756pt}}
\@writefile{toc}{\contentsline {section}{\numberline {5}Library Implementations}{15}{section.5}}
\newlabel{LIBRARY_IMPLEMENTATIONS}{{5}{15}{Library Implementations\relax }{section.5}{}}
\@writefile{toc}{\contentsline {subsection}{\numberline {5.1}Task Definitions}{15}{subsection.5.1}}
\@writefile{lol}{\contentsline {lstlisting}{\numberline {2}\relax }{15}{lstlisting.2}}
\gdef \LT@ii {\LT@entry 
    {1}{97.35826pt}\LT@entry 
    {1}{296.52756pt}}
\@writefile{toc}{\contentsline {subsection}{\numberline {5.2}Velocity Solvers}{16}{subsection.5.2}}
\@writefile{lol}{\contentsline {lstlisting}{\numberline {3}\relax }{16}{lstlisting.3}}
\gdef \LT@iii {\LT@entry 
    {1}{97.35826pt}\LT@entry 
    {1}{296.52756pt}}
\@writefile{toc}{\contentsline {subsection}{\numberline {5.3}Position Solvers}{17}{subsection.5.3}}
\@writefile{toc}{\contentsline {section}{\numberline {6}Extending the Library}{18}{section.6}}
\newlabel{EXTENDING_THE_LIBRARY}{{6}{18}{Extending the Library\relax }{section.6}{}}
\@writefile{toc}{\contentsline {subsection}{\numberline {6.1}Creating Task-Definition Classes}{18}{subsection.6.1}}
\@writefile{toc}{\contentsline {subsection}{\numberline {6.2}Creating Position Solvers}{19}{subsection.6.2}}
\@writefile{toc}{\contentsline {subsection}{\numberline {6.3}Creating Velocity Solvers}{20}{subsection.6.3}}
\@writefile{toc}{\contentsline {section}{\numberline {7}Detailed API}{23}{section.7}}
\newlabel{MANAGING_THE_LIBRARY}{{7}{23}{Detailed API\relax }{section.7}{}}
\gdef \LT@iv {\LT@entry 
    {1}{72.10548pt}\LT@entry 
    {1}{183.11652pt}\LT@entry 
    {1}{183.11652pt}}
\@writefile{toc}{\contentsline {section}{\numberline {A}Limitations}{24}{appendix.A}}
\@writefile{toc}{\contentsline {section}{\numberline {B}Version History}{24}{appendix.B}}
\@writefile{toc}{\contentsline {section}{\numberline {C}Listings}{27}{appendix.C}}
\newlabel{LISTING_XML_SPECIFICATION}{{4}{27}{Example XML-Specification\relax }{lstlisting.4}{}}
\@writefile{lol}{\contentsline {lstlisting}{\numberline {4}Example XML-Specification}{27}{lstlisting.4}}
