<?xml version="1.0"?>
<robot name="hrp2_14">
  <link name="base_link"/>
  <joint name="WAIST" type="fixed">
    <origin xyz="0.0 0.0 0.0" rpy="0.0 0.0 0.0"/>
    <parent link="base_link"/>
    <child link="BODY"/>
  </joint>
  <link name="BODY">
    <inertial>
      <origin xyz="-0.01435142 1.2e-07 0.22307695" rpy="0.0 0.0 0.0"/>
      <mass value="15.0295"/>
      <inertia ixx="0.161026" ixy="-2.6e-07" ixz="0.00070696" iyy="0.09528" iyz="-1.9e-07" izz="0.191914"/>
    </inertial>
    <visual>
      <origin xyz="0.0 0.0 0.003" rpy="0.0 0.0 0.0"/>
      <geometry>
        <mesh filename="package://hrp2_14_description/meshes/BODY.dae"/>
      </geometry>
    </visual>
    <collision>
      <origin xyz="-0.0311651 -1.86265e-09 0.204463" rpy="0.0 1.5708 1.5708"/>
      <geometry>
        <cylinder radius="0.170577" length="0.11517"/>
      </geometry>
    </collision>
  </link>
  <joint name="LLEG_JOINT0" type="revolute">
    <origin xyz="0.0 0.06 0.0" rpy="0.0 0.0 0.0"/>
    <axis xyz="0.0 0.0 1.0"/>
    <parent link="BODY"/>
    <child link="LLEG_LINK0"/>
    <limit effort="86.2" lower="-0.523599" upper="0.785398" velocity="3.54108"/>
  </joint>
  <link name="LLEG_LINK0">
    <inertial>
      <origin xyz="-0.01070336 -0.00460716 0.06744546" rpy="0.0 0.0 0.0"/>
      <mass value="1.23548"/>
      <inertia ixx="0.00304689" ixy="1.558e-05" ixz="-0.00055077" iyy="0.00375305" iyz="-2.25e-05" izz="0.00153874"/>
    </inertial>
    <visual>
      <origin xyz="0.0 0.0 0.0" rpy="0.0 0.0 0.0"/>
      <geometry>
        <mesh filename="package://hrp2_14_description/meshes/LLEG_LINK0.dae"/>
      </geometry>
    </visual>
    <collision>
      <origin xyz="-0.00650672 -0.000615631 0.0452443" rpy="0.0 0.0574761 0.306927"/>
      <geometry>
        <cylinder radius="0.0644509" length="0.0730599"/>
      </geometry>
    </collision>
  </link>
  <joint name="LLEG_JOINT1" type="revolute">
    <origin xyz="0.0 0.0 0.0" rpy="0.0 0.0 0.0"/>
    <axis xyz="1.0 0.0 0.0"/>
    <parent link="LLEG_LINK0"/>
    <child link="LLEG_LINK1"/>
    <limit effort="175.4" lower="-0.349066" upper="0.610865" velocity="3.80952"/>
  </joint>
  <link name="LLEG_LINK1">
    <inertial>
      <origin xyz="-0.00039826 0.02612872 -0.00292156" rpy="0.0 0.0 0.0"/>
      <mass value="0.80553"/>
      <inertia ixx="0.00126683" ixy="-1.211e-05" ixz="1.64e-06" iyy="0.00050656" iyz="-6.938e-05" izz="0.00132021"/>
    </inertial>
    <visual>
      <origin xyz="0.0 0.0 0.0" rpy="0.0 0.0 0.0"/>
      <geometry>
        <mesh filename="package://hrp2_14_description/meshes/LLEG_LINK1.dae"/>
      </geometry>
    </visual>
    <collision>
      <origin xyz="-0.00119566 0.000251591 1.70281e-08" rpy="0.0 1.5708 0.206075"/>
      <geometry>
        <cylinder radius="0.0444307" length="0.0024568"/>
      </geometry>
    </collision>
  </link>
  <joint name="LLEG_JOINT2" type="revolute">
    <origin xyz="0.0 0.0 0.0" rpy="0.0 0.0 0.0"/>
    <axis xyz="0.0 1.0 0.0"/>
    <parent link="LLEG_LINK1"/>
    <child link="LLEG_LINK2"/>
    <limit effort="151.4" lower="-2.18166" upper="0.733038" velocity="4.42233"/>
  </joint>
  <link name="LLEG_LINK2">
    <inertial>
      <origin xyz="0.00345946 0.07794217 -0.151684" rpy="0.0 0.0 0.0"/>
      <mass value="2.07632"/>
      <inertia ixx="0.02619757" ixy="3.954e-05" ixz="0.00057351" iyy="0.0249235" iyz="-0.00067007" izz="0.00376439"/>
    </inertial>
    <visual>
      <origin xyz="0.0 0.0 0.0" rpy="0.0 0.0 0.0"/>
      <geometry>
        <mesh filename="package://hrp2_14_description/meshes/LLEG_LINK2.dae"/>
      </geometry>
    </visual>
    <collision>
      <origin xyz="0.00225953 0.0693994 -0.155987" rpy="0.0 0.0681215 1.93937"/>
      <geometry>
        <cylinder radius="0.0767084" length="0.263675"/>
      </geometry>
    </collision>
  </link>
  <joint name="LLEG_JOINT3" type="revolute">
    <origin xyz="0.0 0.0 -0.3" rpy="0.0 0.0 0.0"/>
    <axis xyz="0.0 1.0 0.0"/>
    <parent link="LLEG_LINK2"/>
    <child link="LLEG_LINK3"/>
    <limit effort="168.3" lower="-0.0349066" upper="2.61799" velocity="3.9801"/>
  </joint>
  <link name="LLEG_LINK3">
    <inertial>
      <origin xyz="0.01798781 0.05791638 -0.13839018" rpy="0.0 0.0 0.0"/>
      <mass value="1.74762"/>
      <inertia ixx="0.02232685" ixy="9.393e-05" ixz="-0.00224776" iyy="0.02250598" iyz="0.00074527" izz="0.00455443"/>
    </inertial>
    <visual>
      <origin xyz="0.0 0.0 0.0" rpy="0.0 0.0 0.0"/>
      <geometry>
        <mesh filename="package://hrp2_14_description/meshes/LLEG_LINK3.dae"/>
      </geometry>
    </visual>
    <collision>
      <origin xyz="0.0220181 0.0511733 -0.122712" rpy="0.0 2.96553 -3.0972"/>
      <geometry>
        <cylinder radius="0.0828579" length="0.298413"/>
      </geometry>
    </collision>
  </link>
  <joint name="LLEG_JOINT4" type="revolute">
    <origin xyz="0.0 0.035 -0.3" rpy="0.0 0.0 0.0"/>
    <axis xyz="0.0 1.0 0.0"/>
    <parent link="LLEG_LINK3"/>
    <child link="LLEG_LINK4"/>
    <limit effort="131.6" lower="-1.309" upper="0.733038" velocity="5.07937"/>
  </joint>
  <link name="LLEG_LINK4">
    <inertial>
      <origin xyz="0.00827083 0.00133301 -0.002418" rpy="0.0 0.0 0.0"/>
      <mass value="0.65375"/>
      <inertia ixx="0.00027773" ixy="5.26e-06" ixz="1.354e-05" iyy="0.00078966" iyz="3.59e-06" izz="0.00086039"/>
    </inertial>
    <visual>
      <origin xyz="0.0 0.0 0.0" rpy="0.0 0.0 0.0"/>
      <geometry>
        <mesh filename="package://hrp2_14_description/meshes/LLEG_LINK4.dae"/>
      </geometry>
    </visual>
    <collision>
      <origin xyz="0.00567262 -0.00242527 -1.209e-10" rpy="0.0 1.5708 0.124178"/>
      <geometry>
        <cylinder radius="0.0354351" length="0.026442"/>
      </geometry>
    </collision>
  </link>
  <joint name="LLEG_JOINT5" type="revolute">
    <origin xyz="0.0 0.0 0.0" rpy="0.0 0.0 0.0"/>
    <axis xyz="1.0 0.0 0.0"/>
    <parent link="LLEG_LINK4"/>
    <child link="l_ankle"/>
    <origin rpy="0 0 0" xyz="0 0 0"/>
    <axis xyz="1 0 0"/>
    <limit effort="73.1" lower="-0.610865" upper="0.349066" velocity="9.14286"/>
  </joint>
  <link name="l_ankle">
    <inertial>
      <origin rpy="0 0 0" xyz="-0.00066419 0.00468922 -0.06538130"/>
      <mass value="1.63877000"/>
      <inertia ixx="0.00400076" ixy="-0.00009983" ixz="0.00079295" iyy="0.00687611" iyz="0.00018541" izz="0.00711516"/>
    </inertial>
    <visual>
      <origin rpy="0 0 0" xyz="0 0 0"/>
      <geometry>
        <mesh filename="package://hrp2_14_description/meshes/LLEG_LINK5.dae"/>
      </geometry>
    </visual>
    <collision>
      <origin rpy="0 0 0" xyz="0 0 0"/>
      <geometry>
        <mesh filename="package://hrp2_14_description/meshes/convex/LLEG_LINK5.dae"/>
      </geometry>
    </collision>
  </link>
  <joint name="CHEST_JOINT0" type="revolute">
    <origin xyz="0.032 0.0 0.3507" rpy="0.0 0.0 0.0"/>
    <axis xyz="0.0 0.0 1.0"/>
    <parent link="BODY"/>
    <child link="CHEST_LINK0"/>
    <limit effort="151.1" lower="-0.785398" upper="0.785398" velocity="4.40217"/>
  </joint>
  <link name="CHEST_LINK0">
    <inertial>
      <origin xyz="-0.01580159 0.00529544 -0.02519634" rpy="0.0 0.0 0.0"/>
      <mass value="0.786369"/>
      <inertia ixx="0.00181617" ixy="-7.322e-05" ixz="-0.00027731" iyy="0.00185079" iyz="-0.00010749" izz="0.00233207"/>
    </inertial>
    <visual>
      <origin xyz="0.0 0.0 0.0" rpy="0.0 0.0 0.0"/>
      <geometry>
        <mesh filename="package://hrp2_14_description/meshes/CHEST_LINK0.dae"/>
      </geometry>
    </visual>
    <collision>
      <origin xyz="-0.0386729 9.31323e-10 -0.0166349" rpy="0.0 1.5708 -1.5708"/>
      <geometry>
        <cylinder radius="0.0961674" length="0.0362253"/>
      </geometry>
    </collision>
  </link>
  <joint name="CHEST_JOINT1" type="revolute">
    <origin xyz="0.0 0.0 0.0" rpy="0.0 0.0 0.0"/>
    <axis xyz="0.0 1.0 0.0"/>
    <parent link="CHEST_LINK0"/>
    <child link="torso"/>
    <limit effort="278.9" lower="-0.0872665" upper="1.0472" velocity="2.3963"/>
  </joint>
  <link name="torso">
    <inertial>
      <origin xyz="-0.02904963 0.00716411 0.12102458" rpy="0.0 0.0 0.0"/>
      <mass value="11.52457"/>
      <inertia ixx="0.16047572" ixy="-0.00135932" ixz="-0.00414493" iyy="0.13684576" iyz="0.00388035" izz="0.18166852"/>
    </inertial>
    <visual>
      <origin xyz="0.0 0.0 0.0" rpy="0.0 0.0 0.0"/>
      <geometry>
        <mesh filename="package://hrp2_14_description/meshes/CHEST_LINK1.dae"/>
      </geometry>
    </visual>
    <collision>
      <origin xyz="-0.0547355 0.0 0.114769" rpy="0.0 1.5708 1.5708"/>
      <geometry>
        <cylinder radius="0.194514" length="0.124183"/>
      </geometry>
    </collision>
  </link>
  <joint name="HEAD_JOINT0" type="revolute">
    <origin xyz="-0.007 0.0 0.2973" rpy="0.0 -0.0 0.0"/>
    <axis xyz="0.0 0.0 1.0"/>
    <parent link="torso"/>
    <child link="HEAD_LINK0"/>
    <limit effort="9.6" lower="-0.785398" upper="0.785398" velocity="6.87679"/>
  </joint>
  <link name="HEAD_LINK0">
    <inertial>
      <origin xyz="-0.00087533 0.00426199 -0.00802747" rpy="0.0 0.0 0.0"/>
      <mass value="0.374766"/>
      <inertia ixx="0.00039945" ixy="-9.9e-07" ixz="2.26e-06" iyy="0.00022558" iyz="-1.181e-05" izz="0.00036246"/>
    </inertial>
    <visual>
      <origin xyz="0.0 0.0 0.0" rpy="0.0 0.0 0.0"/>
      <geometry>
        <mesh filename="package://hrp2_14_description/meshes/HEAD_LINK0.dae"/>
      </geometry>
    </visual>
    <collision>
      <origin xyz="-0.0046767 -2.04356e-10 -0.0169227" rpy="0.0 0.85684 2.75328e-08"/>
      <geometry>
        <cylinder radius="0.0684931" length="0.0123776"/>
      </geometry>
    </collision>
  </link>
  <joint name="HEAD_JOINT1" type="revolute">
    <origin xyz="0.0 0.0 0.0" rpy="0.0 0.0 0.0"/>
    <axis xyz="0.0 1.0 0.0"/>
    <parent link="HEAD_LINK0"/>
    <child link="HEAD_LINK1"/>
    <limit effort="9.6" lower="-0.523599" upper="0.785398" velocity="6.87679"/>
  </joint>
  <link name="HEAD_LINK1">
    <inertial>
      <origin xyz="0.01298846 8.605e-05 0.07876058" rpy="0.0 0.0 0.0"/>
      <mass value="0.993355"/>
      <inertia ixx="0.00539717" ixy="-2.165e-05" ixz="0.0006933" iyy="0.00457493" iyz="-6.372e-05" izz="0.00590682"/>
    </inertial>
    <visual>
      <origin xyz="0.0 0.0 0.0" rpy="0.0 0.0 0.0"/>
      <geometry>
        <mesh filename="package://hrp2_14_description/meshes/HEAD_LINK1.dae"/>
      </geometry>
    </visual>
    <collision>
      <origin xyz="-0.0014291 9.56036e-10 0.102756" rpy="0.0 2.08479 -6.42478e-09"/>
      <geometry>
        <cylinder radius="0.094813" length="0.015243"/>
      </geometry>
    </collision>
  </link>


  <joint name="AccelerometerJoint" type="fixed">
    <origin xyz="-0.13 0.0 0.118" rpy="0.0 0.0 0.0"/>
    <parent link="torso"/>
    <child link="Accelerometer"/>
  </joint>
  <link name="Accelerometer"/>
  <joint name="GyroJoint" type="fixed">
    <origin xyz="-0.13 0.0 0.118" rpy="0.0 0.0 0.0"/>
    <parent link="torso"/>
    <child link="Gyro"/>
  </joint>
  <link name="Gyro"/>

  <joint name="LeftFootForceSensorJoint" type="fixed">
    <origin xyz="0.0 0.0 -0.105" rpy="0.0 0.0 0.0"/>
    <parent link="l_ankle"/>
    <child link="LeftFootForceSensor"/>
  </joint>
  <link name="LeftFootForceSensor"/>

  <joint name="camera_top_left_joint" type="fixed">
    <origin xyz="0.07407829 0.02659051 0.14177429" rpy="0.0461809388223 0.27302126551 0.0341672188984"/>
    <parent link="HEAD_LINK1"/>
    <child link="camera_top_left"/>
  </joint>
  <link name="camera_top_left"/>
  <joint name="camera_top_left_optical_joint" type="fixed">
    <origin xyz="0.0 0.0 0.0" rpy="-1.57079633 0.0 -1.57079633"/>
    <parent link="camera_top_left"/>
    <child link="camera_top_left_optical"/>
  </joint>
  <link name="camera_top_left_optical"/>
  <joint name="camera_top_right_joint" type="fixed">
    <origin xyz="0.07235902 -0.03327363 0.1353676" rpy="-0.00798544138494 0.22011162663 0.005891163891"/>
    <parent link="HEAD_LINK1"/>
    <child link="camera_top_right"/>
  </joint>
  <link name="camera_top_right"/>
  <joint name="camera_top_right_optical_joint" type="fixed">
    <origin xyz="0.0 0.0 0.0" rpy="-1.57079633 0.0 -1.57079633"/>
    <parent link="camera_top_right"/>
    <child link="camera_top_right_optical"/>
  </joint>
  <link name="camera_top_right_optical"/>
  <joint name="camera_bottom_left_joint" type="fixed">
    <origin xyz="0.08118668 0.06998529 0.05699587" rpy="-0.00798544138494 0.22011162663 0.005891163891"/>
    <parent link="HEAD_LINK1"/>
    <child link="camera_bottom_left"/>
  </joint>
  <link name="camera_bottom_left"/>
  <joint name="camera_bottom_left_optical_joint" type="fixed">
    <origin xyz="0.0 0.0 0.0" rpy="-1.57079633 0.0 -1.57079633"/>
    <parent link="camera_bottom_left"/>
    <child link="camera_bottom_left_optical"/>
  </joint>
  <link name="camera_bottom_left_optical"/>
  <joint name="camera_bottom_right_joint" type="fixed">
    <origin xyz="0.07660117 -0.0759482 0.05529225" rpy="0.0109785313845 0.221947968155 -0.00950594059132"/>
    <parent link="HEAD_LINK1"/>
    <child link="camera_bottom_right"/>
  </joint>
  <link name="camera_bottom_right"/>
  <joint name="camera_bottom_right_optical_joint" type="fixed">
    <origin xyz="0.0 0.0 0.0" rpy="-1.57079633 0.0 -1.57079633"/>
    <parent link="camera_bottom_right"/>
    <child link="camera_bottom_right_optical"/>
  </joint>
  <link name="camera_bottom_right_optical"/>
  <joint name="l_sole_joint" type="fixed">
    <origin xyz="0.0 0.0 -0.105" rpy="0.0 0.0 0.0"/>
    <parent link="l_ankle"/>
    <child link="l_sole"/>
  </joint>
  <link name="l_sole"/>
  <joint name="gaze_joint" type="fixed">
    <origin xyz="0.0 0.0 0.118" rpy="0.0 0.174 0.0"/>
    <parent link="HEAD_LINK1"/>
    <child link="gaze"/>
  </joint>
  <link name="gaze"/>
</robot>

