<?xml version="1.0"?>
<!--
   HRP-2 14 URDF model

   These data are confidential, do *not* publish/distribute this package
   outside of JRL/GEPETTO.

   The simplified meshes used for collision checking have been
   generated using the convex_decomposition package.
   See http://www.ros.org/wiki/convex_decomposition
   and meshes/convex/generate.sh
  -->
<robot xmlns:xacro="http://ros.org/wiki/xacro" name="hrp2_14_reduced">
  <xacro:property name="collision_model" value="convex" />
  <!-- Base -->
  <link name="base_link"/>

  <joint name="WAIST" type="fixed">
    <parent link="base_link"/>
    <child link="BODY"/>
    <origin xyz="0 0 0" rpy="0 0 0"/>
  </joint>

  <link name="BODY">
    <inertial>
      <origin xyz="-0.01435142 0.00000012 0.22307695" rpy="0 0 0" />
      <mass value="15.0295"/>
      <inertia ixx="0.161026" ixy="-0.00000026" ixz="0.00070696"
	       iyy="0.09528" iyz="-0.00000019"
	       izz="0.191914" />
    </inertial>
    <visual>
      <origin xyz="0 0 0.003" rpy="0 0 0" />
      <geometry>
	<mesh filename="package://hrp2_14_description/meshes/BODY.dae" />
      </geometry>
    </visual>
    <collision>
      <origin xyz="0 0 0.003" rpy="0 0 0" />
      <geometry>
	<mesh filename="package://hrp2_14_description/meshes/${collision_model}/BODY.dae" />
      </geometry>
    </collision>
  </link>

  <!-- Right leg -->
  <joint name="RLEG_JOINT0" type="revolute">
    <parent link="BODY"/>
    <child link="RLEG_LINK0"/>
    <origin xyz="0 -0.060 0" rpy="0 0 0" />
    <axis xyz="0 0 1" />
    <limit effort="86.2" velocity="3.54108" lower="-0.785398" upper="0.523599" />
  </joint>

  <link name="RLEG_LINK0">
    <inertial>
      <origin xyz="-0.01070336 0.00460716 0.06744546" rpy="0 0 0" />
      <mass value="1.23548000"/>
      <inertia ixx="0.00304689" ixy="-0.00001558" ixz="-0.00055077"
	       iyy="0.00375305" iyz="0.00002250"
	       izz="0.00153874" />
    </inertial>
    <visual>
      <origin xyz="0 0 0" rpy="0 0 0" />
      <geometry>
	<mesh filename="package://hrp2_14_description/meshes/RLEG_LINK0.dae" />
      </geometry>
    </visual>
    <collision>
      <origin xyz="0 0 0" rpy="0 0 0" />
      <geometry>
	<mesh filename="package://hrp2_14_description/meshes/${collision_model}/RLEG_LINK0.dae" />
      </geometry>
    </collision>
  </link>

  <joint name="RLEG_JOINT1" type="revolute">
    <parent link="RLEG_LINK0"/>
    <child link="RLEG_LINK1"/>
    <origin xyz="0 0 0" rpy="0 0 0" />
    <axis xyz="1 0 0" />
    <limit effort="175.4" velocity="3.80952" lower="-0.610865" upper="0.349066" />
  </joint>

  <link name="RLEG_LINK1">
    <inertial>
      <origin xyz="-0.00039826 -0.02612872 -0.00292156" rpy="0 0 0" />
      <mass value="0.80553000"/>
      <inertia ixx="0.00126683"  ixy="0.00001211"  ixz="0.00000164"
	       iyy="0.00050656" iyz="0.00006938"
	       izz="0.00132021" />
    </inertial>
    <visual>
      <origin xyz="0 0 0" rpy="0 0 0" />
      <geometry>
	<mesh filename="package://hrp2_14_description/meshes/RLEG_LINK1.dae" />
      </geometry>
    </visual>
    <collision>
      <origin xyz="0 0 0" rpy="0 0 0" />
      <geometry>
	<mesh filename="package://hrp2_14_description/meshes/${collision_model}/RLEG_LINK1.dae" />
      </geometry>
    </collision>
  </link>

  <joint name="RLEG_JOINT2" type="revolute">
    <parent link="RLEG_LINK1"/>
    <child link="RLEG_LINK2"/>
    <origin xyz="0 0 0" rpy="0 0 0" />
    <axis xyz="0 1 0" />
    <limit effort="151.4" velocity="4.42233" lower="-2.18166" upper="0.733038" />
  </joint>

  <link name="RLEG_LINK2">
    <inertial>
      <origin xyz="0.00345946 -0.07794217 -0.15168400" rpy="0 0 0" />
      <mass value="2.07632000"/>
      <inertia ixx="0.02619757"  ixy="-0.00003954" ixz="0.00057351"
	       iyy="0.02492350" iyz="0.00067007"
	       izz="0.00376439" />
    </inertial>
    <visual>
      <origin xyz="0 0 0" rpy="0 0 0" />
      <geometry>
	<mesh filename="package://hrp2_14_description/meshes/RLEG_LINK2.dae" />
      </geometry>
    </visual>
    <collision>
      <origin xyz="0 0 0" rpy="0 0 0" />
      <geometry>
	<mesh filename="package://hrp2_14_description/meshes/${collision_model}/RLEG_LINK2.dae" />
      </geometry>
    </collision>
  </link>

  <joint name="RLEG_JOINT3" type="revolute">
    <parent link="RLEG_LINK2"/>
    <child link="RLEG_LINK3"/>
    <origin xyz="0 0 -0.300" rpy="0 0 0" />
    <axis xyz="0 1 0" />
    <limit effort="168.3" velocity="3.9801" lower="-0.0349066" upper="2.61799" />
  </joint>

  <link name="RLEG_LINK3">
    <inertial>
      <origin xyz="0.01798781 -0.05791638 -0.13839018" rpy="0 0 0" />
      <mass value="1.74762000"/>
      <inertia ixx="0.02232685"  ixy="-0.00009393" ixz="-0.00224776"
	       iyy="0.02250598" iyz="-0.00074527"
	       izz="0.00455443" />
    </inertial>
    <visual>
      <origin xyz="0 0 0" rpy="0 0 0" />
      <geometry>
	<mesh filename="package://hrp2_14_description/meshes/RLEG_LINK3.dae" />
      </geometry>
    </visual>
    <collision>
      <origin xyz="0 0 0" rpy="0 0 0" />
      <geometry>
	<mesh filename="package://hrp2_14_description/meshes/${collision_model}/RLEG_LINK3.dae" />
      </geometry>
    </collision>
  </link>

  <joint name="RLEG_JOINT4" type="revolute">
    <parent link="RLEG_LINK3"/>
    <child link="RLEG_LINK4"/>
    <origin xyz="0 -0.035 -0.300" rpy="0 0 0" />
    <axis xyz="0 1 0" />
    <limit effort="131.6" velocity="5.07937" lower="-1.309" upper="0.733038" />
  </joint>

  <link name="RLEG_LINK4">
    <inertial>
      <origin xyz="0.00827083 -0.00133301 -0.00241800" rpy="0 0 0" />
      <mass value="0.65375000"/>
      <inertia ixx="0.00027773" ixy="-0.00000526" ixz="0.00001354"
	       iyy="0.00078966" iyz="-0.00000359"
	       izz="0.00086039" />
    </inertial>
    <visual>
      <origin xyz="0 0 0" rpy="0 0 0" />
      <geometry>
	<mesh filename="package://hrp2_14_description/meshes/RLEG_LINK4.dae" />
      </geometry>
    </visual>
    <collision>
      <origin xyz="0 0 0" rpy="0 0 0" />
      <geometry>
	<mesh filename="package://hrp2_14_description/meshes/${collision_model}/RLEG_LINK4.dae" />
      </geometry>
    </collision>
  </link>

  <joint name="RLEG_JOINT5" type="revolute">
    <parent link="RLEG_LINK4"/>
    <child link="r_ankle"/>
    <origin xyz="0 0 0" rpy="0 -0 0" />
    <axis xyz="1 0 0" />
    <limit effort="73.1" velocity="9.14286" lower="-0.349066" upper="0.610865" />
  </joint>

  <!-- VRML link name="RLEG_LINK5" -->
  <link name="r_ankle">
    <inertial>
      <origin xyz="-0.00066419 -0.00468922 -0.06538130" rpy="0 0 0" />
      <mass value="1.63877000"/>
      <inertia ixx="0.00400076" ixy="0.00009983" ixz="0.00079295"
	       iyy="0.00687611" iyz="-0.00018541"
	       izz="0.00711516" />
    </inertial>
    <visual>
      <origin xyz="0 0 0" rpy="0 0 0" />
      <geometry>
	<mesh filename="package://hrp2_14_description/meshes/RLEG_LINK5.dae" />
      </geometry>
    </visual>
    <collision>
      <origin xyz="0 0 0" rpy="0 0 0" />
      <geometry>
	<mesh filename="package://hrp2_14_description/meshes/${collision_model}/RLEG_LINK5.dae" />
      </geometry>
    </collision>
  </link>

  <!-- Left leg -->
  <joint name="LLEG_JOINT0" type="revolute">
    <parent link="BODY"/>
    <child link="LLEG_LINK0"/>
    <origin xyz="0 0.060 0" rpy="0 0 0" />
    <axis xyz="0 0 1" />
    <limit effort="86.2" velocity="3.54108" lower="-0.523599" upper="0.785398" />
  </joint>

  <link name="LLEG_LINK0">
    <inertial>
      <origin xyz="-0.01070336 -0.00460716 0.06744546" rpy="0 0 0" />
      <mass value="1.23548000"/>
      <inertia ixx="0.00304689" ixy="0.00001558" ixz="-0.00055077"
	       iyy="0.00375305" iyz="-0.00002250"
	       izz="0.00153874" />
    </inertial>
    <visual>
      <origin xyz="0 0 0" rpy="0 0 0" />
      <geometry>
	<mesh filename="package://hrp2_14_description/meshes/LLEG_LINK0.dae" />
      </geometry>
    </visual>
    <collision>
      <origin xyz="0 0 0" rpy="0 0 0" />
      <geometry>
	<mesh filename="package://hrp2_14_description/meshes/${collision_model}/LLEG_LINK0.dae" />
      </geometry>
    </collision>
  </link>

  <joint name="LLEG_JOINT1" type="revolute">
    <parent link="LLEG_LINK0"/>
    <child link="LLEG_LINK1"/>
    <origin xyz="0 0 0" rpy="0 0 0" />
    <axis xyz="1 0 0" />
    <limit effort="175.4" velocity="3.80952" lower="-0.349066" upper="0.610865" />
  </joint>

  <link name="LLEG_LINK1">
    <inertial>
      <origin xyz="-0.00039826 0.02612872 -0.00292156" rpy="0 0 0" />
      <mass value="0.80553000"/>
      <inertia ixx="0.00126683" ixy="-0.00001211" ixz="0.00000164"
	       iyy="0.00050656" iyz="-0.00006938"
	       izz="0.00132021" />
    </inertial>
    <visual>
      <origin xyz="0 0 0" rpy="0 0 0" />
      <geometry>
	<mesh filename="package://hrp2_14_description/meshes/LLEG_LINK1.dae" />
      </geometry>
    </visual>
    <collision>
      <origin xyz="0 0 0" rpy="0 0 0" />
      <geometry>
	<mesh filename="package://hrp2_14_description/meshes/${collision_model}/LLEG_LINK1.dae" />
      </geometry>
    </collision>
  </link>

  <joint name="LLEG_JOINT2" type="revolute">
    <parent link="LLEG_LINK1"/>
    <child link="LLEG_LINK2"/>
    <origin xyz="0 0 0" rpy="0 0 0" />
    <axis xyz="0 1 0" />
    <limit effort="151.4" velocity="4.42233" lower="-2.18166" upper="0.733038" />
  </joint>

  <link name="LLEG_LINK2">
    <inertial>
      <origin xyz="0.00345946 0.07794217 -0.15168400" rpy="0 0 0" />
      <mass value="2.07632000"/>
      <inertia ixx="0.02619757" ixy="0.00003954" ixz="0.00057351"
	       iyy="0.02492350" iyz="-0.00067007"
	       izz="0.00376439" />
    </inertial>
    <visual>
      <origin xyz="0 0 0" rpy="0 0 0" />
      <geometry>
	<mesh filename="package://hrp2_14_description/meshes/LLEG_LINK2.dae" />
      </geometry>
    </visual>
    <collision>
      <origin xyz="0 0 0" rpy="0 0 0" />
      <geometry>
	<mesh filename="package://hrp2_14_description/meshes/${collision_model}/LLEG_LINK2.dae" />
      </geometry>
    </collision>
  </link>

  <joint name="LLEG_JOINT3" type="revolute">
    <parent link="LLEG_LINK2"/>
    <child link="LLEG_LINK3"/>
    <origin xyz="0 0 -0.300" rpy="0 0 0" />
    <axis xyz="0 1 0" />
    <limit effort="168.3" velocity="3.9801" lower="-0.0349066" upper="2.61799" />
  </joint>

  <link name="LLEG_LINK3">
    <inertial>
      <origin xyz="0.01798781 0.05791638 -0.13839018" rpy="0 0 0" />
      <mass value="1.74762000"/>
      <inertia ixx="0.02232685" ixy="0.00009393" ixz="-0.00224776"
	       iyy="0.02250598" iyz="0.00074527"
	       izz="0.00455443" />
    </inertial>
    <visual>
      <origin xyz="0 0 0" rpy="0 0 0" />
      <geometry>
	<mesh filename="package://hrp2_14_description/meshes/LLEG_LINK3.dae" />
      </geometry>
    </visual>
    <collision>
      <origin xyz="0 0 0" rpy="0 0 0" />
      <geometry>
	<mesh filename="package://hrp2_14_description/meshes/${collision_model}/LLEG_LINK3.dae" />
      </geometry>
    </collision>
  </link>

  <joint name="LLEG_JOINT4" type="revolute">
    <parent link="LLEG_LINK3"/>
    <child link="LLEG_LINK4"/>
    <origin xyz="0 0.035 -0.300" rpy="0 0 0" />
    <axis xyz="0 1 0" />
    <limit effort="131.6" velocity="5.07937" lower="-1.309" upper="0.733038" />
  </joint>

  <link name="LLEG_LINK4">
    <inertial>
      <origin xyz="0.00827083 0.00133301 -0.00241800" rpy="0 0 0" />
      <mass value="0.65375000"/>
      <inertia ixx="0.00027773" ixy="0.00000526" ixz="0.00001354"
	       iyy="0.00078966" iyz="0.00000359"
	       izz="0.00086039" />
    </inertial>
    <visual>
      <origin xyz="0 0 0" rpy="0 0 0" />
      <geometry>
	<mesh filename="package://hrp2_14_description/meshes/LLEG_LINK4.dae" />
      </geometry>
    </visual>
    <collision>
      <origin xyz="0 0 0" rpy="0 0 0" />
      <geometry>
	<mesh filename="package://hrp2_14_description/meshes/${collision_model}/LLEG_LINK4.dae" />
      </geometry>
    </collision>
  </link>

  <joint name="LLEG_JOINT5" type="revolute">
    <parent link="LLEG_LINK4"/>
    <child link="l_ankle"/>
    <origin xyz="0 0 0" rpy="0 0 0" />
    <axis xyz="1 0 0" />
    <limit effort="73.1" velocity="9.14286" lower="-0.610865" upper="0.349066" />
  </joint>

  <!-- VRML link name="LLEG_LINK5" -->
  <link name="l_ankle">
    <inertial>
      <origin xyz="-0.00066419 0.00468922 -0.06538130" rpy="0 0 0" />
      <mass value="1.63877000"/>
      <inertia ixx="0.00400076" ixy="-0.00009983" ixz="0.00079295"
	       iyy="0.00687611" iyz="0.00018541"
	       izz="0.00711516" />
    </inertial>
    <visual>
      <origin xyz="0 0 0" rpy="0 0 0" />
      <geometry>
	<mesh filename="package://hrp2_14_description/meshes/LLEG_LINK5.dae" />
      </geometry>
    </visual>
    <collision>
      <origin xyz="0 0 0" rpy="0 0 0" />
      <geometry>
	<mesh filename="package://hrp2_14_description/meshes/${collision_model}/LLEG_LINK5.dae" />
      </geometry>
    </collision>
  </link>

  <!-- Chest -->
  <joint name="CHEST_JOINT0" type="revolute">
    <parent link="BODY"/>
    <child link="CHEST_LINK0"/>
    <origin xyz="0.032 0 0.3507" rpy="0 0 0" />
    <axis xyz="0 0 1" />
    <limit effort="151.1" velocity="4.40217" lower="-0.785398" upper="0.785398" />
  </joint>

  <link name="CHEST_LINK0">
    <inertial>
      <origin xyz="-0.01580159 0.00529544 -0.02519634" rpy="0 0 0" />
      <mass value="0.786369"/>
      <inertia ixx="0.00181617" ixy="-0.00007322" ixz="-0.00027731"
	       iyy="0.00185079" iyz="-0.00010749"
	       izz="0.00233207" />
    </inertial>
    <visual>
      <origin xyz="0 0 0" rpy="0 0 0" />
      <geometry>
	<mesh filename="package://hrp2_14_description/meshes/CHEST_LINK0.dae" />
      </geometry>
    </visual>
    <collision>
      <origin xyz="0 0 0" rpy="0 0 0" />
      <geometry>
	<mesh filename="package://hrp2_14_description/meshes/${collision_model}/CHEST_LINK0.dae" />
      </geometry>
    </collision>
  </link>

  <joint name="CHEST_JOINT1" type="revolute">
    <parent link="CHEST_LINK0"/>
    <child link="torso"/>
    <origin xyz="0 0 0" rpy="0 0 0" />
    <axis xyz="0 1 0" />
    <limit effort="278.9" velocity="2.3963" lower="-0.0872665" upper="1.0472" />
  </joint>

  <!-- VRML link name="CHEST_LINK1" -->
  <link name="torso">
    <inertial>
      <origin xyz="-0.02904963 0.00716411 0.12102458" rpy="0 0 0" />
      <mass value="11.52457000"/>
      <inertia ixx="0.16047572" ixy="-0.00135932" ixz="-0.00414493"
	       iyy="0.13684576" iyz="0.00388035"
	       izz="0.18166852" />
    </inertial>

    <visual>
      <origin xyz="0 0 0" rpy="0 0 0" />
      <geometry>
	<mesh filename="package://hrp2_14_description/meshes/CHEST_LINK1.dae" />
      </geometry>
    </visual>
    <collision>
      <origin xyz="0 0 0" rpy="0 0 0" />
      <geometry>
	<mesh filename="package://hrp2_14_description/meshes/${collision_model}/CHEST_LINK1.dae" />
      </geometry>
    </collision>
  </link>

  <!-- Head -->
  <joint name="HEAD_JOINT0" type="revolute">
    <parent link="torso"/>
    <child link="HEAD_LINK0"/>
    <origin xyz="-0.007 0 0.2973" rpy="0 -0 0" />
    <axis xyz="0 0 1" />
    <limit effort="9.6" velocity="6.87679" lower="-0.785398" upper="0.785398" />
  </joint>

  <link name="HEAD_LINK0">
    <inertial>
      <origin xyz="-0.00087533 0.00426199 -0.00802747" rpy="0 0 0" />
      <mass value="0.374766"/>
      <inertia
	 ixx="0.00039945" ixy="-0.00000099" ixz="0.00000226"
	 iyy="0.00022558" iyz="-0.00001181"
	 izz="0.00036246" />
    </inertial>
    <visual>
      <origin xyz="0 0 0" rpy="0 0 0" />
      <geometry>
	<mesh filename="package://hrp2_14_description/meshes/HEAD_LINK0.dae" />
      </geometry>
    </visual>
    <collision>
      <origin xyz="0 0 0" rpy="0 0 0" />
      <geometry>
	<mesh filename="package://hrp2_14_description/meshes/${collision_model}/HEAD_LINK0.dae" />
      </geometry>
    </collision>
  </link>

  <joint name="HEAD_JOINT1" type="revolute">
    <parent link="HEAD_LINK0"/>
    <child link="HEAD_LINK1"/>
    <origin xyz="0 0 0" rpy="0 0 0" />
    <axis xyz="0 1 0" />
    <limit effort="9.6" velocity="6.87679" lower="-0.523599" upper="0.785398" />
  </joint>

  <!-- VRML link name="HEAD_LINK1" -->
  <link name="HEAD_LINK1">
    <inertial>
      <origin xyz="0.01298846 0.00008605 0.07876058" rpy="0 0 0" />
      <mass value="0.993355"/>
      <inertia ixx="0.00539717" ixy="-0.00002165" ixz="0.00069330"
	       iyy="0.00457493" iyz="-0.00006372"
	       izz="0.00590682" />
    </inertial>
    <visual>
      <origin xyz="0 0 0" rpy="0 0 0" />
      <geometry>
	<mesh filename="package://hrp2_14_description/meshes/HEAD_LINK1.dae" />
      </geometry>
    </visual>
    <collision>
      <origin xyz="0 0 0" rpy="0 0 0" />
      <geometry>
	<mesh filename="package://hrp2_14_description/meshes/${collision_model}/HEAD_LINK1.dae" />
      </geometry>
    </collision>
  </link>

  <!-- Right arm -->
  <joint name="RARM_JOINT0" type="revolute">
    <parent link="torso"/>
    <child link="RARM_LINK0"/>
    <origin xyz="0.008 -0.250 0.181" rpy="0 0 0" />
    <axis xyz="0 1 0" />
    <limit effort="160.3" velocity="4.17044" lower="-3.14159" upper="1.0472" />
  </joint>

  <link name="RARM_LINK0">
    <inertial>
      <origin xyz="-0.00989448 0.0464526 -0.00015316" rpy="0 0 0" />
      <mass value="0.810076"/>
      <inertia ixx="0.00221115"  ixy="-0.00030424"  ixz="0.00000147"
	       iyy="0.00184189" iyz="0.00004667"
	       izz="0.00344772" />
    </inertial>
    <visual>
      <origin xyz="0 0 0" rpy="0 0 0" />
      <geometry>
	<mesh filename="package://hrp2_14_description/meshes/RARM_LINK0.dae" />
      </geometry>
    </visual>
    <collision>
      <origin xyz="0 0 0" rpy="0 0 0" />
      <geometry>
	<mesh filename="package://hrp2_14_description/meshes/${collision_model}/RARM_LINK0.dae" />
      </geometry>
    </collision>

  </link>
  <joint name="RARM_JOINT1" type="revolute">
    <parent link="RARM_LINK0"/>
    <child link="RARM_LINK1"/>
    <origin xyz="0 0 0" rpy="0 0 0" />
    <axis xyz="1 0 0" />
    <limit effort="100.4" velocity="2.4192" lower="-1.65806" upper="0.174533" />
  </joint>

  <link name="RARM_LINK1">
    <inertial>
      <origin xyz="-0.0105646 -0.012043 -0.00948156" rpy="0 0 0" />
      <mass value="1.03448"/>
      <inertia ixx="0.00122098"  ixy="0.00028119"  ixz="0.00009407"
	       iyy="0.00172216" iyz="0.00012041"
	       izz="0.00161319" />
    </inertial>
    <visual>
      <origin xyz="0 0 0" rpy="0 0 0" />
      <geometry>
	<mesh filename="package://hrp2_14_description/meshes/RARM_LINK1.dae" />
      </geometry>
    </visual>
    <collision>
      <origin xyz="0 0 0" rpy="0 0 0" />
      <geometry>
	<mesh filename="package://hrp2_14_description/meshes/${collision_model}/RARM_LINK1.dae" />
      </geometry>
    </collision>
  </link>
  <joint name="RARM_JOINT2" type="revolute">
    <parent link="RARM_LINK1"/>
    <child link="RARM_LINK2"/>
    <origin xyz="0 0 0" rpy="0 0 0" />
    <axis xyz="0 0 1" />
    <limit effort="48.7" velocity="4.15699" lower="-1.6057" upper="1.6057" />
  </joint>

  <link name="RARM_LINK2">
    <inertial>
      <origin xyz="-0.00543072 -0.00479797 -0.166872" rpy="0 0 0" />
      <mass value="1.59929"/>

      <inertia ixx="0.00973049"  ixy="-0.00005133"  ixz="-0.00019919"
	       iyy="0.00970372" iyz="0.00013747"
	       izz="0.00135331" />
    </inertial>
    <visual>
      <origin xyz="0 0 0" rpy="0 0 0" />
      <geometry>
	<mesh filename="package://hrp2_14_description/meshes/RARM_LINK2.dae" />
      </geometry>
    </visual>
    <collision>
      <origin xyz="0 0 0" rpy="0 0 0" />
      <geometry>
	<mesh filename="package://hrp2_14_description/meshes/${collision_model}/RARM_LINK2.dae" />
      </geometry>
    </collision>
  </link>
  <joint name="RARM_JOINT3" type="revolute">
    <parent link="RARM_LINK2"/>
    <child link="RARM_LINK3"/>
    <origin xyz="0 0 -0.250" rpy="0 0 0" />
    <axis xyz="0 1 0" />
    <limit effort="108.5" velocity="2.23776" lower="-2.3911" upper="0.0349066" />
  </joint>

  <link name="RARM_LINK3">
    <inertial>
      <origin xyz="-0.00000927 -0.01616837 -0.06270155" rpy="0 0 0" />
      <mass value="0.77725"/>
      <inertia ixx="0.00232668" ixy="0.00000007"  ixz="-0.00000031"
	       iyy="0.00212476" iyz="0.00015097"
	       izz="0.00056363" />
    </inertial>
    <visual>
      <origin xyz="0 0 0" rpy="0 0 0" />
      <geometry>
	<mesh filename="package://hrp2_14_description/meshes/RARM_LINK3.dae" />
      </geometry>
    </visual>
    <collision>
      <origin xyz="0 0 0" rpy="0 0 0" />
      <geometry>
	<mesh filename="package://hrp2_14_description/meshes/${collision_model}/RARM_LINK3.dae" />
      </geometry>
    </collision>
  </link>
  <joint name="RARM_JOINT4" type="revolute">
    <parent link="RARM_LINK3"/>
    <child link="RARM_LINK4"/>
    <origin xyz="0 0 -0.250" rpy="0 0 0" />
    <axis xyz="0 0 1" />
    <limit effort="13.9" velocity="4.72794" lower="-1.6057" upper="1.6057" />
  </joint>

  <link name="RARM_LINK4">
    <inertial>
      <origin xyz="-0.00344863 -0.00361759 0.0414959" rpy="0 0 0" />
      <mass value="0.554669"/>
      <inertia ixx="0.00132104" ixy="0.00001646" ixz="0.00004660"
	       iyy="0.00119920" iyz="-0.00011959"
	       izz="0.00031715" />
    </inertial>
    <visual>
      <origin xyz="0 0 0" rpy="0 0 0" />
      <geometry>
	<mesh filename="package://hrp2_14_description/meshes/RARM_LINK4.dae" />
      </geometry>
    </visual>
    <collision>
      <origin xyz="0 0 0" rpy="0 0 0" />
      <geometry>
	<mesh filename="package://hrp2_14_description/meshes/${collision_model}/RARM_LINK4.dae" />
      </geometry>
    </collision>
  </link>
  <joint name="RARM_JOINT5" type="revolute">
    <parent link="RARM_LINK4"/>
    <child link="r_wrist"/>
    <origin xyz="0 0 0" rpy="0 0 0" />
    <axis xyz="0 1 0" />
    <limit effort="63.9" velocity="3.16727" lower="-1.6057" upper="1.6057" />
  </joint>

  <!-- VRML link name="RARM_LINK5" -->
  <link name="r_wrist">
    <inertial>
      <origin xyz="0.0001739 0.0042575 -0.0582954" rpy="0 0 0" />
      <mass value="0.573818"/>
      <inertia ixx="0.00093849" ixy="-0.00000548" ixz="-0.00000817"
	       iyy="0.00102565" iyz="-0.00003239"
	       izz="0.00045951" />
    </inertial>
    <visual>
      <origin xyz="0 0 0" rpy="0 0 0" />
      <geometry>
	<mesh filename="package://hrp2_14_description/meshes/RARM_LINK5_full.dae" />
      </geometry>
    </visual>
    <collision>
      <origin xyz="0 0 0" rpy="0 0 0" />
      <geometry>
	<mesh filename="package://hrp2_14_description/meshes/${collision_model}/RARM_LINK5_full.dae" />
      </geometry>
    </collision>
  </link>
  <joint name="RARM_JOINT6" type="revolute">
    <parent link="r_wrist"/>
    <child link="RARM_LINK6"/>
    <origin xyz="0.0 0.020 -0.095" rpy="0 0 0" />
    <axis xyz="1 0 0" />
    <limit effort="0" velocity="5.68126" lower="0" upper="0.785398" />
  </joint>

  <link name="RARM_LINK6">
    <inertial>
      <origin xyz="0.01109799 0.00179647 -0.00593392" rpy="0 0 0" />
      <mass value="0.08048559" />
      <inertia ixx="0.00003264" ixy="-0.00000207" ixz="0.00000583"
	       iyy="0.00003628" iyz="0.00000563"
	       izz="0.00001981" />
    </inertial>
    <visual>
      <origin xyz="0 0 0" rpy="0 0 0" />
      <geometry>
	<mesh filename="package://hrp2_14_description/meshes/RARM_LINK6.dae" />
      </geometry>
    </visual>
    <collision>
      <origin xyz="0 0 0" rpy="0 0 0" />
      <geometry>
	<mesh filename="package://hrp2_14_description/meshes/${collision_model}/RARM_LINK6.dae" />
      </geometry>
    </collision>
  </link>


  <joint name="LARM_JOINT0" type="revolute">
    <parent link="torso"/>
    <child link="LARM_LINK0"/>
    <origin xyz="0.008 0.250 0.181" rpy="0 0 0" />
    <axis xyz="0 1 0" />
    <limit effort="160.3" velocity="4.17044" lower="-3.14159" upper="1.0472" />
  </joint>

  <link name="LARM_LINK0">
    <inertial>
      <origin xyz="-0.00989448 -0.04645260 -0.00015316" rpy="0 0 0" />
      <mass value="0.81007573" />
      <inertia ixx="0.00221115" ixy="0.00030424" ixz="0.00000147"
	       iyy="0.00184189" iyz="-0.00004667"
	       izz="0.00344772" />
    </inertial>
    <visual>
      <origin xyz="0 0 0" rpy="0 0 0" />
      <geometry>
	<mesh filename="package://hrp2_14_description/meshes/LARM_LINK0.dae" />
      </geometry>
    </visual>
    <collision>
      <origin xyz="0 0 0" rpy="0 0 0" />
      <geometry>
	<mesh filename="package://hrp2_14_description/meshes/${collision_model}/LARM_LINK0.dae" />
      </geometry>
    </collision>
  </link>

  <joint name="LARM_JOINT1" type="revolute">
    <parent link="LARM_LINK0"/>
    <child link="LARM_LINK1"/>
    <origin xyz="0 0 0" rpy="0 0 0" />
    <axis xyz="1 0 0" />
    <limit effort="100.4" velocity="2.4192" lower="-0.174533" upper="1.65806" />
  </joint>

  <link name="LARM_LINK1">
    <inertial>
      <origin xyz="-0.01056459 0.01204295 -0.00948156" rpy="0 0 0" />
      <mass value="1.03448000" />
      <inertia ixx="0.00122098" ixy="-0.00028119" ixz="0.00009407"
	       iyy="0.00172216" iyz="-0.00012041"
	       izz="0.00161319" />
    </inertial>
    <visual>
      <origin xyz="0 0 0" rpy="0 0 0" />
      <geometry>
	<mesh filename="package://hrp2_14_description/meshes/LARM_LINK1.dae" />
      </geometry>
    </visual>
    <collision>
      <origin xyz="0 0 0" rpy="0 0 0" />
      <geometry>
	<mesh filename="package://hrp2_14_description/meshes/${collision_model}/LARM_LINK1.dae" />
      </geometry>
    </collision>
  </link>

  <joint name="LARM_JOINT2" type="revolute">
    <parent link="LARM_LINK1"/>
    <child link="LARM_LINK2"/>
    <origin xyz="0 0 0" rpy="0 0 0" />
    <axis xyz="0 0 1" />
    <limit effort="48.7" velocity="4.15699" lower="-1.6057" upper="1.6057" />
  </joint>

  <link name="LARM_LINK2">
    <inertial>
      <origin xyz="-0.00543072 0.00479797 -0.166872" rpy="0 0 0" />
      <mass value="1.59929"/>
      <inertia ixx="0.00973049" ixy="0.00005133" ixz="-0.00019919"
	       iyy="0.00970372" iyz="-0.00013747"
	       izz="0.00135331" />
    </inertial>
    <visual>
      <origin xyz="0 0 0" rpy="0 0 0" />
      <geometry>
	<mesh filename="package://hrp2_14_description/meshes/LARM_LINK2.dae" />
      </geometry>
    </visual>
    <collision>
      <origin xyz="0 0 0" rpy="0 0 0" />
      <geometry>
	<mesh filename="package://hrp2_14_description/meshes/${collision_model}/LARM_LINK2.dae" />
      </geometry>
    </collision>
  </link>

  <joint name="LARM_JOINT3" type="revolute">
    <parent link="LARM_LINK2"/>
    <child link="LARM_LINK3"/>
    <origin xyz="0 0 -0.250" rpy="0 0 0" />
    <axis xyz="0 1 0" />
    <limit effort="108.5" velocity="2.23776" lower="-2.3911" upper="0.0349066" />
  </joint>

  <link name="LARM_LINK3">
    <inertial>
      <origin xyz="-0.00000927 0.01616837 -0.06270155" rpy="0 0 0" />
      <mass value="0.77724995"/>
      <inertia ixx="0.00232668" ixy="-0.00000007" ixz="-0.00000031"
	       iyy="0.00212476" iyz="-0.00015097" izz="0.00056363" />
    </inertial>
    <visual>
      <origin xyz="0 0 0" rpy="0 0 0" />
      <geometry>
	<mesh filename="package://hrp2_14_description/meshes/LARM_LINK3.dae" />
      </geometry>
    </visual>
    <collision>
      <origin xyz="0 0 0" rpy="0 0 0" />
      <geometry>
	<mesh filename="package://hrp2_14_description/meshes/${collision_model}/LARM_LINK3.dae" />
      </geometry>
    </collision>
  </link>

  <joint name="LARM_JOINT4" type="revolute">
    <parent link="LARM_LINK3"/>
    <child link="LARM_LINK4"/>
    <origin xyz="0 0 -0.250" rpy="0 0 0" />
    <axis xyz="0 0 1" />
    <limit effort="13.9" velocity="4.72794" lower="-1.6057" upper="1.6057" />
  </joint>

  <link name="LARM_LINK4">
    <inertial>
      <origin xyz="0.00247694 0.00361759 0.04149589" rpy="0 0 0" />
      <mass value="0.55466858" />
      <inertia ixx="0.00132103" ixy="0.00000930" ixz="-0.00003617"
	       iyy="0.00119868" iyz="0.00011959"
	       izz="0.00031664" />
    </inertial>
    <visual>
      <origin xyz="0 0 0" rpy="0 0 0" />
      <geometry>
	<mesh filename="package://hrp2_14_description/meshes/LARM_LINK4.dae" />
      </geometry>
    </visual>
    <collision>
      <origin xyz="0 0 0" rpy="0 0 0" />
      <geometry>
	<mesh filename="package://hrp2_14_description/meshes/${collision_model}/LARM_LINK4.dae" />
      </geometry>
    </collision>
  </link>

  <joint name="LARM_JOINT5" type="revolute">
    <parent link="LARM_LINK4"/>
    <child link="l_wrist"/>
    <origin xyz="0 0 0" rpy="0 0 0" />
    <axis xyz="0 1 0" />
    <limit effort="63.9" velocity="3.16727" lower="-1.6057" upper="1.6057" />
  </joint>

  <!-- VRML link name="LARM_LINK5" -->
  <link name="l_wrist">
    <inertial>
      <origin xyz="0.00017390 -0.00425750 -0.05829538" rpy="0 0 0" />
      <mass value="0.57381789"/>
      <inertia ixx="0.00093849" ixy="0.00000548" ixz="-0.00000817"
	       iyy="0.00102565" iyz="0.00003239"
	       izz="0.00045951" />
    </inertial>
    <visual>
      <origin xyz="0 0 0" rpy="0 0 0" />
      <geometry>
	<mesh filename="package://hrp2_14_description/meshes/LARM_LINK5_full.dae" />
      </geometry>
    </visual>
    <collision>
      <origin xyz="0 0 0" rpy="0 0 0" />
      <geometry>
	<mesh
	   filename="package://hrp2_14_description/meshes/${collision_model}/LARM_LINK5_full.dae" />
      </geometry>
    </collision>
  </link>

  <joint name="LARM_JOINT6" type="revolute">
    <parent link="l_wrist"/>
    <child link="LARM_LINK6"/>
    <origin xyz="0.0 -0.020 -0.095" rpy="0 0 0" />
    <axis xyz="-1 0 0" />
    <limit effort="0" velocity="5.68126" lower="-0.785398" upper="0.785398" />
  </joint>

  <link name="LARM_LINK6">
    <inertial>
      <origin xyz="0.01109799 -0.00179647 -0.00593392" rpy="0 0 0" />
      <mass value="0.08048559" />
      <inertia ixx="0.00003264" ixy="0.00000207" ixz="0.00000583"
	       iyy="0.00003628" iyz="-0.00000563"
	       izz="0.00001981" />
    </inertial>
    <visual>
      <origin xyz="0 0 0" rpy="0 0 3.141592654" />
      <geometry>
	<mesh filename="package://hrp2_14_description/meshes/LARM_LINK6.dae" />
      </geometry>
    </visual>
    <collision>
      <origin xyz="0 0 0" rpy="0 0 3.141592654" />
      <geometry>
	<mesh filename="package://hrp2_14_description/meshes/${collision_model}/LARM_LINK6.dae" />
      </geometry>
    </collision>
  </link>


  <!-- Sensors: accelerometer and gyro -->

</robot>
